6000.0
100.0
  0.060  
  0.070  
  0.100  
  0.125  
  0.155  
  0.185  
  0.210  
  0.240  
  0.245  
  0.225  
  0.180  
  0.140  
  0.090  
  0.055  
  0.030  
  0.025  
  0.010  
  0.015  
  0.005  
  0.015  
  0.005  
  0.015  
  0.000  
  0.020  
  0.005  
  0.015  
  0.005  
  0.010  
  0.000  
  0.010  
 -0.005  
  0.000  
 -0.015  
 -0.015  
 -0.020  
 -0.020  
 -0.030  
 -0.025  
 -0.040  
 -0.035  
 -0.045  
 -0.045  
 -0.045  
 -0.050  
 -0.050  
 -0.060  
 -0.065  
 -0.070  
 -0.065  
 -0.075  
 -0.075  
 -0.080  
 -0.080  
 -0.085  
 -0.085  
 -0.090  
 -0.085  
 -0.095  
 -0.090  
 -0.095  
 -0.090  
 -0.095  
 -0.095  
 -0.095  
 -0.095  
 -0.095  
 -0.100  
 -0.075  
 -0.035  
 -0.005  
 -0.055  
 -0.005  
 -0.050  
 -0.075  
 -0.110  
 -0.070  
 -0.080  
 -0.085  
 -0.090  
 -0.085  
 -0.085  
 -0.080  
 -0.085  
 -0.075  
 -0.090  
 -0.155  
 -0.020  
  0.355  
  1.015  
  1.035  
  0.590  
  0.265  
  0.070  
  0.000  
 -0.030  
 -0.045  
 -0.055  
 -0.055  
 -0.060  
 -0.055  
 -0.065  
 -0.060  
 -0.055  
 -0.060  
 -0.055  
 -0.050  
 -0.040  
 -0.040  
 -0.030  
 -0.020  
 -0.010  
  0.005  
  0.020  
  0.060  
  0.080  
  0.110  
  0.140  
  0.175  
  0.190  
  0.215  
  0.190  
  0.165  
  0.100  
  0.075  
  0.020  
  0.010  
 -0.005  
 -0.010  
 -0.015  
 -0.005  
 -0.015  
 -0.005  
 -0.020  
 -0.005  
 -0.015  
 -0.010  
 -0.020  
 -0.015  
 -0.020  
 -0.020  
 -0.025  
 -0.035  
 -0.030  
 -0.030  
 -0.030  
 -0.035  
 -0.035  
 -0.040  
 -0.040  
 -0.035  
 -0.040  
 -0.040  
 -0.040  
 -0.040  
 -0.040  
 -0.045  
 -0.040  
 -0.040  
 -0.045  
 -0.045  
 -0.040  
 -0.050  
 -0.040  
 -0.050  
 -0.045  
 -0.055  
 -0.050  
 -0.060  
 -0.055  
 -0.060  
 -0.055  
 -0.060  
 -0.065  
 -0.065  
 -0.065  
 -0.075  
 -0.050  
 -0.010  
  0.000  
 -0.020  
 -0.005  
 -0.025  
 -0.065  
 -0.095  
 -0.080  
 -0.070  
 -0.095  
 -0.105  
 -0.105  
 -0.115  
 -0.105  
 -0.115  
 -0.115  
 -0.125  
 -0.210  
 -0.085  
  0.095  
  0.765  
  1.050  
  0.625  
  0.255  
  0.085  
 -0.050  
 -0.080  
 -0.085  
 -0.110  
 -0.100  
 -0.105  
 -0.105  
 -0.100  
 -0.095  
 -0.090  
 -0.080  
 -0.080  
 -0.070  
 -0.065  
 -0.055  
 -0.050  
 -0.040  
 -0.030  
 -0.005  
  0.010  
  0.040  
  0.075  
  0.100  
  0.135  
  0.165  
  0.195  
  0.210  
  0.215  
  0.180  
  0.150  
  0.100  
  0.075  
  0.035  
  0.035  
  0.015  
  0.025  
  0.015  
  0.020  
  0.020  
  0.015  
  0.010  
  0.015  
  0.010  
  0.005  
  0.005  
  0.005  
  0.000  
  0.000  
  0.000  
 -0.010  
 -0.010  
 -0.020  
 -0.020  
 -0.025  
 -0.030  
 -0.040  
 -0.040  
 -0.045  
 -0.040  
 -0.045  
 -0.040  
 -0.045  
 -0.045  
 -0.045  
 -0.050  
 -0.045  
 -0.050  
 -0.055  
 -0.055  
 -0.055  
 -0.060  
 -0.065  
 -0.065  
 -0.065  
 -0.070  
 -0.060  
 -0.075  
 -0.065  
 -0.065  
 -0.070  
 -0.075  
 -0.075  
 -0.060  
 -0.010  
  0.005  
 -0.030  
  0.005  
 -0.030  
 -0.070  
 -0.100  
 -0.060  
 -0.065  
 -0.095  
 -0.095  
 -0.095  
 -0.100  
 -0.095  
 -0.100  
 -0.095  
 -0.105  
 -0.190  
 -0.060  
  0.205  
  0.905  
  1.050  
  0.630  
  0.260  
  0.070  
 -0.020  
 -0.055  
 -0.070  
 -0.085  
 -0.085  
 -0.095  
 -0.085  
 -0.090  
 -0.085  
 -0.090  
 -0.080  
 -0.075  
 -0.065  
 -0.060  
 -0.060  
 -0.055  
 -0.045  
 -0.035  
 -0.020  
  0.000  
  0.030  
  0.065  
  0.095  
  0.135  
  0.160  
  0.205  
  0.205  
  0.205  
  0.155  
  0.115  
  0.060  
  0.030  
  0.000  
 -0.005  
 -0.025  
 -0.025  
 -0.020  
 -0.015  
 -0.015  
 -0.010  
 -0.020  
 -0.005  
 -0.010  
  0.000  
 -0.005  
  0.000  
  0.000  
  0.000  
  0.000  
  0.000  
  0.005  
  0.000  
  0.000  
  0.000  
  0.000  
 -0.010  
  0.000  
 -0.005  
 -0.005  
 -0.010  
  0.000  
 -0.010  
  0.000  
 -0.010  
 -0.005  
 -0.015  
 -0.015  
 -0.025  
 -0.020  
 -0.030  
 -0.035  
 -0.045  
 -0.055  
 -0.060  
 -0.060  
 -0.065  
 -0.065  
 -0.065  
 -0.065  
 -0.065  
 -0.075  
 -0.045  
 -0.065  
 -0.045  
 -0.065  
 -0.045  
 -0.070  
 -0.055  
 -0.055  
 -0.055  
 -0.045  
 -0.015  
  0.030  
  0.080  
  0.030  
  0.100  
  0.040  
  0.020  
 -0.020  
  0.020  
  0.000  
 -0.005  
 -0.020  
 -0.010  
 -0.020  
 -0.015  
 -0.010  
  0.000  
 -0.025  
 -0.075  
  0.055  
  0.535  
  1.165  
  1.035  
  0.570  
  0.275  
  0.080  
  0.010  
 -0.010  
 -0.035  
 -0.040  
 -0.045  
 -0.045  
 -0.055  
 -0.060  
 -0.070  
 -0.070  
 -0.080  
 -0.095  
 -0.100  
 -0.110  
 -0.120  
 -0.130  
 -0.120  
 -0.130  
 -0.115  
 -0.105  
 -0.075  
 -0.065  
 -0.015  
  0.000  
  0.050  
  0.070  
  0.125  
  0.100  
  0.090  
  0.035  
  0.015  
 -0.025  
 -0.035  
 -0.045  
 -0.040  
 -0.040  
 -0.030  
 -0.025  
 -0.005  
  0.000  
  0.005  
  0.015  
  0.015  
  0.020  
  0.025  
  0.045  
  0.035  
  0.035  
  0.035  
  0.035  
  0.020  
  0.010  
  0.000  
 -0.005  
 -0.015  
 -0.020  
 -0.040  
 -0.050  
 -0.060  
 -0.065  
 -0.070  
 -0.075  
 -0.075  
 -0.090  
 -0.090  
 -0.105  
 -0.105  
 -0.125  
 -0.125  
 -0.140  
 -0.130  
 -0.145  
 -0.155  
 -0.155  
 -0.155  
 -0.170  
 -0.165  
 -0.180  
 -0.175  
 -0.185  
 -0.175  
 -0.175  
 -0.175  
 -0.155  
 -0.105  
 -0.080  
 -0.100  
 -0.065  
 -0.090  
 -0.125  
 -0.145  
 -0.115  
 -0.115  
 -0.125  
 -0.125  
 -0.120  
 -0.115  
 -0.115  
 -0.100  
 -0.120  
 -0.100  
 -0.225  
 -0.025  
  0.230  
  0.940  
  1.030  
  0.715  
  0.355  
  0.270  
  0.120  
  0.165  
  0.155  
  0.225  
  0.200  
  0.200  
  0.130  
  0.080  
 -0.020  
 -0.100  
 -0.215  
 -0.235  
 -0.335  
 -0.320  
 -0.355  
  0.115  
  1.100  
  0.655  
  0.370  
 -0.065  
 -0.830  
 -1.080  
 -1.255  
 -1.190  
 -1.175  
 -1.025  
 -1.010  
 -0.875  
 -0.895  
 -0.775  
 -0.795  
 -0.660  
 -0.660  
 -0.515  
 -0.500  
 -0.370  
 -0.320  
 -0.165  
 -0.005  
  0.230  
  0.675  
  0.935  
  1.010  
  0.235  
 -0.070  
 -0.385  
 -0.500  
 -0.525  
 -0.535  
 -0.425  
 -0.390  
 -0.240  
 -0.195  
 -0.060  
 -0.080  
  0.035  
 -0.030  
  0.105  
 -0.020  
  0.090  
 -0.120  
 -0.095  
 -0.330  
 -0.370  
 -0.515  
 -0.410  
 -0.315  
 -0.150  
  0.170  
  0.505  
  0.840  
  1.190  
  1.360  
  1.245  
  1.280  
  1.240  
  1.160  
  0.980  
  0.805  
  0.670  
  0.465  
  0.300  
  0.070  
  0.000  
 -0.150  
 -0.040  
 -0.060  
  0.125  
  0.125  
  0.375  
  0.365  
  0.600  
  0.555  
  0.765  
  0.665  
  0.680  
  0.625  
  0.865  
  0.880  
 -0.740  
 -1.025  
 -1.465  
 -1.545  
 -1.730  
 -1.660  
 -1.610  
 -1.445  
 -1.290  
 -1.260  
 -1.095  
 -0.940  
 -0.630  
 -0.745  
 -0.475  
 -0.665  
 -0.525  
 -0.680  
 -0.355  
 -0.485  
 -0.245  
 -0.330  
 -0.070  
 -0.040  
  0.175  
  0.255  
  0.350  
  0.450  
  0.475  
  0.590  
  0.645  
  0.595  
  0.590  
  0.445  
  0.380  
  0.255  
  0.290  
  0.170  
  0.185  
  0.095  
  0.130  
  0.020  
  0.045  
 -0.075  
 -0.045  
 -0.235  
 -0.205  
 -0.410  
 -0.360  
 -0.580  
 -0.520  
 -0.780  
 -0.805  
 -0.805  
 -0.645  
 -0.450  
 -0.330  
  0.080  
  0.030  
  0.450  
  0.180  
  0.485  
  0.315  
  0.530  
  0.360  
  0.495  
  0.355  
  0.430  
  0.290  
  0.365  
  0.295  
  0.350  
  0.300  
  0.310  
  0.255  
  0.435  
  0.440  
  0.210  
  0.295  
  0.295  
  0.350  
  0.340  
  0.415  
  0.340  
  0.360  
  0.250  
  0.280  
  0.240  
  0.300  
  0.275  
  0.315  
  0.310  
  0.335  
  0.320  
  0.275  
  0.345  
  0.260  
  0.255  
  0.165  
  0.185  
  0.085  
  0.115  
  0.020  
  0.055  
 -0.035  
 -0.085  
 -0.085  
  0.085  
  0.680  
  1.095  
  0.715  
  0.220  
 -0.015  
 -0.090  
 -0.160  
 -0.170  
 -0.175  
 -0.180  
 -0.145  
 -0.125  
 -0.150  
 -0.160  
 -0.095  
 -0.110  
 -0.025  
 -0.055  
 -0.025  
 -0.025  
  0.045  
  0.060  
  0.075  
  0.080  
  0.150  
  0.145  
  0.215  
  0.240  
  0.310  
  0.290  
  0.365  
  0.350  
  0.385  
  0.310  
  0.290  
  0.200  
  0.190  
  0.110  
  0.110  
  0.055  
  0.070  
  0.030  
  0.050  
  0.010  
  0.030  
  0.005  
  0.010  
 -0.010  
 -0.020  
 -0.035  
 -0.050  
 -0.060  
 -0.065  
 -0.065  
 -0.070  
 -0.070  
 -0.075  
 -0.075  
 -0.075  
 -0.080  
 -0.085  
 -0.075  
 -0.075  
 -0.065  
 -0.060  
 -0.040  
 -0.045  
 -0.010  
 -0.025  
  0.005  
 -0.005  
  0.005  
 -0.010  
  0.000  
 -0.030  
 -0.015  
 -0.045  
 -0.040  
 -0.060  
 -0.065  
 -0.080  
 -0.080  
 -0.085  
 -0.075  
 -0.085  
 -0.080  
 -0.095  
 -0.090  
 -0.100  
 -0.090  
 -0.095  
 -0.090  
 -0.100  
 -0.100  
 -0.115  
 -0.100  
 -0.120  
 -0.125  
 -0.165  
 -0.140  
 -0.190  
 -0.150  
 -0.185  
 -0.100  
 -0.180  
 -0.140  
 -0.225  
 -0.170  
 -0.325  
 -0.190  
 -0.320  
 -0.150  
 -0.360  
 -0.135  
 -0.365  
 -0.105  
 -0.365  
 -0.070  
 -0.360  
 -0.090  
 -0.380  
  0.150  
  0.920  
  1.150  
  0.980  
  0.280  
  0.255  
 -0.105  
  0.030  
 -0.175  
 -0.030  
 -0.205  
 -0.060  
 -0.205  
 -0.090  
 -0.205  
 -0.100  
 -0.205  
 -0.120  
 -0.195  
 -0.105  
 -0.190  
 -0.135  
 -0.195  
 -0.145  
 -0.185  
 -0.125  
 -0.150  
 -0.060  
 -0.075  
  0.005  
  0.005  
  0.085  
  0.080  
  0.135  
  0.105  
  0.105  
  0.060  
  0.040  
  0.020  
  0.015  
  0.035  
  0.040  
  0.075  
  0.095  
  0.115  
  0.135  
  0.130  
  0.165  
  0.160  
  0.175  
  0.150  
  0.175  
  0.135  
  0.165  
  0.085  
  0.115  
  0.080  
  0.130  
  0.125  
  0.160  
  0.135  
  0.160  
  0.145  
  0.165  
  0.160  
  0.165  
  0.140  
  0.130  
  0.130  
  0.120  
  0.125  
  0.115  
  0.120  
  0.120  
  0.120  
  0.140  
  0.150  
  0.130  
  0.125  
  0.130  
  0.135  
  0.145  
  0.155  
  0.190  
  0.175  
  0.200  
  0.175  
  0.200  
  0.150  
  0.200  
  0.145  
  0.160  
  0.090  
  0.115  
  0.100  
  0.110  
  0.010  
  0.015  
 -0.060  
 -0.145  
 -0.220  
 -0.260  
 -0.285  
 -0.340  
 -0.370  
 -0.385  
 -0.410  
 -0.460  
 -0.480  
 -0.500  
 -0.495  
 -0.575  
 -0.450  
 -0.260  
  0.415  
  0.765  
  0.385  
 -0.020  
 -0.150  
 -0.295  
 -0.325  
 -0.345  
 -0.365  
 -0.385  
 -0.390  
 -0.390  
 -0.430  
 -0.385  
 -0.435  
 -0.390  
 -0.445  
 -0.410  
 -0.465  
 -0.445  
 -0.515  
 -0.500  
 -0.500  
 -0.490  
 -0.450  
 -0.475  
 -0.425  
 -0.430  
 -0.370  
 -0.420  
 -0.310  
 -0.350  
 -0.235  
 -0.320  
 -0.240  
 -0.295  
 -0.245  
 -0.240  
 -0.200  
 -0.135  
 -0.050  
  0.035  
  0.100  
  0.165  
  0.230  
  0.275  
  0.330  
  0.390  
  0.425  
  0.470  
  0.535  
  0.610  
  0.690  
  0.810  
  0.890  
  0.960  
  0.975  
  1.005  
  0.995  
  0.980  
  0.950  
  0.915  
  0.840  
  0.780  
  0.675  
  0.600  
  0.485  
  0.375  
  0.290  
  0.200  
  0.135  
  0.075  
  0.025  
 -0.020  
 -0.050  
 -0.085  
 -0.105  
 -0.120  
 -0.115  
 -0.125  
 -0.110  
 -0.110  
 -0.095  
 -0.105  
 -0.090  
 -0.105  
 -0.095  
 -0.115  
 -0.105  
 -0.110  
 -0.055  
 -0.050  
 -0.100  
 -0.060  
 -0.105  
 -0.140  
 -0.155  
 -0.125  
 -0.120  
 -0.150  
 -0.135  
 -0.135  
 -0.120  
 -0.135  
 -0.120  
 -0.120  
 -0.125  
 -0.215  
 -0.075  
  0.215  
  0.905  
  0.980  
  0.560  
  0.200  
  0.005  
 -0.090  
 -0.145  
 -0.160  
 -0.180  
 -0.190  
 -0.195  
 -0.205  
 -0.210  
 -0.225  
 -0.235  
 -0.245  
 -0.255  
 -0.265  
 -0.275  
 -0.295  
 -0.300  
 -0.305  
 -0.315  
 -0.310  
 -0.310  
 -0.295  
 -0.295  
 -0.270  
 -0.265  
 -0.235  
 -0.235  
 -0.220  
 -0.255  
 -0.275  
 -0.345  
 -0.385  
 -0.420  
 -0.450  
 -0.465  
 -0.475  
 -0.485  
 -0.485  
 -0.490  
 -0.490  
 -0.485  
 -0.480  
 -0.480  
 -0.480  
 -0.480  
 -0.475  
 -0.480  
 -0.475  
 -0.475  
 -0.480  
 -0.480  
 -0.470  
 -0.490  
 -0.475  
 -0.475  
 -0.430  
 -0.320  
 -0.200  
 -0.040  
  0.125  
  0.300  
  0.495  
  0.710  
  0.850  
  1.035  
  1.135  
  1.260  
  1.320  
  1.395  
  1.410  
  1.420  
  1.405  
  1.380  
  1.315  
  1.260  
  1.150  
  1.060  
  0.950  
  0.870  
  0.775  
  0.695  
  0.580  
  0.510  
  0.385  
  0.310  
  0.250  
  0.195  
  0.145  
  0.100  
  0.065  
  0.040  
  0.025  
  0.005  
 -0.015  
 -0.025  
 -0.055  
 -0.055  
 -0.070  
 -0.060  
 -0.100  
 -0.070  
 -0.100  
 -0.005  
 -0.045  
 -0.065  
 -0.055  
 -0.070  
 -0.140  
 -0.155  
 -0.155  
 -0.145  
 -0.145  
 -0.110  
 -0.115  
 -0.075  
 -0.100  
 -0.080  
 -0.070  
 -0.120  
 -0.140  
 -0.010  
  0.545  
  1.095  
  0.845  
  0.385  
  0.160  
 -0.045  
 -0.100  
 -0.170  
 -0.170  
 -0.205  
 -0.185  
 -0.215  
 -0.205  
 -0.225  
 -0.210  
 -0.225  
 -0.215  
 -0.225  
 -0.205  
 -0.205  
 -0.200  
 -0.200  
 -0.195  
 -0.190  
 -0.180  
 -0.160  
 -0.140  
 -0.105  
 -0.080  
 -0.045  
 -0.015  
  0.010  
  0.025  
  0.030  
  0.005  
 -0.030  
 -0.080  
 -0.115  
 -0.145  
 -0.155  
 -0.165  
 -0.165  
 -0.155  
 -0.150  
 -0.135  
 -0.125  
 -0.110  
 -0.110  
 -0.085  
 -0.090  
 -0.080  
 -0.085  
 -0.065  
 -0.065  
 -0.065  
 -0.070  
 -0.065  
 -0.045  
 -0.055  
 -0.040  
 -0.050  
 -0.030  
 -0.035  
 -0.015  
 -0.025  
 -0.005  
  0.000  
  0.015  
  0.015  
  0.025  
  0.030  
  0.035  
  0.035  
  0.040  
  0.050  
  0.055  
  0.060  
  0.055  
  0.060  
  0.065  
  0.070  
  0.065  
  0.075  
  0.070  
  0.065  
  0.060  
  0.050  
  0.040  
  0.045  
  0.090  
  0.085  
  0.035  
  0.070  
  0.020  
 -0.030  
 -0.060  
 -0.050  
 -0.070  
 -0.095  
 -0.110  
 -0.115  
 -0.120  
 -0.125  
 -0.125  
 -0.125  
 -0.145  
 -0.210  
 -0.040  
  0.395  
  1.015  
  0.940  
  0.540  
  0.250  
  0.080  
  0.000  
 -0.020  
 -0.055  
 -0.065  
 -0.085  
 -0.090  
 -0.105  
 -0.100  
 -0.110  
 -0.090  
 -0.085  
 -0.075  
 -0.070  
 -0.050  
 -0.045  
 -0.035  
 -0.035  
 -0.015  
 -0.005  
  0.020  
  0.030  
  0.075  
  0.100  
  0.155  
  0.175  
  0.215  
  0.220  
  0.225  
  0.165  
  0.130  
  0.065  
  0.050  
  0.000  
  0.000  
 -0.030  
 -0.025  
 -0.055  
 -0.035  
 -0.045  
 -0.050  
 -0.045  
 -0.060  
 -0.045  
 -0.060  
 -0.035  
 -0.050  
 -0.030  
 -0.050  
 -0.045  
 -0.065  
 -0.065  
 -0.080  
 -0.080  
 -0.095  
 -0.085  
 -0.100  
 -0.095  
 -0.115  
 -0.115  
 -0.125  
 -0.115  
 -0.125  
 -0.110  
 -0.120  
 -0.095  
 -0.095  
 -0.075  
 -0.070  
 -0.040  
 -0.045  
 -0.025  
 -0.025  
 -0.005  
 -0.020  
 -0.005  
 -0.010  
 -0.010  
 -0.010  
 -0.015  
 -0.015  
 -0.025  
 -0.010  
 -0.030  
 -0.010  
 -0.035  
 -0.010  
 -0.035  
 -0.015  
 -0.045  
 -0.005  
 -0.005  
  0.050  
  0.015  
  0.010  
 -0.005  
 -0.040  
 -0.090  
 -0.080  
 -0.070  
 -0.075  
 -0.085  
 -0.075  
 -0.075  
 -0.060  
 -0.085  
 -0.070  
 -0.110  
 -0.195  
 -0.080  
  0.235  
  0.895  
  1.015  
  0.565  
  0.210  
  0.005  
 -0.060  
 -0.105  
 -0.095  
 -0.120  
 -0.095  
 -0.110  
 -0.080  
 -0.090  
 -0.065  
 -0.060  
 -0.040  
 -0.040  
 -0.020  
 -0.010  
  0.010  
  0.020  
  0.045  
  0.060  
  0.095  
  0.125  
  0.170  
  0.205  
  0.245  
  0.275  
  0.315  
  0.345  
  0.355  
  0.355  
  0.300  
  0.250  
  0.170  
  0.120  
  0.065  
  0.035  
  0.000  
  0.000  
 -0.010  
 -0.015  
 -0.005  
 -0.005  
  0.000  
  0.000  
  0.010  
  0.005  
  0.020  
  0.015  
  0.020  
  0.015  
  0.025  
  0.015  
  0.025  
  0.025  
  0.030  
  0.020  
  0.025  
  0.005  
  0.005  
 -0.005  
 -0.005  
 -0.015  
 -0.010  
 -0.030  
 -0.035  
 -0.040  
 -0.045  
 -0.055  
 -0.070  
 -0.085  
 -0.100  
 -0.115  
 -0.125  
 -0.135  
 -0.140  
 -0.150  
 -0.150  
 -0.160  
 -0.160  
 -0.160  
 -0.165  
 -0.165  
 -0.160  
 -0.165  
 -0.160  
 -0.165  
 -0.160  
 -0.165  
 -0.155  
 -0.160  
 -0.145  
 -0.150  
 -0.130  
 -0.140  
 -0.120  
 -0.125  
 -0.115  
 -0.100  
 -0.035  
 -0.025  
 -0.065  
 -0.015  
 -0.040  
 -0.085  
 -0.090  
 -0.065  
 -0.060  
 -0.090  
 -0.070  
 -0.085  
 -0.065  
 -0.080  
 -0.060  
 -0.085  
 -0.120  
 -0.105  
  0.035  
  0.680  
  1.190  
  0.860  
  0.370  
  0.170  
  0.000  
 -0.025  
 -0.045  
 -0.060  
 -0.055  
 -0.050  
 -0.030  
 -0.025  
 -0.015  
 -0.020  
 -0.010  
 -0.025  
 -0.030  
 -0.050  
 -0.055  
 -0.060  
 -0.055  
 -0.055  
 -0.035  
 -0.020  
  0.010  
  0.035  
  0.070  
  0.115  
  0.150  
  0.190  
  0.225  
  0.235  
  0.230  
  0.185  
  0.135  
  0.080  
  0.040  
  0.000  
 -0.030  
 -0.035  
 -0.020  
  0.000  
  0.020  
  0.035  
  0.065  
  0.070  
  0.100  
  0.105  
  0.115  
  0.120  
  0.150  
  0.160  
  0.185  
  0.190  
  0.210  
  0.200  
  0.210  
  0.195  
  0.200  
  0.185  
  0.180  
  0.160  
  0.160  
  0.145  
  0.135  
  0.100  
  0.095  
  0.045  
  0.025  
 -0.005  
 -0.020  
 -0.050  
 -0.065  
 -0.090  
 -0.105  
 -0.140  
 -0.150  
 -0.175  
 -0.180  
 -0.210  
 -0.220  
 -0.245  
 -0.245  
 -0.260  
 -0.265  
 -0.285  
 -0.270  
 -0.295  
 -0.280  
 -0.250  
 -0.205  
 -0.205  
 -0.175  
 -0.145  
 -0.170  
 -0.170  
 -0.130  
 -0.105  
 -0.090  
 -0.065  
 -0.020  
 -0.025  
  0.000  
  0.000  
  0.020  
  0.020  
 -0.050  
  0.095  
  0.360  
  1.005  
  1.170  
  0.760  
  0.405  
  0.245  
  0.115  
  0.090  
  0.080  
  0.060  
  0.055  
  0.040  
  0.055  
  0.055  
  0.070  
  0.065  
  0.085  
  0.070  
  0.080  
  0.075  
  0.120  
  0.125  
  0.115  
  0.090  
  0.085  
  0.075  
  0.085  
  0.080  
  0.095  
  0.100  
  0.115  
  0.120  
  0.125  
  0.120  
  0.065  
  0.010  
 -0.030  
 -0.090  
 -0.120  
 -0.150  
 -0.165  
 -0.190  
 -0.205  
 -0.205  
 -0.195  
 -0.200  
 -0.200  
 -0.215  
 -0.215  
 -0.220  
 -0.220  
 -0.225  
 -0.225  
 -0.235  
 -0.240  
 -0.255  
 -0.250  
 -0.265  
 -0.260  
 -0.270  
 -0.265  
 -0.275  
 -0.275  
 -0.280  
 -0.280  
 -0.290  
 -0.290  
 -0.295  
 -0.290  
 -0.290  
 -0.265  
 -0.275  
 -0.255  
 -0.260  
 -0.145  
 -0.065  
  0.015  
  0.080  
  0.160  
  0.210  
  0.290  
  0.325  
  0.375  
  0.375  
  0.410  
  0.430  
  0.455  
  0.415  
  0.385  
  0.345  
  0.265  
  0.200  
  0.165  
  0.130  
  0.085  
  0.025  
  0.020  
 -0.015  
 -0.015  
 -0.040  
 -0.035  
 -0.045  
 -0.125  
  0.005  
  0.265  
  0.935  
  1.110  
  0.685  
  0.300  
  0.095  
 -0.015  
 -0.050  
 -0.055  
 -0.065  
 -0.060  
 -0.060  
 -0.050  
 -0.050  
 -0.040  
 -0.040  
 -0.030  
 -0.040  
 -0.020  
 -0.025  
 -0.005  
 -0.005  
  0.010  
  0.025  
  0.055  
  0.075  
  0.120  
  0.150  
  0.185  
  0.200  
  0.235  
  0.250  
  0.280  
  0.270  
  0.240  
  0.180  
  0.130  
  0.070  
  0.030  
  0.005  
  0.000  
 -0.015  
 -0.005  
  0.000  
  0.030  
  0.020  
  0.035  
  0.025  
  0.040  
  0.040  
  0.070  
  0.075  
  0.095  
  0.105  
  0.115  
  0.105  
  0.100  
  0.080  
  0.085  
  0.080  
  0.090  
  0.090  
  0.095  
  0.080  
  0.055  
  0.040  
  0.025  
 -0.005  
 -0.015  
 -0.040  
 -0.045  
 -0.070  
 -0.085  
 -0.105  
 -0.090  
 -0.100  
 -0.105  
 -0.105  
 -0.100  
 -0.095  
 -0.075  
 -0.075  
 -0.065  
 -0.065  
 -0.050  
 -0.055  
 -0.030  
 -0.030  
 -0.015  
 -0.015  
 -0.005  
  0.000  
  0.005  
  0.005  
  0.020  
  0.015  
  0.015  
  0.000  
 -0.010  
 -0.030  
 -0.040  
 -0.065  
 -0.080  
 -0.105  
 -0.115  
 -0.115  
 -0.100  
 -0.140  
 -0.190  
 -0.200  
 -0.265  
 -0.305  
 -0.310  
 -0.290  
 -0.290  
 -0.300  
 -0.285  
 -0.310  
 -0.300  
 -0.320  
 -0.300  
 -0.325  
 -0.385  
 -0.250  
  0.145  
  0.815  
  0.860  
  0.405  
  0.115  
 -0.050  
 -0.115  
 -0.155  
 -0.155  
 -0.170  
 -0.165  
 -0.175  
 -0.160  
 -0.160  
 -0.150  
 -0.150  
 -0.135  
 -0.130  
 -0.120  
 -0.115  
 -0.100  
 -0.095  
 -0.080  
 -0.065  
 -0.045  
 -0.020  
  0.010  
  0.040  
  0.080  
  0.110  
  0.140  
  0.170  
  0.195  
  0.195  
  0.165  
  0.120  
  0.070  
  0.035  
  0.000  
 -0.025  
 -0.030  
 -0.050  
 -0.045  
 -0.060  
 -0.045  
 -0.050  
 -0.045  
 -0.045  
 -0.045  
 -0.050  
 -0.040  
 -0.050  
 -0.040  
 -0.050  
 -0.050  
 -0.055  
 -0.055  
 -0.055  
 -0.060  
 -0.055  
 -0.060  
 -0.055  
 -0.055  
 -0.060  
 -0.065  
 -0.060  
 -0.065  
 -0.065  
 -0.070  
 -0.070  
 -0.075  
 -0.070  
 -0.075  
 -0.070  
 -0.075  
 -0.060  
 -0.075  
 -0.070  
 -0.085  
 -0.075  
 -0.085  
 -0.085  
 -0.095  
 -0.085  
 -0.095  
 -0.085  
 -0.090  
 -0.080  
 -0.085  
 -0.075  
 -0.080  
 -0.065  
 -0.065  
 -0.065  
 -0.070  
 -0.040  
  0.000  
  0.025  
  0.005  
  0.025  
  0.005  
 -0.035  
 -0.055  
 -0.050  
 -0.035  
 -0.060  
 -0.055  
 -0.065  
 -0.065  
 -0.075  
 -0.075  
 -0.080  
 -0.085  
 -0.195  
 -0.030  
  0.285  
  1.000  
  1.075  
  0.675  
  0.305  
  0.135  
  0.040  
  0.030  
  0.005  
  0.015  
  0.005  
  0.000  
 -0.010  
 -0.030  
 -0.075  
 -0.055  
 -0.040  
 -0.030  
 -0.020  
  0.000  
  0.000  
  0.015  
  0.015  
  0.030  
  0.035  
  0.060  
  0.070  
  0.110  
  0.140  
  0.160  
  0.215  
  0.250  
  0.285  
  0.265  
  0.225  
  0.175  
  0.135  
  0.105  
  0.075  
  0.065  
  0.065  
  0.060  
  0.075  
  0.070  
  0.075  
  0.065  
  0.065  
  0.040  
  0.045  
  0.020  
  0.025  
  0.010  
  0.020  
  0.010  
  0.015  
 -0.005  
 -0.025  
 -0.025  
 -0.030  
 -0.020  
 -0.030  
 -0.025  
 -0.025  
 -0.025  
 -0.035  
 -0.050  
 -0.060  
 -0.060  
 -0.075  
 -0.035  
 -0.045  
 -0.015  
 -0.025  
  0.000  
 -0.010  
  0.020  
  0.020  
  0.035  
  0.035  
  0.035  
  0.025  
  0.030  
  0.020  
  0.015  
  0.000  
  0.000  
 -0.015  
 -0.015  
 -0.030  
 -0.030  
 -0.055  
 -0.055  
 -0.070  
 -0.035  
 -0.005  
  0.010  
 -0.045  
  0.000  
 -0.050  
 -0.085  
 -0.120  
 -0.090  
 -0.105  
 -0.135  
 -0.115  
 -0.150  
 -0.140  
 -0.160  
 -0.150  
 -0.175  
 -0.205  
 -0.240  
 -0.090  
  0.450  
  1.035  
  0.790  
  0.355  
  0.085  
 -0.120  
 -0.200  
 -0.195  
 -0.230  
 -0.205  
 -0.215  
 -0.180  
 -0.185  
 -0.150  
 -0.145  
 -0.125  
 -0.105  
 -0.095  
 -0.055  
 -0.060  
 -0.010  
 -0.010  
  0.040  
  0.025  
  0.090  
  0.075  
  0.155  
  0.150  
  0.220  
  0.225  
  0.285  
  0.280  
  0.315  
  0.275  
  0.255  
  0.185  
  0.145  
  0.100  
  0.070  
  0.040  
  0.030  
  0.010  
  0.000  
 -0.025  
 -0.030  
 -0.050  
 -0.055  
 -0.080  
 -0.080  
 -0.105  
 -0.105  
 -0.135  
 -0.130  
 -0.150  
 -0.155  
 -0.165  
 -0.165  
 -0.165  
 -0.165  
 -0.155  
 -0.155  
 -0.150  
 -0.145  
 -0.135  
 -0.125  
 -0.110  
 -0.100  
 -0.085  
 -0.080  
 -0.065  
 -0.065  
 -0.050  
 -0.050  
 -0.040  
 -0.040  
 -0.030  
 -0.025  
 -0.015  
 -0.020  
 -0.010  
 -0.030  
 -0.020  
 -0.050  
 -0.040  
 -0.055  
 -0.050  
 -0.065  
 -0.045  
  0.050  
  0.110  
  0.110  
  0.145  
  0.140  
  0.180  
  0.160  
  0.175  
  0.165  
  0.170  
  0.175  
  0.155  
  0.085  
  0.085  
  0.035  
 -0.035  
 -0.065  
 -0.065  
 -0.070  
 -0.120  
 -0.120  
 -0.150  
 -0.145  
 -0.155  
 -0.135  
 -0.155  
 -0.180  
 -0.230  
 -0.070  
  0.465  
  1.090  
  0.865  
  0.435  
  0.170  
  0.010  
 -0.040  
 -0.035  
 -0.060  
 -0.040  
 -0.055  
 -0.025  
 -0.050  
 -0.035  
 -0.060  
 -0.050  
 -0.070  
 -0.075  
 -0.095  
 -0.095  
 -0.115  
 -0.115  
 -0.140  
 -0.120  
 -0.130  
 -0.115  
 -0.115  
 -0.085  
 -0.070  
 -0.035  
 -0.010  
  0.025  
  0.040  
  0.040  
  0.015  
 -0.015  
 -0.050  
 -0.060  
 -0.085  
 -0.070  
 -0.070  
 -0.045  
 -0.030  
  0.000  
  0.015  
  0.050  
  0.070  
  0.105  
  0.125  
  0.150  
  0.170  
  0.200  
  0.205  
  0.230  
  0.225  
  0.255  
  0.250  
  0.270  
  0.275  
  0.295  
  0.285  
  0.290  
  0.285  
  0.290  
  0.270  
  0.265  
  0.235  
  0.240  
  0.210  
  0.210  
  0.180  
  0.185  
  0.150  
  0.145  
  0.115  
  0.105  
  0.070  
  0.055  
  0.020  
  0.010  
 -0.020  
 -0.030  
 -0.060  
 -0.055  
 -0.100  
 -0.075  
 -0.120  
 -0.090  
 -0.130  
 -0.105  
 -0.130  
 -0.095  
 -0.125  
 -0.100  
 -0.145  
 -0.110  
 -0.100  
 -0.050  
 -0.050  
 -0.060  
 -0.035  
 -0.055  
 -0.080  
 -0.055  
 -0.035  
 -0.045  
 -0.065  
 -0.035  
 -0.065  
 -0.050  
 -0.065  
 -0.060  
 -0.090  
 -0.175  
 -0.055  
  0.255  
  0.910  
  1.045  
  0.605  
  0.235  
  0.035  
 -0.070  
 -0.115  
 -0.140  
 -0.165  
 -0.155  
 -0.175  
 -0.180  
 -0.195  
 -0.195  
 -0.205  
 -0.200  
 -0.190  
 -0.205  
 -0.175  
 -0.175  
 -0.135  
 -0.155  
 -0.115  
 -0.120  
 -0.070  
 -0.070  
 -0.010  
  0.005  
  0.060  
  0.070  
  0.125  
  0.145  
  0.160  
  0.125  
  0.100  
  0.065  
  0.035  
  0.000  
  0.015  
  0.005  
  0.005  
  0.015  
  0.015  
  0.035  
  0.025  
  0.060  
  0.045  
  0.080  
  0.060  
  0.085  
  0.070  
  0.100  
  0.085  
  0.105  
  0.095  
  0.115  
  0.105  
  0.130  
  0.115  
  0.120  
  0.130  
  0.130  
  0.120  
  0.130  
  0.130  
  0.125  
  0.130  
  0.120  
  0.135  
  0.130  
  0.145  
  0.130  
  0.130  
  0.095  
  0.100  
  0.065  
  0.050  
  0.035  
  0.020  
  0.035  
 -0.020  
 -0.010  
 -0.075  
 -0.060  
 -0.130  
 -0.120  
 -0.195  
 -0.180  
 -0.205  
 -0.150  
 -0.205  
 -0.225  
 -0.260  
 -0.270  
 -0.385  
 -0.355  
 -0.410  
 -0.380  
 -0.485  
 -0.435  
 -0.525  
 -0.480  
 -0.575  
 -0.515  
 -0.605  
 -0.635  
 -0.640  
 -0.430  
  0.135  
  0.545  
  0.105  
 -0.300  
 -0.570  
 -0.685  
 -0.800  
 -0.790  
 -0.870  
 -0.870  
 -0.930  
 -0.930  
 -0.965  
 -0.980  
 -0.985  
 -0.975  
 -0.970  
 -0.950  
 -0.925  
 -0.900  
 -0.860  
 -0.865  
 -0.890  
 -0.940  
 -1.025  
 -1.110  
 -1.200  
 -1.310  
 -1.430  
 -1.515  
 -1.625  
 -1.700  
 -1.830  
 -1.935  
 -2.095  
 -2.230  
 -2.410  
 -2.540  
 -2.700  
 -2.790  
 -2.920  
 -2.970  
 -3.075  
 -3.115  
 -3.175  
 -3.175  
 -3.195  
 -3.135  
 -3.115  
 -3.040  
 -2.985  
 -2.875  
 -2.740  
 -2.530  
 -2.395  
 -2.290  
 -2.330  
 -2.380  
 -2.430  
 -2.430  
 -2.565  
 -2.605  
 -2.760  
 -2.780  
 -2.865  
 -2.800  
 -2.755  
 -2.660  
 -2.525  
 -2.280  
 -2.075  
 -1.800  
 -1.610  
 -1.075  
 -0.725  
 -0.265  
  0.185  
  0.845  
  1.340  
  2.005  
  2.600  
  2.950  
  3.925  
  4.575  
  5.065  
  5.815  
  6.590  
  7.670  
  7.970  
  8.930  
  9.250  
  8.995  
  8.880  
  8.915  
  8.990  
  8.795  
  9.180  
  9.440  
  9.320  
  8.685  
  7.930  
  7.310  
  6.740  
  6.185  
  5.490  
  4.905  
  3.695  
  2.955  
  2.110  
  1.650  
  0.930  
  0.035  
 -1.145  
 -2.085  
 -2.820  
 -3.185  
 -3.215  
 -3.175  
 -3.380  
 -3.540  
 -3.380  
 -2.990  
 -2.070  
 -1.210  
 -1.190  
 -1.485  
 -1.600  
 -1.845  
 -1.830  
 -1.975  
 -2.235  
 -2.475  
 -2.435  
 -2.595  
 -2.495  
 -2.610  
 -2.245  
 -2.305  
 -1.925  
 -1.855  
 -1.725  
 -1.670  
 -1.425  
 -0.790  
 -0.440  
 -0.710  
 -0.370  
 -0.710  
 -0.255  
 -0.505  
 -0.155  
 -0.345  
 -0.010  
 -0.145  
 -0.165  
 -0.145  
 -0.115  
 -0.095  
 -0.100  
 -0.075  
 -0.095  
 -0.035  
 -0.065  
  0.015  
 -0.050  
  0.065  
 -0.050  
  0.105  
 -0.045  
  0.145  
 -0.010  
  0.195  
  0.055  
  0.265  
  0.125  
  0.330  
  0.185  
  0.380  
  0.235  
  0.435  
  0.310  
  0.465  
  0.340  
  0.425  
  0.375  
  0.395  
  0.460  
  0.440  
  0.570  
  0.445  
  0.635  
  0.410  
  0.615  
  0.350  
  0.645  
  0.360  
  0.615  
  0.330  
  0.540  
  0.320  
  0.435  
  0.345  
  0.375  
  0.350  
  0.300  
  0.295  
  0.220  
  0.270  
  0.140  
  0.220  
  0.060  
  0.140  
 -0.050  
  0.025  
 -0.170  
 -0.095  
 -0.305  
 -0.190  
 -0.360  
 -0.180  
 -0.295  
 -0.140  
 -0.310  
 -0.135  
 -0.280  
 -0.215  
 -0.305  
 -0.215  
 -0.275  
 -0.245  
 -0.275  
 -0.290  
 -0.265  
 -0.320  
 -0.240  
 -0.375  
 -0.305  
 -0.340  
  0.265  
  0.670  
  0.880  
  0.205  
  0.150  
 -0.270  
 -0.115  
 -0.355  
 -0.150  
 -0.290  
 -0.070  
 -0.135  
  0.035  
 -0.015  
  0.055  
  0.000  
  0.060  
  0.060  
  0.170  
  0.200  
  0.205  
  0.225  
  0.175  
  0.220  
  0.140  
  0.225  
  0.105  
  0.255  
  0.160  
  0.325  
  0.260  
  0.445  
  0.410  
  0.530  
  0.445  
  0.510  
  0.420  
  0.480  
  0.410  
  0.475  
  0.445  
  0.520  
  0.505  
  0.565  
  0.550  
  0.605  
  0.610  
  0.665  
  0.685  
  0.700  
  0.745  
  0.755  
  0.805  
  0.820  
  0.865  
  0.860  
  0.880  
  0.910  
  0.910  
  0.950  
  0.915  
  0.990  
  0.885  
  0.980  
  0.850  
  0.980  
  0.850  
  0.980  
  0.850  
  0.995  
  0.860  
  1.015  
  0.875  
  1.035  
  0.895  
  1.045  
  0.905  
  1.020  
  0.870  
  0.955  
  0.795  
  0.850  
  0.700  
  0.720  
  0.590  
  0.640  
  0.525  
  0.490  
  0.370  
  0.345  
  0.160  
  0.155  
  0.030  
  0.020  
 -0.150  
 -0.195  
 -0.320  
 -0.355  
 -0.445  
 -0.435  
 -0.420  
 -0.395  
 -0.415  
 -0.260  
  0.250  
  0.925  
  1.180  
  0.785  
  0.805  
  0.715  
  1.030  
  0.755  
  0.815  
  0.210  
  0.175  
 -0.320  
 -0.135  
 -0.380  
  0.155  
  0.370  
  1.265  
  1.930  
  2.875  
  3.445  
  3.980  
  4.560  
  4.985  
  5.420  
  5.345  
  5.205  
  4.885  
  4.505  
  4.050  
  3.635  
  2.950  
  2.700  
  2.340  
  2.335  
  1.725  
  1.300  
  0.800  
  0.615  
  0.330  
  0.235  
 -0.320  
 -0.765  
 -1.055  
 -0.895  
 -0.725  
 -1.030  
  0.065  
  0.410  
  0.945  
  1.795  
  2.850  
  3.310  
  4.885  
  4.890  
  6.315  
  5.610  
  6.050  
  5.200  
  6.630  
  5.455  
  6.315  
  5.360  
  7.275  
  6.590  
  8.385  
  8.125  
  8.895  
  7.045  
  8.825  
  7.375  
  6.990  
  3.545  
  0.895  
 -0.865  
 -1.125  
 -6.135  
 -7.215  
  8.885  
 10.120  
  4.510  
  2.635  
 -0.280  
 -9.845  
  9.815  
 -9.785  
  9.760  
 -9.735  
  9.710  
 -9.685  
  9.670  
 -9.650  
  9.635  
 -9.620  
  9.610  
 -9.600  
  9.595  
 -9.590  
  9.590  
 -9.585  
  9.590  
 -9.590  
  0.710  
  4.265  
  4.405  
 -8.305  
  2.360  
 -6.590  
  9.665  
 -9.680  
  9.695  
 -9.710  
  9.725  
 -9.745  
  9.760  
 -9.780  
  9.795  
 -9.815  
 -1.095  
 -3.445  
 -5.455  
 -7.185  
 -8.685  
  9.845  
  8.195  
  7.085  
  5.815  
  4.510  
  3.785  
  2.760  
  2.205  
  1.475  
  1.460  
  0.850  
  0.710  
  0.130  
  0.285  
 -0.135  
 -0.035  
 -0.425  
 -0.330  
 -0.855  
 -0.625  
 -0.845  
 -0.565  
 -0.975  
 -0.735  
 -1.060  
 -0.845  
 -1.110  
 -0.775  
 -1.045  
 -0.800  
 -0.950  
 -0.675  
 -0.855  
 -0.640  
 -0.755  
 -0.560  
 -0.635  
 -0.405  
 -0.395  
 -0.365  
 -0.150  
 -0.160  
 -0.095  
  0.070  
 -0.050  
 -0.180  
 -0.210  
 -0.330  
 -0.300  
 -0.405  
 -0.335  
 -0.410  
 -0.230  
 -0.310  
 -0.130  
 -0.230  
 -0.125  
 -0.185  
 -0.040  
 -0.110  
 -0.020  
 -0.040  
  0.135  
  0.180  
  0.315  
  0.290  
  0.330  
  0.415  
  0.525  
  0.615  
  0.550  
  0.620  
  0.565  
  0.715  
  0.760  
  0.455  
  0.235  
  0.195  
  0.050  
  0.095  
 -0.045  
 -0.035  
 -0.190  
 -0.205  
 -0.390  
 -0.385  
 -0.385  
 -0.310  
 -0.340  
 -0.340  
 -0.330  
 -0.360  
 -0.450  
 -0.390  
 -0.350  
 -0.370  
 -0.420  
 -0.380  
 -0.375  
 -0.355  
 -0.320  
 -0.275  
 -0.240  
 -0.270  
 -0.220  
 -0.045  
  0.575  
  1.085  
  0.755  
  0.410  
  0.270  
  0.200  
  0.175  
  0.265  
  0.220  
  0.320  
  0.275  
  0.370  
  0.290  
  0.370  
  0.255  
  0.315  
  0.195  
  0.245  
  0.120  
  0.145  
  0.025  
  0.025  
 -0.055  
 -0.080  
 -0.130  
 -0.115  
 -0.075  
 -0.050  
  0.015  
  0.005  
  0.095  
  0.085  
  0.170  
  0.115  
  0.170  
  0.030  
  0.075  
 -0.060  
  0.065  
  0.050  
  0.280  
 -0.090  
 -0.025  
 -0.240  
 -0.125  
 -0.205  
 -0.155  
 -0.075  
 -0.255  
 -0.370  
 -0.685  
 -0.590  
 -0.600  
 -0.705  
 -0.790  
 -0.740  
 -0.660  
 -0.585  
 -0.630  
 -0.740  
 -0.695  
 -0.600  
 -0.675  
 -0.590  
 -0.700  
 -0.480  
 -0.630  
 -0.330  
 -0.490  
 -0.090  
 -0.360  
  0.020  
 -0.280  
 -0.035  
 -0.265  
 -0.105  
 -0.220  
 -0.295  
 -0.390  
 -0.405  
 -0.375  
 -0.320  
 -0.165  
  0.015  
  0.375  
  0.610  
  0.940  
  1.170  
  1.290  
  1.075  
  1.060  
  0.770  
  0.735  
  0.475  
  0.525  
  0.445  
  0.555  
  0.470  
  0.490  
  0.290  
  0.405  
  0.710  
  1.270  
  1.180  
  0.780  
  0.395  
  0.215  
  0.070  
  0.040  
 -0.025  
 -0.040  
 -0.070  
 -0.085  
 -0.120  
 -0.095  
 -0.080  
 -0.035  
 -0.080  
 -0.055  
 -0.025  
 -0.080  
 -0.080  
 -0.125  
 -0.125  
 -0.135  
 -0.080  
 -0.080  
  0.005  
  0.020  
  0.115  
  0.130  
  0.225  
  0.265  
  0.395  
  0.345  
  0.425  
  0.335  
  0.350  
  0.255  
  0.305  
  0.245  
  0.270  
  0.195  
  0.280  
  0.240  
  0.335  
  0.260  
  0.330  
  0.225  
  0.285  
  0.215  
  0.230  
  0.220  
  0.280  
  0.225  
  0.285  
  0.245  
  0.275  
  0.245  
  0.230  
  0.215  
  0.140  
  0.145  
  0.050  
  0.075  
 -0.020  
 -0.025  
 -0.075  
 -0.085  
 -0.145  
 -0.180  
 -0.215  
 -0.225  
 -0.195  
 -0.230  
 -0.205  
 -0.230  
 -0.100  
 -0.265  
 -0.265  
 -0.325  
 -0.260  
 -0.415  
 -0.265  
 -0.455  
 -0.290  
 -0.465  
 -0.260  
 -0.435  
 -0.210  
 -0.405  
 -0.180  
 -0.410  
 -0.185  
 -0.440  
 -0.245  
 -0.510  
 -0.325  
 -0.575  
 -0.430  
 -0.645  
 -0.520  
 -0.665  
 -0.660  
 -0.575  
 -0.685  
 -0.910  
 -1.325  
 -1.070  
 -1.065  
 -0.675  
 -0.870  
 -0.430  
 -0.600  
 -0.170  
 -0.465  
 -0.135  
 -0.565  
 -0.175  
 -0.380  
  0.590  
  0.600  
  0.485  
 -0.335  
 -0.265  
 -0.725  
 -0.515  
 -0.870  
 -0.665  
 -0.965  
 -0.730  
 -0.985  
 -0.720  
 -0.650  
 -0.195  
  0.040  
  0.150  
  0.330  
  0.255  
  0.430  
  0.325  
  0.510  
  0.335  
  0.530  
  0.335  
  0.500  
  0.315  
  0.480  
  0.325  
  0.500  
  0.390  
  0.545  
  0.440  
  0.565  
  0.480  
  0.550  
  0.465  
  0.475  
  0.330  
  0.295  
  0.225  
  0.210  
  0.120  
  0.110  
  0.025  
  0.030  
 -0.030  
 -0.015  
 -0.085  
 -0.100  
 -0.160  
 -0.185  
 -0.250  
 -0.265  
 -0.315  
 -0.345  
 -0.390  
 -0.415  
 -0.450  
 -0.465  
 -0.460  
 -0.450  
 -0.400  
 -0.370  
 -0.290  
 -0.250  
 -0.140  
 -0.115  
  0.065  
  0.220  
  0.470  
  0.215  
  0.305  
  0.200  
  0.345  
  0.335  
  0.495  
  0.350  
  0.385  
  0.210  
  0.210  
  0.100  
  0.155  
  0.120  
  0.180  
  0.170  
  0.200  
  0.215  
  0.210  
  0.230  
  0.210  
  0.245  
  0.200  
  0.240  
  0.175  
  0.210  
  0.125  
  0.145  
  0.060  
  0.120  
  0.090  
  0.140  
  0.035  
  0.110  
 -0.005  
  0.020  
 -0.055  
  0.005  
 -0.080  
 -0.060  
 -0.120  
 -0.090  
 -0.130  
 -0.105  
 -0.135  
 -0.180  
 -0.295  
 -0.200  
 -0.085  
  0.595  
  0.980  
  0.590  
  0.125  
 -0.050  
 -0.200  
 -0.205  
 -0.230  
 -0.200  
 -0.200  
 -0.130  
 -0.100  
 -0.035  
  0.000  
  0.050  
  0.090  
  0.145  
  0.195  
  0.235  
  0.290  
  0.310  
  0.385  
  0.390  
  0.465  
  0.440  
  0.505  
  0.480  
  0.540  
  0.505  
  0.550  
  0.515  
  0.545  
  0.495  
  0.480  
  0.380  
  0.360  
  0.275  
  0.270  
  0.200  
  0.195  
  0.140  
  0.140  
  0.120  
  0.130  
  0.105  
  0.075  
  0.060  
  0.040  
  0.035  
 -0.010  
 -0.005  
 -0.065  
 -0.040  
 -0.110  
 -0.050  
 -0.075  
  0.010  
 -0.025  
  0.060  
  0.005  
  0.070  
 -0.010  
  0.055  
 -0.005  
  0.080  
  0.000  
  0.035  
 -0.060  
 -0.075  
 -0.190  
 -0.235  
 -0.320  
 -0.380  
 -0.400  
 -0.430  
 -0.375  
 -0.410  
 -0.350  
 -0.395  
 -0.300  
 -0.345  
 -0.255  
 -0.305  
 -0.195  
 -0.200  
 -0.095  
 -0.210  
 -0.140  
 -0.285  
 -0.300  
 -0.470  
  0.060  
 -0.335  
 -0.050  
 -0.400  
 -0.100  
 -0.320  
  0.000  
 -0.270  
  0.005  
 -0.090  
 -0.250  
 -0.180  
  0.165  
  0.885  
  1.050  
  0.850  
  0.560  
  0.610  
  0.340  
  0.480  
  0.170  
  0.280  
  0.015  
  0.175  
 -0.025  
  0.160  
  0.000  
  0.190  
  0.085  
  0.255  
  0.195  
  0.350  
  0.255  
  0.345  
  0.285  
  0.360  
  0.355  
  0.465  
  0.655  
  0.525  
  0.495  
  0.460  
  0.440  
  0.435  
  0.415  
  0.355  
  0.315  
  0.260  
  0.285  
  0.145  
  0.050  
 -0.015  
 -0.045  
 -0.035  
 -0.145  
 -0.220  
 -0.325  
 -0.415  
 -0.450  
 -0.490  
 -0.445  
 -0.450  
 -0.395  
 -0.445  
 -0.395  
 -0.430  
 -0.335  
 -0.255  
 -0.145  
 -0.200  
 -0.105  
 -0.135  
 -0.065  
  0.035  
  0.125  
  0.180  
  0.295  
  0.400  
  0.515  
  0.525  
  0.555  
  0.720  
  0.635  
  0.705  
  0.605  
  0.775  
  0.720  
  0.940  
  0.850  
  0.975  
  0.830  
  1.010  
  0.780  
  0.915  
  0.725  
  0.855  
  0.645  
  0.745  
  0.505  
  0.640  
  0.360  
  0.530  
  0.320  
  0.560  
  0.340  
  0.530  
  0.200  
  0.485  
  0.185  
  0.370  
 -0.015  
  0.205  
 -0.165  
  0.065  
 -0.230  
  0.015  
 -0.220  
  0.155  
 -0.115  
  0.190  
 -0.185  
  0.355  
  0.380  
  1.520  
  1.330  
  1.285  
  0.520  
  0.580  
 -0.020  
 -0.035  
 -0.330  
  0.110  
 -0.090  
  0.230  
  0.035  
  0.385  
  0.120  
  0.380  
  0.005  
  0.235  
 -0.055  
  0.115  
 -0.075  
 -0.085  
  0.005  
  0.035  
  0.130  
  0.050  
  0.015  
  0.000  
 -0.015  
  0.065  
  0.065  
  0.265  
  0.205  
  0.285  
  0.195  
  0.165  
  0.130  
  0.095  
  0.065  
  0.000  
 -0.050  
 -0.185  
 -0.145  
 -0.210  
 -0.210  
 -0.295  
 -0.305  
 -0.285  
 -0.395  
 -0.365  
 -0.495  
 -0.475  
 -0.615  
 -0.580  
 -0.745  
 -0.770  
 -0.910  
 -0.935  
 -0.955  
 -0.905  
 -0.940  
 -0.920  
 -0.925  
 -0.930  
 -0.900  
 -0.905  
 -0.855  
 -0.915  
 -0.810  
 -0.915  
 -0.790  
 -0.955  
 -0.815  
 -1.005  
 -0.820  
 -1.035  
 -0.830  
 -1.045  
 -0.825  
 -1.065  
 -0.820  
 -1.055  
 -0.805  
 -0.995  
 -0.745  
 -0.900  
 -0.660  
 -0.745  
 -0.525  
 -0.545  
 -0.375  
 -0.375  
 -0.280  
 -0.250  
 -0.200  
 -0.205  
 -0.180  
 -0.210  
 -0.185  
 -0.210  
 -0.195  
 -0.205  
 -0.210  
 -0.260  
 -0.295  
 -0.320  
 -0.375  
 -0.440  
 -0.490  
 -0.625  
 -0.610  
 -0.770  
 -0.625  
 -0.860  
 -0.730  
 -1.010  
 -0.795  
 -1.260  
 -0.885  
 -1.380  
 -0.875  
 -1.550  
 -0.895  
 -1.640  
 -0.820  
 -1.665  
 -0.675  
 -1.600  
 -0.565  
 -1.410  
  0.135  
 -0.150  
  1.455  
  0.015  
  1.170  
  0.050  
  1.430  
  0.790  
  1.385  
  1.370  
  1.160  
  1.615  
  0.990  
  1.590  
  0.780  
  1.370  
  0.465  
  0.915  
  0.000  
  0.440  
 -0.230  
  0.315  
 -0.250  
  0.210  
 -0.250  
  0.140  
 -0.185  
  0.075  
 -0.135  
  0.175  
  0.050  
  0.265  
  0.310  
  0.435  
  0.350  
  0.290  
  0.145  
  0.075  
  0.040  
  0.000  
 -0.080  
 -0.145  
 -0.155  
 -0.230  
 -0.220  
 -0.375  
 -0.275  
 -0.450  
 -0.230  
 -0.200  
  0.210  
  0.255  
  0.440  
  0.475  
  0.560  
  0.610  
  0.630  
  0.695  
  0.695  
  0.750  
  0.720  
  0.820  
  0.770  
  0.855  
  0.750  
  0.880  
  0.755  
  0.875  
  0.725  
  0.840  
  0.665  
  0.800  
  0.605  
  0.785  
  0.570  
  0.745  
  0.520  
  0.710  
  0.435  
  0.650  
  0.360  
  0.605  
  0.310  
  0.575  
  0.255  
  0.520  
  0.170  
  0.460  
  0.110  
  0.365  
  0.015  
  0.235  
 -0.130  
 -0.080  
 -0.150  
  0.185  
  0.120  
  0.370  
  0.330  
  0.580  
  0.420  
  0.750  
  0.505  
  0.715  
  0.145  
  0.225  
 -0.195  
 -0.225  
 -0.555  
 -0.750  
 -0.670  
 -0.765  
 -0.710  
 -0.865  
 -0.775  
 -0.890  
 -0.605  
 -0.090  
  0.625  
  0.220  
 -0.070  
 -0.325  
 -0.355  
 -0.395  
 -0.360  
 -0.355  
 -0.345  
 -0.310  
 -0.355  
 -0.325  
 -0.380  
 -0.370  
 -0.460  
 -0.435  
 -0.425  
 -0.335  
 -0.345  
 -0.225  
 -0.205  
 -0.090  
 -0.045  
  0.010  
  0.055  
  0.155  
  0.180  
  0.205  
  0.225  
  0.270  
  0.230  
  0.235  
  0.175  
  0.120  
  0.025  
  0.000  
 -0.090  
 -0.120  
 -0.090  
 -0.265  
 -0.075  
 -0.300  
 -0.140  
 -0.335  
 -0.150  
 -0.150  
 -0.175  
 -0.070  
 -0.140  
 -0.075  
 -0.190  
 -0.225  
 -0.150  
 -0.240  
 -0.145  
 -0.010  
 -0.095  
 -0.005  
 -0.085  
  0.075  
  0.000  
  0.055  
 -0.110  
 -0.005  
 -0.155  
 -0.035  
 -0.085  
  0.020  
 -0.095  
 -0.010  
 -0.120  
 -0.020  
 -0.100  
 -0.075  
 -0.140  
 -0.125  
 -0.160  
 -0.140  
 -0.095  
 -0.110  
 -0.150  
 -0.120  
 -0.150  
 -0.185  
 -0.205  
 -0.190  
 -0.195  
 -0.235  
 -0.220  
 -0.240  
 -0.240  
 -0.330  
 -0.320  
 -0.400  
 -0.415  
 -0.495  
 -0.345  
  0.250  
  0.710  
  0.400  
  0.020  
 -0.205  
 -0.360  
 -0.465  
 -0.465  
 -0.530  
 -0.525  
 -0.565  
 -0.535  
 -0.580  
 -0.550  
 -0.575  
 -0.575  
 -0.580  
 -0.575  
 -0.585  
 -0.565  
 -0.565  
 -0.525  
 -0.490  
 -0.450  
 -0.420  
 -0.360  
 -0.320  
 -0.245  
 -0.220  
 -0.140  
 -0.150  
 -0.050  
 -0.065  
 -0.010  
 -0.015  
  0.025  
  0.035  
  0.090  
  0.125  
  0.185  
  0.250  
  0.335  
  0.460  
  0.545  
  0.740  
  0.730  
  0.980  
  0.960  
  1.330  
  1.185  
  1.535  
  1.315  
  1.710  
  1.520  
  2.000  
  1.690  
  2.160  
  1.700  
  2.350  
  1.840  
  2.465  
  1.780  
  2.530  
  1.775  
  2.490  
  1.670  
  2.325  
  1.410  
  1.855  
  1.100  
  1.000  
  0.620  
  0.215  
  0.130  
 -0.230  
 -0.085  
 -0.470  
 -0.285  
 -0.745  
 -0.520  
 -0.890  
 -0.765  
 -1.050  
 -0.890  
 -1.095  
 -0.945  
 -1.100  
 -0.905  
 -0.960  
 -0.850  
 -0.880  
 -0.730  
 -0.870  
 -0.775  
 -0.780  
 -0.230  
  0.290  
  0.205  
 -0.570  
 -0.260  
 -1.245  
 -0.570  
 -1.460  
 -0.715  
 -1.640  
 -0.945  
 -1.785  
 -1.125  
 -1.645  
 -1.080  
 -1.490  
 -0.985  
 -1.355  
 -0.810  
 -1.040  
 -0.490  
 -0.570  
 -0.110  
 -0.050  
  0.240  
  0.535  
  0.775  
  1.290  
  1.290  
  2.000  
  1.925  
  2.345  
  1.895  
  2.155  
  1.475  
  1.655  
  1.040  
  1.385  
  0.820  
  1.225  
  0.595  
  1.015  
  0.460  
  0.885  
  0.320  
  0.705  
  0.210  
  0.625  
  0.190  
  0.615  
  0.190  
  0.640  
  0.185  
  0.655  
  0.195  
  0.680  
  0.150  
  0.645  
  0.065  
  0.570  
 -0.050  
  0.430  
 -0.200  
  0.205  
 -0.390  
 -0.090  
 -0.505  
 -0.500  
 -0.505  
 -1.115  
 -0.575  
 -1.460  
 -0.580  
 -1.540  
 -0.560  
 -1.545  
 -0.540  
 -1.510  
 -0.795  
 -1.195  
 -0.715  
 -1.125  
 -0.640  
 -1.035  
 -0.685  
 -0.990  
 -0.710  
 -1.035  
 -0.760  
 -0.980  
 -0.715  
 -0.940  
 -0.690  
 -0.840  
 -0.655  
 -0.750  
 -0.575  
 -0.615  
 -0.465  
 -0.540  
 -0.260  
  0.185  
  0.915  
  0.980  
  0.565  
  0.370  
  0.160  
  0.245  
  0.175  
  0.295  
  0.230  
  0.325  
  0.275  
  0.345  
  0.290  
  0.370  
  0.335  
  0.420  
  0.385  
  0.485  
  0.460  
  0.605  
  0.465  
  0.715  
  0.420  
  0.805  
  0.365  
  0.850  
  0.305  
  0.885  
  0.245  
  0.900  
  0.215  
  0.915  
  0.120  
  0.775  
 -0.060  
  0.535  
 -0.205  
  0.265  
 -0.250  
 -0.105  
 -0.305  
 -0.370  
 -0.355  
 -0.605  
 -0.395  
 -0.795  
 -0.400  
 -0.885  
 -0.390  
 -0.915  
 -0.340  
 -0.910  
 -0.340  
 -0.930  
 -0.355  
 -0.950  
 -0.395  
 -0.960  
 -0.385  
 -0.920  
 -0.365  
 -0.850  
 -0.335  
 -0.765  
 -0.320  
 -0.655  
 -0.315  
 -0.540  
 -0.310  
 -0.435  
 -0.270  
 -0.335  
 -0.190  
 -0.190  
 -0.105  
 -0.100  
 -0.100  
 -0.010  
 -0.160  
 -0.010  
 -0.135  
  0.030  
 -0.170  
  0.000  
 -0.195  
 -0.055  
 -0.200  
 -0.090  
 -0.185  
 -0.165  
 -0.200  
 -0.050  
  0.550  
  1.115  
  0.845  
  0.380  
  0.170  
  0.005  
 -0.030  
 -0.030  
 -0.065  
 -0.045  
 -0.085  
 -0.075  
 -0.095  
 -0.115  
 -0.095  
 -0.165  
 -0.100  
 -0.220  
 -0.100  
 -0.255  
 -0.095  
 -0.300  
 -0.070  
 -0.310  
 -0.030  
 -0.315  
  0.035  
 -0.300  
  0.115  
 -0.245  
  0.230  
 -0.180  
  0.320  
 -0.085  
  0.400  
  0.450  
  0.455  
  0.405  
  0.470  
  0.185  
  0.370  
 -0.135  
  0.655  
 -0.235  
  0.675  
 -0.310  
  0.535  
  0.875  
 -0.900  
  1.000  
 -0.570  
  0.400  
 -0.285  
  0.255  
 -0.285  
  0.360  
  0.035  
  0.400  
  0.230  
 -0.185  
  0.465  
 -0.320  
  0.960  
 -0.415  
 -0.230  
 -2.300  
  0.120  
 -1.540  
  0.870  
 -1.040  
  0.990  
 -0.880  
  0.290  
 -0.105  
  0.015  
  0.045  
 -0.155  
  0.180  
 -0.240  
  0.245  
 -0.320  
  0.335  
 -0.425  
  0.375  
 -0.490  
  0.405  
 -0.505  
  0.385  
 -0.495  
  0.355  
 -0.465  
  0.335  
 -0.460  
  0.300  
 -0.425  
  0.240  
 -0.415  
  0.225  
 -0.385  
  0.280  
 -0.335  
  0.250  
 -0.370  
  0.225  
 -0.450  
  0.215  
 -0.420  
  0.205  
 -0.395  
  0.185  
 -0.405  
  0.240  
 -0.450  
  0.275  
 -0.455  
  0.230  
 -0.440  
  0.375  
  0.600  
  1.265  
  1.040  
 -0.070  
  1.130  
 -1.130  
  0.835  
 -0.285  
  0.025  
 -0.105  
 -0.140  
  0.000  
 -0.215  
  0.035  
 -0.260  
  0.125  
 -0.365  
  0.150  
 -0.290  
  0.170  
 -0.390  
  0.240  
 -0.290  
  0.160  
 -0.265  
  0.095  
 -0.065  
 -0.020  
  0.430  
 -0.720  
  0.575  
 -0.345  
  0.520  
 -0.160  
  0.430  
  0.000  
  0.005  
  0.225  
 -0.320  
  0.435  
 -0.345  
  0.265  
 -0.240  
  0.165  
 -0.105  
 -0.035  
  0.130  
  0.215  
 -0.430  
  0.360  
 -0.385  
  0.330  
 -0.355  
  0.110  
 -0.215  
  0.125  
 -0.120  
  0.020  
  0.080  
 -0.335  
  0.150  
 -0.195  
  0.155  
 -0.230  
  0.120  
 -0.225  
  0.070  
 -0.225  
  0.025  
 -0.230  
 -0.010  
 -0.235  
 -0.025  
 -0.215  
 -0.035  
 -0.200  
 -0.050  
 -0.185  
 -0.060  
 -0.180  
 -0.060  
 -0.165  
 -0.080  
 -0.160  
 -0.070  
 -0.145  
 -0.085  
 -0.135  
 -0.090  
 -0.115  
 -0.080  
 -0.105  
 -0.080  
 -0.100  
 -0.085  
 -0.105  
 -0.095  
 -0.110  
 -0.090  
 -0.105  
 -0.065  
 -0.095  
 -0.060  
 -0.105  
 -0.045  
 -0.120  
 -0.025  
 -0.050  
  0.070  
 -0.075  
  0.095  
 -0.055  
  0.040  
 -0.120  
  0.090  
 -0.060  
  0.110  
  0.115  
 -0.200  
 -0.075  
  0.260  
  0.020  
  0.300  
 -0.015  
  0.265  
  0.100  
  1.020  
  1.220  
  1.300  
  0.545  
  0.040  
  0.110  
  0.350  
 -0.175  
  0.000  
  0.060  
 -0.570  
  0.170  
 -0.560  
  0.005  
 -0.350  
 -0.100  
 -0.220  
 -0.110  
  0.670  
 -0.270  
  0.745  
 -0.305  
  0.810  
 -0.335  
  0.885  
 -0.340  
  0.960  
 -0.365  
  0.695  
 -0.080  
  0.180  
  0.260  
  0.110  
  0.025  
 -0.155  
  0.260  
 -0.245  
  0.240  
 -0.380  
  0.210  
 -0.255  
  0.035  
 -0.315  
  0.115  
 -0.155  
  0.025  
 -0.140  
  0.055  
 -0.130  
  0.090  
 -0.095  
 -0.265  
  0.020  
  0.015  
 -0.035  
  0.190  
 -0.155  
  0.275  
 -0.265  
  0.325  
  0.005  
 -0.085  
 -0.100  
  0.065  
  0.105  
  0.180  
 -0.020  
  0.270  
 -0.090  
  0.380  
 -0.145  
  0.440  
 -0.210  
  0.515  
 -0.210  
  0.520  
 -0.235  
  0.475  
 -0.025  
  0.305  
  0.000  
  0.480  
 -0.085  
  0.425  
 -0.030  
  0.480  
 -0.035  
  0.600  
 -0.170  
  0.770  
 -0.175  
  0.395  
  0.240  
  0.510  
  0.120  
  0.475  
  0.340  
  0.885  
  0.325  
 -0.630  
  0.190  
 -0.545  
  0.150  
 -0.495  
  0.135  
 -0.445  
  0.115  
 -0.405  
  0.080  
 -0.465  
  0.070  
 -0.175  
  0.925  
  0.840  
  0.780  
  0.010  
  0.165  
 -0.315  
 -0.020  
 -0.395  
 -0.090  
 -0.440  
 -0.120  
 -0.480  
 -0.145  
 -0.495  
 -0.170  
 -0.505  
 -0.175  
 -0.525  
 -0.180  
 -0.530  
 -0.155  
 -0.520  
 -0.115  
 -0.475  
 -0.065  
 -0.410  
 -0.015  
 -0.355  
 -0.060  
 -0.265  
 -0.040  
 -0.120  
 -0.040  
 -0.115  
 -0.245  
 -0.415  
 -0.670  
 -0.770  
 -0.945  
 -1.005  
 -1.020  
 -0.880  
 -0.825  
 -0.585  
 -0.690  
 -0.525  
 -0.460  
 -0.275  
 -0.405  
 -0.280  
 -0.435  
 -0.265  
 -0.215  
  0.110  
 -0.060  
  0.050  
 -0.245  
 -0.190  
 -0.325  
 -0.085  
 -0.105  
  0.155  
  1.275  
  1.400  
  1.450  
  1.355  
  1.070  
  1.050  
  0.785  
  0.680  
  0.350  
  0.160  
 -0.175  
 -0.355  
 -0.480  
 -0.310  
 -0.365  
 -0.350  
 -0.480  
 -0.625  
 -0.705  
 -0.830  
 -0.890  
 -0.965  
 -0.980  
 -1.185  
 -1.110  
 -1.375  
 -1.085  
 -1.355  
 -1.050  
 -1.345  
 -1.000  
 -1.345  
 -0.980  
 -1.395  
 -0.920  
 -1.360  
 -1.045  
 -1.460  
 -0.880  
 -1.385  
 -0.755  
 -1.405  
 -0.750  
 -1.260  
 -0.540  
 -0.900  
 -0.030  
 -0.425  
  0.460  
  0.605  
  1.190  
  1.435  
  1.705  
  1.935  
  1.855  
  2.160  
  2.150  
  2.980  
  3.060  
  2.850  
  2.080  
  2.165  
  1.690  
  1.790  
  1.280  
  1.570  
  1.155  
  1.380  
  0.940  
  1.115  
  0.600  
  0.790  
  0.320  
  0.365  
 -0.055  
 -0.060  
 -0.470  
 -0.365  
 -0.610  
 -0.615  
 -0.670  
 -0.485  
 -0.210  
  0.155  
 -0.130  
 -0.270  
  0.000  
 -0.045  
 -0.045  
 -0.440  
 -0.485  
 -0.550  
 -0.385  
 -0.640  
 -0.545  
 -0.710  
 -0.510  
 -0.915  
 -0.845  
 -1.010  
 -1.005  
 -0.815  
 -0.985  
 -0.690  
  0.055  
  0.275  
  0.260  
  0.215  
  0.140  
  0.150  
  0.195  
  0.210  
  0.245  
  0.360  
  0.430  
  0.470  
  0.560  
  0.625  
  0.695  
  0.730  
  0.770  
  0.810  
  0.830  
  0.890  
  0.900  
  0.860  
  0.825  
  0.740  
  0.430  
  0.160  
 -0.035  
 -0.150  
 -0.175  
 -0.185  
 -0.145  
 -0.125  
 -0.115  
 -0.150  
 -0.190  
 -0.290  
 -0.325  
 -0.350  
 -0.275  
 -0.270  
 -0.310  
 -0.275  
 -0.315  
 -0.345  
 -0.320  
 -0.225  
 -0.205  
 -0.075  
 -0.060  
  0.030  
 -0.035  
  0.060  
 -0.030  
  0.000  
 -0.045  
  0.010  
 -0.040  
 -0.025  
 -0.065  
 -0.080  
 -0.095  
 -0.125  
 -0.115  
 -0.150  
 -0.205  
 -0.210  
 -0.005  
  0.570  
  1.070  
  0.580  
  0.235  
 -0.015  
 -0.115  
 -0.265  
 -0.205  
 -0.305  
 -0.235  
 -0.305  
 -0.225  
 -0.275  
 -0.205  
 -0.255  
 -0.200  
 -0.225  
 -0.195  
 -0.190  
 -0.175  
 -0.150  
 -0.150  
 -0.115  
 -0.120  
 -0.060  
 -0.065  
  0.005  
  0.000  
  0.085  
  0.065  
  0.175  
  0.145  
  0.230  
  0.150  
  0.200  
  0.105  
  0.160  
  0.080  
  0.150  
  0.090  
  0.180  
  0.150  
  0.230  
  0.230  
  0.300  
  0.250  
  0.310  
  0.230  
  0.285  
  0.240  
  0.265  
  0.220  
  0.220  
  0.180  
  0.180  
  0.090  
  0.090  
  0.075  
  0.060  
  0.045  
  0.020  
  0.025  
  0.000  
  0.015  
 -0.005  
  0.025  
 -0.010  
  0.010  
 -0.020  
  0.020  
 -0.040  
  0.005  
 -0.050  
  0.000  
 -0.055  
 -0.010  
 -0.060  
 -0.005  
 -0.055  
 -0.010  
 -0.055  
 -0.010  
 -0.055  
 -0.010  
 -0.040  
  0.010  
  0.020  
  0.070  
  0.000  
  0.080  
  0.005  
  0.000  
 -0.020  
  0.015  
  0.000  
 -0.005  
  0.000  
 -0.010  
  0.000  
 -0.005  
  0.000  
 -0.015  
 -0.035  
 -0.080  
  0.080  
  0.595  
  1.125  
  0.850  
  0.480  
  0.260  
  0.095  
  0.000  
 -0.020  
 -0.055  
 -0.050  
 -0.075  
 -0.065  
 -0.075  
 -0.075  
 -0.085  
 -0.065  
 -0.080  
 -0.060  
 -0.065  
 -0.045  
 -0.050  
 -0.025  
 -0.035  
  0.000  
 -0.005  
  0.025  
  0.030  
  0.085  
  0.090  
  0.135  
  0.145  
  0.195  
  0.170  
  0.185  
  0.125  
  0.105  
  0.030  
  0.015  
 -0.040  
 -0.035  
 -0.075  
 -0.055  
 -0.095  
 -0.070  
 -0.095  
 -0.070  
 -0.095  
 -0.075  
 -0.085  
 -0.075  
 -0.085  
 -0.075  
 -0.080  
 -0.070  
 -0.070  
 -0.070  
 -0.065  
 -0.060  
 -0.050  
 -0.050  
 -0.035  
 -0.030  
 -0.015  
 -0.025  
  0.000  
 -0.010  
  0.015  
  0.005  
  0.030  
  0.015  
  0.045  
  0.015  
  0.045  
  0.020  
  0.035  
  0.005  
  0.025  
 -0.005  
  0.010  
 -0.020  
 -0.005  
 -0.040  
 -0.025  
 -0.060  
 -0.045  
 -0.080  
 -0.070  
 -0.095  
 -0.090  
 -0.115  
 -0.110  
 -0.130  
 -0.130  
 -0.155  
 -0.150  
 -0.160  
 -0.165  
 -0.170  
 -0.170  
 -0.160  
 -0.155  
 -0.095  
 -0.085  
 -0.115  
 -0.090  
 -0.125  
 -0.160  
 -0.165  
 -0.160  
 -0.140  
 -0.170  
 -0.135  
 -0.150  
 -0.120  
 -0.125  
 -0.095  
 -0.105  
 -0.145  
 -0.045  
  0.230  
  0.870  
  1.085  
  0.630  
  0.335  
  0.135  
  0.080  
  0.040  
  0.050  
  0.015  
  0.045  
  0.005  
  0.040  
  0.005  
  0.035  
  0.015  
  0.050  
  0.015  
  0.045  
  0.025  
  0.045  
  0.025  
  0.045  
  0.035  
  0.065  
  0.050  
  0.085  
  0.095  
  0.125  
  0.145  
  0.180  
  0.190  
  0.210  
  0.195  
  0.160  
  0.110  
  0.055  
 -0.005  
 -0.060  
 -0.095  
 -0.125  
 -0.140  
 -0.165  
 -0.165  
 -0.185  
 -0.185  
 -0.190  
 -0.180  
 -0.200  
 -0.180  
 -0.195  
 -0.180  
 -0.190  
 -0.165  
 -0.180  
 -0.160  
 -0.175  
 -0.145  
 -0.150  
 -0.125  
 -0.140  
 -0.105  
 -0.115  
 -0.090  
 -0.095  
 -0.075  
 -0.070  
 -0.045  
 -0.055  
 -0.025  
 -0.035  
 -0.010  
 -0.015  
  0.010  
  0.000  
  0.020  
  0.015  
  0.030  
  0.025  
  0.040  
  0.030  
  0.040  
  0.035  
  0.035  
  0.030  
  0.030  
  0.035  
  0.030  
  0.035  
  0.020  
  0.025  
  0.020  
  0.025  
  0.000  
  0.015  
  0.000  
  0.005  
  0.000  
  0.070  
  0.050  
  0.040  
  0.040  
  0.030  
 -0.035  
 -0.035  
 -0.040  
 -0.030  
 -0.085  
 -0.055  
 -0.080  
 -0.065  
 -0.095  
 -0.075  
 -0.105  
 -0.110  
 -0.185  
 -0.025  
  0.420  
  1.070  
  0.935  
  0.485  
  0.195  
  0.010  
 -0.055  
 -0.090  
 -0.100  
 -0.120  
 -0.115  
 -0.130  
 -0.125  
 -0.135  
 -0.125  
 -0.130  
 -0.115  
 -0.125  
 -0.100  
 -0.120  
 -0.095  
 -0.100  
 -0.085  
 -0.080  
 -0.050  
 -0.045  
  0.000  
  0.015  
  0.060  
  0.085  
  0.125  
  0.155  
  0.180  
  0.160  
  0.135  
  0.085  
  0.045  
  0.005  
 -0.015  
 -0.030  
 -0.035  
 -0.040  
 -0.040  
 -0.040  
 -0.040  
 -0.030  
 -0.025  
 -0.040  
 -0.035  
 -0.020  
 -0.025  
 -0.020  
 -0.025  
 -0.025  
 -0.025  
 -0.025  
 -0.035  
 -0.035  
 -0.035  
 -0.040  
 -0.045  
 -0.050  
 -0.040  
 -0.050  
 -0.060  
 -0.055  
 -0.065  
 -0.065  
 -0.070  
 -0.070  
 -0.075  
 -0.080  
 -0.080  
 -0.095  
 -0.085  
 -0.095  
 -0.095  
 -0.100  
 -0.105  
 -0.105  
 -0.105  
 -0.105  
 -0.110  
 -0.110  
 -0.115  
 -0.110  
 -0.115  
 -0.110  
 -0.110  
 -0.105  
 -0.100  
 -0.090  
 -0.065  
 -0.010  
  0.000  
  0.000  
 -0.005  
 -0.015  
 -0.065  
 -0.060  
 -0.055  
 -0.045  
 -0.080  
 -0.065  
 -0.070  
 -0.070  
 -0.065  
 -0.065  
 -0.060  
 -0.085  
 -0.135  
  0.000  
  0.530  
  1.145  
  0.925  
  0.475  
  0.240  
  0.050  
  0.000  
 -0.015  
 -0.035  
 -0.045  
 -0.055  
 -0.065  
 -0.065  
 -0.075  
 -0.065  
 -0.065  
 -0.065  
 -0.055  
 -0.045  
 -0.050  
 -0.035  
 -0.035  
 -0.035  
 -0.025  
 -0.010  
 -0.005  
  0.025  
  0.050  
  0.075  
  0.105  
  0.130  
  0.165  
  0.165  
  0.155  
  0.110  
  0.060  
  0.010  
 -0.020  
 -0.060  
 -0.065  
 -0.085  
 -0.080  
 -0.080  
 -0.080  
 -0.080  
 -0.070  
 -0.075  
 -0.055  
 -0.060  
 -0.045  
 -0.045  
 -0.035  
 -0.030  
 -0.030  
 -0.015  
 -0.015  
 -0.005  
 -0.015  
 -0.010  
  0.000  
  0.005  
  0.000  
  0.005  
  0.000  
  0.020  
  0.030  
  0.010  
  0.010  
  0.015  
  0.010  
  0.015  
  0.010  
  0.015  
  0.005  
  0.020  
  0.010  
  0.010  
  0.010  
  0.000  
  0.005  
 -0.005  
  0.000  
 -0.010  
 -0.010  
 -0.015  
 -0.020  
 -0.030  
 -0.025  
 -0.035  
 -0.035  
 -0.050  
 -0.040  
 -0.070  
 -0.065  
 -0.060  
  0.000  
 -0.015  
 -0.035  
 -0.010  
 -0.030  
 -0.085  
 -0.100  
 -0.075  
 -0.075  
 -0.110  
 -0.115  
 -0.120  
 -0.115  
 -0.120  
 -0.115  
 -0.120  
 -0.165  
 -0.145  
  0.000  
  0.665  
  1.180  
  0.820  
  0.370  
  0.160  
  0.005  
 -0.035  
 -0.045  
 -0.065  
 -0.075  
 -0.080  
 -0.065  
 -0.080  
 -0.075  
 -0.070  
 -0.065  
 -0.060  
 -0.055  
 -0.050  
 -0.040  
 -0.040  
 -0.025  
 -0.020  
  0.000  
  0.010  
  0.035  
  0.055  
  0.090  
  0.125  
  0.155  
  0.185  
  0.210  
  0.225  
  0.180  
  0.145  
  0.095  
  0.050  
  0.020  
 -0.010  
 -0.015  
 -0.020  
 -0.025  
 -0.025  
 -0.030  
 -0.025  
 -0.020  
 -0.020  
 -0.025  
 -0.015  
 -0.020  
 -0.015  
 -0.020  
 -0.010  
 -0.015  
 -0.010  
 -0.020  
  0.000  
 -0.005  
  0.000  
 -0.005  
  0.005  
 -0.005  
  0.005  
  0.010  
  0.010  
  0.015  
  0.020  
  0.005  
  0.000  
  0.000  
  0.000  
 -0.005  
 -0.005  
 -0.010  
 -0.025  
 -0.025  
 -0.025  
 -0.030  
 -0.040  
 -0.040  
 -0.040  
 -0.045  
 -0.045  
 -0.055  
 -0.020  
 -0.010  
  0.000  
  0.025  
  0.040  
  0.010  
  0.025  
  0.015  
 -0.050  
 -0.050  
 -0.030  
 -0.035  
 -0.050  
 -0.045  
 -0.050  
 -0.040  
 -0.045  
 -0.045  
 -0.050  
 -0.075  
 -0.135  
  0.015  
  0.500  
  1.070  
  0.940  
  0.595  
  0.315  
  0.150  
  0.040  
  0.020  
 -0.005  
 -0.020  
 -0.020  
 -0.025  
 -0.030  
 -0.040  
 -0.035  
 -0.050  
 -0.035  
 -0.045  
 -0.060  
 -0.060  
 -0.045  
 -0.045  
 -0.055  
 -0.035  
 -0.025  
 -0.005  
  0.010  
  0.030  
  0.060  
  0.095  
  0.120  
  0.135  
  0.160  
  0.140  
  0.110  
  0.075  
  0.050  
  0.015  
 -0.005  
 -0.020  
 -0.025  
 -0.020  
 -0.025  
 -0.030  
 -0.030  
 -0.030  
 -0.030  
 -0.035  
 -0.035  
 -0.030  
 -0.030  
 -0.025  
 -0.030  
 -0.025  
 -0.025  
 -0.025  
 -0.025  
 -0.025  
 -0.030  
 -0.025  
 -0.025  
 -0.025  
 -0.025  
 -0.025  
 -0.020  
 -0.025  
 -0.025  
 -0.030  
 -0.030  
 -0.025  
 -0.030  
 -0.035  
 -0.045  
 -0.040  
 -0.050  
 -0.045  
 -0.050  
 -0.040  
 -0.060  
 -0.050  
 -0.065  
 -0.050  
 -0.025  
  0.010  
  0.020  
 -0.015  
  0.000  
 -0.040  
 -0.075  
 -0.080  
 -0.075  
 -0.070  
 -0.105  
 -0.095  
 -0.105  
 -0.095  
 -0.115  
 -0.100  
 -0.120  
 -0.155  
 -0.130  
  0.010  
  0.635  
  1.125  
  0.755  
  0.345  
  0.160  
  0.000  
 -0.050  
 -0.070  
 -0.095  
 -0.090  
 -0.110  
 -0.105  
 -0.110  
 -0.110  
 -0.110  
 -0.100  
 -0.100  
 -0.090  
 -0.095  
 -0.085  
 -0.080  
 -0.070  
 -0.050  
 -0.045  
 -0.020  
  0.000  
  0.030  
  0.070  
  0.090  
  0.130  
  0.160  
  0.185  
  0.190  
  0.160  
  0.115  
  0.070  
  0.030  
  0.000  
 -0.015  
 -0.030  
 -0.030  
 -0.035  
 -0.030  
 -0.030  
 -0.025  
 -0.020  
 -0.020  
 -0.015  
 -0.005  
 -0.005  
  0.000  
  0.005  
  0.010  
  0.000  
  0.010  
  0.010  
  0.015  
  0.005  
  0.010  
  0.020  
  0.015  
  0.015  
  0.015  
  0.015  
  0.020  
  0.020  
  0.020  
  0.025  
  0.020  
  0.020  
  0.010  
  0.020  
  0.015  
  0.010  
  0.015  
  0.000  
  0.000  
  0.000  
  0.000  
 -0.010  
 -0.010  
 -0.010  
 -0.020  
 -0.025  
 -0.030  
 -0.030  
 -0.035  
 -0.040  
 -0.035  
 -0.040  
 -0.050  
 -0.060  
 -0.050  
 -0.065  
 -0.060  
 -0.065  
 -0.060  
 -0.070  
 -0.065  
 -0.040  
 -0.010  
  0.000  
 -0.040  
 -0.015  
 -0.065  
 -0.090  
 -0.100  
 -0.080  
 -0.095  
 -0.110  
 -0.105  
 -0.115  
 -0.105  
 -0.105  
 -0.100  
 -0.115  
 -0.185  
 -0.090  
  0.075  
  0.740  
  1.120  
  0.685  
  0.300  
  0.140  
 -0.015  
 -0.050  
 -0.060  
 -0.080  
 -0.090  
 -0.095  
 -0.090  
 -0.100  
 -0.105  
 -0.100  
 -0.095  
 -0.095  
 -0.090  
 -0.090  
 -0.085  
 -0.085  
 -0.070  
 -0.065  
 -0.035  
 -0.035  
 -0.010  
  0.020  
  0.045  
  0.080  
  0.110  
  0.130  
  0.160  
  0.175  
  0.165  
  0.125  
  0.085  
  0.050  
  0.040  
  0.015  
  0.005  
 -0.005  
  0.000  
 -0.005  
 -0.010  
 -0.005  
  0.000  
  0.000  
 -0.005  
  0.000  
 -0.005  
 -0.010  
 -0.010  
  0.025  
  0.020  
  0.020  
  0.015  
  0.015  
  0.015  
  0.010  
  0.010  
  0.010  
  0.010  
  0.010  
  0.010  
  0.015  
  0.005  
  0.010  
  0.005  
  0.000  
  0.000  
  0.000  
 -0.005  
 -0.005  
  0.000  
 -0.015  
 -0.020  
 -0.020  
 -0.030  
 -0.025  
 -0.040  
 -0.040  
 -0.045  
 -0.040  
 -0.050  
 -0.030  
 -0.005  
  0.015  
  0.000  
  0.000  
 -0.010  
 -0.065  
 -0.095  
 -0.075  
 -0.080  
 -0.100  
 -0.110  
 -0.110  
 -0.110  
 -0.110  
 -0.120  
 -0.110  
 -0.120  
 -0.165  
 -0.135  
  0.020  
  0.645  
  1.065  
  0.685  
  0.315  
  0.160  
 -0.010  
 -0.060  
 -0.080  
 -0.115  
 -0.110  
 -0.120  
 -0.120  
 -0.115  
 -0.115  
 -0.115  
 -0.110  
 -0.105  
 -0.095  
 -0.090  
 -0.085  
 -0.080  
 -0.070  
 -0.060  
 -0.040  
 -0.020  
  0.000  
  0.020  
  0.065  
  0.095  
  0.125  
  0.160  
  0.180  
  0.195  
  0.180  
  0.130  
  0.090  
  0.045  
  0.025  
  0.000  
 -0.005  
 -0.015  
 -0.020  
 -0.020  
 -0.025  
 -0.015  
 -0.020  
 -0.020  
 -0.010  
 -0.020  
 -0.010  
 -0.015  
 -0.010  
 -0.005  
 -0.005  
 -0.015  
 -0.010  
 -0.010  
 -0.010  
 -0.015  
 -0.015  
 -0.010  
 -0.010  
 -0.010  
 -0.005  
 -0.010  
 -0.005  
 -0.010  
  0.000  
 -0.010  
 -0.015  
 -0.015  
 -0.015  
 -0.015  
 -0.020  
 -0.030  
 -0.030  
 -0.035  
 -0.040  
 -0.035  
 -0.050  
 -0.050  
 -0.055  
 -0.060  
 -0.070  
 -0.065  
 -0.075  
 -0.080  
 -0.080  
 -0.095  
 -0.095  
 -0.090  
 -0.105  
 -0.105  
 -0.110  
 -0.110  
 -0.120  
 -0.120  
 -0.090  
 -0.050  
 -0.035  
 -0.100  
 -0.050  
 -0.110  
 -0.130  
 -0.150  
 -0.130  
 -0.135  
 -0.150  
 -0.155  
 -0.150  
 -0.145  
 -0.145  
 -0.145  
 -0.145  
 -0.165  
 -0.180  
 -0.040  
  0.490  
  1.105  
  0.865  
  0.415  
  0.195  
  0.005  
 -0.035  
 -0.060  
 -0.080  
 -0.085  
 -0.090  
 -0.085  
 -0.085  
 -0.085  
 -0.080  
 -0.080  
 -0.070  
 -0.070  
 -0.055  
 -0.050  
 -0.040  
 -0.030  
 -0.005  
  0.005  
  0.020  
  0.045  
  0.080  
  0.105  
  0.140  
  0.170  
  0.210  
  0.235  
  0.255  
  0.235  
  0.200  
  0.145  
  0.100  
  0.060  
  0.030  
  0.010  
  0.005  
  0.000  
 -0.005  
  0.000  
  0.000  
  0.000  
  0.000  
  0.005  
  0.005  
  0.000  
  0.010  
  0.000  
  0.005  
  0.005  
  0.005  
  0.005  
  0.005  
  0.000  
  0.000  
  0.000  
  0.000  
  0.000  
  0.000  
  0.000  
  0.000  
 -0.005  
  0.000  
 -0.005  
 -0.005  
 -0.005  
 -0.005  
 -0.010  
 -0.005  
 -0.015  
 -0.015  
 -0.020  
