6000.0
100.0
 -0.235  
 -0.255  
 -0.310  
 -0.350  
 -0.355  
 -0.370  
 -0.375  
 -0.345  
 -0.305  
 -0.250  
 -0.180  
 -0.115  
 -0.070  
 -0.035  
  0.015  
  0.050  
  0.070  
  0.100  
  0.135  
  0.135  
  0.120  
  0.130  
  0.145  
  0.150  
  0.130  
  0.115  
  0.105  
  0.095  
  0.065  
  0.080  
  0.065  
  0.045  
  0.050  
  0.065  
  0.050  
  0.055  
  0.045  
  0.045  
  0.045  
  0.045  
  0.065  
  0.050  
  0.045  
  0.040  
  0.050  
  0.080  
  0.055  
  0.055  
  0.040  
  0.035  
  0.040  
  0.055  
  0.030  
  0.005  
 -0.025  
 -0.045  
 -0.095  
 -0.120  
 -0.190  
 -0.190  
 -0.130  
 -0.080  
 -0.060  
 -0.010  
  0.050  
  0.085  
  0.095  
  0.105  
  0.095  
  0.110  
  0.110  
  0.105  
  0.065  
 -0.115  
 -0.735  
 -1.335  
 -0.880  
  0.080  
  0.880  
  1.185  
  0.695  
  0.275  
  0.170  
  0.115  
  0.080  
  0.065  
  0.045  
  0.040  
  0.015  
  0.015  
  0.015  
  0.015  
 -0.020  
 -0.030  
 -0.065  
 -0.070  
 -0.105  
 -0.125  
 -0.155  
 -0.185  
 -0.220  
 -0.255  
 -0.300  
 -0.305  
 -0.335  
 -0.325  
 -0.335  
 -0.300  
 -0.240  
 -0.175  
 -0.105  
 -0.045  
 -0.005  
  0.055  
  0.085  
  0.125  
  0.125  
  0.165  
  0.170  
  0.150  
  0.155  
  0.195  
  0.175  
  0.155  
  0.125  
  0.150  
  0.130  
  0.135  
  0.125  
  0.125  
  0.105  
  0.130  
  0.115  
  0.135  
  0.120  
  0.110  
  0.080  
  0.090  
  0.105  
  0.115  
  0.100  
  0.115  
  0.120  
  0.115  
  0.120  
  0.130  
  0.125  
  0.120  
  0.100  
  0.125  
  0.125  
  0.120  
  0.080  
  0.050  
  0.015  
 -0.005  
 -0.025  
 -0.095  
 -0.125  
 -0.090  
 -0.060  
  0.010  
  0.035  
  0.095  
  0.130  
  0.155  
  0.150  
  0.145  
  0.140  
  0.160  
  0.165  
  0.145  
  0.000  
 -0.550  
 -1.285  
 -1.015  
 -0.085  
  0.735  
  1.135  
  0.790  
  0.295  
  0.215  
  0.130  
  0.080  
  0.080  
  0.055  
  0.045  
  0.035  
  0.005  
  0.025  
  0.015  
  0.000  
 -0.025  
 -0.040  
 -0.070  
 -0.075  
 -0.105  
 -0.125  
 -0.170  
 -0.205  
 -0.240  
 -0.280  
 -0.320  
 -0.330  
 -0.315  
 -0.305  
 -0.280  
 -0.225  
 -0.155  
 -0.080  
 -0.030  
  0.020  
  0.080  
  0.125  
  0.135  
  0.165  
  0.205  
  0.210  
  0.205  
  0.210  
  0.210  
  0.220  
  0.195  
  0.180  
  0.165  
  0.170  
  0.170  
  0.155  
  0.135  
  0.115  
  0.090  
  0.095  
  0.105  
  0.125  
  0.115  
  0.110  
  0.110  
  0.125  
  0.120  
  0.115  
  0.120  
  0.120  
  0.110  
  0.105  
  0.115  
  0.110  
  0.110  
  0.105  
  0.095  
  0.050  
  0.005  
 -0.045  
 -0.045  
 -0.080  
 -0.155  
 -0.140  
 -0.080  
 -0.035  
 -0.005  
  0.055  
  0.090  
  0.125  
  0.135  
  0.140  
  0.140  
  0.130  
  0.125  
  0.120  
  0.050  
 -0.320  
 -1.150  
 -1.415  
 -0.535  
  0.370  
  0.985  
  1.005  
  0.425  
  0.225  
  0.145  
  0.070  
  0.035  
  0.040  
  0.015  
  0.005  
 -0.005  
  0.000  
 -0.005  
 -0.015  
 -0.050  
 -0.060  
 -0.080  
 -0.085  
 -0.105  
 -0.140  
 -0.165  
 -0.185  
 -0.215  
 -0.275  
 -0.315  
 -0.340  
 -0.330  
 -0.330  
 -0.330  
 -0.260  
 -0.190  
 -0.105  
 -0.045  
  0.015  
  0.055  
  0.105  
  0.120  
  0.140  
  0.155  
  0.180  
  0.195  
  0.205  
  0.195  
  0.205  
  0.195  
  0.215  
  0.180  
  0.165  
  0.155  
  0.160  
  0.145  
  0.125  
  0.115  
  0.105  
  0.090  
  0.095  
  0.095  
  0.100  
  0.085  
  0.115  
  0.110  
  0.100  
  0.105  
  0.105  
  0.100  
  0.095  
  0.085  
  0.095  
  0.095  
  0.100  
  0.090  
  0.100  
  0.085  
  0.050  
  0.005  
 -0.030  
 -0.050  
 -0.055  
 -0.120  
 -0.125  
 -0.085  
 -0.045  
 -0.005  
  0.055  
  0.095  
  0.135  
  0.135  
  0.125  
  0.115  
  0.135  
  0.135  
  0.140  
  0.075  
 -0.285  
 -1.105  
 -1.385  
 -0.565  
  0.390  
  1.010  
  1.020  
  0.435  
  0.240  
  0.150  
  0.085  
  0.080  
  0.075  
  0.045  
  0.025  
  0.010  
  0.020  
  0.010  
  0.005  
 -0.020  
 -0.025  
 -0.045  
 -0.070  
 -0.105  
 -0.120  
 -0.155  
 -0.165  
 -0.230  
 -0.265  
 -0.305  
 -0.325  
 -0.340  
 -0.325  
 -0.310  
 -0.260  
 -0.210  
 -0.140  
 -0.075  
 -0.020  
  0.025  
  0.055  
  0.070  
  0.105  
  0.115  
  0.155  
  0.155  
  0.165  
  0.170  
  0.200  
  0.185  
  0.170  
  0.165  
  0.160  
  0.130  
  0.125  
  0.125  
  0.125  
  0.085  
  0.085  
  0.090  
  0.090  
  0.060  
  0.080  
  0.075  
  0.085  
  0.085  
  0.080  
  0.065  
  0.085  
  0.080  
  0.090  
  0.085  
  0.100  
  0.085  
  0.095  
  0.080  
  0.105  
  0.090  
  0.100  
  0.080  
  0.050  
 -0.015  
 -0.030  
 -0.070  
 -0.095  
 -0.140  
 -0.125  
 -0.090  
 -0.040  
 -0.010  
  0.055  
  0.080  
  0.105  
  0.095  
  0.110  
  0.105  
  0.115  
  0.105  
  0.085  
  0.000  
 -0.415  
 -1.215  
 -1.305  
 -0.400  
  0.525  
  1.080  
  0.955  
  0.370  
  0.210  
  0.110  
  0.065  
  0.045  
  0.050  
  0.015  
  0.025  
 -0.005  
 -0.010  
 -0.005  
 -0.005  
 -0.035  
 -0.040  
 -0.070  
 -0.070  
 -0.095  
 -0.110  
 -0.155  
 -0.185  
 -0.240  
 -0.265  
 -0.315  
 -0.330  
 -0.350  
 -0.325  
 -0.315  
 -0.250  
 -0.190  
 -0.125  
 -0.070  
  0.000  
  0.015  
  0.080  
  0.085  
  0.110  
  0.120  
  0.150  
  0.145  
  0.155  
  0.165  
  0.175  
  0.155  
  0.155  
  0.130  
  0.135  
  0.130  
  0.130  
  0.105  
  0.120  
  0.095  
  0.080  
  0.080  
  0.085  
  0.085  
  0.095  
  0.070  
  0.080  
  0.070  
  0.085  
  0.065  
  0.070  
  0.075  
  0.090  
  0.055  
  0.065  
  0.055  
  0.065  
  0.060  
  0.075  
  0.060  
  0.060  
  0.055  
  0.065  
  0.015  
 -0.025  
 -0.065  
 -0.070  
 -0.115  
 -0.145  
 -0.175  
 -0.130  
 -0.095  
 -0.045  
 -0.010  
  0.050  
  0.080  
  0.105  
  0.090  
  0.095  
  0.100  
  0.105  
  0.100  
  0.095  
 -0.105  
 -0.690  
 -1.380  
 -1.035  
 -0.075  
  0.755  
  1.110  
  0.720  
  0.265  
  0.175  
  0.090  
  0.065  
  0.035  
  0.020  
 -0.020  
 -0.015  
 -0.030  
 -0.030  
 -0.020  
 -0.010  
 -0.050  
 -0.065  
 -0.090  
 -0.090  
 -0.105  
 -0.145  
 -0.190  
 -0.205  
 -0.255  
 -0.290  
 -0.345  
 -0.340  
 -0.355  
 -0.350  
 -0.330  
 -0.255  
 -0.195  
 -0.110  
 -0.060  
  0.010  
  0.040  
  0.090  
  0.085  
  0.110  
  0.130  
  0.175  
  0.185  
  0.195  
  0.185  
  0.205  
  0.175  
  0.160  
  0.155  
  0.180  
  0.135  
  0.135  
  0.110  
  0.100  
  0.070  
  0.075  
  0.055  
  0.080  
  0.070  
  0.075  
  0.065  
  0.095  
  0.070  
  0.070  
  0.075  
  0.095  
  0.090  
  0.100  
  0.080  
  0.090  
  0.080  
  0.090  
  0.090  
  0.080  
  0.035  
  0.010  
 -0.045  
 -0.060  
 -0.095  
 -0.140  
 -0.165  
 -0.080  
 -0.055  
 -0.020  
  0.045  
  0.095  
  0.115  
  0.125  
  0.130  
  0.145  
  0.130  
  0.135  
  0.120  
  0.050  
 -0.385  
 -1.205  
 -1.420  
 -0.500  
  0.400  
  1.005  
  0.940  
  0.400  
  0.205  
  0.145  
  0.085  
  0.080  
  0.035  
  0.030  
  0.005  
  0.005  
 -0.010  
  0.005  
 -0.045  
 -0.045  
 -0.075  
 -0.085  
 -0.110  
 -0.110  
 -0.150  
 -0.165  
 -0.215  
 -0.260  
 -0.310  
 -0.335  
 -0.385  
 -0.375  
 -0.375  
 -0.335  
 -0.290  
 -0.235  
 -0.180  
 -0.095  
 -0.050  
  0.015  
  0.035  
  0.070  
  0.080  
  0.105  
  0.100  
  0.135  
  0.140  
  0.135  
  0.120  
  0.135  
  0.130  
  0.120  
  0.090  
  0.095  
  0.090  
  0.080  
  0.060  
  0.070  
  0.045  
  0.055  
  0.020  
  0.040  
  0.050  
  0.070  
  0.045  
  0.050  
  0.040  
  0.045  
  0.040  
  0.050  
  0.035  
  0.050  
  0.025  
  0.030  
  0.015  
  0.030  
  0.015  
  0.040  
 -0.035  
 -0.060  
 -0.095  
 -0.115  
 -0.130  
 -0.185  
 -0.200  
 -0.135  
 -0.105  
 -0.050  
 -0.005  
  0.040  
  0.050  
  0.080  
  0.060  
  0.090  
  0.075  
  0.085  
  0.055  
  0.010  
 -0.350  
 -1.140  
 -1.520  
 -0.725  
  0.215  
  0.915  
  0.955  
  0.405  
  0.175  
  0.105  
  0.025  
  0.030  
  0.010  
 -0.005  
 -0.035  
 -0.035  
 -0.040  
 -0.020  
 -0.050  
 -0.045  
 -0.080  
 -0.075  
 -0.090  
 -0.095  
 -0.135  
 -0.145  
 -0.205  
 -0.220  
 -0.290  
 -0.335  
 -0.355  
 -0.360  
 -0.380  
 -0.350  
 -0.320  
 -0.260  
 -0.200  
 -0.115  
 -0.080  
 -0.015  
  0.020  
  0.050  
  0.070  
  0.095  
  0.085  
  0.130  
  0.125  
  0.125  
  0.130  
  0.145  
  0.125  
  0.130  
  0.105  
  0.120  
  0.090  
  0.095  
  0.065  
  0.085  
  0.065  
  0.070  
  0.065  
  0.075  
  0.055  
  0.060  
  0.035  
  0.060  
  0.060  
  0.065  
  0.050  
  0.050  
  0.040  
  0.045  
  0.050  
  0.060  
  0.040  
  0.055  
  0.060  
  0.065  
  0.040  
  0.045  
  0.025  
  0.045  
  0.015  
 -0.015  
 -0.060  
 -0.080  
 -0.120  
 -0.125  
 -0.180  
 -0.170  
 -0.150  
 -0.110  
 -0.070  
 -0.010  
  0.015  
  0.070  
  0.070  
  0.080  
  0.065  
  0.080  
  0.065  
  0.070  
  0.015  
 -0.230  
 -0.935  
 -1.475  
 -0.895  
  0.045  
  0.825  
  1.080  
  0.530  
  0.215  
  0.135  
  0.065  
  0.025  
  0.025  
  0.005  
 -0.005  
 -0.030  
 -0.020  
 -0.050  
 -0.040  
 -0.065  
 -0.060  
 -0.090  
 -0.105  
 -0.120  
 -0.125  
 -0.185  
 -0.205  
 -0.235  
 -0.260  
 -0.315  
 -0.330  
 -0.375  
 -0.365  
 -0.365  
 -0.340  
 -0.280  
 -0.180  
 -0.140  
 -0.060  
 -0.035  
  0.030  
  0.035  
  0.060  
  0.075  
  0.105  
  0.115  
  0.145  
  0.125  
  0.145  
  0.150  
  0.160  
  0.135  
  0.145  
  0.130  
  0.125  
  0.110  
  0.120  
  0.085  
  0.080  
  0.080  
  0.090  
  0.070  
  0.080  
  0.055  
  0.055  
  0.055  
  0.070  
  0.065  
  0.060  
  0.045  
  0.080  
  0.070  
  0.070  
  0.035  
  0.055  
  0.055  
  0.080  
  0.060  
  0.050  
  0.055  
  0.065  
  0.040  
  0.060  
  0.050  
  0.055  
  0.000  
 -0.030  
 -0.075  
 -0.090  
 -0.130  
 -0.165  
 -0.175  
 -0.100  
 -0.090  
 -0.060  
 -0.015  
  0.055  
  0.065  
  0.080  
  0.060  
  0.075  
  0.070  
  0.080  
  0.050  
  0.010  
 -0.270  
 -0.980  
 -1.505  
 -0.825  
  0.110  
  0.885  
  1.070  
  0.515  
  0.190  
  0.125  
  0.040  
  0.000  
 -0.020  
 -0.020  
 -0.025  
 -0.035  
 -0.035  
 -0.015  
 -0.050  
 -0.060  
 -0.090  
 -0.080  
 -0.110  
 -0.130  
 -0.165  
 -0.165  
 -0.200  
 -0.230  
 -0.295  
 -0.325  
 -0.355  
 -0.360  
 -0.380  
 -0.355  
 -0.325  
 -0.260  
 -0.205  
 -0.135  
 -0.095  
 -0.035  
  0.010  
  0.050  
  0.055  
  0.075  
  0.100  
  0.125  
  0.115  
  0.135  
  0.135  
  0.165  
  0.155  
  0.160  
  0.125  
  0.120  
  0.115  
  0.115  
  0.090  
  0.085  
  0.065  
  0.080  
  0.045  
  0.050  
  0.045  
  0.045  
  0.030  
  0.040  
  0.030  
  0.040  
  0.040  
  0.050  
  0.035  
  0.055  
  0.040  
  0.045  
  0.055  
  0.070  
  0.035  
  0.045  
  0.045  
  0.065  
  0.025  
  0.025  
 -0.020  
 -0.025  
 -0.065  
 -0.105  
 -0.140  
 -0.155  
 -0.175  
 -0.120  
 -0.070  
 -0.030  
  0.020  
  0.070  
  0.070  
  0.090  
  0.090  
  0.110  
  0.100  
  0.110  
  0.080  
 -0.025  
 -0.510  
 -1.315  
 -1.375  
 -0.380  
  0.520  
  1.065  
  0.865  
  0.330  
  0.185  
  0.140  
  0.075  
  0.055  
  0.035  
  0.025  
  0.005  
 -0.005  
  0.005  
  0.010  
 -0.020  
 -0.015  
 -0.030  
 -0.040  
 -0.070  
 -0.070  
 -0.100  
 -0.145  
 -0.195  
 -0.220  
 -0.280  
 -0.310  
 -0.350  
 -0.345  
 -0.350  
 -0.315  
 -0.285  
 -0.210  
 -0.140  
 -0.075  
 -0.030  
  0.045  
  0.055  
  0.105  
  0.125  
  0.140  
  0.130  
  0.170  
  0.175  
  0.180  
  0.170  
  0.170  
  0.165  
  0.170  
  0.125  
  0.130  
  0.135  
  0.115  
  0.080  
  0.060  
  0.040  
  0.045  
  0.035  
  0.055  
  0.065  
  0.065  
  0.080  
  0.085  
  0.080  
  0.065  
  0.055  
  0.070  
  0.090  
  0.105  
  0.090  
  0.095  
  0.085  
  0.090  
  0.080  
  0.050  
  0.005  
 -0.020  
 -0.055  
 -0.075  
 -0.130  
 -0.115  
 -0.080  
 -0.050  
 -0.030  
  0.050  
  0.095  
  0.110  
  0.120  
  0.135  
  0.145  
  0.145  
  0.130  
  0.125  
  0.055  
 -0.310  
 -1.190  
 -1.500  
 -0.615  
  0.335  
  0.975  
  1.045  
  0.460  
  0.240  
  0.165  
  0.110  
  0.075  
  0.075  
  0.050  
  0.030  
  0.010  
  0.025  
  0.010  
  0.010  
 -0.005  
 -0.010  
 -0.040  
 -0.040  
 -0.055  
 -0.085  
 -0.135  
 -0.145  
 -0.205  
 -0.250  
 -0.290  
 -0.305  
 -0.345  
 -0.320  
 -0.320  
 -0.270  
 -0.205  
 -0.125  
 -0.070  
 -0.005  
  0.025  
  0.085  
  0.105  
  0.130  
  0.140  
  0.165  
  0.170  
  0.175  
  0.165  
  0.195  
  0.190  
  0.205  
  0.185  
  0.170  
  0.145  
  0.150  
  0.125  
  0.125  
  0.110  
  0.120  
  0.105  
  0.095  
  0.065  
  0.085  
  0.090  
  0.095  
  0.080  
  0.090  
  0.080  
  0.080  
  0.065  
  0.085  
  0.070  
  0.080  
  0.080  
  0.090  
  0.060  
  0.065  
  0.060  
  0.020  
 -0.060  
 -0.080  
 -0.105  
 -0.120  
 -0.180  
 -0.170  
 -0.135  
 -0.080  
 -0.060  
  0.010  
  0.050  
  0.070  
  0.080  
  0.080  
  0.080  
  0.095  
  0.090  
  0.080  
  0.010  
 -0.350  
 -1.195  
 -1.540  
 -0.700  
  0.275  
  0.940  
  0.990  
  0.410  
  0.200  
  0.130  
  0.060  
  0.010  
  0.020  
  0.020  
  0.020  
 -0.025  
 -0.015  
 -0.020  
 -0.010  
 -0.035  
 -0.060  
 -0.080  
 -0.075  
 -0.120  
 -0.130  
 -0.145  
 -0.185  
 -0.235  
 -0.270  
 -0.330  
 -0.365  
 -0.375  
 -0.385  
 -0.375  
 -0.320  
 -0.275  
 -0.200  
 -0.155  
 -0.085  
 -0.040  
 -0.015  
  0.005  
  0.045  
  0.050  
  0.070  
  0.065  
  0.100  
  0.070  
  0.095  
  0.100  
  0.105  
  0.100  
  0.105  
  0.095  
  0.090  
  0.090  
  0.080  
  0.050  
  0.065  
  0.050  
  0.045  
  0.035  
  0.040  
  0.015  
  0.015  
  0.015  
  0.025  
  0.030  
  0.035  
  0.025  
  0.015  
  0.015  
  0.015  
  0.030  
  0.045  
  0.025  
  0.025  
  0.025  
 -0.005  
 -0.050  
 -0.080  
 -0.125  
 -0.145  
 -0.195  
 -0.210  
 -0.180  
 -0.135  
 -0.095  
 -0.065  
 -0.005  
  0.035  
  0.040  
  0.050  
  0.080  
  0.090  
  0.080  
  0.070  
  0.030  
 -0.170  
 -0.865  
 -1.515  
 -1.030  
 -0.050  
  0.780  
  1.085  
  0.610  
  0.230  
  0.135  
  0.065  
  0.040  
  0.030  
 -0.015  
 -0.030  
 -0.015  
 -0.010  
 -0.020  
 -0.025  
 -0.040  
 -0.065  
 -0.075  
 -0.080  
 -0.105  
 -0.115  
 -0.150  
 -0.195  
 -0.235  
 -0.285  
 -0.320  
 -0.350  
 -0.400  
 -0.400  
 -0.385  
 -0.350  
 -0.285  
 -0.225  
 -0.170  
 -0.110  
 -0.065  
 -0.015  
  0.010  
  0.035  
  0.045  
  0.060  
  0.070  
  0.090  
  0.100  
  0.120  
  0.125  
  0.125  
  0.125  
  0.135  
  0.150  
  0.135  
  0.115  
  0.110  
  0.080  
  0.045  
  0.055  
  0.070  
  0.055  
  0.030  
  0.045  
  0.055  
  0.050  
  0.030  
  0.045  
  0.040  
  0.040  
  0.060  
  0.055  
  0.030  
  0.045  
  0.055  
  0.045  
  0.035  
  0.040  
  0.045  
  0.035  
 -0.010  
 -0.035  
 -0.080  
 -0.120  
 -0.155  
 -0.180  
 -0.155  
 -0.125  
 -0.080  
 -0.035  
  0.010  
  0.055  
  0.080  
  0.080  
  0.095  
  0.105  
  0.095  
  0.095  
  0.060  
 -0.030  
 -0.530  
 -1.325  
 -1.345  
 -0.345  
  0.550  
  1.090  
  0.880  
  0.345  
  0.195  
  0.105  
  0.035  
  0.035  
  0.010  
 -0.005  
 -0.025  
 -0.025  
 -0.015  
 -0.020  
 -0.045  
 -0.050  
 -0.055  
 -0.055  
 -0.100  
 -0.110  
 -0.145  
 -0.175  
 -0.235  
 -0.270  
 -0.310  
 -0.355  
 -0.380  
 -0.380  
 -0.395  
 -0.355  
 -0.295  
 -0.240  
 -0.185  
 -0.095  
 -0.025  
  0.015  
  0.040  
  0.075  
  0.075  
  0.110  
  0.120  
  0.145  
  0.145  
  0.165  
  0.165  
  0.195  
  0.175  
  0.170  
  0.145  
  0.155  
  0.130  
  0.135  
  0.105  
  0.100  
  0.075  
  0.075  
  0.060  
  0.080  
  0.065  
  0.080  
  0.070  
  0.085  
  0.060  
  0.070  
  0.065  
  0.080  
  0.060  
  0.085  
  0.075  
  0.065  
  0.040  
  0.075  
  0.055  
  0.015  
 -0.035  
 -0.060  
 -0.100  
 -0.125  
 -0.175  
 -0.165  
 -0.145  
 -0.080  
 -0.055  
  0.010  
  0.050  
  0.085  
  0.100  
  0.110  
  0.095  
  0.100  
  0.105  
  0.090  
  0.015  
 -0.320  
 -1.190  
 -1.585  
 -0.735  
  0.240  
  0.900  
  1.020  
  0.450  
  0.205  
  0.115  
  0.030  
  0.025  
  0.025  
 -0.020  
 -0.005  
 -0.035  
 -0.040  
 -0.045  
 -0.035  
 -0.070  
 -0.080  
 -0.090  
 -0.095  
 -0.125  
 -0.135  
 -0.175  
 -0.215  
 -0.240  
 -0.270  
 -0.355  
 -0.375  
 -0.395  
 -0.390  
 -0.390  
 -0.345  
 -0.270  
 -0.170  
 -0.110  
 -0.055  
 -0.005  
  0.060  
  0.075  
  0.095  
  0.115  
  0.130  
  0.135  
  0.165  
  0.165  
  0.175  
  0.170  
  0.185  
  0.195  
  0.190  
  0.155  
  0.170  
  0.160  
  0.145  
  0.115  
  0.100  
  0.085  
  0.085  
  0.080  
  0.090  
  0.095  
  0.105  
  0.080  
  0.080  
  0.090  
  0.095  
  0.065  
  0.080  
  0.085  
  0.090  
  0.080  
  0.105  
  0.100  
  0.095  
  0.055  
  0.040  
  0.000  
 -0.045  
 -0.050  
 -0.085  
 -0.130  
 -0.135  
 -0.080  
 -0.035  
  0.005  
  0.065  
  0.120  
  0.145  
  0.125  
  0.120  
  0.125  
  0.125  
  0.105  
  0.090  
  0.000  
 -0.485  
 -1.365  
 -1.475  
 -0.505  
  0.435  
  1.010  
  0.875  
  0.350  
  0.185  
  0.095  
  0.065  
  0.040  
  0.015  
  0.000  
 -0.015  
 -0.030  
 -0.020  
 -0.030  
 -0.050  
 -0.060  
 -0.080  
 -0.105  
 -0.105  
 -0.130  
 -0.175  
 -0.200  
 -0.215  
 -0.270  
 -0.330  
 -0.365  
 -0.385  
 -0.400  
 -0.410  
 -0.390  
 -0.320  
 -0.265  
 -0.200  
 -0.115  
 -0.040  
 -0.005  
  0.035  
  0.055  
  0.080  
  0.090  
  0.105  
  0.130  
  0.120  
  0.115  
  0.140  
  0.165  
  0.155  
  0.140  
  0.155  
  0.135  
  0.135  
  0.120  
  0.115  
  0.100  
  0.105  
  0.070  
  0.070  
  0.060  
  0.080  
  0.055  
  0.045  
  0.055  
  0.070  
  0.060  
  0.040  
  0.060  
  0.070  
  0.055  
  0.045  
  0.070  
  0.090  
  0.065  
  0.075  
  0.065  
  0.060  
  0.055  
  0.055  
  0.020  
 -0.025  
 -0.080  
 -0.110  
 -0.125  
 -0.140  
 -0.170  
 -0.135  
 -0.080  
 -0.040  
  0.015  
  0.050  
  0.070  
  0.110  
  0.110  
  0.130  
  0.120  
  0.095  
  0.080  
  0.050  
 -0.230  
 -1.025  
 -1.605  
 -0.920  
  0.080  
  0.870  
  1.025  
  0.505  
  0.230  
  0.170  
  0.085  
  0.055  
  0.035  
  0.035  
  0.010  
  0.035  
  0.015  
  0.020  
  0.010  
  0.020  
 -0.005  
 -0.030  
 -0.065  
 -0.080  
 -0.115  
 -0.135  
 -0.165  
 -0.200  
 -0.265  
 -0.300  
 -0.330  
 -0.355  
 -0.370  
 -0.350  
 -0.325  
 -0.270  
 -0.220  
 -0.120  
 -0.050  
 -0.015  
  0.020  
  0.055  
  0.080  
  0.080  
  0.090  
  0.120  
  0.115  
  0.130  
  0.135  
  0.155  
  0.150  
  0.165  
  0.160  
  0.140  
  0.115  
  0.155  
  0.130  
  0.090  
  0.090  
  0.110  
  0.080  
  0.075  
  0.100  
  0.115  
  0.090  
  0.110  
  0.090  
  0.085  
  0.065  
  0.080  
  0.115  
  0.105  
  0.070  
  0.095  
  0.070  
  0.050  
  0.050  
  0.075  
  0.070  
  0.030  
  0.015  
 -0.020  
 -0.075  
 -0.075  
 -0.115  
 -0.130  
 -0.085  
 -0.015  
  0.015  
  0.085  
  0.140  
  0.185  
  0.235  
  0.240  
  0.250  
  0.310  
  0.305  
  0.305  
  0.235  
 -0.035  
 -0.880  
 -1.610  
 -0.910  
  0.170  
  0.920  
  1.210  
  0.685  
  0.335  
  0.215  
  0.135  
  0.105  
  0.085  
  0.030  
  0.005  
  0.015  
  0.045  
  0.015  
  0.000  
 -0.040  
 -0.045  
 -0.050  
 -0.040  
 -0.050  
 -0.080  
 -0.120  
 -0.090  
 -0.115  
 -0.165  
 -0.235  
 -0.275  
 -0.305  
 -0.315  
 -0.330  
 -0.290  
 -0.260  
 -0.160  
 -0.085  
 -0.050  
 -0.020  
  0.060  
  0.070  
  0.075  
  0.105  
  0.140  
  0.125  
  0.145  
  0.185  
  0.190  
  0.140  
  0.140  
  0.160  
  0.155  
  0.130  
  0.125  
  0.080  
  0.080  
  0.085  
  0.120  
  0.070  
  0.065  
  0.050  
  0.055  
  0.065  
  0.080  
  0.050  
  0.080  
  0.070  
  0.095  
  0.050  
  0.045  
  0.040  
  0.015  
  0.005  
  0.060  
  0.030  
  0.035  
  0.025  
 -0.050  
 -0.115  
 -0.050  
 -0.070  
 -0.120  
 -0.125  
 -0.145  
 -0.100  
 -0.040  
 -0.005  
  0.090  
  0.135  
  0.170  
  0.175  
  0.190  
  0.210  
  0.185  
  0.150  
  0.150  
  0.005  
 -0.480  
 -1.485  
 -1.685  
 -0.575  
  0.535  
  1.125  
  0.995  
  0.415  
  0.225  
  0.105  
  0.085  
  0.065  
  0.040  
 -0.025  
  0.015  
  0.005  
  0.005  
 -0.045  
 -0.050  
 -0.080  
 -0.075  
 -0.100  
 -0.095  
 -0.105  
 -0.140  
 -0.185  
 -0.195  
 -0.285  
 -0.335  
 -0.375  
 -0.385  
 -0.400  
 -0.380  
 -0.370  
 -0.325  
 -0.305  
 -0.195  
 -0.125  
 -0.080  
 -0.055  
 -0.035  
  0.000  
  0.030  
  0.040  
  0.080  
  0.080  
  0.105  
  0.060  
  0.115  
  0.105  
  0.090  
  0.065  
  0.080  
  0.070  
  0.080  
  0.035  
  0.030  
  0.015  
  0.015  
 -0.010  
 -0.025  
 -0.015  
 -0.015  
 -0.060  
 -0.010  
 -0.030  
 -0.045  
 -0.010  
  0.015  
 -0.030  
 -0.025  
 -0.025  
  0.010  
 -0.035  
 -0.030  
 -0.040  
 -0.010  
 -0.060  
 -0.115  
 -0.135  
 -0.175  
 -0.210  
 -0.225  
 -0.240  
 -0.220  
 -0.200  
 -0.155  
 -0.150  
 -0.085  
 -0.035  
  0.010  
 -0.020  
 -0.010  
 -0.030  
 -0.010  
 -0.015  
 -0.030  
 -0.325  
 -1.070  
 -1.865  
 -1.255  
 -0.015  
  0.910  
  1.125  
  0.645  
  0.255  
  0.070  
 -0.045  
 -0.045  
 -0.045  
 -0.025  
 -0.030  
 -0.005  
 -0.070  
 -0.105  
 -0.175  
 -0.150  
 -0.120  
 -0.120  
 -0.145  
 -0.135  
 -0.215  
 -0.230  
 -0.240  
 -0.295  
 -0.330  
 -0.345  
 -0.415  
 -0.425  
 -0.430  
 -0.405  
 -0.405  
 -0.345  
 -0.280  
 -0.180  
 -0.145  
 -0.095  
 -0.040  
 -0.025  
 -0.015  
  0.030  
  0.045  
  0.055  
  0.045  
  0.105  
  0.115  
  0.105  
  0.100  
  0.105  
  0.090  
  0.070  
  0.050  
  0.080  
  0.015  
  0.055  
  0.025  
 -0.020  
 -0.010  
  0.025  
  0.010  
  0.005  
  0.015  
  0.020  
 -0.015  
 -0.015  
 -0.035  
 -0.025  
 -0.055  
 -0.040  
 -0.100  
 -0.100  
 -0.050  
 -0.065  
 -0.130  
 -0.165  
 -0.225  
 -0.225  
 -0.265  
 -0.295  
 -0.280  
 -0.235  
 -0.235  
 -0.175  
 -0.110  
 -0.055  
 -0.045  
  0.020  
 -0.010  
 -0.030  
 -0.020  
  0.025  
 -0.020  
 -0.135  
 -0.765  
 -1.650  
 -1.460  
 -0.285  
  0.710  
  1.110  
  0.680  
  0.210  
  0.105  
  0.045  
 -0.015  
 -0.025  
 -0.060  
 -0.045  
 -0.055  
 -0.045  
 -0.080  
 -0.095  
 -0.140  
 -0.125  
 -0.115  
 -0.130  
 -0.160  
 -0.165  
 -0.210  
 -0.210  
 -0.245  
 -0.305  
 -0.355  
 -0.335  
 -0.365  
 -0.380  
 -0.395  
 -0.345  
 -0.335  
 -0.240  
 -0.170  
 -0.125  
 -0.075  
 -0.025  
 -0.005  
  0.010  
  0.035  
  0.050  
  0.030  
  0.075  
  0.060  
  0.055  
  0.080  
  0.115  
  0.080  
  0.110  
  0.100  
  0.085  
  0.025  
  0.060  
  0.065  
  0.005  
 -0.035  
 -0.025  
 -0.005  
  0.025  
 -0.025  
 -0.030  
 -0.040  
 -0.050  
 -0.040  
 -0.025  
 -0.045  
  0.005  
 -0.025  
 -0.050  
 -0.050  
 -0.035  
 -0.085  
 -0.100  
 -0.120  
 -0.130  
 -0.155  
 -0.165  
 -0.250  
 -0.280  
 -0.225  
 -0.130  
 -0.080  
 -0.015  
  0.005  
  0.030  
  0.015  
  0.055  
  0.030  
  0.055  
  0.080  
  0.060  
 -0.070  
 -0.590  
 -1.455  
 -1.375  
 -0.285  
  0.720  
  1.180  
  0.870  
  0.295  
  0.180  
  0.055  
  0.005  
 -0.040  
 -0.080  
 -0.070  
 -0.045  
 -0.095  
 -0.035  
 -0.045  
 -0.070  
 -0.080  
 -0.115  
 -0.155  
 -0.095  
 -0.115  
 -0.155  
 -0.210  
 -0.195  
 -0.230  
 -0.275  
 -0.315  
 -0.305  
 -0.360  
 -0.390  
 -0.365  
 -0.295  
 -0.260  
 -0.155  
 -0.085  
 -0.035  
 -0.010  
  0.080  
  0.095  
  0.105  
  0.110  
  0.145  
  0.125  
  0.165  
  0.180  
  0.145  
  0.165  
  0.230  
  0.185  
  0.175  
  0.145  
  0.135  
  0.130  
  0.120  
  0.090  
  0.090  
  0.070  
  0.105  
  0.080  
  0.080  
  0.080  
  0.080  
  0.095  
  0.130  
  0.095  
  0.120  
  0.075  
  0.065  
  0.100  
  0.080  
 -0.035  
 -0.020  
 -0.065  
 -0.090  
 -0.170  
 -0.185  
 -0.175  
 -0.115  
 -0.080  
  0.015  
  0.045  
  0.075  
  0.090  
  0.120  
  0.100  
  0.105  
  0.080  
  0.085  
  0.015  
 -0.260  
 -1.065  
 -1.545  
 -0.740  
  0.305  
  1.045  
  1.220  
  0.570  
  0.240  
  0.115  
  0.020  
 -0.005  
  0.030  
 -0.030  
 -0.020  
 -0.035  
 -0.040  
 -0.065  
 -0.065  
 -0.055  
 -0.055  
 -0.080  
 -0.090  
 -0.120  
 -0.145  
 -0.205  
 -0.195  
 -0.255  
 -0.315  
 -0.325  
 -0.320  
 -0.370  
 -0.385  
 -0.370  
 -0.310  
 -0.290  
 -0.175  
 -0.090  
 -0.040  
 -0.025  
  0.005  
 -0.005  
  0.080  
  0.085  
  0.115  
  0.105  
  0.105  
  0.135  
  0.145  
  0.130  
  0.125  
  0.095  
  0.100  
  0.105  
  0.080  
  0.055  
  0.095  
  0.035  
  0.045  
 -0.005  
  0.045  
  0.065  
  0.080  
  0.045  
  0.030  
  0.035  
  0.065  
  0.055  
  0.050  
  0.080  
  0.110  
  0.060  
  0.025  
 -0.035  
 -0.055  
 -0.105  
 -0.070  
 -0.130  
 -0.150  
 -0.155  
 -0.085  
 -0.080  
 -0.010  
  0.055  
  0.080  
  0.090  
  0.125  
  0.080  
  0.095  
  0.080  
  0.090  
  0.055  
 -0.135  
 -0.865  
 -1.590  
 -1.030  
  0.090  
  0.935  
  1.275  
  0.725  
  0.290  
  0.200  
  0.090  
  0.005  
  0.030  
  0.005  
 -0.015  
 -0.010  
 -0.015  
 -0.070  
 -0.070  
 -0.070  
 -0.050  
 -0.115  
 -0.075  
 -0.085  
 -0.100  
 -0.165  
 -0.140  
 -0.205  
 -0.275  
 -0.295  
 -0.330  
 -0.350  
 -0.345  
 -0.335  
 -0.275  
 -0.260  
 -0.185  
 -0.095  
 -0.005  
  0.015  
  0.050  
  0.085  
  0.105  
  0.110  
  0.155  
  0.175  
  0.185  
  0.195  
  0.230  
  0.200  
  0.200  
  0.200  
  0.210  
  0.170  
  0.170  
  0.180  
  0.170  
  0.120  
  0.115  
  0.090  
  0.110  
  0.090  
  0.085  
  0.080  
  0.090  
  0.090  
  0.110  
  0.110  
  0.105  
  0.060  
  0.065  
  0.020  
 -0.005  
 -0.045  
 -0.035  
 -0.050  
 -0.095  
 -0.130  
 -0.080  
 -0.115  
 -0.055  
  0.040  
  0.115  
  0.125  
  0.195  
  0.175  
  0.125  
  0.110  
  0.145  
  0.130  
  0.075  
 -0.185  
 -1.030  
 -1.615  
 -0.720  
  0.340  
  1.070  
  1.220  
  0.625  
  0.240  
  0.180  
  0.070  
  0.065  
  0.070  
  0.045  
 -0.015  
  0.015  
  0.020  
  0.040  
 -0.010  
 -0.010  
 -0.010  
 -0.080  
 -0.110  
 -0.095  
 -0.120  
 -0.130  
 -0.195  
 -0.205  
 -0.255  
 -0.315  
 -0.325  
 -0.295  
 -0.315  
 -0.320  
 -0.290  
 -0.210  
 -0.170  
 -0.090  
 -0.060  
  0.025  
  0.040  
  0.065  
  0.095  
  0.135  
  0.105  
  0.120  
  0.125  
  0.165  
  0.185  
  0.145  
  0.135  
  0.195  
  0.135  
  0.105  
  0.100  
  0.135  
  0.080  
  0.080  
  0.065  
  0.080  
  0.070  
  0.085  
  0.060  
  0.095  
  0.110  
  0.165  
  0.130  
  0.090  
  0.080  
  0.050  
  0.005  
  0.005  
 -0.030  
 -0.010  
  0.045  
  0.080  
  0.015  
  0.055  
  0.050  
  0.090  
  0.115  
  0.120  
  0.150  
  0.170  
  0.125  
  0.130  
  0.155  
  0.200  
  0.155  
  0.145  
  0.070  
 -0.450  
 -1.400  
 -1.445  
 -0.370  
  0.615  
  1.185  
  1.000  
  0.435  
  0.240  
  0.080  
  0.105  
  0.045  
  0.050  
  0.060  
 -0.035  
 -0.030  
 -0.010  
 -0.045  
  0.010  
 -0.015  
  0.025  
 -0.040  
 -0.040  
 -0.080  
 -0.095  
 -0.105  
 -0.125  
 -0.180  
 -0.235  
 -0.265  
 -0.240  
 -0.285  
 -0.240  
 -0.235  
 -0.215  
 -0.190  
 -0.105  
 -0.015  
  0.010  
  0.055  
  0.140  
  0.115  
  0.135  
  0.150  
  0.195  
  0.180  
  0.220  
  0.210  
  0.210  
  0.190  
  0.185  
  0.210  
  0.135  
  0.125  
  0.180  
  0.115  
  0.125  
  0.100  
  0.105  
  0.115  
  0.100  
  0.115  
  0.110  
  0.060  
  0.115  
  0.095  
  0.115  
  0.140  
  0.135  
  0.130  
  0.125  
  0.035  
 -0.005  
 -0.015  
 -0.005  
  0.000  
 -0.005  
 -0.095  
 -0.035  
  0.000  
  0.025  
  0.085  
  0.170  
  0.205  
  0.225  
  0.215  
  0.255  
  0.225  
  0.215  
  0.125  
  0.145  
 -0.135  
 -0.980  
 -1.510  
 -0.705  
  0.335  
  1.130  
  1.240  
  0.625  
  0.315  
  0.210  
  0.120  
  0.175  
  0.110  
  0.100  
  0.055  
  0.065  
  0.050  
  0.035  
  0.080  
  0.105  
  0.115  
  0.065  
 -0.005  
  0.030  
  0.020  
 -0.020  
 -0.135  
 -0.190  
 -0.240  
 -0.280  
 -0.340  
 -0.325  
 -0.310  
 -0.295  
 -0.265  
 -0.185  
 -0.170  
 -0.005  
  0.015  
 -0.020  
  0.080  
  0.135  
  0.095  
  0.140  
  0.225  
  0.155  
  0.065  
  0.130  
  0.170  
  0.220  
  0.185  
  0.160  
  0.160  
  0.165  
  0.045  
  0.045  
  0.005  
  0.090  
  0.100  
  0.065  
  0.030  
  0.090  
  0.095  
  0.045  
 -0.040  
 -0.025  
  0.035  
  0.095  
  0.030  
 -0.080  
 -0.080  
 -0.070  
 -0.115  
 -0.105  
 -0.155  
 -0.120  
 -0.145  
 -0.080  
 -0.020  
  0.080  
  0.105  
  0.115  
  0.155  
  0.115  
  0.080  
  0.115  
  0.100  
  0.070  
 -0.455  
 -1.295  
 -1.360  
 -0.330  
  0.545  
  1.130  
  1.050  
  0.500  
  0.260  
  0.160  
  0.115  
  0.070  
 -0.005  
  0.045  
  0.065  
  0.070  
  0.085  
  0.055  
 -0.010  
  0.005  
 -0.050  
 -0.020  
 -0.040  
 -0.055  
 -0.125  
 -0.195  
 -0.250  
 -0.280  
 -0.280  
 -0.295  
 -0.335  
 -0.335  
 -0.295  
 -0.240  
 -0.220  
 -0.155  
 -0.075  
 -0.010  
  0.070  
  0.150  
  0.155  
  0.180  
  0.215  
  0.250  
  0.240  
  0.275  
  0.245  
  0.225  
  0.205  
  0.220  
  0.225  
  0.155  
  0.105  
  0.150  
  0.105  
  0.120  
  0.090  
  0.065  
  0.090  
  0.135  
  0.080  
  0.055  
  0.070  
  0.085  
  0.105  
  0.090  
  0.055  
  0.030  
 -0.035  
 -0.080  
 -0.115  
 -0.095  
 -0.140  
 -0.145  
 -0.105  
 -0.025  
  0.000  
  0.105  
  0.120  
  0.125  
  0.115  
  0.140  
  0.105  
  0.115  
  0.085  
  0.055  
 -0.295  
 -1.200  
 -1.750  
 -0.855  
  0.195  
  0.920  
  1.015  
  0.415  
  0.210  
  0.135  
  0.045  
  0.060  
  0.015  
 -0.005  
 -0.030  
  0.030  
  0.015  
 -0.030  
 -0.055  
 -0.030  
 -0.040  
 -0.035  
 -0.070  
 -0.100  
 -0.145  
 -0.140  
 -0.215  
 -0.265  
 -0.325  
 -0.335  
 -0.365  
 -0.380  
 -0.395  
 -0.315  
 -0.310  
 -0.240  
 -0.140  
 -0.095  
 -0.075  
  0.005  
  0.050  
  0.090  
  0.110  
  0.095  
  0.085  
  0.130  
  0.130  
  0.175  
  0.165  
  0.195  
  0.160  
  0.140  
  0.120  
  0.160  
  0.160  
  0.115  
  0.080  
  0.090  
  0.090  
  0.075  
  0.050  
  0.085  
  0.095  
  0.055  
  0.020  
  0.055  
  0.010  
 -0.005  
 -0.045  
 -0.090  
 -0.165  
 -0.225  
 -0.200  
 -0.125  
 -0.110  
 -0.055  
 -0.010  
  0.025  
  0.040  
  0.095  
  0.085  
  0.085  
  0.125  
  0.095  
  0.060  
  0.015  
 -0.400  
 -1.285  
 -1.625  
 -0.720  
  0.225  
  0.905  
  0.890  
  0.330  
  0.115  
  0.075  
  0.025  
  0.005  
 -0.030  
 -0.055  
 -0.085  
 -0.035  
 -0.065  
 -0.060  
 -0.080  
 -0.090  
 -0.095  
 -0.090  
 -0.135  
 -0.145  
 -0.175  
 -0.200  
 -0.240  
 -0.245  
 -0.305  
 -0.425  
 -0.415  
 -0.400  
 -0.445  
 -0.425  
 -0.400  
 -0.275  
 -0.195  
 -0.120  
 -0.055  
  0.020  
  0.010  
  0.010  
 -0.010  
  0.040  
  0.100  
  0.110  
  0.125  
  0.130  
  0.085  
  0.120  
  0.135  
  0.155  
  0.095  
  0.125  
  0.125  
  0.105  
  0.035  
  0.020  
  0.080  
  0.115  
  0.040  
  0.025  
  0.030  
  0.060  
  0.055  
  0.030  
  0.015  
 -0.035  
 -0.080  
 -0.055  
 -0.070  
 -0.140  
 -0.225  
 -0.190  
 -0.110  
 -0.080  
 -0.075  
  0.025  
  0.090  
  0.100  
  0.085  
  0.095  
  0.110  
  0.125  
  0.100  
  0.090  
 -0.075  
 -0.720  
 -1.540  
 -1.210  
 -0.165  
  0.780  
  1.180  
  0.775  
  0.290  
  0.180  
  0.120  
  0.095  
  0.015  
 -0.025  
 -0.020  
  0.000  
 -0.005  
 -0.040  
 -0.085  
 -0.020  
 -0.040  
 -0.060  
 -0.050  
 -0.075  
 -0.115  
 -0.150  
 -0.235  
 -0.240  
 -0.285  
 -0.345  
 -0.375  
 -0.370  
 -0.415  
 -0.435  
 -0.415  
 -0.315  
 -0.250  
 -0.140  
 -0.080  
 -0.035  
  0.010  
  0.050  
  0.065  
  0.050  
  0.060  
  0.100  
  0.100  
  0.125  
  0.105  
  0.125  
  0.110  
  0.105  
  0.150  
  0.155  
  0.095  
  0.125  
  0.080  
  0.065  
  0.080  
  0.065  
  0.070  
  0.055  
  0.050  
  0.065  
  0.055  
  0.080  
  0.010  
 -0.015  
 -0.075  
 -0.095  
 -0.095  
 -0.100  
 -0.165  
 -0.180  
 -0.135  
 -0.075  
 -0.025  
  0.080  
  0.105  
  0.135  
  0.160  
  0.150  
  0.085  
  0.095  
  0.130  
  0.085  
 -0.080  
 -0.670  
 -1.485  
 -1.175  
 -0.130  
  0.760  
  1.215  
  0.835  
  0.310  
  0.170  
  0.060  
  0.045  
  0.030  
  0.005  
 -0.030  
 -0.025  
 -0.055  
 -0.075  
 -0.050  
 -0.065  
 -0.115  
 -0.100  
 -0.080  
 -0.095  
 -0.150  
 -0.190  
 -0.255  
 -0.255  
 -0.305  
 -0.370  
 -0.415  
 -0.430  
 -0.445  
 -0.440  
 -0.400  
 -0.305  
 -0.250  
 -0.175  
 -0.100  
 -0.030  
  0.045  
  0.060  
  0.080  
  0.095  
  0.110  
  0.185  
  0.160  
  0.150  
  0.185  
  0.170  
  0.145  
  0.145  
  0.125  
  0.170  
  0.135  
  0.100  
  0.055  
  0.060  
  0.115  
  0.115  
  0.060  
  0.080  
  0.105  
  0.120  
  0.045  
  0.035  
 -0.005  
 -0.020  
 -0.045  
 -0.075  
 -0.120  
 -0.105  
 -0.105  
 -0.070  
 -0.035  
  0.040  
  0.135  
  0.135  
  0.105  
  0.155  
  0.195  
  0.180  
  0.175  
  0.160  
  0.060  
 -0.195  
 -0.960  
 -1.625  
 -0.905  
  0.140  
  0.895  
  1.110  
  0.535  
  0.260  
  0.180  
  0.060  
  0.035  
  0.030  
 -0.010  
  0.015  
 -0.005  
 -0.035  
 -0.020  
 -0.050  
 -0.075  
 -0.080  
 -0.090  
 -0.100  
 -0.150  
 -0.170  
 -0.170  
 -0.235  
 -0.315  
 -0.345  
 -0.365  
 -0.400  
 -0.445  
 -0.405  
 -0.400  
 -0.385  
 -0.305  
 -0.205  
 -0.100  
 -0.035  
 -0.005  
  0.015  
  0.055  
  0.090  
  0.115  
  0.110  
  0.115  
  0.140  
  0.145  
  0.130  
  0.125  
  0.170  
  0.125  
  0.115  
  0.110  
  0.105  
  0.090  
  0.080  
  0.055  
  0.015  
  0.035  
  0.055  
  0.065  
  0.095  
  0.045  
 -0.005  
 -0.030  
 -0.065  
 -0.105  
 -0.105  
 -0.155  
 -0.145  
 -0.170  
 -0.145  
 -0.100  
 -0.015  
  0.065  
  0.085  
  0.120  
  0.135  
  0.125  
  0.130  
  0.095  
  0.080  
  0.035  
 -0.305  
 -1.150  
 -1.640  
 -0.800  
  0.270  
  1.025  
  1.115  
  0.480  
  0.230  
  0.140  
  0.045  
  0.025  
 -0.005  
 -0.040  
 -0.025  
 -0.005  
 -0.045  
 -0.090  
 -0.090  
 -0.070  
 -0.070  
 -0.130  
 -0.140  
 -0.160  
 -0.185  
 -0.195  
 -0.290  
 -0.400  
 -0.375  
 -0.380  
 -0.460  
 -0.475  
 -0.480  
 -0.455  
 -0.395  
 -0.330  
 -0.250  
 -0.185  
 -0.070  
 -0.010  
  0.015  
  0.035  
 -0.015  
  0.005  
  0.055  
  0.080  
  0.125  
  0.095  
  0.095  
  0.145  
  0.120  
  0.100  
  0.055  
  0.100  
  0.135  
  0.095  
  0.030  
 -0.005  
  0.035  
  0.025  
 -0.005  
  0.015  
 -0.030  
 -0.080  
 -0.110  
 -0.140  
 -0.130  
 -0.175  
 -0.185  
 -0.135  
 -0.125  
 -0.075  
  0.000  
  0.055  
  0.070  
  0.075  
  0.090  
  0.110  
  0.100  
  0.105  
  0.085  
 -0.025  
 -0.580  
 -1.470  
 -1.415  
 -0.325  
  0.630  
  1.175  
  0.885  
  0.270  
  0.135  
  0.055  
  0.000  
  0.015  
  0.010  
 -0.015  
 -0.055  
 -0.080  
 -0.065  
 -0.070  
 -0.070  
 -0.110  
 -0.120  
 -0.105  
 -0.165  
 -0.170  
 -0.200  
 -0.245  
 -0.265  
 -0.335  
 -0.425  
 -0.445  
 -0.430  
 -0.445  
 -0.430  
 -0.425  
 -0.335  
 -0.255  
 -0.180  
 -0.090  
 -0.055  
  0.000  
  0.040  
  0.090  
  0.080  
  0.095  
  0.105  
  0.105  
  0.145  
  0.150  
  0.120  
  0.135  
  0.150  
  0.135  
  0.130  
  0.150  
  0.135  
  0.120  
  0.110  
  0.085  
  0.080  
  0.110  
  0.070  
  0.030  
  0.050  
  0.040  
 -0.040  
 -0.075  
 -0.120  
 -0.150  
 -0.135  
 -0.145  
 -0.135  
 -0.045  
  0.020  
  0.085  
  0.090  
  0.115  
  0.130  
  0.115  
  0.080  
  0.125  
  0.145  
  0.085  
 -0.185  
 -1.075  
 -1.735  
 -0.910  
  0.135  
  0.880  
  1.115  
  0.545  
  0.225  
  0.125  
  0.015  
 -0.010  
 -0.020  
 -0.055  
 -0.080  
 -0.065  
 -0.100  
 -0.110  
 -0.080  
 -0.100  
 -0.125  
 -0.130  
 -0.145  
 -0.180  
 -0.230  
 -0.255  
 -0.270  
 -0.315  
 -0.370  
 -0.390  
 -0.425  
 -0.400  
 -0.450  
 -0.410  
 -0.365  
 -0.295  
 -0.205  
 -0.145  
 -0.115  
 -0.050  
  0.010  
  0.035  
  0.025  
  0.090  
  0.105  
  0.070  
  0.090  
  0.135  
  0.125  
  0.130  
  0.110  
  0.115  
  0.090  
  0.095  
  0.075  
  0.045  
  0.035  
  0.050  
  0.015  
  0.040  
  0.050  
  0.030  
  0.045  
  0.050  
  0.015  
  0.025  
 -0.040  
 -0.045  
 -0.075  
 -0.135  
 -0.140  
 -0.145  
 -0.205  
 -0.165  
 -0.100  
 -0.065  
 -0.010  
  0.030  
  0.055  
  0.095  
  0.095  
  0.100  
  0.080  
  0.040  
  0.040  
 -0.030  
 -0.590  
 -1.515  
 -1.595  
 -0.460  
  0.575  
  1.070  
  0.775  
  0.225  
  0.110  
  0.080  
  0.005  
 -0.020  
 -0.080  
 -0.065  
 -0.100  
 -0.100  
 -0.085  
 -0.070  
 -0.090  
 -0.110  
 -0.135  
 -0.165  
 -0.175  
 -0.170  
 -0.250  
 -0.270  
 -0.305  
 -0.305  
 -0.345  
 -0.410  
 -0.440  
 -0.415  
 -0.460  
 -0.430  
 -0.365  
 -0.255  
 -0.190  
 -0.130  
 -0.085  
 -0.030  
 -0.035  
  0.010  
  0.065  
  0.080  
  0.085  
  0.070  
  0.100  
  0.110  
  0.055  
  0.100  
  0.105  
  0.135  
  0.130  
  0.115  
  0.055  
  0.075  
  0.055  
  0.015  
  0.005  
  0.035  
 -0.015  
 -0.005  
 -0.005  
 -0.005  
 -0.020  
  0.010  
 -0.005  
 -0.030  
 -0.100  
 -0.125  
 -0.170  
 -0.145  
 -0.200  
 -0.225  
 -0.180  
 -0.155  
 -0.090  
 -0.040  
 -0.025  
  0.030  
  0.050  
  0.085  
  0.030  
  0.045  
  0.095  
  0.105  
  0.015  
 -0.280  
 -1.095  
 -1.660  
 -0.865  
  0.240  
  0.940  
  1.055  
  0.520  
  0.225  
  0.085  
  0.025  
 -0.020  
 -0.035  
 -0.055  
 -0.045  
 -0.040  
 -0.025  
 -0.040  
 -0.070  
 -0.120  
 -0.115  
 -0.140  
 -0.125  
 -0.165  
 -0.195  
 -0.240  
 -0.250  
 -0.295  
 -0.370  
 -0.420  
 -0.390  
 -0.445  
 -0.485  
 -0.415  
 -0.350  
 -0.325  
 -0.245  
 -0.190  
 -0.120  
 -0.085  
 -0.080  
 -0.055  
  0.030  
  0.035  
  0.055  
  0.060  
  0.080  
  0.080  
  0.115  
  0.085  
  0.085  
  0.060  
  0.070  
  0.085  
  0.080  
  0.025  
  0.015  
  0.025  
  0.030  
  0.020  
 -0.015  
 -0.005  
  0.025  
  0.035  
  0.020  
 -0.015  
  0.005  
  0.025  
  0.030  
 -0.080  
 -0.135  
 -0.140  
 -0.145  
 -0.230  
 -0.225  
 -0.220  
 -0.150  
 -0.080  
 -0.070  
 -0.045  
  0.055  
  0.085  
  0.115  
  0.060  
  0.050  
  0.050  
  0.055  
  0.020  
 -0.215  
 -0.975  
 -1.535  
 -0.825  
  0.185  
  0.980  
  1.205  
  0.575  
  0.155  
  0.090  
  0.025  
 -0.045  
 -0.045  
 -0.065  
 -0.080  
 -0.115  
 -0.105  
 -0.105  
 -0.130  
 -0.155  
 -0.140  
 -0.175  
 -0.225  
 -0.220  
 -0.265  
 -0.285  
 -0.305  
 -0.370  
 -0.410  
 -0.490  
 -0.510  
 -0.505  
 -0.490  
 -0.505  
 -0.430  
 -0.395  
 -0.325  
 -0.230  
 -0.155  
 -0.115  
 -0.090  
 -0.055  
 -0.025  
 -0.005  
  0.030  
  0.010  
  0.010  
  0.045  
  0.045  
  0.055  
  0.085  
  0.080  
  0.075  
 -0.010  
 -0.005  
  0.000  
 -0.015  
  0.000  
 -0.005  
 -0.025  
 -0.035  
 -0.020  
 -0.010  
 -0.040  
 -0.010  
  0.005  
  0.030  
 -0.030  
 -0.070  
 -0.105  
 -0.145  
 -0.190  
 -0.165  
 -0.240  
 -0.275  
 -0.240  
 -0.165  
 -0.140  
 -0.120  
 -0.020  
  0.030  
 -0.030  
 -0.025  
  0.000  
  0.020  
  0.005  
  0.035  
 -0.015  
 -0.185  
 -0.905  
 -1.590  
 -1.020  
 -0.030  
  0.735  
  1.095  
  0.570  
  0.145  
  0.060  
 -0.040  
 -0.055  
 -0.110  
 -0.145  
 -0.130  
 -0.170  
 -0.185  
 -0.155  
 -0.100  
 -0.150  
 -0.180  
 -0.170  
 -0.190  
 -0.265  
 -0.295  
 -0.275  
 -0.315  
 -0.390  
 -0.400  
 -0.440  
 -0.485  
 -0.500  
 -0.485  
 -0.455  
 -0.370  
 -0.305  
 -0.270  
 -0.200  
 -0.095  
 -0.050  
 -0.010  
 -0.015  
  0.005  
  0.095  
  0.155  
  0.065  
  0.045  
  0.065  
  0.055  
  0.100  
  0.135  
  0.080  
  0.055  
  0.040  
  0.030  
  0.055  
  0.090  
  0.020  
 -0.010  
  0.010  
  0.015  
  0.050  
  0.060  
  0.020  
  0.040  
  0.035  
  0.040  
  0.020  
  0.000  
 -0.035  
 -0.115  
 -0.110  
 -0.100  
 -0.200  
 -0.260  
 -0.230  
 -0.120  
 -0.080  
 -0.015  
  0.020  
  0.060  
  0.060  
  0.040  
  0.060  
  0.080  
  0.100  
  0.135  
  0.030  
 -0.195  
 -0.965  
 -1.640  
 -0.985  
  0.080  
  0.870  
  1.120  
  0.575  
  0.180  
  0.080  
  0.050  
  0.000  
  0.000  
 -0.020  
 -0.055  
 -0.080  
 -0.050  
 -0.065  
 -0.095  
 -0.090  
 -0.070  
 -0.115  
 -0.100  
 -0.150  
 -0.185  
 -0.180  
 -0.230  
 -0.305  
 -0.325  
 -0.345  
 -0.365  
 -0.365  
 -0.425  
 -0.420  
 -0.315  
 -0.290  
 -0.165  
 -0.080  
 -0.060  
 -0.005  
  0.080  
  0.070  
  0.090  
  0.120  
  0.155  
  0.135  
  0.155  
  0.175  
  0.200  
  0.180  
  0.155  
  0.145  
  0.100  
  0.100  
  0.115  
  0.095  
  0.065  
  0.055  
  0.045  
  0.020  
  0.090  
  0.080  
  0.055  
  0.080  
  0.065  
  0.095  
  0.090  
  0.070  
  0.085  
  0.020  
 -0.025  
 -0.035  
 -0.060  
 -0.120  
 -0.120  
 -0.165  
 -0.145  
 -0.100  
 -0.030  
 -0.015  
  0.030  
  0.115  
  0.145  
  0.145  
  0.130  
  0.080  
  0.130  
  0.120  
  0.065  
 -0.165  
 -0.895  
 -1.585  
 -0.980  
  0.060  
  0.900  
  1.200  
  0.675  
  0.235  
  0.135  
  0.060  
  0.055  
  0.025  
 -0.005  
  0.020  
  0.035  
  0.010  
  0.010  
  0.005  
 -0.020  
 -0.060  
 -0.060  
 -0.035  
 -0.055  
 -0.115  
 -0.155  
 -0.185  
 -0.245  
 -0.290  
 -0.315  
 -0.350  
 -0.330  
 -0.385  
 -0.365  
 -0.335  
 -0.250  
 -0.145  
 -0.065  
 -0.045  
  0.035  
  0.115  
  0.085  
  0.110  
  0.140  
  0.145  
  0.180  
  0.190  
  0.240  
  0.210  
  0.195  
  0.180  
  0.200  
  0.190  
  0.155  
  0.160  
  0.110  
  0.125  
  0.160  
  0.135  
  0.135  
  0.110  
  0.125  
  0.125  
  0.145  
  0.145  
  0.110  
  0.120  
  0.145  
  0.095  
  0.065  
 -0.005  
 -0.030  
 -0.005  
 -0.045  
 -0.065  
 -0.070  
 -0.055  
  0.025  
  0.080  
  0.085  
  0.140  
  0.175  
  0.175  
  0.170  
  0.140  
  0.135  
  0.145  
  0.170  
 -0.040  
 -0.805  
 -1.625  
 -1.120  
 -0.065  
  0.815  
  1.200  
  0.705  
  0.285  
  0.180  
  0.110  
  0.085  
  0.015  
  0.005  
 -0.005  
  0.035  
  0.050  
  0.020  
  0.005  
  0.000  
 -0.015  
 -0.040  
 -0.045  
 -0.080  
 -0.135  
 -0.080  
 -0.145  
 -0.225  
 -0.280  
 -0.310  
 -0.350  
 -0.375  
 -0.365  
 -0.345  
 -0.270  
 -0.240  
 -0.175  
 -0.045  
 -0.060  
 -0.015  
  0.080  
  0.125  
  0.175  
  0.200  
  0.170  
  0.190  
  0.165  
  0.180  
  0.200  
  0.200  
  0.205  
  0.230  
  0.185  
  0.155  
  0.165  
  0.140  
  0.140  
  0.165  
  0.150  
  0.170  
  0.155  
  0.100  
  0.125  
  0.175  
  0.150  
  0.130  
  0.145  
  0.155  
  0.130  
  0.145  
  0.175  
  0.095  
 -0.010  
 -0.045  
 -0.045  
 -0.070  
 -0.110  
 -0.080  
 -0.055  
  0.005  
  0.000  
  0.055  
  0.110  
  0.185  
  0.205  
  0.170  
  0.125  
  0.120  
  0.165  
  0.150  
 -0.025  
 -0.710  
 -1.550  
 -1.165  
 -0.095  
  0.825  
  1.280  
  0.840  
  0.340  
  0.210  
  0.125  
  0.105  
  0.055  
  0.035  
  0.030  
  0.060  
  0.065  
  0.045  
  0.035  
  0.045  
  0.000  
 -0.030  
 -0.055  
 -0.060  
 -0.070  
 -0.090  
 -0.140  
 -0.215  
 -0.230  
 -0.250  
 -0.275  
 -0.300  
 -0.315  
 -0.295  
 -0.275  
 -0.220  
 -0.135  
 -0.030  
  0.020  
  0.020  
  0.085  
  0.145  
  0.145  
  0.205  
  0.210  
  0.205  
  0.210  
  0.225  
  0.195  
  0.205  
  0.240  
  0.225  
  0.195  
  0.255  
  0.215  
  0.130  
  0.115  
  0.145  
  0.130  
  0.105  
  0.135  
  0.150  
  0.135  
  0.140  
  0.115  
  0.110  
  0.115  
  0.115  
  0.105  
  0.155  
  0.185  
  0.155  
  0.100  
  0.065  
  0.000  
 -0.020  
  0.015  
 -0.035  
 -0.080  
 -0.040  
 -0.020  
  0.060  
  0.130  
  0.150  
  0.220  
  0.305  
  0.255  
  0.245  
  0.220  
  0.205  
  0.170  
  0.095  
 -0.400  
 -1.355  
 -1.515  
 -0.455  
  0.585  
  1.215  
  1.050  
  0.445  
  0.265  
  0.200  
  0.130  
  0.105  
  0.070  
  0.110  
  0.115  
  0.080  
  0.080  
  0.080  
  0.055  
  0.070  
  0.040  
  0.050  
  0.015  
  0.000  
 -0.040  
 -0.075  
 -0.125  
 -0.205  
 -0.225  
 -0.215  
 -0.295  
 -0.315  
 -0.285  
 -0.200  
 -0.175  
 -0.115  
  0.015  
  0.090  
  0.115  
  0.165  
  0.170  
  0.220  
  0.225  
  0.260  
  0.280  
  0.300  
  0.325  
  0.305  
  0.290  
  0.320  
  0.300  
  0.305  
  0.250  
  0.230  
  0.255  
  0.245  
  0.185  
  0.180  
  0.215  
  0.210  
  0.165  
  0.195  
  0.215  
  0.235  
  0.215  
  0.255  
  0.230  
  0.215  
  0.215  
  0.205  
  0.155  
  0.110  
  0.045  
  0.035  
  0.025  
 -0.035  
 -0.075  
  0.005  
  0.030  
  0.080  
  0.110  
  0.165  
  0.185  
  0.240  
  0.210  
  0.245  
  0.240  
  0.245  
  0.255  
  0.210  
 -0.080  
 -0.910  
 -1.550  
 -0.795  
  0.255  
  1.085  
  1.305  
  0.705  
  0.330  
  0.235  
  0.150  
  0.145  
  0.120  
  0.130  
  0.115  
  0.050  
  0.055  
  0.085  
  0.065  
  0.095  
  0.060  
  0.050  
  0.020  
  0.005  
 -0.035  
 -0.095  
 -0.120  
 -0.115  
 -0.225  
 -0.270  
 -0.250  
 -0.305  
 -0.345  
 -0.295  
 -0.225  
 -0.145  
 -0.060  
  0.015  
  0.040  
  0.085  
  0.130  
  0.165  
  0.165  
  0.145  
  0.180  
  0.245  
  0.220  
  0.240  
  0.250  
  0.285  
  0.300  
  0.265  
  0.240  
  0.275  
  0.225  
  0.210  
  0.205  
  0.185  
  0.210  
  0.215  
  0.165  
  0.165  
  0.170  
  0.175  
  0.185  
  0.210  
  0.150  
  0.125  
  0.165  
  0.165  
  0.140  
  0.140  
  0.095  
  0.085  
  0.025  
  0.005  
 -0.015  
 -0.020  
 -0.045  
  0.015  
  0.045  
  0.045  
  0.145  
  0.240  
  0.255  
  0.265  
  0.255  
  0.270  
  0.250  
  0.240  
  0.195  
  0.110  
 -0.430  
 -1.325  
 -1.235  
 -0.100  
  0.910  
  1.415  
  1.025  
  0.470  
  0.300  
  0.190  
  0.155  
  0.185  
  0.135  
  0.110  
  0.115  
  0.150  
  0.115  
  0.105  
  0.095  
  0.095  
  0.070  
  0.035  
 -0.030  
 -0.040  
 -0.090  
 -0.090  
 -0.140  
 -0.190  
 -0.245  
 -0.285  
 -0.310  
 -0.310  
 -0.305  
 -0.240  
 -0.200  
 -0.095  
 -0.040  
  0.015  
  0.055  
  0.135  
  0.150  
  0.130  
  0.185  
  0.250  
  0.235  
  0.190  
  0.215  
  0.265  
  0.265  
  0.295  
  0.255  
  0.240  
  0.240  
  0.240  
  0.180  
  0.195  
  0.170  
  0.175  
  0.185  
  0.195  
  0.175  
  0.175  
  0.140  
  0.140  
  0.130  
  0.150  
  0.185  
  0.200  
  0.135  
  0.135  
  0.105  
  0.080  
  0.045  
  0.005  
 -0.035  
 -0.045  
 -0.075  
 -0.035  
  0.035  
  0.080  
  0.150  
  0.215  
  0.190  
  0.245  
  0.240  
  0.240  
  0.245  
  0.235  
  0.195  
  0.135  
 -0.360  
 -1.225  
 -1.330  
 -0.240  
  0.690  
  1.290  
  1.155  
  0.560  
  0.320  
  0.205  
  0.130  
  0.090  
  0.085  
  0.105  
  0.065  
  0.110  
  0.115  
  0.055  
  0.040  
  0.070  
 -0.035  
 -0.010  
  0.040  
 -0.035  
 -0.095  
 -0.135  
 -0.165  
 -0.165  
 -0.240  
 -0.290  
 -0.325  
 -0.325  
 -0.305  
 -0.270  
 -0.240  
 -0.185  
 -0.070  
  0.045  
  0.060  
  0.175  
  0.185  
  0.175  
  0.200  
  0.235  
  0.220  
  0.285  
  0.275  
  0.285  
  0.275  
  0.250  
  0.285  
  0.325  
  0.205  
  0.225  
  0.260  
  0.215  
  0.175  
  0.190  
  0.190  
  0.190  
  0.205  
  0.215  
  0.200  
  0.245  
  0.200  
  0.160  
  0.210  
  0.240  
  0.155  
  0.165  
  0.140  
  0.100  
  0.055  
  0.090  
 -0.020  
 -0.060  
 -0.025  
  0.080  
  0.060  
  0.135  
  0.190  
  0.210  
  0.225  
  0.240  
  0.245  
  0.240  
  0.245  
  0.265  
  0.205  
 -0.050  
 -0.940  
 -1.620  
 -0.830  
  0.275  
  1.070  
  1.350  
  0.725  
  0.345  
  0.225  
  0.155  
  0.115  
  0.095  
  0.085  
  0.075  
  0.045  
  0.100  
  0.105  
  0.065  
  0.035  
  0.010  
  0.005  
 -0.010  
 -0.110  
 -0.100  
 -0.105  
 -0.130  
 -0.205  
 -0.240  
 -0.265  
 -0.305  
 -0.350  
 -0.345  
 -0.340  
 -0.250  
 -0.170  
 -0.100  
 -0.055  
  0.015  
  0.095  
  0.185  
  0.170  
  0.170  
  0.215  
  0.230  
  0.205  
  0.265  
  0.260  
  0.240  
  0.255  
  0.280  
  0.255  
  0.245  
  0.185  
  0.175  
  0.165  
  0.150  
  0.125  
  0.110  
  0.090  
  0.135  
  0.160  
  0.160  
  0.105  
  0.125  
  0.130  
  0.160  
  0.135  
  0.130  
  0.110  
  0.130  
  0.050  
  0.020  
  0.000  
 -0.045  
 -0.080  
 -0.070  
 -0.075  
  0.015  
  0.050  
  0.070  
  0.125  
  0.170  
  0.180  
  0.195  
  0.175  
  0.200  
  0.205  
  0.170  
  0.105  
 -0.165  
 -1.025  
 -1.640  
 -0.870  
  0.270  
  1.075  
  1.265  
  0.665  
  0.345  
  0.200  
  0.095  
  0.060  
  0.080  
  0.050  
  0.050  
  0.010  
  0.055  
  0.040  
 -0.010  
 -0.010  
 -0.030  
 -0.045  
 -0.050  
 -0.080  
 -0.080  
 -0.145  
 -0.185  
 -0.220  
 -0.255  
 -0.340  
 -0.365  
 -0.375  
 -0.350  
 -0.365  
 -0.305  
 -0.225  
 -0.145  
 -0.095  
 -0.025  
  0.035  
  0.105  
  0.110  
  0.165  
  0.165  
  0.185  
  0.180  
  0.205  
  0.205  
  0.240  
  0.220  
  0.275  
  0.275  
  0.240  
  0.225  
  0.255  
  0.240  
  0.215  
  0.190  
  0.190  
  0.170  
  0.185  
  0.195  
  0.215  
  0.175  
  0.210  
  0.180  
  0.170  
  0.190  
  0.215  
  0.195  
  0.205  
  0.150  
  0.120  
  0.065  
  0.065  
 -0.005  
 -0.025  
 -0.065  
 -0.025  
  0.040  
  0.075  
  0.055  
  0.140  
  0.195  
  0.260  
  0.240  
  0.215  
  0.215  
  0.205  
  0.205  
  0.205  
  0.070  
 -0.430  
 -1.355  
 -1.360  
 -0.235  
  0.830  
  1.305  
  1.035  
  0.430  
  0.275  
  0.145  
  0.095  
  0.110  
  0.135  
  0.055  
  0.060  
  0.070  
  0.055  
  0.050  
  0.060  
  0.050  
  0.015  
 -0.010  
 -0.005  
 -0.075  
 -0.055  
 -0.075  
 -0.170  
 -0.250  
 -0.290  
 -0.335  
 -0.315  
 -0.330  
 -0.360  
 -0.315  
 -0.225  
 -0.160  
 -0.080  
 -0.080  
  0.020  
  0.110  
  0.155  
  0.125  
  0.155  
  0.150  
  0.170  
  0.195  
  0.230  
  0.220  
  0.255  
  0.265  
  0.255  
  0.210  
  0.180  
  0.195  
  0.225  
  0.180  
  0.190  
  0.195  
  0.175  
  0.065  
  0.135  
  0.115  
  0.110  
  0.125  
  0.140  
  0.075  
  0.105  
  0.155  
  0.170  
  0.115  
  0.105  
  0.110  
  0.110  
  0.080  
  0.040  
 -0.020  
  0.000  
 -0.045  
 -0.095  
 -0.125  
 -0.065  
 -0.030  
  0.040  
  0.080  
  0.130  
  0.160  
  0.175  
  0.135  
  0.185  
  0.185  
  0.190  
  0.155  
  0.070  
 -0.305  
 -1.065  
 -1.450  
 -0.550  
  0.560  
  1.305  
  1.255  
  0.565  
  0.265  
  0.185  
  0.080  
  0.045  
 -0.030  
  0.025  
  0.040  
  0.050  
  0.035  
  0.060  
  0.050  
 -0.005  
 -0.035  
  0.015  
 -0.075  
 -0.100  
 -0.135  
 -0.125  
 -0.170  
 -0.225  
 -0.290  
 -0.305  
 -0.360  
 -0.380  
 -0.385  
 -0.335  
 -0.285  
 -0.215  
 -0.150  
 -0.040  
  0.005  
  0.045  
  0.045  
  0.100  
  0.135  
  0.155  
  0.130  
  0.170  
  0.175  
  0.230  
  0.245  
  0.255  
  0.225  
  0.230  
  0.215  
  0.235  
  0.190  
  0.170  
  0.150  
  0.160  
  0.125  
  0.150  
  0.135  
  0.145  
  0.135  
  0.150  
  0.130  
  0.135  
  0.100  
  0.115  
  0.105  
  0.115  
  0.050  
  0.035  
 -0.005  
 -0.050  
 -0.075  
 -0.120  
 -0.155  
 -0.080  
 -0.040  
  0.030  
  0.090  
  0.120  
  0.135  
  0.130  
  0.080  
  0.130  
  0.135  
  0.130  
  0.110  
  0.055  
 -0.455  
 -1.300  
 -1.335  
 -0.265  
  0.645  
  1.215  
  0.990  
  0.375  
  0.230  
  0.185  
  0.090  
  0.070  
  0.055  
  0.070  
  0.025  
  0.025  
  0.035  
  0.030  
 -0.015  
  0.005  
 -0.025  
 -0.045  
 -0.070  
 -0.075  
 -0.110  
 -0.125  
 -0.180  
 -0.225  
 -0.310  
 -0.320  
 -0.330  
 -0.335  
 -0.370  
 -0.295  
 -0.215  
 -0.145  
 -0.075  
 -0.010  
  0.045  
  0.105  
  0.145  
  0.200  
  0.185  
  0.215  
  0.235  
  0.270  
  0.255  
  0.270  
  0.265  
  0.260  
  0.240  
  0.240  
  0.195  
  0.190  
  0.170  
  0.185  
  0.155  
  0.150  
  0.130  
  0.115  
  0.120  
  0.150  
  0.145  
  0.130  
  0.120  
  0.145  
  0.140  
  0.120  
  0.105  
  0.145  
  0.145  
  0.135  
  0.090  
  0.035  
 -0.005  
 -0.005  
 -0.035  
 -0.080  
 -0.100  
 -0.075  
 -0.045  
  0.010  
  0.070  
  0.130  
  0.140  
  0.200  
  0.195  
  0.205  
  0.180  
  0.185  
  0.185  
  0.130  
 -0.265  
 -1.120  
 -1.470  
 -0.560  
  0.440  
  1.115  
  1.105  
  0.510  
  0.270  
  0.200  
  0.115  
  0.105  
  0.080  
  0.105  
  0.055  
  0.030  
  0.020  
  0.025  
  0.020  
 -0.005  
 -0.045  
 -0.025  
 -0.065  
 -0.065  
 -0.090  
 -0.110  
 -0.180  
 -0.220  
 -0.265  
 -0.275  
 -0.315  
 -0.335  
 -0.365  
 -0.315  
 -0.280  
 -0.205  
 -0.145  
 -0.045  
  0.020  
  0.050  
  0.075  
  0.125  
  0.110  
  0.135  
  0.150  
  0.175  
  0.170  
  0.190  
  0.175  
  0.185  
  0.175  
  0.180  
  0.135  
  0.145  
  0.125  
  0.130  
  0.115  
  0.115  
  0.095  
  0.110  
  0.090  
  0.105  
  0.090  
  0.080  
  0.070  
  0.090  
  0.045  
  0.055  
  0.085  
  0.095  
  0.080  
  0.090  
  0.070  
  0.055  
 -0.010  
 -0.015  
 -0.080  
 -0.105  
 -0.130  
 -0.155  
 -0.165  
 -0.120  
 -0.065  
 -0.020  
  0.020  
  0.075  
  0.100  
  0.110  
  0.090  
  0.130  
  0.105  
  0.095  
  0.080  
 -0.020  
 -0.530  
 -1.370  
 -1.390  
 -0.320  
  0.655  
  1.195  
  0.895  
  0.335  
  0.170  
  0.065  
  0.025  
  0.015  
 -0.025  
 -0.010  
 -0.055  
 -0.050  
 -0.030  
 -0.045  
 -0.090  
 -0.085  
 -0.100  
 -0.125  
 -0.150  
 -0.170  
 -0.225  
 -0.240  
 -0.275  
 -0.330  
 -0.400  
 -0.390  
 -0.450  
 -0.455  
 -0.455  
 -0.425  
 -0.385  
 -0.295  
 -0.240  
 -0.155  
 -0.095  
 -0.075  
 -0.050  
  0.035  
  0.030  
  0.035  
  0.055  
  0.060  
  0.070  
  0.085  
  0.080  
  0.100  
  0.090  
  0.100  
  0.085  
  0.070  
  0.040  
  0.050  
  0.030  
  0.020  
 -0.015  
  0.005  
 -0.015  
  0.015  
 -0.005  
 -0.015  
 -0.035  
 -0.010  
 -0.010  
  0.020  
 -0.020  
  0.010  
 -0.005  
 -0.035  
 -0.080  
 -0.080  
 -0.145  
 -0.155  
 -0.195  
 -0.215  
 -0.230  
 -0.145  
 -0.115  
 -0.070  
 -0.015  
  0.045  
  0.055  
  0.060  
 -0.005  
  0.040  
  0.060  
  0.055  
  0.005  
 -0.095  
 -0.720  
 -1.585  
 -1.355  
 -0.260  
  0.620  
  1.105  
  0.750  
  0.245  
  0.075  
 -0.010  
 -0.035  
 -0.015  
 -0.065  
 -0.085  
 -0.115  
 -0.080  
 -0.110  
 -0.125  
 -0.150  
 -0.145  
 -0.170  
 -0.190  
 -0.215  
 -0.225  
 -0.265  
 -0.285  
 -0.365  
 -0.410  
 -0.460  
 -0.480  
 -0.525  
 -0.505  
 -0.515  
 -0.470  
 -0.430  
 -0.325  
 -0.235  
 -0.155  
 -0.135  
 -0.080  
 -0.060  
 -0.015  
  0.025  
  0.040  
  0.055  
  0.080  
  0.065  
  0.120  
  0.095  
  0.085  
  0.035  
  0.055  
  0.020  
  0.035  
  0.025  
 -0.010  
 -0.045  
 -0.070  
 -0.070  
 -0.025  
 -0.035  
 -0.030  
 -0.050  
 -0.045  
 -0.045  
 -0.015  
 -0.040  
 -0.020  
 -0.025  
 -0.025  
 -0.045  
 -0.065  
 -0.125  
 -0.150  
 -0.175  
 -0.205  
 -0.255  
 -0.240  
 -0.225  
 -0.155  
 -0.125  
 -0.040  
  0.005  
  0.015  
  0.030  
  0.065  
  0.050  
  0.080  
  0.045  
  0.015  
 -0.070  
 -0.555  
 -1.490  
 -1.510  
 -0.445  
  0.535  
  1.070  
  0.880  
  0.290  
  0.125  
  0.045  
  0.030  
 -0.020  
 -0.030  
 -0.060  
 -0.070  
 -0.075  
 -0.070  
 -0.095  
 -0.105  
 -0.145  
 -0.125  
 -0.165  
 -0.200  
 -0.230  
 -0.225  
 -0.275  
 -0.340  
 -0.405  
 -0.430  
 -0.485  
 -0.495  
 -0.520  
 -0.515  
 -0.470  
 -0.400  
 -0.330  
 -0.225  
 -0.170  
 -0.110  
 -0.080  
 -0.045  
 -0.030  
  0.015  
 -0.010  
  0.020  
  0.035  
  0.070  
  0.065  
  0.105  
  0.070  
  0.070  
  0.055  
  0.055  
  0.040  
  0.045  
  0.030  
  0.035  
  0.005  
  0.015  
 -0.025  
 -0.025  
 -0.005  
  0.030  
 -0.005  
 -0.020  
 -0.005  
 -0.010  
 -0.010  
  0.015  
 -0.015  
 -0.025  
 -0.020  
 -0.005  
 -0.035  
 -0.020  
 -0.055  
 -0.075  
 -0.145  
 -0.170  
 -0.205  
 -0.240  
 -0.265  
 -0.205  
 -0.180  
 -0.130  
 -0.085  
 -0.005  
  0.010  
  0.045  
  0.010  
  0.035  
  0.045  
  0.050  
  0.025  
 -0.035  
 -0.380  
 -1.170  
 -1.635  
 -0.805  
  0.210  
  0.935  
  0.980  
  0.430  
  0.155  
  0.065  
 -0.020  
 -0.010  
 -0.050  
 -0.060  
 -0.090  
 -0.090  
 -0.110  
 -0.100  
 -0.115  
 -0.120  
 -0.150  
 -0.155  
 -0.175  
 -0.185  
 -0.220  
 -0.240  
 -0.305  
 -0.350  
 -0.405  
 -0.415  
 -0.465  
 -0.475  
 -0.485  
 -0.440  
 -0.415  
 -0.325  
 -0.260  
 -0.180  
 -0.140  
 -0.065  
 -0.065  
 -0.015  
 -0.010  
  0.025  
  0.025  
  0.065  
  0.050  
  0.085  
  0.090  
  0.090  
  0.080  
  0.090  
  0.080  
  0.065  
  0.040  
  0.050  
  0.030  
  0.015  
 -0.010  
  0.030  
  0.010  
  0.010  
 -0.025  
 -0.005  
 -0.010  
  0.005  
 -0.005  
  0.020  
  0.005  
  0.015  
 -0.010  
  0.020  
  0.015  
  0.025  
 -0.005  
  0.010  
 -0.005  
 -0.030  
 -0.085  
 -0.105  
 -0.125  
 -0.140  
 -0.200  
 -0.205  
 -0.190  
 -0.145  
 -0.120  
 -0.065  
 -0.015  
  0.035  
  0.025  
  0.030  
  0.045  
  0.080  
  0.055  
  0.050  
 -0.010  
 -0.170  
 -0.825  
 -1.495  
 -1.085  
 -0.065  
  0.820  
  1.150  
  0.650  
  0.240  
  0.090  
  0.025  
 -0.015  
 -0.025  
 -0.060  
 -0.085  
 -0.100  
 -0.065  
 -0.060  
 -0.065  
 -0.080  
 -0.095  
 -0.110  
 -0.120  
 -0.140  
 -0.150  
 -0.210  
 -0.220  
 -0.290  
 -0.325  
 -0.355  
 -0.365  
 -0.420  
 -0.440  
 -0.440  
 -0.390  
 -0.315  
 -0.225  
 -0.165  
 -0.080  
 -0.045  
  0.010  
  0.035  
  0.060  
  0.080  
  0.105  
  0.105  
  0.140  
  0.115  
  0.155  
  0.145  
  0.175  
  0.155  
  0.155  
  0.150  
  0.150  
  0.120  
  0.145  
  0.105  
  0.115  
  0.080  
  0.080  
  0.080  
  0.085  
  0.070  
  0.075  
  0.065  
  0.085  
  0.080  
  0.085  
  0.095  
  0.105  
  0.085  
  0.080  
  0.065  
  0.095  
  0.075  
  0.085  
  0.005  
 -0.005  
 -0.045  
 -0.095  
 -0.130  
 -0.135  
 -0.155  
 -0.080  
 -0.050  
 -0.015  
  0.045  
  0.105  
  0.110  
  0.140  
  0.125  
  0.110  
  0.115  
  0.140  
  0.110  
  0.005  
 -0.530  
 -1.360  
 -1.310  
 -0.285  
  0.635  
  1.170  
  0.880  
  0.330  
  0.165  
  0.105  
  0.065  
  0.060  
  0.015  
  0.015  
  0.005  
  0.020  
 -0.005  
  0.015  
 -0.010  
 -0.050  
 -0.080  
 -0.065  
 -0.110  
 -0.140  
 -0.180  
 -0.190  
 -0.235  
 -0.285  
 -0.335  
 -0.365  
 -0.380  
 -0.395  
 -0.405  
 -0.350  
 -0.315  
 -0.225  
 -0.155  
 -0.080  
 -0.045  
  0.045  
  0.060  
  0.105  
  0.105  
  0.125  
  0.135  
  0.155  
  0.155  
  0.195  
  0.180  
  0.190  
  0.170  
  0.175  
  0.160  
  0.165  
  0.130  
  0.140  
  0.095  
  0.070  
  0.065  
  0.085  
  0.080  
  0.100  
  0.080  
  0.085  
  0.085  
  0.110  
  0.095  
  0.095  
  0.080  
  0.100  
  0.070  
  0.100  
  0.095  
  0.100  
  0.025  
  0.030  
 -0.005  
 -0.025  
 -0.065  
 -0.125  
 -0.145  
 -0.070  
 -0.015  
  0.025  
  0.040  
  0.105  
  0.105  
  0.115  
  0.095  
  0.120  
  0.115  
  0.120  
  0.090  
  0.035  
 -0.415  
 -1.300  
 -1.520  
 -0.545  
  0.450  
  1.090  
  1.005  
  0.410  
  0.200  
  0.125  
  0.055  
  0.050  
  0.015  
  0.010  
 -0.020  
 -0.010  
 -0.035  
 -0.010  
 -0.030  
 -0.040  
 -0.070  
 -0.065  
 -0.110  
 -0.135  
 -0.160  
 -0.170  
 -0.240  
 -0.285  
 -0.355  
 -0.375  
 -0.430  
 -0.430  
 -0.425  
 -0.380  
 -0.350  
 -0.280  
 -0.215  
 -0.120  
 -0.080  
 -0.020  
  0.015  
  0.050  
  0.055  
  0.095  
  0.095  
  0.115  
  0.110  
  0.135  
  0.125  
  0.145  
  0.135  
  0.135  
  0.135  
  0.135  
  0.095  
  0.105  
  0.085  
  0.085  
  0.045  
  0.030  
  0.030  
  0.050  
  0.020  
  0.050  
  0.055  
  0.050  
  0.030  
  0.055  
  0.020  
  0.050  
  0.045  
  0.060  
  0.045  
  0.045  
  0.040  
  0.055  
  0.035  
 -0.005  
 -0.055  
 -0.065  
 -0.095  
 -0.110  
 -0.170  
 -0.165  
 -0.130  
 -0.065  
 -0.050  
  0.015  
  0.065  
  0.085  
  0.100  
  0.110  
  0.110  
  0.135  
  0.110  
  0.105  
  0.030  
 -0.315  
 -1.170  
 -1.525  
 -0.695  
  0.390  
  1.060  
  1.065  
  0.490  
  0.245  
  0.125  
  0.075  
  0.045  
  0.035  
  0.005  
 -0.015  
 -0.005  
 -0.005  
 -0.050  
 -0.030  
 -0.055  
 -0.065  
 -0.100  
 -0.115  
 -0.130  
 -0.135  
 -0.185  
 -0.210  
 -0.270  
 -0.295  
 -0.330  
 -0.355  
 -0.395  
 -0.395  
 -0.380  
 -0.325  
 -0.265  
 -0.155  
 -0.105  
 -0.050  
  0.005  
  0.050  
  0.065  
  0.110  
  0.125  
  0.140  
  0.155  
  0.170  
  0.135  
  0.185  
  0.160  
  0.180  
  0.165  
  0.165  
  0.125  
  0.140  
  0.130  
  0.120  
  0.100  
  0.120  
  0.065  
  0.065  
  0.080  
  0.080  
  0.055  
  0.080  
  0.065  
  0.075  
  0.070  
  0.065  
  0.065  
  0.080  
  0.055  
  0.065  
  0.055  
  0.070  
  0.040  
  0.080  
  0.045  
  0.030  
 -0.035  
 -0.040  
 -0.080  
 -0.100  
 -0.145  
 -0.165  
 -0.165  
 -0.090  
 -0.065  
 -0.025  
  0.020  
  0.075  
  0.075  
  0.075  
  0.085  
  0.090  
  0.080  
  0.080  
  0.045  
 -0.070  
 -0.605  
 -1.370  
 -1.330  
 -0.290  
  0.655  
  1.155  
  0.830  
  0.310  
  0.150  
  0.090  
  0.015  
 -0.005  
 -0.020  
 -0.005  
 -0.055  
 -0.045  
 -0.045  
 -0.035  
 -0.065  
 -0.065  
 -0.090  
 -0.105  
 -0.130  
 -0.145  
 -0.200  
 -0.215  
 -0.250  
 -0.290  
 -0.370  
 -0.370  
 -0.395  
 -0.400  
 -0.400  
 -0.345  
 -0.320  
 -0.240  
 -0.170  
 -0.075  
 -0.030  
  0.055  
  0.100  
  0.095  
  0.090  
  0.130  
  0.150  
  0.170  
  0.165  
  0.195  
  0.190  
  0.225  
  0.215  
  0.195  
  0.155  
  0.175  
  0.195  
  0.160  
  0.130  
  0.125  
  0.085  
  0.065  
