6000.0
100.0
  0.335   
  0.545   
  0.465   
 -0.260   
 -0.205   
  0.070   
  0.515   
  0.235   
  0.030   
 -0.105   
 -0.130   
 -0.020   
 -0.120   
 -0.150   
 -0.300   
  0.100   
 -0.030   
  0.100   
  0.040   
  0.020   
  0.000   
 -0.015   
 -0.015   
  0.050   
 -0.070   
  0.100   
 -0.035   
  0.225   
  0.020   
  0.125   
 -0.420   
  0.140   
 -0.160   
 -0.170   
  0.030   
 -0.380   
  0.595   
 -0.195   
 -0.535   
 -0.215   
  0.615   
  0.565   
  0.330   
  0.155   
  0.490   
 -0.350   
 -0.265   
  0.235   
 -0.150   
 -0.040   
  0.100   
  0.620   
 -0.410   
 -0.180   
  0.200   
  0.020   
  0.120   
 -0.255   
 -0.065   
  0.665   
  0.355   
 -0.350   
 -0.005   
  0.415   
  0.410   
  0.260   
 -0.300   
  0.155   
  0.760   
 -0.225   
 -0.175   
  0.090   
  0.650   
  0.020   
 -0.120   
  0.790   
 -0.355   
  0.315   
  0.375   
 -0.180   
  0.200   
  0.070   
  0.310   
  0.370   
  0.390   
 -0.095   
  0.440   
  0.065   
  0.100   
  0.035   
  0.050   
  0.170   
  0.130   
 -0.005   
  0.155   
  0.355   
  0.075   
  0.320   
  0.145   
  0.350   
 -0.040   
  0.710   
  0.640   
  0.375   
  0.035   
 -0.010   
  0.080   
 -0.130   
  0.135   
 -0.120   
 -0.015   
 -0.015   
 -0.040   
  0.050   
 -0.015   
  0.230   
  0.120   
  0.195   
  0.170   
  0.015   
  0.050   
  0.145   
  0.220   
  0.210   
  0.105   
  0.145   
  0.185   
  0.100   
  0.220   
  0.255   
  0.285   
  0.100   
  0.115   
  0.100   
  0.280   
  0.120   
  0.050   
  0.160   
  0.040   
  0.025   
 -0.015   
  0.030   
 -0.010   
  0.090   
  0.135   
  0.225   
  0.150   
  0.335   
  0.030   
  0.095   
 -0.120   
 -0.070   
  0.000   
 -0.170   
 -0.180   
 -0.140   
  0.110   
 -0.165   
 -0.205   
 -0.095   
 -0.140   
 -0.145   
  0.175   
  0.725   
  0.375   
 -0.005   
 -0.160   
  0.070   
  0.120   
 -0.040   
 -0.030   
 -0.040   
 -0.030   
  0.000   
 -0.020   
 -0.050   
 -0.035   
 -0.045   
  0.025   
 -0.140   
 -0.010   
 -0.035   
 -0.045   
 -0.105   
 -0.030   
 -0.015   
 -0.030   
 -0.065   
 -0.040   
 -0.040   
  0.040   
  0.030   
  0.040   
  0.015   
 -0.030   
  0.070   
  0.140   
 -0.040   
  0.030   
  0.050   
  0.125   
  0.095   
  0.140   
  0.160   
  0.185   
  0.140   
  0.260   
  0.310   
  0.340   
  0.360   
  0.160   
  0.165   
  0.155   
  0.085   
  0.090   
  0.065   
  0.065   
 -0.005   
  0.060   
 -0.025   
 -0.075   
 -0.065   
 -0.135   
  0.290   
  0.675   
  0.360   
  0.180   
 -0.075   
  0.075   
 -0.115   
  0.195   
 -0.180   
  0.180   
 -0.135   
  0.160   
 -0.235   
  0.205   
 -0.240   
  0.260   
 -0.180   
  0.360   
 -0.160   
  0.380   
 -0.310   
 -0.065   
 -0.375   
 -0.100   
 -0.045   
 -0.070   
 -0.090   
 -0.260   
 -0.045   
 -0.305   
  0.000   
 -0.425   
  0.005   
 -0.280   
  0.130   
 -0.315   
  0.020   
 -0.530   
 -0.225   
 -0.510   
 -0.105   
 -0.270   
  0.040   
 -0.295   
  0.130   
 -0.160   
  0.280   
 -0.120   
  0.280   
 -0.040   
  0.180   
 -0.135   
  0.005   
 -0.160   
  0.020   
 -0.110   
  0.030   
 -0.085   
  0.055   
 -0.090   
  0.085   
 -0.110   
 -0.095   
  0.155   
  0.780   
  0.520   
  0.230   
 -0.040   
  0.000   
 -0.010   
 -0.015   
  0.000   
 -0.080   
  0.030   
 -0.160   
  0.015   
 -0.165   
 -0.130   
 -0.230   
  0.040   
 -0.075   
  0.040   
 -0.075   
  0.025   
 -0.015   
 -0.010   
  0.015   
 -0.005   
  0.035   
  0.000   
  0.040   
  0.015   
  0.055   
  0.085   
  0.040   
  0.105   
  0.015   
  0.070   
  0.020   
  0.110   
  0.010   
  0.065   
  0.025   
  0.150   
  0.030   
  0.130   
  0.035   
  0.130   
  0.025   
  0.160   
  0.015   
  0.150   
  0.175   
  0.195   
  0.155   
  0.095   
  0.030   
  0.040   
  0.030   
  0.010   
  0.040   
 -0.010   
  0.065   
  0.015   
  0.035   
 -0.085   
 -0.120   
  0.165   
  0.775   
  0.595   
  0.300   
  0.045   
  0.010   
  0.005   
  0.010   
 -0.020   
  0.060   
 -0.020   
  0.015   
 -0.015   
  0.020   
  0.000   
  0.010   
 -0.050   
  0.010   
 -0.040   
 -0.040   
  0.010   
 -0.035   
 -0.010   
 -0.045   
  0.005   
 -0.015   
  0.010   
  0.010   
  0.055   
  0.050   
  0.055   
  0.050   
  0.055   
  0.030   
  0.040   
  0.035   
  0.020   
  0.050   
  0.020   
  0.045   
 -0.015   
  0.045   
  0.000   
  0.060   
  0.025   
  0.060   
  0.120   
  0.185   
  0.135   
  0.210   
  0.055   
  0.000   
 -0.075   
 -0.025   
 -0.060   
 -0.080   
 -0.035   
 -0.090   
 -0.050   
 -0.115   
 -0.120   
 -0.205   
 -0.090   
  0.350   
  0.685   
  0.390   
  0.080   
 -0.110   
 -0.035   
 -0.080   
 -0.040   
 -0.065   
 -0.030   
 -0.100   
 -0.050   
 -0.065   
 -0.060   
 -0.085   
 -0.035   
 -0.045   
 -0.045   
 -0.115   
 -0.080   
 -0.070   
 -0.080   
 -0.080   
 -0.075   
 -0.090   
 -0.045   
 -0.070   
 -0.010   
 -0.035   
  0.010   
 -0.050   
  0.000   
 -0.045   
 -0.020   
 -0.050   
 -0.010   
 -0.060   
 -0.025   
 -0.045   
 -0.030   
 -0.050   
 -0.005   
 -0.055   
  0.015   
  0.010   
  0.090   
  0.115   
  0.155   
  0.160   
  0.105   
  0.010   
 -0.040   
 -0.015   
 -0.050   
 -0.035   
 -0.060   
 -0.025   
 -0.040   
 -0.025   
 -0.085   
 -0.095   
 -0.130   
  0.385   
  0.755   
  0.470   
  0.125   
 -0.070   
 -0.030   
 -0.030   
 -0.070   
 -0.050   
 -0.090   
 -0.050   
 -0.080   
 -0.050   
 -0.080   
 -0.045   
 -0.070   
 -0.045   
 -0.070   
 -0.045   
 -0.085   
 -0.055   
 -0.095   
 -0.070   
 -0.085   
 -0.070   
 -0.075   
 -0.030   
 -0.020   
  0.020   
  0.005   
  0.025   
 -0.015   
 -0.015   
 -0.015   
 -0.020   
 -0.025   
 -0.020   
 -0.055   
 -0.070   
 -0.060   
 -0.055   
 -0.040   
 -0.045   
 -0.015   
 -0.055   
 -0.020   
 -0.055   
 -0.015   
 -0.050   
  0.050   
  0.000   
  0.115   
  0.095   
  0.135   
  0.085   
  0.030   
 -0.040   
 -0.050   
 -0.050   
 -0.065   
 -0.055   
 -0.090   
 -0.025   
 -0.110   
 -0.030   
 -0.135   
 -0.160   
  0.180   
  0.740   
  0.420   
  0.170   
 -0.120   
 -0.045   
 -0.095   
 -0.025   
 -0.075   
 -0.010   
 -0.040   
 -0.010   
 -0.035   
 -0.030   
 -0.015   
 -0.040   
  0.000   
 -0.045   
 -0.015   
 -0.070   
 -0.015   
 -0.120   
 -0.010   
 -0.150   
  0.025   
 -0.140   
  0.045   
 -0.120   
  0.070   
 -0.100   
  0.050   
 -0.110   
  0.010   
 -0.100   
 -0.005   
 -0.075   
 -0.035   
 -0.005   
 -0.005   
  0.085   
 -0.060   
  0.070   
 -0.080   
  0.050   
 -0.080   
  0.025   
 -0.100   
  0.105   
 -0.205   
  0.095   
 -0.190   
  0.090   
 -0.105   
  0.145   
  0.005   
  0.200   
 -0.005   
  0.125   
 -0.145   
  0.000   
 -0.155   
 -0.110   
 -0.085   
 -0.200   
  0.000   
 -0.240   
  0.070   
 -0.280   
  0.000   
 -0.380   
  0.505   
  0.440   
  0.540   
 -0.150   
  0.035   
 -0.210   
  0.040   
 -0.205   
 -0.005   
 -0.190   
 -0.020   
 -0.155   
 -0.020   
 -0.105   
 -0.050   
 -0.065   
 -0.085   
 -0.020   
 -0.130   
  0.010   
 -0.175   
  0.005   
 -0.195   
  0.035   
 -0.215   
  0.070   
 -0.220   
  0.115   
 -0.210   
  0.145   
 -0.220   
  0.125   
 -0.250   
  0.135   
 -0.230   
  0.140   
 -0.110   
  0.045   
 -0.055   
  0.005   
 -0.040   
 -0.015   
  0.005   
 -0.030   
  0.000   
 -0.030   
  0.020   
 -0.035   
  0.020   
 -0.045   
  0.005   
 -0.070   
  0.005   
 -0.075   
  0.000   
 -0.090   
  0.020   
 -0.035   
  0.050   
  0.025   
  0.155   
  0.010   
  0.105   
 -0.120   
  0.015   
 -0.160   
  0.010   
 -0.170   
  0.015   
 -0.190   
  0.020   
 -0.185   
 -0.025   
 -0.305   
  0.190   
  0.595   
  0.625   
  0.185   
  0.005   
 -0.045   
 -0.030   
 -0.020   
 -0.090   
 -0.020   
 -0.110   
 -0.015   
 -0.115   
 -0.015   
 -0.120   
 -0.025   
 -0.125   
 -0.020   
 -0.110   
 -0.035   
 -0.115   
 -0.050   
 -0.120   
 -0.050   
 -0.105   
 -0.045   
 -0.080   
 -0.005   
 -0.055   
  0.000   
 -0.045   
  0.000   
 -0.040   
 -0.005   
 -0.035   
 -0.010   
 -0.050   
  0.000   
 -0.040   
 -0.005   
 -0.025   
 -0.010   
 -0.015   
 -0.015   
 -0.010   
 -0.020   
  0.000   
 -0.040   
  0.000   
 -0.060   
  0.000   
 -0.060   
  0.000   
 -0.070   
  0.000   
 -0.055   
  0.010   
 -0.055   
  0.000   
 -0.045   
  0.005   
  0.005   
  0.040   
  0.090   
  0.120   
  0.075   
  0.085   
 -0.015   
 -0.035   
 -0.020   
 -0.045   
 -0.040   
 -0.065   
 -0.030   
 -0.065   
 -0.040   
 -0.115   
 -0.155   
  0.095   
  0.660   
  0.570   
  0.250   
 -0.010   
 -0.030   
 -0.025   
 -0.035   
 -0.045   
 -0.035   
 -0.050   
 -0.045   
 -0.045   
 -0.035   
 -0.040   
 -0.040   
 -0.050   
 -0.045   
 -0.050   
 -0.040   
 -0.055   
 -0.055   
 -0.070   
 -0.060   
 -0.055   
 -0.040   
 -0.030   
 -0.005   
 -0.010   
  0.000   
 -0.010   
 -0.015   
 -0.035   
 -0.025   
 -0.025   
 -0.020   
 -0.040   
 -0.025   
 -0.035   
 -0.015   
 -0.035   
 -0.025   
 -0.050   
 -0.025   
 -0.060   
 -0.025   
 -0.055   
 -0.035   
 -0.065   
 -0.045   
 -0.055   
 -0.050   
 -0.055   
 -0.055   
 -0.045   
 -0.070   
  0.020   
 -0.010   
  0.085   
  0.065   
  0.100   
  0.070   
  0.000   
 -0.080   
 -0.055   
 -0.065   
 -0.070   
 -0.085   
 -0.080   
 -0.075   
 -0.090   
 -0.115   
 -0.170   
 -0.190   
  0.270   
  0.770   
  0.375   
  0.075   
 -0.110   
 -0.035   
 -0.060   
 -0.070   
 -0.055   
 -0.090   
 -0.050   
 -0.090   
 -0.040   
 -0.090   
 -0.030   
 -0.090   
 -0.030   
 -0.085   
 -0.040   
 -0.080   
 -0.045   
 -0.070   
 -0.045   
 -0.060   
 -0.040   
 -0.025   
 -0.025   
  0.010   
  0.000   
  0.025   
 -0.010   
  0.005   
 -0.035   
  0.000   
 -0.045   
 -0.005   
 -0.045   
 -0.005   
 -0.050   
 -0.010   
 -0.045   
 -0.015   
 -0.045   
 -0.010   
 -0.045   
 -0.020   
 -0.050   
  0.000   
 -0.055   
 -0.025   
 -0.060   
 -0.040   
 -0.055   
 -0.045   
  0.000   
 -0.020   
  0.090   
  0.060   
  0.110   
  0.035   
  0.010   
 -0.115   
 -0.025   
 -0.125   
 -0.020   
 -0.135   
 -0.010   
 -0.135   
 -0.005   
 -0.165   
 -0.105   
 -0.225   
  0.390   
  0.725   
  0.455   
  0.060   
 -0.080   
 -0.035   
 -0.050   
 -0.040   
 -0.080   
 -0.030   
 -0.110   
 -0.015   
 -0.130   
 -0.005   
 -0.140   
  0.000   
 -0.150   
 -0.010   
 -0.150   
 -0.020   
 -0.140   
 -0.035   
 -0.145   
 -0.045   
 -0.115   
 -0.030   
 -0.070   
 -0.020   
 -0.040   
 -0.040   
 -0.045   
 -0.065   
 -0.040   
 -0.080   
 -0.015   
 -0.085   
 -0.010   
 -0.090   
 -0.005   
 -0.095   
 -0.005   
 -0.085   
 -0.015   
 -0.095   
 -0.015   
 -0.080   
 -0.030   
 -0.080   
 -0.035   
 -0.085   
 -0.035   
 -0.065   
 -0.045   
 -0.060   
 -0.005   
  0.015   
  0.045   
  0.090   
  0.075   
  0.100   
  0.000   
 -0.035   
 -0.070   
 -0.045   
 -0.095   
 -0.045   
 -0.105   
 -0.060   
 -0.105   
 -0.095   
 -0.160   
 -0.235   
  0.195   
  0.740   
  0.440   
  0.105   
 -0.090   
 -0.080   
 -0.065   
 -0.100   
 -0.060   
 -0.110   
 -0.050   
 -0.100   
 -0.045   
 -0.105   
 -0.045   
 -0.100   
 -0.040   
 -0.090   
 -0.050   
 -0.100   
 -0.060   
 -0.075   
 -0.070   
 -0.065   
 -0.070   
 -0.020   
 -0.050   
  0.010   
 -0.035   
  0.025   
 -0.045   
  0.010   
 -0.070   
  0.000   
 -0.065   
 -0.005   
 -0.060   
  0.000   
 -0.055   
 -0.010   
 -0.050   
 -0.020   
 -0.045   
 -0.030   
 -0.050   
 -0.045   
 -0.045   
 -0.050   
 -0.040   
 -0.065   
 -0.035   
 -0.060   
 -0.030   
 -0.070   
 -0.025   
 -0.075   
  0.015   
  0.000   
  0.060   
  0.075   
  0.145   
  0.070   
  0.090   
 -0.045   
 -0.010   
 -0.060   
 -0.020   
 -0.070   
 -0.035   
 -0.070   
 -0.030   
 -0.085   
 -0.100   
 -0.230   
  0.165   
  0.700   
  0.540   
  0.175   
 -0.025   
 -0.060   
 -0.030   
 -0.060   
 -0.050   
 -0.075   
 -0.055   
 -0.080   
 -0.055   
 -0.070   
 -0.045   
 -0.070   
 -0.040   
 -0.065   
 -0.040   
 -0.075   
 -0.060   
 -0.080   
 -0.050   
 -0.050   
 -0.050   
 -0.015   
 -0.025   
  0.020   
 -0.025   
  0.045   
 -0.050   
  0.040   
 -0.060   
  0.045   
 -0.075   
  0.040   
 -0.070   
  0.045   
 -0.075   
  0.035   
 -0.075   
  0.030   
 -0.065   
  0.015   
 -0.060   
  0.000   
 -0.060   
 -0.015   
 -0.055   
 -0.035   
 -0.055   
 -0.060   
 -0.050   
 -0.075   
 -0.045   
 -0.090   
 -0.040   
 -0.025   
  0.015   
  0.015   
  0.100   
  0.050   
  0.100   
 -0.025   
 -0.045   
 -0.080   
 -0.065   
 -0.095   
 -0.065   
 -0.105   
 -0.070   
 -0.095   
 -0.100   
 -0.175   
 -0.190   
  0.265   
  0.785   
  0.365   
  0.110   
 -0.135   
  0.010   
 -0.085   
 -0.010   
 -0.105   
  0.000   
 -0.110   
  0.000   
 -0.110   
 -0.005   
 -0.090   
 -0.015   
 -0.060   
 -0.055   
 -0.010   
 -0.075   
  0.000   
 -0.095   
  0.005   
 -0.085   
  0.010   
 -0.050   
  0.045   
 -0.040   
  0.060   
 -0.045   
  0.045   
 -0.055   
  0.010   
 -0.070   
 -0.005   
 -0.060   
 -0.015   
 -0.055   
 -0.020   
 -0.055   
 -0.050   
 -0.050   
 -0.065   
 -0.035   
 -0.095   
 -0.055   
 -0.135   
 -0.045   
 -0.150   
 -0.030   
 -0.165   
 -0.020   
 -0.160   
  0.010   
 -0.120   
  0.025   
 -0.105   
  0.070   
 -0.065   
  0.125   
  0.045   
  0.110   
  0.025   
 -0.020   
 -0.075   
 -0.050   
 -0.060   
 -0.090   
 -0.060   
 -0.125   
 -0.045   
 -0.135   
 -0.075   
 -0.250   
 -0.005   
  0.380   
  0.725   
  0.195   
  0.100   
 -0.165   
  0.040   
 -0.125   
  0.000   
 -0.135   
 -0.010   
 -0.125   
 -0.050   
 -0.110   
 -0.070   
 -0.085   
 -0.075   
 -0.055   
 -0.100   
 -0.035   
 -0.100   
 -0.005   
 -0.110   
  0.005   
 -0.110   
  0.025   
 -0.080   
  0.060   
 -0.065   
  0.080   
 -0.060   
  0.050   
 -0.070   
  0.045   
 -0.070   
  0.030   
 -0.050   
  0.025   
 -0.045   
  0.015   
 -0.030   
  0.010   
 -0.015   
 -0.020   
 -0.005   
 -0.025   
  0.015   
 -0.065   
  0.035   
 -0.080   
  0.070   
 -0.110   
  0.065   
 -0.100   
  0.040   
 -0.085   
  0.030   
 -0.075   
  0.020   
 -0.005   
  0.070   
  0.055   
  0.150   
  0.060   
  0.135   
 -0.040   
 -0.010   
 -0.075   
 -0.020   
 -0.090   
 -0.050   
 -0.100   
 -0.085   
 -0.090   
 -0.160   
 -0.170   
 -0.185   
  0.390   
  0.655   
  0.400   
  0.000   
 -0.045   
 -0.080   
  0.005   
 -0.110   
 -0.005   
 -0.090   
 -0.010   
 -0.105   
 -0.025   
 -0.110   
 -0.020   
 -0.090   
 -0.015   
 -0.095   
 -0.010   
 -0.085   
 -0.005   
 -0.075   
 -0.030   
 -0.055   
 -0.010   
 -0.020   
  0.025   
  0.015   
  0.010   
  0.035   
  0.000   
  0.050   
 -0.045   
  0.015   
 -0.075   
 -0.005   
 -0.090   
 -0.015   
 -0.075   
  0.015   
 -0.080   
  0.015   
 -0.065   
 -0.005   
 -0.095   
  0.000   
 -0.095   
 -0.005   
 -0.070   
 -0.010   
 -0.030   
  0.060   
 -0.055   
 -0.070   
 -0.035   
 -0.100   
 -0.005   
 -0.015   
  0.055   
  0.050   
  0.110   
  0.060   
  0.010   
 -0.100   
 -0.070   
 -0.090   
 -0.075   
 -0.080   
 -0.065   
 -0.080   
 -0.075   
 -0.090   
 -0.140   
 -0.245   
  0.155   
  0.755   
  0.540   
  0.175   
 -0.065   
 -0.040   
 -0.035   
 -0.045   
 -0.050   
 -0.065   
 -0.050   
 -0.065   
 -0.040   
 -0.070   
 -0.025   
 -0.060   
 -0.020   
 -0.060   
 -0.035   
 -0.075   
 -0.035   
 -0.090   
 -0.035   
 -0.085   
 -0.035   
 -0.065   
  0.000   
 -0.025   
  0.015   
 -0.015   
  0.010   
 -0.030   
 -0.010   
 -0.035   
 -0.020   
 -0.025   
 -0.035   
 -0.030   
 -0.035   
 -0.020   
 -0.035   
 -0.030   
 -0.050   
 -0.030   
 -0.050   
 -0.020   
 -0.060   
 -0.020   
 -0.065   
 -0.015   
 -0.075   
 -0.015   
 -0.080   
 -0.005   
 -0.090   
 -0.005   
 -0.085   
 -0.010   
 -0.090   
 -0.025   
 -0.080   
 -0.030   
 -0.090   
 -0.030   
 -0.025   
  0.010   
  0.040   
  0.090   
  0.085   
  0.070   
  0.000   
 -0.050   
 -0.065   
 -0.070   
 -0.070   
 -0.075   
 -0.080   
 -0.070   
 -0.075   
 -0.085   
 -0.145   
 -0.065   
  0.435   
  0.700   
  0.355   
  0.030   
 -0.015   
 -0.040   
 -0.010   
 -0.065   
 -0.020   
 -0.045   
 -0.030   
 -0.065   
 -0.040   
 -0.055   
 -0.050   
 -0.055   
 -0.050   
 -0.050   
 -0.055   
 -0.065   
 -0.055   
 -0.060   
 -0.055   
 -0.050   
 -0.050   
 -0.030   
 -0.015   
 -0.010   
  0.005   
 -0.010   
 -0.010   
 -0.010   
 -0.035   
 -0.020   
 -0.045   
 -0.015   
 -0.045   
 -0.025   
 -0.035   
 -0.045   
 -0.030   
 -0.040   
 -0.020   
 -0.050   
 -0.020   
 -0.060   
 -0.025   
 -0.065   
 -0.010   
 -0.080   
 -0.015   
 -0.095   
  0.000   
 -0.085   
 -0.015   
 -0.070   
 -0.020   
 -0.060   
 -0.040   
 -0.050   
 -0.065   
 -0.040   
 -0.065   
 -0.045   
 -0.090   
 -0.040   
 -0.080   
 -0.020   
 -0.020   
  0.020   
  0.045   
  0.115   
  0.035   
  0.065   
 -0.065   
 -0.040   
 -0.090   
 -0.040   
 -0.100   
 -0.070   
 -0.090   
 -0.065   
 -0.100   
 -0.125   
 -0.235   
  0.195   
  0.705   
  0.475   
  0.140   
 -0.065   
 -0.035   
 -0.030   
 -0.055   
 -0.035   
 -0.060   
 -0.040   
 -0.075   
 -0.025   
 -0.080   
 -0.080   
 -0.035   
 -0.050   
 -0.030   
 -0.050   
 -0.045   
 -0.050   
 -0.060   
 -0.045   
 -0.055   
 -0.025   
 -0.040   
  0.000   
 -0.010   
  0.015   
  0.000   
  0.015   
 -0.015   
 -0.010   
 -0.015   
 -0.030   
 -0.035   
 -0.020   
 -0.025   
 -0.020   
 -0.010   
 -0.015   
 -0.010   
 -0.035   
 -0.020   
 -0.010   
 -0.020   
 -0.015   
 -0.030   
 -0.065   
 -0.015   
 -0.070   
 -0.020   
 -0.060   
 -0.025   
 -0.055   
 -0.030   
 -0.055   
 -0.025   
 -0.060   
 -0.035   
 -0.050   
 -0.035   
 -0.050   
 -0.035   
 -0.055   
 -0.040   
 -0.045   
 -0.025   
  0.015   
  0.015   
  0.090   
  0.095   
  0.085   
  0.000   
 -0.045   
 -0.065   
 -0.050   
 -0.075   
 -0.050   
 -0.075   
 -0.045   
 -0.070   
 -0.085   
 -0.140   
 -0.170   
  0.335   
  0.775   
  0.405   
  0.090   
 -0.075   
 -0.020   
 -0.030   
 -0.050   
 -0.030   
 -0.050   
 -0.035   
 -0.055   
 -0.040   
 -0.060   
 -0.045   
 -0.060   
 -0.035   
 -0.060   
 -0.040   
 -0.080   
 -0.050   
 -0.090   
 -0.045   
 -0.075   
 -0.025   
 -0.040   
  0.005   
 -0.015   
  0.010   
 -0.020   
  0.000   
 -0.045   
 -0.005   
 -0.050   
 -0.010   
 -0.050   
 -0.010   
 -0.035   
 -0.010   
 -0.020   
 -0.030   
 -0.005   
 -0.040   
 -0.015   
 -0.055   
 -0.040   
 -0.035   
 -0.020   
 -0.045   
 -0.020   
 -0.045   
 -0.030   
 -0.055   
 -0.025   
 -0.055   
 -0.030   
 -0.055   
 -0.025   
 -0.055   
 -0.030   
 -0.060   
 -0.025   
 -0.025   
  0.040   
  0.015   
  0.105   
  0.085   
  0.085   
  0.010   
 -0.065   
 -0.050   
 -0.080   
 -0.065   
 -0.080   
 -0.055   
 -0.085   
 -0.060   
 -0.110   
 -0.135   
 -0.235   
  0.255   
  0.770   
  0.460   
  0.125   
 -0.070   
 -0.030   
 -0.035   
 -0.040   
 -0.030   
 -0.050   
 -0.045   
 -0.045   
 -0.040   
 -0.055   
 -0.050   
 -0.045   
 -0.040   
 -0.050   
 -0.025   
 -0.035   
 -0.030   
 -0.040   
 -0.025   
 -0.025   
 -0.020   
 -0.005   
  0.015   
  0.025   
  0.045   
  0.030   
  0.015   
  0.015   
  0.000   
 -0.005   
  0.000   
  0.000   
  0.000   
  0.000   
  0.000   
  0.000   
 -0.020   
 -0.005   
  0.000   
  0.000   
 -0.005   
 -0.005   
 -0.005   
 -0.005   
 -0.010   
 -0.015   
 -0.020   
 -0.030   
 -0.020   
 -0.030   
 -0.030   
 -0.030   
 -0.025   
 -0.035   
 -0.030   
 -0.025   
  0.000   
  0.010   
  0.040   
  0.090   
  0.135   
  0.085   
  0.055   
 -0.025   
 -0.025   
 -0.035   
 -0.040   
 -0.045   
 -0.050   
 -0.050   
 -0.060   
 -0.080   
 -0.130   
 -0.215   
  0.225   
  0.810   
  0.530   
  0.155   
 -0.060   
 -0.025   
 -0.025   
 -0.030   
 -0.025   
 -0.055   
 -0.020   
 -0.040   
 -0.035   
 -0.040   
 -0.035   
 -0.040   
 -0.030   
 -0.045   
 -0.040   
 -0.040   
 -0.035   
 -0.040   
 -0.035   
 -0.040   
 -0.035   
  0.000   
  0.010   
  0.020   
  0.030   
  0.035   
  0.020   
  0.010   
  0.000   
  0.000   
 -0.010   
  0.000   
  0.005   
  0.000   
 -0.020   
 -0.005   
 -0.015   
 -0.015   
 -0.025   
 -0.015   
 -0.030   
 -0.035   
 -0.035   
 -0.030   
 -0.030   
 -0.050   
 -0.040   
 -0.055   
 -0.050   
 -0.050   
 -0.035   
 -0.055   
  0.000   
  0.000   
  0.085   
  0.100   
  0.100   
  0.060   
  0.000   
 -0.075   
 -0.065   
 -0.080   
 -0.065   
 -0.085   
 -0.070   
 -0.095   
 -0.080   
 -0.145   
 -0.190   
 -0.120   
  0.420   
  0.750   
  0.435   
  0.090   
 -0.105   
 -0.030   
 -0.065   
 -0.050   
 -0.070   
 -0.075   
 -0.075   
 -0.065   
 -0.070   
 -0.080   
 -0.060   
 -0.080   
 -0.060   
 -0.070   
 -0.070   
 -0.075   
 -0.070   
 -0.085   
 -0.075   
 -0.075   
 -0.065   
 -0.055   
 -0.025   
 -0.015   
  0.000   
 -0.010   
 -0.005   
 -0.025   
 -0.020   
 -0.050   
 -0.025   
 -0.045   
 -0.025   
 -0.040   
 -0.030   
 -0.040   
 -0.030   
 -0.040   
 -0.045   
 -0.040   
 -0.050   
 -0.040   
 -0.065   
 -0.055   
 -0.055   
 -0.050   
 -0.055   
 -0.050   
 -0.055   
 -0.055   
 -0.060   
 -0.040   
 -0.040   
  0.015   
  0.005   
  0.095   
  0.105   
  0.120   
  0.085   
  0.005   
 -0.045   
 -0.040   
 -0.050   
 -0.055   
 -0.060   
 -0.055   
 -0.065   
 -0.060   
 -0.090   
 -0.110   
 -0.155   
  0.380   
  0.780   
  0.440   
  0.085   
 -0.065   
 -0.020   
 -0.020   
 -0.055   
 -0.030   
 -0.055   
 -0.040   
 -0.055   
 -0.030   
 -0.050   
 -0.035   
 -0.045   
 -0.045   
 -0.050   
 -0.055   
 -0.045   
 -0.060   
 -0.040   
 -0.065   
 -0.055   
 -0.055   
 -0.020   
 -0.020   
  0.005   
  0.000   
  0.020   
 -0.005   
  0.000   
 -0.010   
  0.000   
 -0.025   
 -0.020   
 -0.010   
 -0.020   
  0.000   
 -0.015   
 -0.005   
 -0.035   
 -0.005   
 -0.040   
 -0.020   
 -0.050   
 -0.035   
 -0.045   
 -0.025   
 -0.050   
 -0.025   
 -0.035   
 -0.035   
 -0.040   
  0.000   
  0.030   
  0.060   
  0.110   
  0.120   
  0.100   
  0.020   
 -0.030   
 -0.035   
 -0.045   
 -0.055   
 -0.050   
 -0.060   
 -0.060   
 -0.065   
 -0.070   
 -0.115   
 -0.200   
  0.140   
  0.690   
  0.555   
  0.195   
 -0.035   
 -0.040   
 -0.030   
 -0.050   
 -0.040   
 -0.050   
 -0.050   
 -0.050   
 -0.050   
 -0.045   
 -0.050   
 -0.055   
 -0.055   
 -0.050   
 -0.045   
 -0.055   
 -0.050   
 -0.055   
 -0.050   
 -0.055   
 -0.055   
 -0.045   
 -0.025   
  0.000   
  0.000   
  0.005   
  0.000   
 -0.015   
 -0.025   
 -0.030   
 -0.035   
 -0.040   
 -0.035   
 -0.030   
 -0.035   
 -0.030   
 -0.040   
 -0.045   
 -0.040   
 -0.040   
 -0.045   
 -0.040   
 -0.040   
 -0.055   
 -0.045   
 -0.050   
 -0.045   
 -0.050   
 -0.035   
 -0.035   
 -0.020   
 -0.010   
  0.055   
  0.060   
  0.165   
  0.195   
  0.190   
  0.195   
  0.120   
  0.125   
  0.145   
  0.160   
  0.150   
  0.145   
  0.125   
  0.095   
  0.050   
 -0.010   
 -0.095   
 -0.075   
  0.410   
  0.725   
  0.315   
  0.015   
 -0.150   
 -0.100   
 -0.115   
 -0.125   
 -0.140   
 -0.145   
 -0.125   
 -0.130   
 -0.115   
 -0.110   
 -0.100   
 -0.095   
 -0.090   
 -0.080   
 -0.075   
 -0.075   
 -0.080   
 -0.075   
 -0.065   
 -0.065   
 -0.035   
 -0.030   
 -0.005   
  0.005   
  0.025   
  0.020   
  0.010   
  0.010   
  0.005   
  0.000   
  0.005   
  0.000   
  0.000   
  0.005   
  0.000   
  0.000   
  0.010   
  0.005   
  0.000   
 -0.005   
 -0.010   
 -0.015   
 -0.015   
 -0.015   
 -0.030   
 -0.030   
 -0.035   
 -0.040   
 -0.035   
 -0.055   
 -0.040   
  0.015   
  0.020   
  0.090   
  0.105   
  0.100   
  0.085   
  0.000   
 -0.030   
 -0.025   
 -0.035   
 -0.025   
 -0.035   
 -0.035   
 -0.030   
 -0.025   
 -0.050   
 -0.090   
 -0.170   
  0.310   
  0.825   
  0.485   
  0.150   
 -0.040   
  0.010   
  0.000   
 -0.005   
 -0.010   
 -0.035   
 -0.015   
 -0.025   
 -0.025   
 -0.030   
 -0.030   
 -0.030   
 -0.025   
 -0.035   
 -0.030   
 -0.025   
 -0.030   
 -0.030   
 -0.030   
 -0.020   
 -0.005   
  0.000   
  0.015   
  0.025   
  0.035   
  0.030   
  0.030   
  0.015   
  0.000   
  0.000   
 -0.010   
  0.000   
 -0.005   
  0.005   
  0.000   
  0.000   
  0.000   
 -0.005   
 -0.005   
 -0.020   
 -0.025   
 -0.005   
 -0.010   
 -0.020   
 -0.020   
 -0.025   
 -0.015   
 -0.020   
 -0.035   
  0.020   
  0.025   
  0.110   
  0.130   
  0.150   
  0.130   
  0.035   
  0.000   
  0.005   
  0.005   
  0.020   
  0.015   
  0.005   
  0.015   
  0.000   
 -0.040   
 -0.095   
 -0.190   
  0.190   
  0.810   
  0.590   
  0.235   
 -0.025   
 -0.035   
 -0.025   
 -0.060   
 -0.040   
 -0.105   
 -0.095   
 -0.135   
 -0.105   
 -0.160   
 -0.135   
 -0.150   
 -0.170   
 -0.190   
 -0.220   
 -0.190   
 -0.185   
 -0.155   
 -0.160   
 -0.135   
 -0.095   
 -0.110   
 -0.095   
 -0.050   
 -0.060   
 -0.050   
 -0.085   
 -0.100   
 -0.115   
 -0.130   
 -0.145   
 -0.120   
 -0.155   
 -0.110   
 -0.175   
 -0.085   
 -0.155   
 -0.180   
 -0.240   
 -0.140   
 -0.170   
 -0.145   
 -0.185   
 -0.195   
 -0.110   
 -0.140   
 -0.220   
 -0.235   
 -0.050   
 -0.115   
 -0.090   
 -0.035   
  0.135   
  0.185   
  0.015   
  0.055   
  0.195   
  0.240   
  0.185   
  0.150   
  0.400   
  0.385   
  0.345   
  0.260   
  0.370   
  0.145   
 -0.100   
  0.625   
  0.570   
  0.245   
  0.040   
 -0.170   
 -0.180   
 -0.040   
 -0.010   
 -0.175   
  0.000   
 -0.175   
 -0.045   
 -0.085   
 -0.015   
 -0.175   
 -0.035   
 -0.160   
 -0.045   
  0.010   
 -0.165   
 -0.025   
 -0.110   
 -0.135   
 -0.035   
 -0.025   
  0.015   
  0.050   
 -0.055   
 -0.025   
 -0.045   
  0.100   
 -0.090   
  0.080   
  0.060   
  0.050   
  0.025   
 -0.080   
  0.000   
 -0.005   
  0.025   
 -0.045   
  0.115   
 -0.080   
 -0.005   
 -0.160   
 -0.035   
 -0.130   
  0.110   
  0.140   
 -0.345   
 -0.035   
 -0.055   
  0.225   
 -0.015   
  0.120   
  0.085   
  0.025   
 -0.180   
 -0.070   
  0.105   
 -0.235   
 -0.100   
  0.010   
 -0.155   
 -0.015   
 -0.190   
 -0.255   
 -0.020   
 -0.435   
  0.030   
  0.555   
  0.310   
 -0.035   
 -0.160   
 -0.075   
 -0.040   
 -0.100   
 -0.045   
 -0.125   
 -0.055   
 -0.050   
 -0.130   
  0.040   
 -0.055   
 -0.090   
 -0.060   
  0.025   
 -0.105   
 -0.090   
  0.000   
 -0.050   
 -0.085   
 -0.045   
 -0.120   
 -0.265   
  0.055   
 -0.005   
  0.070   
  0.045   
  0.000   
 -0.045   
 -0.065   
  0.065   
  0.015   
 -0.090   
  0.175   
 -0.045   
 -0.080   
  0.110   
 -0.040   
 -0.100   
 -0.045   
  0.120   
 -0.025   
 -0.025   
  0.010   
  0.025   
 -0.095   
 -0.035   
  0.015   
  0.075   
 -0.050   
  0.120   
  0.175   
  0.125   
 -0.050   
 -0.025   
 -0.025   
 -0.065   
  0.005   
 -0.155   
  0.025   
 -0.090   
  0.000   
 -0.150   
  0.030   
 -0.145   
 -0.150   
  0.255   
  0.425   
  0.235   
  0.020   
  0.090   
 -0.040   
 -0.100   
  0.000   
  0.030   
  0.015   
  0.020   
 -0.095   
 -0.060   
  0.135   
  0.320   
 -0.180   
 -0.190   
 -0.080   
 -0.095   
 -0.090   
 -0.060   
 -0.250   
 -0.100   
 -0.105   
 -0.200   
 -0.215   
 -0.100   
 -0.225   
  0.035   
  0.175   
 -0.200   
 -0.285   
 -0.180   
  0.045   
  0.025   
 -0.100   
  0.030   
  0.035   
  0.030   
  0.125   
 -0.110   
 -0.155   
  0.010   
 -0.025   
 -0.045   
 -0.030   
 -0.020   
  0.125   
 -0.100   
 -0.065   
  0.225   
  0.035   
 -0.115   
  0.030   
  0.335   
  0.250   
  0.375   
  0.540   
  0.580   
  0.385   
  0.410   
  0.430   
  0.495   
  0.500   
  0.310   
  0.475   
  0.335   
  0.280   
  0.250   
  0.185   
  0.045   
  0.060   
  0.485   
  0.760   
  0.345   
  0.125   
 -0.005   
 -0.015   
 -0.160   
 -0.020   
  0.150   
 -0.120   
 -0.030   
 -0.005   
 -0.245   
 -0.080   
 -0.160   
 -0.140   
  0.015   
 -0.120   
 -0.215   
 -0.145   
  0.060   
 -0.170   
 -0.120   
 -0.205   
 -0.095   
 -0.065   
 -0.135   
 -0.180   
 -0.165   
 -0.055   
 -0.155   
 -0.100   
 -0.155   
 -0.155   
 -0.140   
 -0.185   
 -0.085   
 -0.270   
 -0.195   
 -0.055   
 -0.220   
 -0.230   
 -0.195   
 -0.030   
 -0.175   
 -0.140   
 -0.220   
 -0.150   
 -0.220   
 -0.120   
 -0.235   
 -0.170   
 -0.005   
  0.080   
 -0.150   
  0.020   
 -0.075   
 -0.160   
 -0.145   
 -0.180   
  0.000   
 -0.130   
 -0.075   
 -0.240   
 -0.095   
 -0.125   
 -0.080   
 -0.265   
 -0.200   
  0.100   
  0.660   
  0.425   
  0.335   
  0.080   
 -0.235   
  0.260   
  0.395   
 -0.150   
  0.960   
 -0.005   
  0.120   
  0.450   
  0.040   
  0.160   
  0.755   
  0.075   
 -0.385   
  0.030   
  0.910   
 -0.210   
  0.000   
  1.685   
 -0.795   
  1.265   
 -0.505   
 -0.135   
  0.555   
 -0.075   
  0.115   
 -0.700   
 -0.185   
 -0.160   
 -0.190   
 -0.240   
 -0.225   
 -0.285   
 -0.340   
 -0.315   
 -0.255   
 -0.430   
 -0.420   
 -0.475   
 -0.140   
 -0.380   
 -0.345   
 -0.330   
 -0.120   
 -0.210   
 -0.110   
  0.020   
  0.015   
  0.230   
  0.120   
 -0.030   
 -0.120   
 -0.110   
 -0.275   
 -0.220   
 -0.090   
 -0.335   
 -0.265   
 -0.280   
 -0.205   
 -0.235   
  0.170   
  0.645   
  0.560   
  0.240   
 -0.015   
  0.065   
  0.115   
 -0.050   
 -0.090   
 -0.045   
 -0.110   
 -0.080   
 -0.130   
 -0.150   
 -0.135   
 -0.115   
 -0.260   
 -0.315   
 -0.380   
 -0.510   
 -0.535   
 -0.675   
 -0.695   
 -0.695   
 -0.740   
 -0.660   
 -0.660   
 -0.630   
 -0.630   
 -0.675   
 -0.675   
 -0.620   
 -0.590   
 -0.505   
 -0.525   
 -0.345   
 -0.120   
 -0.050   
  0.120   
  0.295   
  0.325   
  0.200   
  0.210   
  0.220   
  0.205   
  0.085   
  0.305   
  0.470   
  0.745   
  1.000   
  1.155   
  1.090   
  1.105   
  1.495   
  1.755   
  1.740   
  1.725   
  2.035   
  1.795   
  1.765   
  1.505   
  1.515   
  1.270   
  1.200   
  1.255   
  1.515   
  1.820   
  2.345   
  2.095   
  1.155   
  1.005   
  0.590   
  0.695   
  0.410   
  0.260   
  0.220   
  0.095   
 -0.030   
 -0.125   
 -0.175   
 -0.265   
 -0.265   
 -0.195   
 -0.390   
 -0.290   
 -0.375   
 -0.365   
 -0.230   
 -0.270   
 -0.175   
 -0.205   
 -0.190   
 -0.095   
 -0.095   
 -0.135   
 -0.065   
 -0.085   
 -0.100   
 -0.105   
 -0.100   
 -0.080   
 -0.060   
  0.005   
 -0.095   
 -0.050   
 -0.020   
 -0.020   
  0.050   
  0.025   
 -0.065   
  0.010   
  0.020   
 -0.020   
  0.005   
  0.010   
  0.070   
  0.110   
  0.130   
  0.035   
  0.150   
 -0.065   
 -0.230   
  0.065   
 -0.055   
 -0.075   
 -0.115   
 -0.220   
 -0.170   
 -0.350   
  0.045   
 -0.110   
 -0.170   
  0.180   
  0.660   
  0.445   
  0.050   
 -0.120   
 -0.180   
 -0.020   
 -0.080   
 -0.080   
  0.010   
 -0.085   
 -0.170   
  0.015   
 -0.105   
 -0.010   
 -0.160   
 -0.090   
 -0.065   
 -0.115   
 -0.085   
 -0.100   
 -0.055   
 -0.030   
  0.020   
 -0.085   
 -0.165   
 -0.150   
 -0.020   
  0.065   
  0.025   
  0.060   
 -0.015   
  0.040   
  0.100   
 -0.010   
  0.020   
  0.020   
  0.000   
 -0.055   
 -0.025   
 -0.020   
  0.010   
 -0.060   
 -0.050   
 -0.040   
 -0.065   
  0.010   
  0.025   
 -0.005   
  0.070   
  0.065   
  0.070   
  0.075   
 -0.025   
 -0.050   
 -0.040   
 -0.030   
 -0.070   
 -0.065   
 -0.065   
 -0.070   
 -0.065   
 -0.050   
 -0.085   
 -0.185   
  0.075   
  0.575   
  0.580   
  0.230   
 -0.010   
 -0.045   
 -0.025   
 -0.045   
 -0.040   
 -0.030   
 -0.050   
 -0.065   
 -0.050   
 -0.040   
 -0.050   
 -0.050   
 -0.050   
 -0.045   
 -0.030   
 -0.060   
 -0.055   
 -0.055   
 -0.040   
 -0.040   
 -0.040   
 -0.030   
 -0.005   
  0.000   
  0.010   
  0.000   
  0.010   
 -0.005   
 -0.015   
 -0.020   
 -0.010   
 -0.020   
 -0.025   
 -0.030   
 -0.010   
 -0.020   
 -0.015   
 -0.025   
 -0.015   
 -0.030   
  0.000   
  0.000   
  0.000   
  0.055   
  0.110   
  0.090   
  0.115   
 -0.005   
 -0.035   
 -0.075   
 -0.060   
 -0.150   
 -0.130   
 -0.205   
 -0.095   
 -0.095   
 -0.380   
 -0.105   
 -0.020   
 -0.230   
  0.110   
  0.650   
  0.210   
 -0.080   
 -0.110   
 -0.280   
 -0.305   
 -0.080   
 -0.125   
 -0.170   
 -0.185   
 -0.275   
 -0.370   
 -0.195   
 -0.205   
 -0.185   
 -0.370   
 -0.195   
 -0.235   
 -0.290   
 -0.280   
 -0.265   
 -0.235   
 -0.355   
 -0.305   
 -0.175   
 -0.150   
 -0.195   
 -0.205   
 -0.240   
 -0.265   
 -0.340   
 -0.245   
 -0.260   
 -0.225   
 -0.200   
 -0.195   
 -0.020   
  0.010   
  0.045   
 -0.100   
  0.085   
  0.070   
  0.095   
  0.170   
  0.235   
  0.385   
  0.345   
  0.595   
  0.625   
  0.665   
  1.095   
  1.820   
  1.110   
  0.805   
  0.490   
  0.505   
  0.510   
  0.380   
  0.225   
 -0.055   
 -0.195   
 -0.195   
  0.305   
  0.495   
  0.245   
 -0.030   
 -0.240   
 -0.130   
 -0.140   
 -0.180   
 -0.130   
 -0.165   
 -0.140   
 -0.180   
 -0.135   
 -0.100   
 -0.185   
 -0.170   
 -0.125   
 -0.110   
 -0.060   
 -0.145   
 -0.210   
 -0.125   
 -0.100   
 -0.150   
 -0.070   
 -0.145   
 -0.095   
 -0.005   
 -0.010   
 -0.050   
 -0.040   
 -0.025   
 -0.040   
 -0.070   
 -0.020   
 -0.070   
 -0.015   
 -0.085   
 -0.040   
 -0.025   
 -0.160   
 -0.065   
 -0.015   
 -0.070   
 -0.035   
  0.120   
  0.095   
  0.130   
  0.035   
 -0.055   
 -0.085   
 -0.055   
 -0.140   
 -0.170   
 -0.110   
 -0.190   
 -0.140   
 -0.125   
 -0.160   
 -0.120   
 -0.205   
 -0.230   
  0.270   
  0.440   
  0.275   
  0.000   
 -0.150   
 -0.105   
 -0.060   
 -0.110   
 -0.115   
 -0.145   
 -0.065   
 -0.080   
 -0.120   
 -0.080   
 -0.130   
 -0.090   
 -0.140   
 -0.090   
 -0.120   
 -0.060   
 -0.175   
 -0.155   
 -0.060   
 -0.140   
 -0.215   
 -0.080   
 -0.055   
 -0.075   
 -0.015   
  0.015   
  0.025   
 -0.020   
  0.115   
  0.010   
  0.045   
  0.040   
  0.085   
  0.080   
  0.005   
  0.045   
  0.005   
  0.000   
  0.055   
  0.010   
 -0.035   
  0.005   
  0.130   
  0.135   
  0.040   
  0.050   
  0.000   
 -0.015   
 -0.060   
 -0.125   
 -0.100   
 -0.085   
 -0.105   
 -0.045   
 -0.085   
 -0.235   
 -0.170   
 -0.280   
 -0.135   
  0.240   
  0.370   
  0.115   
 -0.170   
 -0.155   
 -0.110   
 -0.175   
 -0.125   
 -0.080   
 -0.125   
 -0.115   
 -0.160   
 -0.055   
  0.070   
 -0.015   
 -0.135   
 -0.065   
 -0.015   
  0.130   
  0.060   
 -0.065   
  0.015   
 -0.020   
  0.030   
  0.110   
  0.030   
  0.055   
  0.215   
  0.335   
  0.090   
  0.080   
  0.020   
  0.070   
  0.045   
 -0.020   
 -0.005   
 -0.050   
  0.105   
  0.075   
 -0.050   
 -0.165   
 -0.050   
 -0.160   
 -0.090   
 -0.065   
  0.055   
  0.085   
 -0.050   
  0.010   
 -0.075   
 -0.100   
 -0.045   
 -0.185   
 -0.170   
 -0.250   
 -0.185   
 -0.170   
 -0.180   
 -0.025   
 -0.210   
 -0.250   
 -0.245   
 -0.070   
  0.340   
  0.400   
  0.115   
 -0.090   
 -0.160   
 -0.105   
 -0.075   
 -0.060   
 -0.145   
 -0.055   
 -0.115   
 -0.155   
 -0.115   
 -0.115   
 -0.040   
 -0.070   
 -0.005   
 -0.065   
 -0.035   
 -0.135   
 -0.090   
 -0.100   
 -0.020   
 -0.105   
 -0.045   
  0.130   
 -0.115   
 -0.015   
  0.030   
  0.000   
  0.025   
  0.035   
  0.085   
  0.095   
  0.070   
  0.090   
  0.050   
  0.190   
  0.065   
  0.095   
  0.075   
  0.130   
  0.040   
  0.190   
  0.150   
  0.125   
  0.310   
  0.115   
  0.065   
  0.040   
 -0.145   
 -0.090   
 -0.150   
 -0.200   
 -0.255   
 -0.225   
 -0.190   
 -0.150   
 -0.085   
 -0.075   
 -0.100   
 -0.180   
 -0.150   
  0.185   
  0.525   
  0.350   
  0.110   
 -0.060   
  0.005   
  0.010   
 -0.095   
  0.070   
  0.240   
 -0.555   
 -0.310   
 -0.120   
 -0.060   
  0.165   
 -0.010   
 -0.110   
 -0.155   
  0.000   
 -0.105   
 -0.100   
 -0.010   
 -0.190   
 -0.170   
 -0.080   
 -0.030   
  0.135   
 -0.045   
  0.030   
  0.065   
 -0.040   
 -0.125   
 -0.065   
 -0.060   
  0.000   
 -0.075   
 -0.065   
  0.070   
 -0.060   
 -0.090   
 -0.015   
  0.000   
 -0.015   
 -0.010   
  0.045   
  0.090   
  0.185   
  0.160   
  0.140   
  0.185   
  0.100   
  0.130   
  0.005   
 -0.005   
  0.040   
  0.040   
  0.000   
  0.025   
  0.085   
 -0.130   
 -0.115   
 -0.145   
  0.120   
  0.610   
  0.510   
  0.135   
 -0.065   
 -0.235   
 -0.110   
 -0.165   
 -0.125   
 -0.100   
  0.065   
 -0.105   
 -0.110   
 -0.070   
 -0.070   
  0.035   
 -0.005   
  0.115   
 -0.035   
 -0.095   
 -0.015   
 -0.110   
 -0.075   
  0.010   
  0.035   
  0.280   
  0.015   
 -0.085   
  0.115   
  0.185   
  0.055   
  0.035   
  0.105   
  0.120   
 -0.025   
  0.125   
 -0.025   
  0.055   
  0.080   
  0.100   
  0.000   
  0.015   
 -0.105   
  0.080   
 -0.085   
 -0.025   
  0.025   
 -0.015   
  0.335   
 -0.020   
 -0.085   
 -0.130   
 -0.045   
 -0.025   
 -0.175   
 -0.190   
 -0.155   
 -0.085   
 -0.130   
 -0.430   
 -0.325   
 -0.345   
 -0.310   
  0.105   
  0.515   
  0.350   
 -0.090   
 -0.250   
 -0.120   
 -0.205   
 -0.265   
 -0.235   
 -0.240   
 -0.270   
 -0.260   
 -0.230   
 -0.250   
 -0.190   
 -0.185   
 -0.175   
 -0.240   
 -0.230   
 -0.245   
 -0.285   
 -0.190   
 -0.225   
 -0.235   
 -0.255   
 -0.235   
 -0.155   
 -0.175   
 -0.175   
 -0.165   
 -0.140   
 -0.210   
 -0.190   
 -0.165   
 -0.145   
 -0.140   
 -0.140   
 -0.045   
 -0.145   
 -0.085   
 -0.050   
  0.000   
 -0.015   
  0.055   
  0.230   
  0.375   
  0.440   
  0.585   
  0.710   
  0.470   
  0.645   
  0.650   
  0.565   
  0.305   
  0.170   
  0.270   
  0.155   
 -0.005   
 -0.065   
 -0.015   
 -0.110   
 -0.135   
 -0.165   
 -0.195   
 -0.250   
  0.075   
  0.520   
  0.265   
 -0.050   
 -0.285   
 -0.110   
 -0.070   
 -0.230   
 -0.095   
 -0.085   
 -0.145   
 -0.120   
 -0.135   
 -0.050   
  0.040   
 -0.035   
  0.000   
 -0.060   
  0.055   
  0.015   
 -0.010   
 -0.075   
 -0.015   
 -0.030   
 -0.115   
 -0.085   
 -0.080   
 -0.105   
 -0.095   
 -0.050   
 -0.285   
 -0.180   
 -0.115   
 -0.075   
 -0.070   
 -0.120   
 -0.045   
 -0.155   
 -0.125   
 -0.035   
  0.050   
  0.080   
  0.175   
  0.140   
  0.215   
  0.285   
  0.270   
  0.375   
  0.370   
  0.380   
  0.400   
  0.285   
  0.135   
  0.185   
  0.090   
  0.130   
  0.290   
  0.165   
  0.080   
  0.160   
  0.075   
 -0.055   
 -0.140   
 -0.220   
  0.175   
  0.615   
  0.265   
 -0.085   
 -0.200   
 -0.130   
 -0.160   
 -0.160   
 -0.170   
 -0.090   
 -0.190   
 -0.240   
 -0.135   
 -0.165   
 -0.100   
 -0.090   
 -0.040   
 -0.120   
 -0.170   
 -0.075   
 -0.090   
 -0.170   
 -0.135   
 -0.095   
 -0.090   
 -0.005   
 -0.020   
  0.050   
  0.110   
  0.065   
  0.050   
  0.185   
  0.165   
  0.095   
  0.130   
  0.170   
  0.145   
  0.100   
  0.010   
 -0.015   
  0.130   
  0.000   
  0.015   
 -0.025   
 -0.060   
 -0.110   
  0.015   
  0.070   
  0.060   
  0.100   
  0.040   
  0.015   
 -0.105   
 -0.160   
 -0.110   
 -0.085   
 -0.085   
 -0.100   
 -0.120   
 -0.225   
 -0.135   
 -0.095   
 -0.200   
 -0.195   
 -0.010   
  0.415   
  0.455   
  0.105   
 -0.085   
 -0.095   
 -0.105   
 -0.115   
 -0.160   
 -0.080   
 -0.120   
 -0.150   
 -0.125   
 -0.115   
 -0.145   
 -0.155   
 -0.080   
 -0.115   
 -0.100   
 -0.085   
 -0.110   
 -0.050   
 -0.055   
 -0.055   
  0.070   
  0.180   
  0.400   
  0.395   
  0.330   
  0.320   
  0.205   
  0.145   
  0.105   
  0.085   
 -0.005   
 -0.030   
 -0.025   
 -0.085   
 -0.060   
 -0.075   
 -0.110   
 -0.075   
 -0.010   
 -0.055   
 -0.105   
 -0.070   
 -0.065   
  0.015   
  0.050   
  0.085   
  0.080   
  0.050   
  0.065   
 -0.050   
 -0.090   
 -0.040   
 -0.065   
 -0.090   
 -0.040   
 -0.070   
 -0.065   
 -0.050   
 -0.120   
 -0.100   
 -0.195   
  0.345   
  0.720   
  0.365   
  0.075   
 -0.080   
 -0.030   
  0.000   
  0.000   
 -0.030   
 -0.015   
 -0.055   
 -0.010   
 -0.020   
  0.000   
 -0.055   
 -0.010   
  0.010   
 -0.035   
 -0.045   
 -0.030   
  0.015   
 -0.020   
 -0.035   
 -0.045   
  0.000   
 -0.010   
  0.000   
 -0.045   
  0.040   
  0.015   
  0.010   
  0.000   
  0.000   
  0.000   
 -0.055   
 -0.035   
 -0.005   
  0.000   
 -0.025   
 -0.005   
  0.010   
 -0.005   
 -0.010   
 -0.025   
 -0.005   
 -0.035   
  0.000   
  0.035   
  0.015   
  0.075   
  0.155   
  0.150   
  0.140   
  0.065   
 -0.035   
 -0.015   
 -0.070   
 -0.005   
 -0.015   
 -0.040   
 -0.055   
 -0.045   
 -0.045   
 -0.100   
 -0.115   
 -0.190   
  0.275   
  0.765   
  0.525   
  0.140   
 -0.065   
 -0.020   
 -0.035   
 -0.030   
 -0.090   
 -0.050   
 -0.055   
 -0.075   
 -0.025   
 -0.055   
 -0.080   
 -0.045   
 -0.040   
 -0.095   
 -0.055   
 -0.020   
 -0.080   
 -0.050   
 -0.035   
 -0.055   
 -0.045   
  0.000   
 -0.005   
  0.020   
  0.030   
  0.000   
  0.015   
  0.000   
  0.005   
  0.010   
 -0.005   
 -0.035   
  0.020   
 -0.045   
 -0.010   
 -0.005   
 -0.010   
 -0.045   
 -0.015   
 -0.090   
 -0.005   
  0.030   
  0.015   
  0.105   
  0.110   
  0.105   
  0.110   
  0.065   
 -0.020   
 -0.035   
 -0.055   
 -0.070   
 -0.065   
 -0.060   
 -0.050   
 -0.055   
 -0.065   
 -0.145   
 -0.160   
 -0.100   
  0.410   
  0.710   
  0.355   
  0.085   
 -0.105   
 -0.015   
 -0.050   
 -0.045   
 -0.090   
 -0.080   
 -0.030   
 -0.065   
 -0.050   
 -0.035   
 -0.050   
 -0.045   
 -0.045   
 -0.105   
 -0.020   
 -0.030   
 -0.050   
 -0.075   
 -0.030   
 -0.045   
 -0.065   
 -0.035   
 -0.010   
  0.005   
  0.000   
  0.010   
  0.000   
 -0.025   
 -0.055   
 -0.030   
 -0.045   
 -0.030   
 -0.045   
 -0.050   
 -0.035   
 -0.055   
 -0.030   
 -0.045   
 -0.040   
 -0.040   
 -0.035   
  0.005   
  0.000   
  0.090   
  0.130   
  0.105   
  0.105   
  0.040   
 -0.030   
 -0.055   
 -0.070   
 -0.085   
 -0.065   
 -0.060   
 -0.060   
 -0.065   
 -0.075   
 -0.090   
 -0.125   
 -0.110   
  0.355   
  0.665   
  0.390   
  0.060   
 -0.095   
 -0.040   
 -0.060   
 -0.050   
 -0.040   
 -0.065   
 -0.025   
 -0.070   
 -0.065   
 -0.060   
 -0.035   
 -0.015   
 -0.060   
 -0.030   
 -0.045   
 -0.050   
 -0.055   
 -0.075   
 -0.045   
 -0.060   
 -0.040   
 -0.040   
 -0.035   
 -0.025   
 -0.015   
  0.005   
  0.000   
 -0.020   
 -0.045   
 -0.025   
 -0.050   
 -0.035   
 -0.035   
 -0.010   
 -0.005   
 -0.040   
 -0.020   
 -0.060   
 -0.005   
 -0.010   
 -0.025   
 -0.005   
 -0.020   
  0.095   
  0.115   
  0.100   
  0.065   
  0.015   
  0.000   
 -0.070   
 -0.075   
 -0.065   
 -0.065   
 -0.060   
 -0.100   
 -0.065   
 -0.040   
 -0.065   
 -0.105   
 -0.200   
  0.285   
  0.725   
  0.400   
  0.075   
 -0.075   
 -0.020   
 -0.035   
 -0.045   
 -0.040   
 -0.070   
 -0.060   
 -0.065   
 -0.050   
 -0.030   
 -0.030   
 -0.045   
 -0.030   
 -0.050   
 -0.045   
 -0.035   
 -0.065   
 -0.045   
 -0.015   
 -0.040   
 -0.030   
 -0.025   
  0.000   
 -0.015   
 -0.010   
  0.000   
  0.000   
 -0.045   
 -0.030   
 -0.005   
 -0.040   
 -0.030   
 -0.015   
 -0.015   
 -0.015   
 -0.005   
 -0.010   
 -0.025   
 -0.045   
 -0.005   
 -0.010   
  0.000   
 -0.005   
  0.000   
  0.020   
  0.040   
  0.120   
  0.145   
  0.120   
  0.095   
  0.010   
 -0.010   
 -0.060   
 -0.025   
 -0.030   
 -0.055   
 -0.025   
 -0.055   
 -0.035   
 -0.060   
 -0.080   
 -0.200   
  0.150   
  0.675   
  0.525   
  0.165   
 -0.050   
 -0.030   
 -0.015   
 -0.060   
 -0.050   
 -0.085   
 -0.075   
 -0.075   
 -0.080   
 -0.040   
 -0.025   
 -0.010   
 -0.005   
 -0.045   
 -0.050   
 -0.040   
 -0.035   
 -0.090   
 -0.040   
 -0.065   
 -0.030   
 -0.015   
 -0.025   
  0.000   
  0.000   
  0.000   
  0.010   
 -0.010   
 -0.020   
 -0.010   
 -0.025   
 -0.035   
 -0.020   
 -0.030   
 -0.020   
 -0.015   
 -0.055   
 -0.050   
 -0.075   
 -0.070   
 -0.075   
 -0.055   
 -0.080   
 -0.055   
 -0.055   
 -0.075   
 -0.025   
  0.030   
  0.015   
  0.065   
  0.135   
  0.115   
  0.045   
 -0.015   
 -0.025   
 -0.035   
 -0.050   
 -0.035   
 -0.030   
 -0.040   
 -0.030   
 -0.050   
 -0.055   
 -0.095   
 -0.200   
  0.260   
  0.725   
  0.460   
  0.110   
 -0.110   
 -0.050   
 -0.045   
 -0.060   
 -0.080   
 -0.070   
 -0.080   
 -0.060   
 -0.080   
 -0.060   
 -0.025   
 -0.050   
 -0.045   
 -0.060   
 -0.040   
 -0.045   
 -0.035   
 -0.075   
 -0.040   
 -0.015   
 -0.045   
 -0.040   
 -0.015   
  0.010   
  0.020   
  0.025   
  0.005   
 -0.010   
  0.020   
  0.015   
 -0.005   
 -0.005   
  0.035   
  0.000   
  0.000   
  0.000   
  0.000   
 -0.005   
  0.000   
 -0.025   
 -0.040   
 -0.030   
 -0.010   
 -0.025   
 -0.065   
 -0.035   
 -0.020   
 -0.045   
 -0.015   
  0.050   
  0.125   
  0.165   
  0.125   
  0.110   
  0.020   
 -0.045   
 -0.030   
 -0.025   
 -0.025   
 -0.020   
 -0.065   
 -0.075   
 -0.010   
 -0.055   
 -0.070   
 -0.155   
  0.155   
  0.640   
  0.580   
  0.220   
 -0.010   
 -0.030   
  0.015   
  0.005   
 -0.025   
 -0.025   
 -0.020   
 -0.005   
 -0.025   
 -0.025   
 -0.005   
 -0.020   
 -0.015   
 -0.020   
 -0.020   
 -0.005   
 -0.030   
 -0.025   
 -0.025   
 -0.040   
 -0.050   
 -0.010   
 -0.010   
  0.020   
 -0.015   
  0.020   
  0.000   
 -0.045   
 -0.010   
 -0.050   
 -0.045   
 -0.025   
 -0.035   
 -0.040   
 -0.015   
 -0.055   
 -0.030   
 -0.050   
 -0.070   
 -0.095   
 -0.060   
 -0.040   
 -0.060   
 -0.075   
 -0.080   
 -0.020   
  0.000   
  0.005   
  0.040   
  0.145   
  0.100   
  0.055   
 -0.015   
 -0.050   
 -0.045   
 -0.025   
 -0.050   
 -0.050   
 -0.045   
 -0.055   
 -0.025   
 -0.080   
 -0.110   
 -0.185   
  0.280   
  0.810   
  0.565   
  0.120   
 -0.070   
 -0.025   
  0.000   
 -0.050   
 -0.050   
 -0.050   
 -0.050   
 -0.040   
 -0.040   
 -0.060   
 -0.055   
 -0.060   
 -0.045   
 -0.085   
 -0.065   
 -0.030   
 -0.100   
 -0.055   
 -0.050   
 -0.050   
 -0.070   
 -0.025   
 -0.030   
  0.010   
 -0.015   
  0.005   
 -0.005   
 -0.015   
 -0.015   
 -0.020   
 -0.025   
 -0.040   
 -0.010   
 -0.035   
 -0.015   
 -0.035   
 -0.060   
 -0.045   
 -0.060   
 -0.065   
 -0.020   
 -0.060   
 -0.035   
 -0.055   
 -0.010   
  0.010   
  0.075   
  0.100   
  0.140   
  0.115   
  0.045   
 -0.005   
 -0.035   
 -0.040   
 -0.055   
 -0.065   
 -0.050   
 -0.065   
 -0.055   
 -0.055   
 -0.105   
 -0.115   
 -0.145   
  0.400   
  0.780   
  0.440   
  0.085   
 -0.080   
 -0.025   
 -0.020   
 -0.050   
 -0.030   
 -0.040   
 -0.025   
 -0.025   
 -0.040   
 -0.055   
 -0.030   
 -0.030   
 -0.025   
 -0.035   
 -0.060   
 -0.045   
 -0.040   
 -0.035   
 -0.050   
 -0.050   
 -0.065   
 -0.010   
  0.000   
 -0.025   
  0.015   
  0.015   
 -0.010   
 -0.025   
 -0.020   
 -0.010   
 -0.015   
 -0.025   
 -0.020   
 -0.040   
 -0.020   
 -0.020   
 -0.015   
 -0.020   
 -0.070   
 -0.035   
 -0.030   
 -0.040   
 -0.050   
 -0.055   
 -0.050   
 -0.035   
  0.020   
  0.015   
  0.090   
  0.125   
  0.095   
  0.045   
 -0.030   
 -0.065   
 -0.095   
 -0.055   
 -0.065   
 -0.075   
 -0.065   
 -0.060   
 -0.050   
 -0.100   
 -0.115   
 -0.200   
  0.230   
  0.690   
  0.470   
  0.110   
 -0.100   
 -0.015   
 -0.025   
 -0.055   
 -0.065   
 -0.040   
 -0.075   
 -0.040   
 -0.040   
 -0.075   
 -0.045   
 -0.035   
 -0.040   
 -0.070   
 -0.040   
 -0.060   
 -0.030   
 -0.095   
 -0.035   
 -0.030   
 -0.045   
 -0.025   
  0.000   
  0.000   
 -0.015   
  0.015   
  0.015   
 -0.005   
 -0.055   
  0.005   
 -0.010   
  0.000   
 -0.025   
 -0.015   
 -0.010   
 -0.005   
 -0.005   
 -0.020   
 -0.035   
 -0.050   
 -0.020   
 -0.025   
 -0.050   
 -0.050   
 -0.045   
 -0.040   
 -0.070   
 -0.055   
 -0.070   
 -0.090   
  0.005   
  0.010   
  0.045   
  0.085   
  0.100   
  0.055   
  0.020   
 -0.035   
 -0.025   
 -0.065   
 -0.020   
 -0.040   
 -0.055   
 -0.055   
 -0.050   
 -0.045   
 -0.090   
 -0.135   
  0.100   
  0.585   
  0.585   
  0.250   
  0.000   
 -0.035   
 -0.010   
 -0.010   
 -0.030   
 -0.050   
 -0.040   
 -0.030   
 -0.025   
 -0.040   
 -0.020   
 -0.025   
 -0.035   
 -0.055   
 -0.025   
 -0.030   
 -0.030   
 -0.020   
 -0.045   
 -0.035   
 -0.030   
 -0.015   
 -0.010   
  0.010   
  0.000   
  0.005   
  0.000   
  0.000   
 -0.010   
 -0.035   
 -0.025   
 -0.015   
 -0.015   
 -0.045   
 -0.040   
 -0.020   
 -0.060   
 -0.035   
 -0.035   
 -0.040   
 -0.030   
 -0.045   
 -0.070   
 -0.040   
 -0.050   
 -0.060   
 -0.055   
 -0.065   
 -0.045   
 -0.050   
 -0.045   
 -0.070   
 -0.055   
 -0.040   
 -0.035   
  0.015   
  0.005   
  0.085   
  0.120   
  0.085   
  0.065   
 -0.030   
 -0.055   
 -0.035   
 -0.040   
 -0.070   
 -0.050   
 -0.045   
 -0.045   
 -0.045   
 -0.090   
 -0.120   
 -0.085   
  0.375   
  0.730   
  0.365   
  0.020   
 -0.070   
  0.015   
  0.000   
 -0.020   
 -0.075   
 -0.080   
 -0.025   
 -0.070   
 -0.065   
 -0.065   
 -0.050   
 -0.020   
 -0.080   
 -0.005   
 -0.040   
 -0.070   
  0.010   
 -0.065   
 -0.020   
 -0.080   
 -0.025   
  0.095   
  0.235   
  0.025   
  0.050   
  0.155   
 -0.155   
 -0.080   
 -0.040   
 -0.120   
  0.000   
 -0.015   
 -0.110   
 -0.005   
 -0.070   
 -0.010   
 -0.040   
 -0.110   
 -0.110   
 -0.015   
 -0.135   
 -0.110   
 -0.035   
 -0.170   
 -0.100   
 -0.155   
 -0.155   
 -0.120   
 -0.220   
 -0.200   
 -0.300   
 -0.090   
 -0.160   
 -0.035   
 -0.185   
  0.010   
  0.095   
 -0.030   
  0.105   
 -0.075   
 -0.030   
  0.045   
  0.045   
 -0.095   
 -0.160   
  0.035   
  0.120   
  0.015   
 -0.030   
 -0.005   
 -0.140   
  0.205   
  0.815   
  0.660   
  0.290   
  0.130   
  0.115   
  0.120   
  0.250   
  0.410   
  0.455   
  0.210   
  0.080   
 -0.050   
  0.055   
 -0.090   
  0.010   
 -0.070   
 -0.015   
 -0.135   
 -0.080   
 -0.030   
 -0.110   
 -0.020   
 -0.160   
  0.070   
 -0.040   
 -0.035   
  0.015   
  0.015   
  0.030   
  0.075   
  0.140   
  0.105   
 -0.045   
  0.110   
  0.020   
 -0.065   
 -0.085   
 -0.005   
  0.010   
 -0.035   
  0.005   
  0.045   
  0.000   
 -0.015   
  0.130   
 -0.005   
 -0.050   
 -0.025   
 -0.095   
 -0.040   
  0.070   
  0.110   
 -0.015   
  0.085   
  0.105   
  0.230   
  0.025   
  0.040   
 -0.005   
  0.000   
 -0.040   
 -0.020   
 -0.055   
 -0.045   
  0.110   
 -0.015   
 -0.060   
 -0.405   
 -0.050   
  0.225   
  0.700   
  0.485   
  0.105   
 -0.055   
  0.015   
 -0.270   
  0.070   
  0.000   
 -0.080   
 -0.255   
  0.305   
  0.205   
 -0.590   
  0.770   
 -0.160   
 -0.770   
  0.305   
  0.465   
 -0.185   
 -0.250   
 -0.210   
 -0.050   
 -0.045   
 -0.320   
 -0.095   
  0.635   
 -0.380   
 -0.155   
 -0.145   
 -0.285   
  0.220   
 -0.265   
  0.050   
 -0.205   
 -0.150   
  0.050   
  0.115   
 -0.030   
  0.165   
 -0.355   
 -0.095   
 -0.320   
 -0.115   
 -0.015   
 -0.225   
 -0.095   
  0.180   
  0.075   
 -0.450   
  0.170   
  0.055   
 -0.010   
 -0.185   
  0.155   
  0.240   
  0.075   
  0.160   
  0.205   
 -0.045   
 -0.010   
  0.050   
 -0.090   
  0.010   
 -0.020   
 -0.210   
 -0.100   
 -0.195   
 -0.170   
 -0.330   
 -0.040   
  0.500   
  0.100   
 -0.020   
 -0.155   
 -0.095   
 -0.030   
 -0.230   
 -0.195   
 -0.045   
 -0.090   
  0.005   
  0.000   
 -0.125   
 -0.030   
 -0.140   
 -0.105   
  0.005   
 -0.005   
  0.035   
 -0.100   
 -0.100   
 -0.090   
 -0.120   
  0.030   
 -0.070   
 -0.085   
  0.045   
 -0.010   
  0.155   
  0.015   
  0.050   
  0.050   
  0.075   
  0.055   
 -0.025   
 -0.040   
  0.100   
  0.040   
 -0.120   
  0.040   
 -0.035   
 -0.015   
 -0.050   
  0.010   
  0.050   
 -0.115   
 -0.035   
 -0.005   
  0.035   
  0.050   
 -0.055   
  0.140   
  0.210   
  0.170   
  0.140   
 -0.015   
 -0.065   
 -0.055   
  0.045   
 -0.030   
 -0.035   
 -0.030   
  0.035   
  0.095   
 -0.125   
 -0.135   
 -0.215   
  0.055   
  0.475   
  0.330   
  0.060   
 -0.085   
 -0.070   
 -0.010   
  0.030   
 -0.115   
 -0.070   
 -0.055   
 -0.055   
 -0.055   
  0.000   
 -0.050   
 -0.065   
 -0.055   
 -0.070   
  0.035   
 -0.090   
 -0.055   
 -0.125   
 -0.050   
 -0.050   
  0.055   
  0.010   
 -0.115   
 -0.065   
 -0.080   
  0.000   
  0.060   
  0.015   
 -0.010   
 -0.020   
  0.010   
  0.035   
 -0.015   
  0.025   
  0.000   
 -0.020   
  0.000   
 -0.010   
  0.020   
 -0.040   
  0.030   
  0.055   
  0.000   
 -0.035   
  0.025   
  0.050   
  0.045   
 -0.015   
  0.025   
  0.120   
  0.065   
  0.145   
  0.235   
  0.110   
  0.135   
  0.150   
  0.050   
  0.110   
 -0.005   
 -0.010   
  0.075   
  0.070   
  0.070   
 -0.100   
 -0.040   
  0.050   
 -0.105   
 -0.120   
  0.350   
  0.390   
  0.105   
  0.150   
 -0.115   
 -0.210   
  0.100   
  0.005   
 -0.125   
  0.155   
  0.070   
 -0.065   
  0.045   
  0.065   
 -0.060   
  0.010   
  0.090   
  0.020   
 -0.085   
  0.120   
  0.150   
 -0.070   
  0.035   
  0.150   
 -0.045   
  0.020   
  0.100   
 -0.120   
 -0.170   
 -0.165   
  0.115   
  0.000   
 -0.225   
 -0.110   
 -0.150   
 -0.280   
 -0.085   
 -0.115   
 -0.200   
 -0.100   
 -0.030   
  0.015   
 -0.045   
 -0.080   
 -0.050   
  0.005   
  0.090   
  0.005   
  0.095   
  0.190   
  0.140   
  0.235   
  0.270   
  0.240   
  0.260   
  0.145   
  0.145   
  0.170   
  0.165   
  0.165   
  0.255   
  0.205   
  0.210   
  0.255   
  0.180   
  0.215   
  0.000   
 -0.100   
  0.145   
  0.625   
  0.645   
  0.195   
 -0.060   
 -0.075   
 -0.155   
 -0.015   
 -0.015   
 -0.155   
 -0.295   
 -0.080   
 -0.165   
 -0.035   
 -0.100   
 -0.015   
 -0.175   
 -0.160   
  0.055   
 -0.110   
  0.005   
 -0.115   
 -0.315   
 -0.080   
 -0.185   
 -0.365   
 -0.075   
  0.055   
 -0.045   
 -0.220   
 -0.095   
 -0.355   
  0.165   
 -0.120   
 -0.370   
 -0.295   
  0.140   
  0.000   
 -0.360   
 -0.405   
  0.160   
 -0.215   
 -0.435   
  0.245   
 -0.115   
 -0.065   
 -0.385   
 -0.355   
  0.180   
  0.070   
  0.050   
  0.045   
 -0.150   
 -0.060   
 -0.155   
 -0.130   
 -0.095   
 -0.010   
 -0.030   
 -0.055   
 -0.220   
 -0.085   
 -0.190   
  0.000   
 -0.255   
 -0.280   
  0.195   
  0.405   
  0.295   
 -0.020   
 -0.160   
  0.010   
  0.000   
 -0.145   
 -0.095   
 -0.020   
 -0.030   
 -0.035   
 -0.050   
  0.000   
 -0.130   
 -0.065   
 -0.105   
 -0.190   
 -0.045   
 -0.175   
 -0.015   
 -0.100   
 -0.085   
 -0.090   
 -0.100   
 -0.140   
 -0.165   
 -0.105   
 -0.020   
  0.000   
 -0.140   
 -0.075   
 -0.040   
 -0.085   
 -0.145   
 -0.200   
  0.030   
  0.040   
 -0.110   
 -0.070   
 -0.095   
 -0.120   
 -0.045   
 -0.070   
 -0.110   
 -0.100   
 -0.085   
 -0.070   
 -0.005   
  0.005   
  0.025   
  0.070   
  0.035   
 -0.005   
  0.025   
  0.100   
  0.055   
  0.055   
  0.165   
  0.040   
  0.000   
  0.035   
  0.035   
  0.000   
  0.005   
 -0.145   
  0.150   
  0.530   
  0.375   
  0.175   
  0.020   
  0.085   
  0.105   
  0.235   
  0.220   
  0.180   
  0.160   
  0.130   
  0.110   
  0.080   
  0.045   
  0.010   
  0.000   
 -0.025   
 -0.030   
 -0.055   
 -0.060   
 -0.075   
 -0.075   
 -0.070   
 -0.060   
 -0.060   
 -0.050   
 -0.025   
 -0.025   
  0.000   
  0.000   
  0.005   
  0.015   
  0.015   
  0.010   
  0.015   
 -0.020   
 -0.020   
 -0.030   
 -0.030   
 -0.050   
 -0.050   
 -0.060   
 -0.035   
 -0.045   
 -0.020   
  0.035   
  0.065   
  0.145   
  0.180   
  0.160   
  0.250   
  0.195   
  0.305   
  0.360   
  0.125   
  0.075   
  0.035   
  0.010   
 -0.030   
 -0.035   
 -0.020   
 -0.055   
 -0.140   
 -0.135   
  0.185   
  0.525   
  0.405   
  0.115   
  0.025   
  0.070   
  0.095   
  0.065   
  0.050   
  0.030   
  0.020   
  0.000   
 -0.005   
 -0.025   
 -0.010   
 -0.020   
 -0.030   
 -0.035   
 -0.055   
 -0.055   
 -0.110   
 -0.155   
 -0.120   
 -0.110   
 -0.095   
 -0.070   
 -0.040   
 -0.015   
 -0.015   
 -0.005   
 -0.030   
 -0.010   
 -0.020   
  0.000   
 -0.005   
  0.000   
 -0.015   
 -0.015   
 -0.020   
 -0.020   
 -0.035   
 -0.035   
 -0.025   
 -0.060   
 -0.030   
 -0.015   
  0.035   
  0.055   
  0.045   
  0.040   
  0.000   
 -0.065   
 -0.065   
 -0.075   
 -0.090   
 -0.085   
 -0.085   
 -0.080   
 -0.085   
 -0.075   
 -0.105   
 -0.135   
 -0.285   
  0.040   
  0.455   
  0.325   
  0.105   
 -0.080   
 -0.025   
 -0.040   
 -0.040   
 -0.035   
 -0.050   
 -0.055   
 -0.055   
 -0.040   
 -0.070   
 -0.040   
 -0.055   
 -0.045   
 -0.055   
 -0.035   
 -0.065   
 -0.055   
 -0.060   
 -0.070   
 -0.070   
 -0.055   
 -0.040   
 -0.035   
 -0.010   
  0.000   
  0.000   
 -0.005   
 -0.010   
 -0.020   
 -0.010   
 -0.010   
 -0.010   
 -0.015   
 -0.010   
 -0.015   
 -0.005   
 -0.020   
 -0.020   
 -0.025   
 -0.010   
  0.005   
  0.015   
  0.070   
  0.080   
  0.070   
  0.070   
  0.010   
 -0.035   
 -0.050   
 -0.055   
 -0.055   
 -0.050   
 -0.060   
 -0.055   
 -0.060   
 -0.060   
 -0.075   
 -0.140   
 -0.190   
  0.095   
  0.405   
  0.265   
  0.055   
 -0.060   
 -0.010   
 -0.015   
 -0.040   
 -0.040   
 -0.045   
 -0.045   
 -0.040   
 -0.035   
 -0.040   
 -0.035   
 -0.045   
 -0.030   
 -0.030   
 -0.035   
 -0.065   
 -0.065   
 -0.070   
 -0.090   
 -0.085   
 -0.055   
 -0.050   
 -0.045   
 -0.025   
 -0.015   
  0.000   
 -0.010   
  0.000   
  0.000   
 -0.010   
 -0.010   
 -0.010   
 -0.005   
 -0.010   
  0.000   
  0.005   
  0.005   
  0.000   
 -0.005   
  0.020   
  0.040   
  0.050   
  0.105   
  0.095   
  0.090   
  0.075   
  0.005   
 -0.015   
 -0.025   
 -0.025   
 -0.030   
 -0.030   
 -0.035   
 -0.035   
 -0.035   
 -0.040   
 -0.060   
 -0.225   
 -0.045   
  0.280   
  0.345   
  0.200   
 -0.015   
 -0.020   
 -0.015   
 -0.020   
 -0.020   
 -0.020   
 -0.025   
 -0.020   
 -0.020   
 -0.020   
 -0.015   
 -0.015   
 -0.025   
 -0.030   
 -0.035   
 -0.045   
 -0.055   
 -0.060   
 -0.065   
 -0.070   
 -0.065   
 -0.060   
 -0.045   
 -0.030   
 -0.010   
  0.005   
  0.010   
  0.010   
  0.005   
  0.005   
  0.005   
  0.005   
  0.000   
  0.005   
  0.000   
  0.000   
 -0.010   
 -0.005   
 -0.005   
 -0.005   
 -0.015   
 -0.005   
  0.015   
  0.010   
  0.075   
  0.070   
  0.070   
  0.060   
  0.000   
 -0.030   
 -0.040   
 -0.040   
 -0.040   
 -0.040   
 -0.050   
 -0.045   
 -0.045   
 -0.040   
 -0.055   
 -0.185   
 -0.100   
  0.200   
  0.375   
  0.240   
  0.025   
 -0.015   
  0.000   
  0.000   
 -0.015   
 -0.020   
 -0.015   
 -0.015   
 -0.015   
 -0.020   
 -0.020   
 -0.020   
 -0.025   
 -0.020   
 -0.020   
 -0.030   
 -0.040   
 -0.050   
 -0.065   
 -0.070   
 -0.060   
 -0.060   
 -0.045   
 -0.030   
 -0.005   
  0.005   
  0.005   
  0.015   
  0.015   
  0.005   
  0.010   
  0.000   
  0.005   
  0.005   
  0.000   
  0.000   
  0.000   
  0.000   
 -0.005   
 -0.015   
 -0.025   
 -0.025   
 -0.030   
 -0.025   
 -0.025   
  0.000   
  0.015   
  0.075   
  0.080   
  0.080   
  0.070   
 -0.015   
 -0.040   
 -0.045   
 -0.045   
 -0.045   
 -0.040   
 -0.045   
 -0.035   
 -0.040   
 -0.055   
 -0.075   
 -0.215   
 -0.070   
  0.335   
  0.435   
  0.275   
  0.045   
 -0.005   
  0.020   
  0.010   
 -0.005   
 -0.005   
  0.000   
  0.000   
 -0.010   
 -0.005   
 -0.015   
 -0.025   
 -0.010   
 -0.025   
 -0.030   
 -0.045   
 -0.040   
 -0.055   
 -0.060   
 -0.060   
 -0.050   
 -0.050   
 -0.035   
 -0.010   
  0.005   
  0.015   
  0.015   
  0.020   
  0.015   
  0.015   
  0.020   
  0.010   
  0.010   
  0.010   
  0.010   
 -0.010   
 -0.005   
 -0.005   
 -0.010   
 -0.025   
 -0.030   
 -0.025   
 -0.035   
 -0.035   
 -0.035   
  0.005   
  0.000   
  0.065   
  0.070   
  0.070   
  0.070   
  0.000   
 -0.040   
 -0.050   
 -0.060   
 -0.055   
 -0.050   
 -0.060   
 -0.055   
 -0.055   
 -0.070   
 -0.095   
 -0.220   
 -0.095   
  0.340   
  0.420   
  0.285   
  0.040   
 -0.040   
 -0.005   
 -0.030   
 -0.045   
 -0.045   
 -0.045   
 -0.050   
 -0.050   
 -0.050   
 -0.045   
 -0.050   
 -0.050   
 -0.065   
 -0.055   
 -0.065   
 -0.070   
 -0.080   
 -0.085   
 -0.085   
 -0.085   
 -0.080   
 -0.060   
 -0.035   
 -0.020   
 -0.005   
  0.000   
  0.000   
  0.000   
 -0.005   
  0.000   
 -0.005   
 -0.005   
 -0.005   
 -0.010   
 -0.005   
 -0.015   
 -0.020   
 -0.015   
 -0.020   
 -0.020   
 -0.020   
 -0.020   
 -0.020   
 -0.020   
  0.005   
  0.030   
  0.045   
  0.090   
  0.115   
  0.100   
  0.050   
 -0.010   
 -0.025   
 -0.030   
 -0.040   
 -0.030   
 -0.035   
 -0.035   
 -0.040   
 -0.035   
 -0.060   
 -0.095   
 -0.215   
  0.110   
  0.500   
  0.320   
  0.110   
 -0.050   
  0.000   
 -0.005   
 -0.020   
 -0.020   
 -0.025   
 -0.020   
 -0.020   
 -0.020   
 -0.030   
 -0.020   
 -0.030   
 -0.030   
 -0.040   
 -0.030   
 -0.050   
 -0.055   
 -0.065   
 -0.070   
 -0.070   
 -0.065   
 -0.050   
 -0.040   
 -0.030   
 -0.005   
  0.000   
  0.000   
  0.000   
  0.000   
  0.000   
  0.000   
 -0.005   
  0.005   
  0.005   
  0.000   
  0.000   
  0.000   
  0.000   
 -0.005   
 -0.010   
 -0.015   
 -0.015   
 -0.015   
 -0.020   
 -0.015   
 -0.015   
 -0.020   
  0.000   
  0.040   
  0.045   
  0.095   
  0.105   
  0.085   
  0.035   
 -0.020   
 -0.025   
 -0.035   
 -0.040   
 -0.040   
 -0.040   
 -0.040   
 -0.045   
 -0.040   
 -0.055   
 -0.135   
 -0.175   
  0.140   
  0.460   
  0.300   
  0.075   
 -0.035   
  0.000   
 -0.010   
 -0.015   
 -0.010   
 -0.020   
 -0.015   
 -0.015   
 -0.010   
 -0.015   
 -0.005   
 -0.015   
 -0.015   
 -0.020   
 -0.030   
 -0.045   
 -0.045   
 -0.055   
 -0.070   
 -0.065   
 -0.060   
 -0.055   
 -0.035   
 -0.015   
  0.000   
  0.000   
  0.005   
  0.005   
  0.000   
  0.005   
  0.000   
 -0.005   
 -0.005   
 -0.005   
 -0.010   
 -0.010   
 -0.015   
 -0.015   
 -0.020   
 -0.030   
 -0.030   
 -0.030   
 -0.035   
 -0.030   
 -0.035   
 -0.035   
 -0.030   
 -0.030   
 -0.030   
 -0.005   
  0.035   
  0.030   
  0.090   
  0.085   
  0.065   
  0.040   
 -0.015   
 -0.035   
 -0.035   
 -0.035   
 -0.030   
 -0.045   
 -0.040   
 -0.045   
 -0.035   
 -0.055   
 -0.115   
 -0.230   
  0.100   
  0.505   
  0.325   
  0.105   
 -0.040   
  0.010   
  0.000   
 -0.005   
 -0.010   
 -0.015   
 -0.015   
 -0.010   
 -0.015   
 -0.020   
 -0.015   
 -0.025   
 -0.020   
 -0.035   
 -0.030   
 -0.045   
 -0.050   
 -0.060   
 -0.070   
 -0.070   
 -0.070   
 -0.065   
 -0.060   
 -0.040   
 -0.020   
 -0.020   
  0.000   
 -0.015   
 -0.015   
 -0.010   
 -0.010   
 -0.010   
 -0.005   
 -0.005   
 -0.005   
 -0.010   
 -0.005   
 -0.010   
 -0.015   
 -0.020   
 -0.020   
 -0.025   
 -0.030   
 -0.025   
 -0.030   
 -0.025   
 -0.025   
 -0.025   
 -0.025   
 -0.025   
 -0.035   
 -0.030   
 -0.030   
 -0.025   
  0.015   
  0.040   
  0.050   
  0.090   
  0.085   
  0.070   
  0.015   
 -0.030   
 -0.020   
 -0.040   
 -0.035   
 -0.040   
 -0.040   
 -0.040   
 -0.045   
 -0.065   
 -0.075   
 -0.260   
  0.015   
  0.450   
  0.390   
  0.200   
 -0.010   
  0.005   
  0.000   
 -0.005   
 -0.010   
 -0.015   
 -0.025   
 -0.030   
 -0.020   
 -0.025   
 -0.030   
 -0.020   
 -0.035   
 -0.035   
 -0.030   
 -0.040   
 -0.050   
 -0.050   
 -0.060   
 -0.060   
 -0.055   
 -0.050   
 -0.040   
 -0.025   
 -0.010   
  0.005   
  0.000   
  0.000   
  0.000   
  0.000   
 -0.005   
 -0.005   
 -0.005   
 -0.010   
  0.000   
 -0.005   
 -0.005   
 -0.010   
 -0.025   
 -0.025   
 -0.025   
 -0.025   
 -0.025   
 -0.025   
 -0.030   
 -0.020   
 -0.025   
 -0.030   
 -0.025   
 -0.015   
  0.040   
  0.025   
  0.090   
  0.085   
  0.090   
  0.085   
  0.000   
 -0.030   
 -0.025   
 -0.035   
 -0.030   
 -0.025   
 -0.035   
 -0.025   
 -0.025   
 -0.075   
 -0.110   
 -0.270   
  0.055   
  0.565   
  0.420   
  0.190   
 -0.015   
  0.005   
  0.000   
 -0.015   
 -0.025   
 -0.030   
 -0.025   
 -0.030   
 -0.025   
 -0.025   
 -0.030   
 -0.030   
 -0.030   
 -0.035   
 -0.045   
 -0.055   
 -0.050   
 -0.065   
 -0.075   
 -0.080   
 -0.070   
 -0.070   
 -0.050   
 -0.030   
 -0.020   
 -0.010   
 -0.010   
 -0.010   
 -0.005   
 -0.010   
  0.000   
 -0.010   
 -0.010   
 -0.015   
 -0.005   
 -0.010   
 -0.020   
 -0.025   
 -0.020   
 -0.025   
 -0.020   
 -0.025   
 -0.025   
 -0.020   
 -0.025   
 -0.025   
 -0.025   
 -0.025   
 -0.020   
  0.025   
  0.035   
  0.070   
  0.095   
  0.110   
  0.095   
  0.035   
 -0.010   
 -0.010   
 -0.015   
 -0.015   
 -0.015   
 -0.015   
 -0.020   
 -0.020   
 -0.035   
 -0.060   
 -0.195   
  0.030   
  0.455   
  0.435   
  0.260   
  0.035   
 -0.005   
  0.010   
 -0.005   
 -0.005   
 -0.010   
 -0.015   
 -0.020   
 -0.010   
 -0.010   
 -0.015   
 -0.015   
 -0.025   
 -0.030   
 -0.030   
 -0.035   
 -0.040   
 -0.060   
 -0.065   
 -0.060   
 -0.055   
 -0.050   
 -0.040   
 -0.025   
 -0.010   
  0.000   
  0.000   
  0.000   
 -0.010   
  0.000   
 -0.005   
 -0.005   
  0.000   
  0.000   
 -0.005   
 -0.005   
 -0.010   
 -0.015   
 -0.020   
 -0.020   
 -0.020   
 -0.030   
 -0.030   
 -0.025   
 -0.015   
 -0.025   
 -0.020   
 -0.025   
 -0.025   
 -0.025   
 -0.020   
 -0.015   
 -0.015   
 -0.010   
  0.000   
  0.050   
  0.045   
  0.105   
  0.100   
  0.075   
  0.065   
 -0.005   
 -0.025   
 -0.030   
 -0.040   
 -0.035   
 -0.045   
 -0.050   
 -0.045   
 -0.045   
 -0.070   
 -0.205   
 -0.030   
  0.315   
  0.400   
  0.240   
  0.015   
 -0.020   
  0.000   
 -0.010   
 -0.010   
 -0.015   
 -0.020   
 -0.020   
 -0.025   
 -0.015   
 -0.015   
 -0.010   
 -0.015   
 -0.020   
 -0.015   
 -0.030   
 -0.040   
 -0.045   
 -0.055   
 -0.065   
 -0.070   
 -0.055   
 -0.045   
 -0.035   
 -0.010   
  0.000   
 -0.005   
  0.000   
 -0.005   
 -0.005   
 -0.005   
 -0.010   
 -0.010   
 -0.015   
 -0.010   
 -0.015   
 -0.010   
 -0.015   
 -0.020   
 -0.020   
 -0.035   
 -0.035   
 -0.030   
 -0.020   
 -0.020   
 -0.020   
 -0.020   
 -0.020   
 -0.020   
 -0.020   
 -0.020   
 -0.015   
 -0.020   
  0.000   
  0.050   
  0.045   
  0.105   
  0.095   
  0.085   
  0.060   
 -0.005   
 -0.020   
 -0.035   
 -0.035   
 -0.030   
 -0.030   
 -0.030   
 -0.035   
 -0.030   
 -0.055   
 -0.155   
 -0.115   
  0.235   
  0.460   
  0.285   
  0.070   
 -0.015   
  0.010   
  0.000   
 -0.010   
 -0.010   
 -0.005   
  0.000   
 -0.010   
 -0.005   
 -0.005   
 -0.010   
 -0.020   
 -0.020   
 -0.025   
 -0.030   
 -0.040   
