6000.0
100.0
  0.210  
  0.130  
  0.330  
  0.280  
  0.445  
  0.370  
  0.565  
  0.470  
  0.560  
  0.400  
  0.440  
  0.240  
  0.310  
  0.130  
  0.190  
  0.045  
  0.150  
  0.005  
  0.100  
 -0.050  
  0.040  
 -0.055  
  0.050  
 -0.100  
  0.030  
 -0.095  
 -0.005  
 -0.095  
  0.025  
 -0.055  
  0.120  
 -0.025  
  0.025  
 -0.060  
 -0.030  
 -0.175  
 -0.110  
 -0.290  
 -0.190  
 -0.375  
 -0.250  
 -0.370  
 -0.280  
 -0.400  
 -0.585  
 -0.980  
 -0.105  
  1.680  
  2.840  
  1.785  
  0.260  
 -0.575  
 -0.360  
 -0.380  
 -0.280  
 -0.430  
 -0.340  
 -0.455  
 -0.345  
 -0.400  
 -0.315  
 -0.435  
 -0.275  
 -0.380  
 -0.240  
 -0.315  
 -0.220  
 -0.355  
 -0.190  
 -0.270  
 -0.090  
 -0.150  
  0.000  
 -0.055  
  0.120  
  0.025  
  0.140  
 -0.010  
  0.090  
 -0.080  
 -0.070  
 -0.255  
 -0.190  
 -0.280  
 -0.200  
 -0.355  
 -0.260  
 -0.370  
 -0.255  
 -0.350  
 -0.170  
 -0.255  
 -0.140  
 -0.200  
 -0.110  
 -0.240  
 -0.135  
 -0.320  
 -0.170  
 -0.370  
 -0.325  
 -0.435  
 -0.400  
 -0.630  
 -0.575  
 -0.815  
 -0.840  
 -0.975  
 -0.860  
 -0.980  
 -0.820  
 -0.890  
 -0.920  
 -1.385  
 -0.880  
  0.585  
  2.340  
  1.845  
  0.210  
 -0.820  
 -0.790  
 -0.720  
 -0.655  
 -0.760  
 -0.535  
 -0.680  
 -0.610  
 -0.680  
 -0.590  
 -0.690  
 -0.440  
 -0.555  
 -0.465  
 -0.560  
 -0.440  
 -0.510  
 -0.350  
 -0.425  
 -0.240  
 -0.275  
 -0.175  
 -0.220  
 -0.005  
 -0.120  
  0.040  
 -0.040  
 -0.020  
 -0.215  
 -0.100  
 -0.275  
 -0.265  
 -0.440  
 -0.305  
 -0.500  
 -0.520  
 -0.710  
 -0.660  
 -0.820  
 -0.660  
 -0.680  
 -0.475  
 -0.560  
 -0.275  
 -0.320  
 -0.180  
 -0.320  
 -0.175  
 -0.360  
 -0.350  
 -0.540  
 -0.485  
 -0.640  
 -0.480  
 -0.640  
 -0.560  
 -0.755  
 -0.635  
 -0.805  
 -0.625  
 -0.785  
 -0.720  
 -1.275  
 -1.010  
  0.200  
  2.165  
  1.960  
  0.475  
 -0.760  
 -0.830  
 -0.835  
 -0.670  
 -0.785  
 -0.645  
 -0.815  
 -0.550  
 -0.705  
 -0.545  
 -0.690  
 -0.505  
 -0.630  
 -0.425  
 -0.560  
 -0.380  
 -0.440  
 -0.240  
 -0.450  
 -0.200  
 -0.340  
 -0.040  
 -0.140  
  0.010  
 -0.140  
  0.110  
 -0.080  
  0.045  
 -0.190  
 -0.100  
 -0.335  
 -0.170  
 -0.420  
 -0.300  
 -0.500  
 -0.285  
 -0.470  
 -0.340  
 -0.590  
 -0.380  
 -0.520  
 -0.360  
 -0.530  
 -0.400  
 -0.595  
 -0.280  
 -0.520  
 -0.380  
 -0.440  
 -0.260  
 -0.425  
 -0.300  
 -0.530  
 -0.345  
 -0.600  
 -0.475  
 -0.660  
 -0.475  
 -0.660  
 -0.460  
 -0.700  
 -0.620  
 -1.065  
 -0.910  
  0.100  
  2.170  
  2.160  
  0.920  
 -0.420  
 -0.675  
 -0.680  
 -0.335  
 -0.520  
 -0.380  
 -0.540  
 -0.315  
 -0.490  
 -0.320  
 -0.475  
 -0.240  
 -0.440  
 -0.255  
 -0.380  
 -0.230  
 -0.395  
 -0.180  
 -0.330  
 -0.110  
 -0.180  
  0.020  
 -0.170  
  0.100  
 -0.050  
  0.105  
 -0.095  
  0.070  
 -0.195  
 -0.145  
 -0.435  
 -0.315  
 -0.520  
 -0.370  
 -0.575  
 -0.390  
 -0.515  
 -0.425  
 -0.620  
 -0.360  
 -0.560  
 -0.395  
 -0.515  
 -0.335  
 -0.490  
 -0.230  
 -0.400  
 -0.210  
 -0.340  
 -0.195  
 -0.350  
 -0.190  
 -0.440  
 -0.295  
 -0.485  
 -0.355  
 -0.495  
 -0.320  
 -0.545  
 -0.380  
 -0.505  
 -0.390  
 -0.860  
 -0.655  
  0.360  
  2.425  
  2.530  
  1.185  
 -0.305  
 -0.555  
 -0.540  
 -0.310  
 -0.540  
 -0.390  
 -0.540  
 -0.385  
 -0.515  
 -0.345  
 -0.485  
 -0.290  
 -0.440  
 -0.240  
 -0.375  
 -0.220  
 -0.380  
 -0.160  
 -0.240  
 -0.040  
 -0.145  
  0.100  
 -0.040  
  0.160  
  0.050  
  0.240  
  0.060  
  0.175  
 -0.035  
  0.080  
 -0.140  
  0.025  
 -0.190  
 -0.080  
 -0.265  
 -0.150  
 -0.280  
 -0.080  
 -0.220  
 -0.075  
 -0.210  
 -0.035  
 -0.200  
 -0.020  
 -0.160  
  0.075  
 -0.055  
  0.080  
 -0.080  
  0.105  
 -0.060  
  0.085  
 -0.180  
 -0.080  
 -0.255  
 -0.080  
 -0.230  
 -0.110  
 -0.340  
 -0.145  
 -0.260  
 -0.210  
 -0.740  
 -0.695  
  0.180  
  2.280  
  2.655  
  1.480  
 -0.080  
 -0.360  
 -0.375  
 -0.150  
 -0.330  
 -0.165  
 -0.305  
 -0.140  
 -0.300  
 -0.120  
 -0.260  
 -0.080  
 -0.185  
 -0.060  
 -0.240  
 -0.010  
 -0.165  
  0.045  
 -0.040  
  0.160  
  0.090  
  0.320  
  0.220  
  0.440  
  0.300  
  0.520  
  0.340  
  0.450  
  0.240  
  0.335  
  0.110  
  0.205  
  0.040  
  0.150  
 -0.035  
  0.105  
 -0.055  
  0.130  
 -0.080  
  0.095  
 -0.035  
  0.065  
 -0.030  
  0.120  
 -0.075  
  0.120  
 -0.005  
  0.185  
  0.070  
  0.260  
  0.140  
  0.290  
  0.085  
  0.175  
  0.010  
  0.145  
 -0.080  
  0.025  
 -0.105  
  0.065  
 -0.120  
  0.025  
 -0.120  
 -0.240  
 -0.720  
  0.100  
  1.630  
  3.035  
  2.150  
  0.600  
 -0.295  
 -0.080  
 -0.120  
  0.010  
 -0.090  
  0.060  
 -0.150  
  0.010  
 -0.105  
  0.050  
 -0.120  
  0.060  
 -0.065  
  0.145  
 -0.055  
  0.090  
 -0.005  
  0.200  
  0.105  
  0.310  
  0.220  
  0.460  
  0.335  
  0.540  
  0.440  
  0.580  
  0.380  
  0.470  
  0.245  
  0.330  
  0.120  
  0.240  
  0.050  
  0.180  
  0.010  
  0.155  
 -0.020  
  0.125  
 -0.030  
  0.120  
 -0.010  
  0.135  
 -0.015  
  0.160  
 -0.020  
  0.135  
  0.030  
  0.230  
  0.120  
  0.320  
  0.210  
  0.330  
  0.180  
  0.320  
  0.085  
  0.180  
  0.040  
  0.165  
 -0.005  
  0.130  
 -0.010  
  0.145  
  0.020  
  0.040  
 -0.490  
 -0.320  
  0.690  
  2.750  
  2.925  
  1.535  
  0.100  
 -0.150  
 -0.120  
  0.120  
 -0.060  
  0.080  
 -0.080  
  0.085  
 -0.035  
  0.090  
 -0.060  
  0.120  
 -0.010  
  0.155  
  0.025  
  0.205  
  0.055  
  0.210  
  0.130  
  0.360  
  0.300  
  0.505  
  0.430  
  0.665  
  0.565  
  0.720  
  0.540  
  0.610  
  0.385  
  0.430  
  0.240  
  0.310  
  0.100  
  0.245  
  0.085  
  0.205  
  0.055  
  0.200  
  0.040  
  0.185  
  0.040  
  0.180  
  0.060  
  0.220  
  0.040  
  0.160  
  0.060  
  0.240  
  0.130  
  0.310  
  0.210  
  0.385  
  0.225  
  0.360  
  0.165  
  0.260  
  0.070  
  0.200  
  0.020  
  0.140  
  0.015  
  0.155  
  0.010  
  0.140  
 -0.200  
 -0.395  
 -0.180  
  1.530  
  3.115  
  2.850  
  0.905  
  0.080  
 -0.240  
  0.100  
 -0.005  
  0.120  
 -0.030  
  0.150  
 -0.025  
  0.110  
 -0.030  
  0.130  
 -0.015  
  0.145  
  0.010  
  0.160  
  0.045  
  0.240  
  0.125  
  0.345  
  0.280  
  0.485  
  0.400  
  0.630  
  0.560  
  0.705  
  0.570  
  0.680  
  0.445  
  0.560  
  0.310  
  0.370  
  0.180  
  0.280  
  0.120  
  0.260  
  0.095  
  0.240  
  0.080  
  0.240  
  0.090  
  0.220  
  0.090  
  0.250  
  0.125  
  0.265  
  0.155  
  0.335  
  0.205  
  0.440  
  0.305  
  0.400  
  0.265  
  0.440  
  0.200  
  0.295  
  0.120  
  0.225  
  0.065  
  0.200  
  0.055  
  0.190  
  0.040  
  0.180  
 -0.220  
 -0.380  
  0.100  
  2.020  
  3.130  
  2.455  
  0.585  
  0.010  
 -0.100  
  0.170  
  0.010  
  0.155  
  0.030  
  0.180  
  0.020  
  0.185  
  0.040  
  0.200  
  0.080  
  0.240  
  0.105  
  0.270  
  0.150  
  0.330  
  0.215  
  0.425  
  0.350  
  0.565  
  0.485  
  0.710  
  0.650  
  0.810  
  0.625  
  0.725  
  0.520  
  0.590  
  0.345  
  0.440  
  0.255  
  0.350  
  0.190  
  0.330  
  0.185  
  0.285  
  0.125  
  0.280  
  0.150  
  0.290  
  0.120  
  0.270  
  0.145  
  0.300  
  0.200  
  0.380  
  0.270  
  0.450  
  0.285  
  0.420  
  0.320  
  0.425  
  0.200  
  0.280  
  0.100  
  0.240  
  0.100  
  0.200  
  0.045  
  0.210  
  0.060  
  0.090  
 -0.435  
 -0.200  
  0.980  
  3.070  
  2.980  
  1.400  
  0.105  
  0.020  
  0.040  
  0.220  
  0.060  
  0.220  
  0.080  
  0.230  
  0.105  
  0.240  
  0.085  
  0.260  
  0.150  
  0.315  
  0.185  
  0.360  
  0.225  
  0.400  
  0.345  
  0.525  
  0.415  
  0.625  
  0.570  
  0.770  
  0.675  
  0.840  
  0.650  
  0.720  
  0.520  
  0.550  
  0.305  
  0.420  
  0.240  
  0.370  
  0.215  
  0.330  
  0.160  
  0.320  
  0.180  
  0.290  
  0.155  
  0.320  
  0.130  
  0.285  
  0.135  
  0.280  
  0.200  
  0.380  
  0.245  
  0.450  
  0.320  
  0.445  
  0.320  
  0.420  
  0.200  
  0.330  
  0.120  
  0.240  
  0.110  
  0.240  
  0.090  
  0.240  
  0.090  
  0.120  
 -0.390  
 -0.260  
  0.765  
  2.880  
  3.060  
  1.650  
  0.160  
 -0.055  
  0.010  
  0.205  
  0.040  
  0.180  
  0.035  
  0.190  
  0.050  
  0.205  
  0.070  
  0.240  
  0.110  
  0.290  
  0.155  
  0.290  
  0.165  
  0.340  
  0.265  
  0.465  
  0.405  
  0.620  
  0.545  
  0.750  
  0.680  
  0.845  
  0.635  
  0.700  
  0.470  
  0.520  
  0.310  
  0.385  
  0.220  
  0.320  
  0.140  
  0.280  
  0.120  
  0.280  
  0.105  
  0.220  
  0.100  
  0.240  
  0.125  
  0.220  
  0.040  
  0.200  
  0.080  
  0.230  
  0.120  
  0.290  
  0.220  
  0.400  
  0.240  
  0.385  
  0.245  
  0.305  
  0.090  
  0.220  
  0.025  
  0.165  
  0.050  
  0.140  
 -0.030  
  0.130  
 -0.010  
 -0.165  
 -0.575  
  0.240  
  1.900  
  3.320  
  2.320  
  0.690  
 -0.240  
 -0.060  
 -0.020  
  0.100  
 -0.035  
  0.120  
 -0.020  
  0.100  
 -0.020  
  0.120  
 -0.010  
  0.155  
  0.005  
  0.155  
  0.050  
  0.185  
  0.085  
  0.270  
  0.205  
  0.410  
  0.330  
  0.520  
  0.475  
  0.670  
  0.545  
  0.670  
  0.475  
  0.560  
  0.340  
  0.400  
  0.190  
  0.280  
  0.110  
  0.240  
  0.085  
  0.205  
  0.045  
  0.165  
  0.020  
  0.165  
  0.050  
  0.180  
  0.055  
  0.180  
  0.040  
  0.200  
  0.060  
  0.240  
  0.140  
  0.295  
  0.200  
  0.340  
  0.190  
  0.340  
  0.125  
  0.185  
  0.025  
  0.125  
 -0.020  
  0.105  
 -0.050  
  0.080  
 -0.060  
  0.080  
 -0.305  
 -0.475  
 -0.015  
  1.840  
  3.120  
  2.505  
  0.595  
 -0.060  
 -0.190  
  0.080  
 -0.075  
  0.055  
 -0.070  
  0.055  
 -0.080  
  0.045  
 -0.070  
  0.080  
 -0.030  
  0.125  
 -0.005  
  0.155  
  0.030  
  0.200  
  0.095  
  0.280  
  0.205  
  0.405  
  0.320  
  0.520  
  0.470  
  0.630  
  0.500  
  0.580  
  0.365  
  0.420  
  0.220  
  0.280  
  0.100  
  0.200  
  0.040  
  0.155  
 -0.015  
  0.100  
 -0.035  
  0.085  
 -0.055  
  0.080  
 -0.040  
  0.080  
 -0.040  
  0.080  
 -0.065  
  0.065  
 -0.040  
  0.085  
 -0.010  
  0.145  
 -0.020  
  0.100  
 -0.060  
 -0.040  
 -0.200  
 -0.100  
 -0.260  
 -0.130  
 -0.270  
 -0.155  
 -0.250  
 -0.090  
 -0.260  
 -0.440  
 -0.615  
  0.560  
  2.300  
  2.930  
  1.390  
  0.080  
 -0.440  
 -0.175  
 -0.215  
 -0.120  
 -0.240  
 -0.100  
 -0.210  
 -0.050  
 -0.145  
  0.010  
 -0.115  
  0.040  
 -0.080  
  0.045  
 -0.060  
  0.090  
  0.000  
  0.105  
  0.020  
  0.150  
  0.090  
  0.240  
  0.180  
  0.325  
  0.220  
  0.295  
  0.160  
  0.215  
  0.030  
  0.015  
 -0.200  
 -0.220  
 -0.385  
 -0.380  
 -0.500  
 -0.420  
 -0.440  
 -0.230  
 -0.280  
 -0.175  
 -0.230  
 -0.080  
 -0.195  
 -0.040  
 -0.115  
  0.045  
  0.005  
  0.170  
  0.105  
  0.280  
  0.155  
  0.320  
  0.215  
  0.250  
  0.100  
  0.155  
 -0.010  
  0.080  
 -0.080  
  0.010  
 -0.110  
 -0.015  
 -0.270  
 -0.550  
 -0.510  
  0.985  
  2.760  
  2.830  
  0.985  
 -0.030  
 -0.365  
 -0.075  
 -0.135  
 -0.060  
 -0.165  
 -0.025  
 -0.120  
 -0.040  
 -0.155  
 -0.030  
 -0.130  
 -0.020  
 -0.140  
 -0.050  
 -0.155  
 -0.050  
 -0.130  
  0.020  
 -0.020  
  0.150  
  0.105  
  0.265  
  0.210  
  0.360  
  0.265  
  0.320  
  0.160  
  0.180  
 -0.010  
  0.010  
 -0.140  
 -0.050  
 -0.180  
 -0.100  
 -0.220  
 -0.140  
 -0.265  
 -0.185  
 -0.290  
 -0.210  
 -0.315  
 -0.210  
 -0.300  
 -0.200  
 -0.280  
 -0.140  
 -0.210  
 -0.080  
 -0.180  
 -0.080  
 -0.190  
 -0.130  
 -0.310  
 -0.240  
 -0.385  
 -0.295  
 -0.400  
 -0.300  
 -0.395  
 -0.275  
 -0.360  
 -0.475  
 -0.910  
 -0.370  
  1.140  
  2.845  
  2.190  
  0.440  
 -0.530  
 -0.500  
 -0.485  
 -0.395  
 -0.485  
 -0.390  
 -0.485  
 -0.390  
 -0.475  
 -0.375  
 -0.440  
 -0.330  
 -0.400  
 -0.300  
 -0.380  
 -0.260  
 -0.325  
 -0.175  
 -0.215  
 -0.060  
 -0.080  
  0.085  
  0.065  
  0.225  
  0.175  
  0.260  
  0.120  
  0.150  
 -0.040  
 -0.040  
 -0.210  
 -0.165  
 -0.290  
 -0.215  
 -0.325  
 -0.230  
 -0.335  
 -0.260  
 -0.350  
 -0.240  
 -0.355  
 -0.275  
 -0.360  
 -0.260  
 -0.340  
 -0.220  
 -0.260  
 -0.120  
 -0.200  
 -0.095  
 -0.195  
 -0.080  
 -0.240  
 -0.210  
 -0.345  
 -0.280  
 -0.385  
 -0.320  
 -0.410  
 -0.320  
 -0.415  
 -0.350  
 -0.735  
 -0.910  
 -0.235  
  1.700  
  2.770  
  1.900  
  0.120  
 -0.475  
 -0.495  
 -0.280  
 -0.400  
 -0.300  
 -0.370  
 -0.280  
 -0.360  
 -0.280  
 -0.370  
 -0.275  
 -0.340  
 -0.240  
 -0.325  
 -0.230  
 -0.280  
 -0.165  
 -0.220  
 -0.070  
 -0.095  
  0.045  
  0.050  
  0.190  
  0.155  
  0.280  
  0.165  
  0.200  
  0.030  
  0.010  
 -0.135  
 -0.115  
 -0.240  
 -0.180  
 -0.280  
 -0.210  
 -0.300  
 -0.240  
 -0.315  
 -0.235  
 -0.305  
 -0.230  
 -0.300  
 -0.220  
 -0.260  
 -0.135  
 -0.180  
 -0.055  
 -0.110  
 -0.040  
 -0.120  
 -0.055  
 -0.200  
 -0.180  
 -0.290  
 -0.240  
 -0.315  
 -0.270  
 -0.355  
 -0.265  
 -0.335  
 -0.380  
 -0.820  
 -0.710  
  0.485  
  2.550  
  2.680  
  1.075  
 -0.220  
 -0.440  
 -0.375  
 -0.260  
 -0.345  
 -0.270  
 -0.340  
 -0.275  
 -0.340  
 -0.260  
 -0.320  
 -0.235  
 -0.280  
 -0.215  
 -0.260  
 -0.170  
 -0.200  
 -0.105  
 -0.115  
  0.030  
  0.030  
  0.170  
  0.170  
  0.300  
  0.280  
  0.350  
  0.240  
  0.240  
  0.085  
  0.060  
 -0.075  
 -0.055  
 -0.155  
 -0.105  
 -0.195  
 -0.135  
 -0.230  
 -0.175  
 -0.240  
 -0.180  
 -0.235  
 -0.175  
 -0.240  
 -0.135  
 -0.145  
 -0.040  
 -0.075  
  0.020  
 -0.055  
  0.020  
 -0.055  
 -0.080  
 -0.195  
 -0.165  
 -0.265  
 -0.210  
 -0.280  
 -0.220  
 -0.290  
 -0.235  
 -0.395  
 -0.700  
 -0.730  
  0.590  
  2.520  
  2.790  
  1.060  
 -0.135  
 -0.480  
 -0.270  
 -0.270  
 -0.230  
 -0.290  
 -0.230  
 -0.280  
 -0.225  
 -0.270  
 -0.190  
 -0.235  
 -0.155  
 -0.190  
 -0.120  
 -0.165  
 -0.075  
 -0.080  
  0.025  
  0.040  
  0.165  
  0.170  
  0.300  
  0.320  
  0.410  
  0.360  
  0.370  
  0.240  
  0.210  
  0.060  
  0.040  
 -0.055  
 -0.030  
 -0.100  
 -0.060  
 -0.135  
 -0.100  
 -0.165  
 -0.110  
 -0.170  
 -0.120  
 -0.175  
 -0.110  
 -0.140  
 -0.040  
 -0.060  
  0.010  
  0.005  
  0.040  
  0.000  
  0.020  
 -0.105  
 -0.095  
 -0.180  
 -0.170  
 -0.230  
 -0.195  
 -0.255  
 -0.200  
 -0.255  
 -0.400  
 -0.805  
 -0.430  
  1.050  
  2.870  
  2.480  
  0.670  
 -0.320  
 -0.370  
 -0.270  
 -0.235  
 -0.290  
 -0.220  
 -0.275  
 -0.235  
 -0.270  
 -0.215  
 -0.240  
 -0.180  
 -0.190  
 -0.150  
 -0.175  
 -0.105  
 -0.120  
 -0.040  
 -0.020  
  0.090  
  0.100  
  0.225  
  0.250  
  0.360  
  0.360  
  0.400  
  0.300  
  0.270  
  0.140  
  0.100  
  0.010  
  0.020  
 -0.055  
 -0.040  
 -0.080  
 -0.035  
 -0.130  
 -0.100  
 -0.130  
 -0.090  
 -0.120  
 -0.060  
 -0.080  
  0.005  
  0.025  
  0.085  
  0.080  
  0.105  
  0.065  
  0.085  
 -0.030  
 -0.025  
 -0.095  
 -0.100  
 -0.145  
 -0.120  
 -0.170  
 -0.130  
 -0.170  
 -0.250  
 -0.645  
 -0.500  
  0.805  
  2.785  
  2.810  
  1.105  
 -0.080  
 -0.290  
 -0.170  
 -0.100  
 -0.145  
 -0.090  
 -0.130  
 -0.090  
 -0.120  
 -0.080  
 -0.110  
 -0.040  
 -0.055  
 -0.010  
 -0.035  
  0.020  
  0.010  
  0.085  
  0.095  
  0.200  
  0.240  
  0.340  
  0.375  
  0.465  
  0.475  
  0.500  
  0.425  
  0.400  
  0.280  
  0.225  
  0.130  
  0.120  
  0.055  
  0.080  
  0.040  
  0.080  
  0.030  
  0.015  
 -0.015  
  0.030  
 -0.015  
  0.040  
  0.025  
  0.110  
  0.130  
  0.185  
  0.165  
  0.190  
  0.155  
  0.140  
  0.040  
  0.030  
 -0.030  
 -0.025  
 -0.075  
 -0.070  
 -0.100  
 -0.060  
 -0.080  
 -0.230  
 -0.625  
 -0.380  
  1.060  
  2.960  
  2.750  
  0.965  
 -0.105  
 -0.240  
 -0.120  
 -0.075  
 -0.080  
 -0.070  
 -0.105  
 -0.070  
 -0.075  
 -0.040  
 -0.055  
 -0.020  
 -0.040  
 -0.015  
 -0.005  
  0.050  
  0.040  
  0.100  
  0.125  
  0.210  
  0.280  
  0.400  
  0.450  
  0.505  
  0.520  
  0.530  
  0.450  
  0.380  
  0.270  
  0.220  
  0.120  
  0.080  
  0.050  
  0.055  
 -0.005  
 -0.025  
 -0.040  
 -0.030  
 -0.055  
 -0.030  
 -0.040  
  0.000  
  0.040  
  0.085  
  0.120  
  0.190  
  0.155  
  0.165  
  0.140  
  0.080  
  0.005  
 -0.035  
 -0.070  
 -0.050  
 -0.100  
 -0.080  
 -0.120  
 -0.110  
 -0.225  
 -0.595  
 -0.500  
  0.920  
  2.870  
  2.860  
  1.070  
 -0.080  
 -0.355  
 -0.150  
 -0.110  
 -0.135  
 -0.140  
 -0.120  
 -0.120  
 -0.105  
 -0.130  
 -0.115  
 -0.120  
 -0.070  
 -0.080  
 -0.075  
 -0.070  
 -0.015  
  0.005  
  0.060  
  0.110  
  0.205  
  0.280  
  0.365  
  0.405  
  0.430  
  0.425  
  0.360  
  0.280  
  0.200  
  0.120  
  0.080  
 -0.020  
 -0.005  
 -0.030  
 -0.075  
 -0.080  
 -0.075  
 -0.120  
 -0.115  
 -0.080  
 -0.080  
 -0.080  
 -0.035  
 -0.010  
  0.040  
  0.080  
  0.065  
  0.045  
  0.080  
  0.010  
 -0.050  
 -0.105  
 -0.150  
 -0.190  
 -0.185  
 -0.185  
 -0.180  
 -0.220  
 -0.210  
 -0.470  
 -0.795  
 -0.175  
  1.710  
  3.180  
  2.305  
  0.405  
 -0.370  
 -0.340  
 -0.195  
 -0.200  
 -0.190  
 -0.185  
 -0.190  
 -0.190  
 -0.175  
 -0.170  
 -0.145  
 -0.130  
 -0.110  
 -0.110  
 -0.095  
 -0.080  
 -0.050  
 -0.015  
  0.050  
  0.110  
  0.200  
  0.230  
  0.310  
  0.350  
  0.385  
  0.385  
  0.340  
  0.260  
  0.190  
  0.100  
  0.080  
  0.040  
  0.015  
 -0.010  
 -0.035  
 -0.040  
 -0.045  
 -0.040  
 -0.040  
 -0.040  
 -0.025  
 -0.020  
  0.005  
  0.050  
  0.095  
  0.130  
  0.165  
  0.165  
  0.155  
  0.170  
  0.100  
  0.020  
 -0.010  
 -0.040  
 -0.070  
 -0.080  
 -0.080  
 -0.095  
 -0.100  
 -0.080  
 -0.175  
 -0.545  
 -0.550  
  0.660  
  2.660  
  2.945  
  1.305  
  0.005  
 -0.290  
 -0.120  
 -0.100  
 -0.120  
 -0.100  
 -0.100  
 -0.105  
 -0.100  
 -0.095  
 -0.070  
 -0.040  
 -0.020  
 -0.020  
 -0.005  
  0.025  
  0.040  
  0.080  
  0.125  
  0.180  
  0.240  
  0.320  
  0.370  
  0.420  
  0.465  
  0.475  
  0.440  
  0.370  
  0.285  
  0.210  
  0.155  
  0.110  
  0.065  
  0.045  
  0.040  
  0.005  
 -0.005  
 -0.015  
 -0.020  
 -0.025  
 -0.020  
 -0.030  
 -0.020  
 -0.030  
 -0.040  
 -0.020  
  0.010  
  0.060  
  0.105  
  0.140  
  0.150  
  0.140  
  0.145  
  0.095  
  0.020  
 -0.020  
 -0.040  
 -0.080  
 -0.095  
 -0.110  
 -0.100  
 -0.110  
 -0.090  
 -0.120  
 -0.435  
 -0.695  
  0.110  
  1.950  
  3.030  
  2.000  
  0.295  
 -0.315  
 -0.195  
 -0.110  
 -0.110  
 -0.120  
 -0.110  
 -0.120  
 -0.100  
 -0.110  
 -0.080  
 -0.080  
 -0.060  
 -0.055  
 -0.040  
 -0.035  
  0.010  
  0.025  
  0.080  
  0.110  
  0.200  
  0.240  
  0.310  
  0.360  
  0.415  
  0.440  
  0.440  
  0.370  
  0.320  
  0.220  
  0.165  
  0.085  
  0.065  
  0.010  
  0.020  
 -0.015  
 -0.030  
 -0.055  
 -0.035  
 -0.050  
 -0.055  
 -0.065  
 -0.040  
 -0.060  
 -0.050  
 -0.070  
 -0.050  
 -0.065  
 -0.060  
 -0.075  
 -0.040  
 -0.070  
 -0.050  
 -0.060  
 -0.040  
 -0.060  
 -0.040  
 -0.060  
 -0.050  
 -0.060  
 -0.040  
 -0.050  
 -0.040  
 -0.060  
 -0.040  
 -0.060  
 -0.040  
 -0.060  
 -0.030  
 -0.050  
 -0.035  
 -0.065  
 -0.040  
 -0.030  
  0.040  
  0.040  
  0.090  
  0.100  
  0.080  
  0.050  
  0.060  
  0.005  
 -0.005  
 -0.060  
 -0.060  
 -0.080  
 -0.060  
 -0.080  
 -0.070  
 -0.100  
 -0.235  
 -0.615  
 -0.280  
  1.220  
  3.090  
  2.780  
  0.920  
 -0.150  
 -0.260  
 -0.120  
 -0.095  
 -0.130  
 -0.095  
 -0.120  
 -0.095  
 -0.120  
 -0.080  
 -0.090  
 -0.040  
 -0.070  
 -0.040  
 -0.060  
 -0.010  
 -0.020  
  0.025  
  0.040  
  0.120  
  0.150  
  0.220  
  0.250  
  0.320  
  0.345  
  0.415  
  0.400  
  0.400  
  0.340  
  0.300  
  0.215  
  0.200  
  0.120  
  0.100  
  0.025  
  0.040  
  0.010  
  0.030  
 -0.005  
  0.025  
 -0.010  
  0.060  
  0.010  
  0.040  
  0.015  
  0.040  
  0.005  
  0.040  
 -0.005  
  0.025  
 -0.015  
  0.000  
 -0.035  
  0.005  
 -0.025  
  0.005  
 -0.020  
  0.010  
 -0.030  
  0.000  
 -0.040  
  0.005  
 -0.030  
  0.010  
 -0.005  
  0.050  
  0.080  
  0.155  
  0.130  
  0.120  
  0.050  
  0.060  
 -0.005  
  0.015  
 -0.060  
 -0.025  
 -0.055  
 -0.020  
 -0.060  
 -0.030  
 -0.070  
 -0.180  
 -0.575  
 -0.280  
  1.185  
  3.095  
  2.840  
  1.080  
 -0.080  
 -0.260  
 -0.115  
 -0.035  
 -0.100  
 -0.045  
 -0.075  
 -0.035  
 -0.070  
 -0.020  
 -0.060  
  0.010  
 -0.035  
  0.020  
 -0.020  
  0.025  
  0.015  
  0.090  
  0.090  
  0.200  
  0.200  
  0.305  
  0.360  
  0.465  
  0.440  
  0.525  
  0.450  
  0.430  
  0.325  
  0.290  
  0.155  
  0.160  
  0.080  
  0.080  
  0.025  
  0.040  
 -0.025  
  0.025  
 -0.035  
  0.020  
 -0.055  
 -0.010  
 -0.040  
  0.010  
 -0.040  
  0.010  
 -0.060  
 -0.005  
 -0.045  
 -0.005  
 -0.060  
  0.005  
 -0.050  
 -0.020  
 -0.080  
 -0.020  
 -0.080  
 -0.020  
 -0.050  
 -0.005  
 -0.075  
 -0.010  
 -0.080  
  0.010  
 -0.005  
  0.060  
  0.060  
  0.145  
  0.060  
  0.085  
  0.020  
  0.040  
 -0.060  
 -0.020  
 -0.080  
 -0.020  
 -0.080  
 -0.030  
 -0.100  
 -0.035  
 -0.230  
 -0.535  
 -0.440  
  1.055  
  2.980  
  3.035  
  1.200  
  0.040  
 -0.345  
 -0.100  
 -0.090  
 -0.040  
 -0.095  
 -0.030  
 -0.100  
 -0.035  
 -0.100  
 -0.020  
 -0.070  
  0.020  
 -0.040  
  0.025  
 -0.040  
  0.060  
  0.025  
  0.130  
  0.110  
  0.245  
  0.240  
  0.365  
  0.345  
  0.465  
  0.425  
  0.490  
  0.370  
  0.390  
  0.245  
  0.245  
  0.120  
  0.130  
  0.020  
  0.080  
 -0.010  
  0.040  
 -0.050  
  0.040  
 -0.035  
  0.050  
 -0.020  
  0.065  
 -0.015  
  0.070  
 -0.010  
  0.100  
 -0.005  
  0.065  
 -0.015  
  0.055  
 -0.040  
  0.040  
 -0.050  
  0.020  
 -0.055  
  0.020  
 -0.060  
  0.030  
 -0.055  
  0.030  
 -0.060  
  0.025  
 -0.040  
  0.060  
  0.005  
  0.120  
  0.085  
  0.170  
  0.040  
  0.120  
 -0.005  
  0.040  
 -0.060  
  0.000  
 -0.100  
 -0.020  
 -0.105  
 -0.030  
 -0.120  
 -0.220  
 -0.655  
 -0.220  
  1.225  
  3.160  
  2.770  
  0.960  
 -0.145  
 -0.200  
 -0.145  
 -0.040  
 -0.140  
 -0.055  
 -0.140  
 -0.055  
 -0.140  
 -0.035  
 -0.115  
 -0.005  
 -0.080  
  0.040  
 -0.060  
  0.050  
 -0.015  
  0.120  
  0.060  
  0.200  
  0.165  
  0.325  
  0.285  
  0.450  
  0.400  
  0.535  
  0.425  
  0.470  
  0.305  
  0.340  
  0.155  
  0.200  
  0.050  
  0.120  
  0.005  
  0.080  
 -0.035  
  0.050  
 -0.070  
  0.025  
 -0.075  
  0.045  
 -0.060  
  0.030  
 -0.065  
  0.040  
 -0.060  
  0.030  
 -0.080  
  0.025  
 -0.080  
  0.015  
 -0.080  
  0.020  
 -0.095  
  0.005  
 -0.100  
  0.005  
 -0.090  
  0.010  
 -0.095  
  0.005  
 -0.110  
 -0.010  
 -0.110  
  0.030  
 -0.060  
  0.060  
 -0.010  
  0.130  
 -0.015  
  0.090  
 -0.040  
  0.005  
 -0.120  
 -0.040  
 -0.150  
 -0.040  
 -0.180  
 -0.075  
 -0.180  
 -0.195  
 -0.665  
 -0.420  
  0.840  
  2.930  
  2.900  
  1.250  
 -0.115  
 -0.280  
 -0.240  
 -0.075  
 -0.200  
 -0.080  
 -0.185  
 -0.070  
 -0.185  
 -0.060  
 -0.160  
 -0.010  
 -0.145  
 -0.030  
 -0.135  
  0.010  
 -0.105  
  0.030  
 -0.025  
  0.155  
  0.105  
  0.280  
  0.245  
  0.445  
  0.360  
  0.510  
  0.400  
  0.450  
  0.250  
  0.295  
  0.090  
  0.125  
 -0.025  
  0.080  
 -0.080  
  0.010  
 -0.120  
 -0.005  
 -0.160  
 -0.050  
 -0.140  
 -0.015  
 -0.170  
 -0.060  
 -0.170  
 -0.035  
 -0.170  
 -0.055  
 -0.175  
 -0.035  
 -0.180  
 -0.060  
 -0.195  
 -0.070  
 -0.195  
 -0.065  
 -0.175  
 -0.050  
 -0.165  
 -0.040  
 -0.195  
 -0.070  
 -0.175  
 -0.015  
 -0.120  
  0.025  
 -0.040  
  0.100  
 -0.070  
  0.050  
 -0.130  
 -0.035  
 -0.190  
 -0.070  
 -0.200  
 -0.080  
 -0.215  
 -0.080  
 -0.215  
 -0.355  
 -0.805  
 -0.035  
  1.645  
  3.230  
  2.325  
  0.650  
 -0.360  
 -0.285  
 -0.255  
 -0.120  
 -0.240  
 -0.115  
 -0.225  
 -0.100  
 -0.240  
 -0.080  
 -0.220  
 -0.070  
 -0.200  
 -0.060  
 -0.190  
 -0.030  
 -0.150  
  0.040  
 -0.035  
  0.150  
  0.080  
  0.300  
  0.220  
  0.420  
  0.330  
  0.475  
  0.320  
  0.400  
  0.170  
  0.240  
  0.040  
  0.120  
 -0.070  
  0.045  
 -0.100  
  0.020  
 -0.125  
 -0.005  
 -0.150  
  0.010  
 -0.135  
  0.020  
 -0.130  
  0.010  
 -0.120  
  0.020  
 -0.120  
  0.020  
 -0.115  
  0.020  
 -0.120  
  0.020  
 -0.120  
  0.040  
 -0.125  
  0.015  
 -0.110  
  0.030  
 -0.110  
  0.065  
 -0.040  
  0.110  
  0.000  
  0.205  
  0.050  
  0.140  
 -0.020  
  0.095  
 -0.070  
  0.040  
 -0.120  
  0.030  
 -0.115  
  0.025  
 -0.110  
  0.000  
 -0.475  
 -0.540  
  0.215  
  2.300  
  3.180  
  2.210  
  0.360  
 -0.140  
 -0.220  
  0.020  
 -0.130  
  0.020  
 -0.115  
  0.025  
 -0.120  
  0.020  
 -0.110  
  0.050  
 -0.070  
  0.085  
 -0.055  
  0.120  
 -0.020  
  0.155  
  0.040  
  0.240  
  0.140  
  0.365  
  0.280  
  0.490  
  0.390  
  0.565  
  0.440  
  0.540  
  0.330  
  0.400  
  0.180  
  0.245  
  0.055  
  0.160  
 -0.010  
  0.120  
 -0.040  
  0.100  
 -0.060  
  0.080  
 -0.075  
  0.065  
 -0.050  
  0.090  
 -0.070  
  0.080  
 -0.070  
  0.080  
 -0.065  
  0.065  
 -0.080  
  0.060  
 -0.090  
  0.065  
 -0.090  
  0.040  
 -0.095  
  0.040  
 -0.080  
  0.055  
 -0.100  
  0.070  
 -0.040  
  0.120  
  0.040  
  0.225  
  0.030  
  0.145  
 -0.025  
  0.080  
 -0.080  
  0.030  
 -0.120  
 -0.005  
 -0.140  
  0.010  
 -0.150  
 -0.110  
 -0.630  
 -0.440  
  0.685  
  2.845  
  2.985  
  1.460  
 -0.030  
 -0.210  
 -0.215  
 -0.030  
 -0.190  
 -0.040  
 -0.180  
 -0.040  
 -0.190  
 -0.025  
 -0.175  
 -0.010  
 -0.140  
  0.010  
 -0.120  
  0.045  
 -0.080  
  0.080  
 -0.020  
  0.185  
  0.085  
  0.305  
  0.225  
  0.430  
  0.340  
  0.510  
  0.365  
  0.475  
  0.240  
  0.300  
  0.080  
  0.135  
 -0.060  
  0.080  
 -0.100  
  0.010  
 -0.130  
  0.005  
 -0.165  
 -0.015  
 -0.155  
 -0.015  
 -0.175  
 -0.020  
 -0.170  
 -0.015  
 -0.165  
 -0.040  
 -0.180  
 -0.040  
 -0.180  
 -0.035  
 -0.170  
 -0.035  
 -0.195  
 -0.040  
 -0.180  
 -0.050  
 -0.170  
 -0.030  
 -0.170  
  0.005  
 -0.110  
  0.080  
 -0.040  
  0.100  
 -0.080  
  0.050  
 -0.140  
 -0.030  
 -0.180  
 -0.050  
 -0.210  
 -0.080  
 -0.215  
 -0.070  
 -0.225  
 -0.330  
 -0.805  
 -0.095  
  1.540  
  3.190  
  2.360  
  0.685  
 -0.350  
 -0.295  
 -0.260  
 -0.100  
 -0.240  
 -0.115  
 -0.240  
 -0.080  
 -0.235  
 -0.100  
 -0.220  
 -0.070  
 -0.200  
 -0.040  
 -0.180  
 -0.025  
 -0.155  
  0.030  
 -0.050  
  0.150  
  0.080  
  0.285  
  0.200  
  0.430  
  0.345  
  0.490  
  0.315  
  0.400  
  0.155  
  0.205  
 -0.005  
  0.080  
 -0.095  
  0.040  
 -0.135  
 -0.020  
 -0.155  
 -0.040  
 -0.190  
 -0.020  
 -0.175  
 -0.055  
 -0.170  
 -0.030  
 -0.170  
 -0.025  
 -0.185  
 -0.040  
 -0.180  
 -0.040  
 -0.195  
 -0.055  
 -0.200  
 -0.050  
 -0.195  
 -0.060  
 -0.210  
 -0.060  
 -0.210  
 -0.055  
 -0.180  
  0.015  
 -0.105  
  0.070  
 -0.070  
  0.060  
 -0.110  
 -0.010  
 -0.190  
 -0.055  
 -0.230  
 -0.080  
 -0.250  
 -0.110  
 -0.240  
 -0.100  
 -0.350  
 -0.575  
 -0.650  
  0.830  
  2.710  
  3.035  
  1.225  
  0.055  
 -0.495  
 -0.170  
 -0.235  
 -0.095  
 -0.230  
 -0.080  
 -0.230  
 -0.080  
 -0.230  
 -0.070  
 -0.195  
 -0.035  
 -0.180  
 -0.030  
 -0.170  
  0.010  
 -0.080  
  0.090  
 -0.005  
  0.210  
  0.130  
  0.350  
  0.270  
  0.460  
  0.345  
  0.480  
  0.280  
  0.360  
  0.145  
  0.200  
 -0.005  
  0.100  
 -0.070  
  0.080  
 -0.100  
  0.030  
 -0.130  
  0.010  
 -0.145  
  0.010  
 -0.120  
  0.020  
 -0.120  
  0.020  
 -0.115  
  0.040  
 -0.115  
  0.020  
 -0.130  
  0.010  
 -0.130  
  0.000  
 -0.135  
  0.010  
 -0.155  
 -0.020  
 -0.170  
 -0.025  
 -0.165  
 -0.030  
 -0.140  
  0.040  
 -0.090  
  0.100  
 -0.055  
  0.060  
 -0.095  
  0.005  
 -0.180  
 -0.050  
 -0.230  
 -0.080  
 -0.230  
 -0.100  
 -0.235  
 -0.100  
 -0.440  
 -0.665  
 -0.475  
  1.225  
  2.960  
  2.780  
  0.745  
 -0.145  
 -0.430  
 -0.145  
 -0.270  
 -0.150  
 -0.280  
 -0.135  
 -0.260  
 -0.135  
 -0.260  
 -0.105  
 -0.230  
 -0.060  
 -0.180  
 -0.035  
 -0.165  
  0.025  
 -0.080  
  0.100  
  0.020  
  0.240  
  0.160  
  0.365  
  0.290  
  0.480  
  0.370  
  0.490  
  0.295  
  0.370  
  0.155  
  0.210  
  0.010  
  0.120  
 -0.040  
  0.090  
 -0.060  
  0.090  
 -0.075  
  0.060  
 -0.080  
  0.055  
 -0.075  
  0.070  
 -0.065  
  0.095  
 -0.055  
  0.090  
 -0.060  
  0.080  
 -0.065  
  0.080  
 -0.070  
  0.080  
 -0.080  
  0.055  
 -0.080  
  0.050  
 -0.080  
  0.060  
 -0.070  
  0.060  
 -0.060  
  0.090  
 -0.040  
  0.140  
  0.050  
  0.190  
  0.005  
  0.140  
 -0.020  
  0.065  
 -0.080  
  0.020  
 -0.120  
  0.020  
 -0.120  
  0.020  
 -0.130  
 -0.200  
 -0.695  
 -0.175  
  1.275  
  3.220  
  2.670  
  0.900  
 -0.205  
 -0.175  
 -0.190  
 -0.060  
 -0.210  
 -0.060  
 -0.195  
 -0.070  
 -0.210  
 -0.050  
 -0.190  
 -0.040  
 -0.150  
  0.000  
 -0.140  
  0.025  
 -0.100  
  0.080  
 -0.010  
  0.185  
  0.110  
  0.320  
  0.285  
  0.475  
  0.400  
  0.580  
  0.400  
  0.450  
  0.255  
  0.320  
  0.080  
  0.140  
 -0.040  
  0.065  
 -0.080  
  0.040  
 -0.105  
  0.025  
 -0.135  
  0.005  
 -0.110  
  0.010  
 -0.150  
  0.005  
 -0.130  
 -0.010  
 -0.140  
 -0.020  
 -0.180  
 -0.020  
 -0.165  
 -0.030  
 -0.160  
 -0.025  
 -0.140  
 -0.010  
 -0.175  
 -0.030  
 -0.165  
 -0.035  
 -0.140  
  0.040  
 -0.080  
  0.080  
 -0.020  
  0.105  
 -0.060  
  0.040  
 -0.145  
 -0.005  
 -0.165  
 -0.055  
 -0.195  
 -0.060  
 -0.190  
 -0.070  
 -0.210  
 -0.355  
 -0.780  
  0.065  
  1.820  
  3.280  
  2.220  
  0.580  
 -0.360  
 -0.240  
 -0.240  
 -0.090  
 -0.220  
 -0.080  
 -0.220  
 -0.080  
 -0.200  
 -0.060  
 -0.215  
 -0.075  
 -0.190  
 -0.065  
 -0.200  
 -0.030  
 -0.145  
  0.025  
 -0.055  
  0.130  
  0.080  
  0.290  
  0.220  
  0.425  
  0.340  
  0.475  
  0.300  
  0.380  
  0.155  
  0.200  
 -0.040  
  0.055  
 -0.115  
  0.010  
 -0.140  
 -0.040  
 -0.180  
 -0.060  
 -0.190  
 -0.065  
 -0.200  
 -0.060  
 -0.220  
 -0.060  
 -0.180  
 -0.040  
 -0.180  
 -0.050  
 -0.195  
 -0.055  
 -0.180  
 -0.040  
 -0.200  
 -0.055  
 -0.185  
 -0.040  
 -0.180  
 -0.040  
 -0.170  
 -0.015  
 -0.120  
  0.060  
 -0.050  
  0.130  
 -0.035  
  0.060  
 -0.080  
  0.015  
 -0.160  
 -0.025  
 -0.170  
 -0.040  
 -0.180  
 -0.020  
 -0.175  
 -0.040  
 -0.400  
 -0.600  
 -0.280  
  1.520  
  3.095  
  2.785  
  0.785  
 -0.085  
 -0.355  
 -0.030  
 -0.165  
 -0.020  
 -0.150  
 -0.005  
 -0.150  
 -0.005  
 -0.140  
  0.015  
 -0.110  
  0.040  
 -0.080  
  0.080  
 -0.060  
  0.100  
  0.000  
  0.190  
  0.095  
  0.290  
  0.240  
  0.440  
  0.365  
  0.560  
  0.440  
  0.540  
  0.360  
  0.425  
  0.195  
  0.260  
  0.080  
  0.160  
 -0.005  
  0.110  
 -0.035  
  0.120  
 -0.050  
  0.080  
 -0.065  
  0.085  
 -0.060  
  0.080  
 -0.050  
  0.110  
 -0.025  
  0.095  
 -0.040  
  0.110  
 -0.040  
  0.090  
 -0.055  
  0.095  
 -0.060  
  0.085  
 -0.060  
  0.080  
 -0.060  
  0.080  
 -0.050  
  0.090  
 -0.025  
  0.140  
  0.030  
  0.220  
  0.100  
  0.210  
  0.065  
  0.185  
 -0.020  
  0.085  
 -0.065  
  0.060  
 -0.080  
  0.040  
 -0.100  
  0.060  
 -0.120  
 -0.390  
 -0.620  
  0.625  
  2.500  
  3.345  
  1.780  
  0.325  
 -0.295  
 -0.020  
 -0.105  
  0.000  
 -0.120  
  0.030  
 -0.120  
  0.025  
 -0.100  
  0.055  
 -0.060  
  0.085  
 -0.030  
  0.110  
 -0.015  
  0.155  
  0.040  
  0.210  
  0.140  
  0.340  
  0.265  
  0.475  
  0.400  
  0.600  
  0.495  
  0.630  
  0.475  
  0.545  
  0.330  
  0.400  
  0.180  
  0.260  
  0.100  
  0.220  
  0.060  
  0.190  
  0.045  
  0.170  
  0.015  
  0.140  
  0.005  
  0.125  
 -0.005  
  0.120  
 -0.020  
  0.120  
 -0.035  
  0.090  
 -0.050  
  0.080  
 -0.080  
  0.050  
 -0.110  
  0.025  
 -0.095  
  0.025  
 -0.110  
  0.030  
 -0.120  
  0.010  
 -0.130  
  0.010  
 -0.120  
  0.020  
 -0.075  
  0.090  
  0.005  
  0.145  
 -0.030  
  0.080  
 -0.080  
  0.025  
 -0.135  
 -0.005  
 -0.140  
 -0.025  
 -0.165  
 -0.030  
 -0.155  
 -0.200  
 -0.690  
 -0.240  
  1.185  
  3.220  
  2.800  
  1.050  
 -0.165  
 -0.230  
 -0.180  
 -0.015  
 -0.165  
 -0.005  
 -0.155  
 -0.030  
 -0.150  
  0.020  
 -0.120  
  0.020  
 -0.095  
  0.050  
 -0.095  
  0.050  
 -0.065  
  0.120  
  0.030  
  0.205  
  0.135  
  0.370  
  0.325  
  0.520  
  0.440  
  0.610  
  0.450  
  0.525  
  0.300  
  0.365  
  0.155  
  0.200  
  0.010  
  0.140  
 -0.020  
  0.100  
 -0.060  
  0.080  
 -0.055  
  0.080  
 -0.080  
  0.060  
 -0.040  
  0.065  
 -0.080  
  0.065  
 -0.050  
  0.080  
 -0.040  
  0.085  
 -0.075  
  0.050  
 -0.070  
  0.060  
 -0.075  
  0.060  
 -0.075  
  0.080  
 -0.055  
  0.080  
 -0.040  
  0.135  
  0.025  
  0.175  
  0.065  
  0.180  
  0.040  
  0.130  
 -0.050  
  0.080  
 -0.070  
  0.040  
 -0.105  
  0.030  
 -0.115  
  0.020  
 -0.220  
 -0.460  
 -0.540  
  0.920  
  2.825  
  3.200  
  1.410  
  0.165  
 -0.400  
 -0.080  
 -0.130  
  0.005  
 -0.120  
  0.010  
 -0.120  
  0.020  
 -0.120  
  0.030  
 -0.100  
  0.060  
 -0.060  
  0.070  
 -0.055  
  0.100  
  0.005  
  0.190  
  0.110  
  0.325  
  0.250  
  0.445  
  0.390  
  0.580  
  0.475  
  0.620  
  0.445  
  0.495  
  0.280  
  0.345  
  0.135  
  0.225  
  0.080  
  0.180  
  0.040  
  0.165  
  0.020  
  0.140  
 -0.005  
  0.140  
  0.020  
  0.155  
  0.030  
  0.185  
  0.040  
  0.190  
  0.060  
  0.180  
  0.040  
  0.175  
  0.040  
  0.180  
  0.040  
  0.165  
  0.040  
  0.170  
  0.030  
  0.175  
  0.040  
  0.180  
  0.080  
  0.240  
  0.130  
  0.305  
  0.185  
  0.280  
  0.150  
  0.240  
  0.050  
  0.165  
  0.005  
  0.130  
 -0.010  
  0.120  
 -0.005  
  0.110  
 -0.165  
 -0.400  
 -0.380  
  1.160  
  3.020  
  3.205  
  1.245  
  0.170  
 -0.220  
  0.055  
 -0.035  
  0.060  
 -0.075  
  0.080  
 -0.055  
  0.080  
 -0.055  
  0.080  
 -0.050  
  0.105  
 -0.005  
  0.130  
  0.010  
  0.155  
  0.065  
  0.240  
  0.160  
  0.360  
  0.300  
  0.490  
  0.420  
  0.605  
  0.520  
  0.640  
  0.470  
  0.520  
  0.305  
  0.345  
  0.150  
  0.225  
  0.080  
  0.170  
  0.040  
  0.170  
  0.020  
  0.130  
 -0.005  
  0.120  
 -0.015  
  0.110  
 -0.005  
  0.120  
 -0.010  
  0.120  
 -0.015  
  0.100  
 -0.035  
  0.085  
 -0.040  
  0.085  
 -0.040  
  0.080  
 -0.060  
  0.065  
 -0.070  
  0.080  
 -0.040  
  0.095  
 -0.010  
  0.130  
  0.060  
  0.190  
  0.025  
  0.125  
 -0.035  
  0.050  
 -0.095  
  0.000  
 -0.140  
 -0.020  
 -0.165  
 -0.055  
 -0.175  
 -0.180  
 -0.660  
 -0.420  
  0.820  
  2.925  
  2.885  
  1.220  
 -0.130  
 -0.290  
 -0.260  
 -0.120  
 -0.260  
 -0.105  
 -0.240  
 -0.150  
 -0.270  
 -0.120  
 -0.240  
 -0.100  
 -0.200  
 -0.070  
 -0.180  
 -0.040  
 -0.150  
  0.010  
 -0.080  
  0.105  
  0.070  
  0.250  
  0.210  
  0.405  
  0.350  
  0.530  
  0.385  
  0.445  
  0.250  
  0.280  
  0.080  
  0.110  
 -0.055  
  0.025  
 -0.120  
 -0.005  
 -0.120  
 -0.020  
 -0.155  
 -0.050  
 -0.150  
 -0.035  
 -0.160  
 -0.060  
 -0.165  
 -0.055  
 -0.180  
 -0.070  
 -0.180  
 -0.075  
 -0.200  
 -0.075  
 -0.180  
 -0.070  
 -0.195  
 -0.080  
 -0.215  
 -0.080  
 -0.195  
 -0.070  
 -0.175  
 -0.040  
 -0.120  
  0.040  
 -0.070  
 -0.005  
 -0.130  
 -0.055  
 -0.220  
 -0.100  
 -0.240  
 -0.150  
 -0.260  
 -0.150  
 -0.275  
 -0.165  
 -0.385  
 -0.630  
 -0.610  
  0.880  
  2.780  
  2.940  
  1.090  
 -0.060  
 -0.520  
 -0.235  
 -0.260  
 -0.165  
 -0.280  
 -0.165  
 -0.280  
 -0.175  
 -0.280  
 -0.155  
 -0.250  
 -0.130  
 -0.240  
 -0.120  
 -0.220  
 -0.115  
 -0.170  
 -0.015  
 -0.065  
  0.105  
  0.085  
  0.265  
  0.220  
  0.385  
  0.320  
  0.410  
  0.240  
  0.280  
  0.105  
  0.120  
 -0.050  
  0.010  
 -0.120  
 -0.050  
 -0.165  
 -0.060  
 -0.180  
 -0.090  
 -0.180  
 -0.070  
 -0.170  
 -0.075  
 -0.175  
 -0.060  
 -0.160  
 -0.070  
 -0.165  
 -0.060  
 -0.165  
 -0.075  
 -0.170  
 -0.070  
 -0.170  
 -0.065  
 -0.165  
 -0.050  
 -0.170  
 -0.065  
 -0.155  
 -0.040  
 -0.100  
  0.015  
 -0.050  
  0.090  
 -0.035  
  0.025  
 -0.100  
 -0.035  
 -0.155  
 -0.080  
 -0.190  
 -0.100  
 -0.185  
 -0.100  
 -0.200  
 -0.135  
 -0.580  
 -0.680  
  0.170  
  2.240  
  3.120  
  2.060  
  0.260  
 -0.300  
 -0.315  
 -0.120  
 -0.235  
 -0.130  
 -0.220  
 -0.140  
 -0.240  
 -0.140  
 -0.220  
 -0.115  
 -0.200  
 -0.090  
 -0.170  
 -0.065  
 -0.140  
 -0.020  
 -0.080  
  0.060  
  0.025  
  0.190  
  0.160  
  0.310  
  0.270  
  0.405  
  0.335  
  0.400  
  0.255  
  0.270  
  0.100  
  0.110  
 -0.035  
  0.025  
 -0.080  
 -0.020  
 -0.120  
 -0.050  
 -0.135  
 -0.055  
 -0.150  
 -0.065  
 -0.140  
 -0.060  
 -0.150  
 -0.060  
 -0.140  
 -0.060  
 -0.145  
 -0.060  
 -0.155  
 -0.080  
 -0.180  
 -0.085  
 -0.165  
 -0.080  
 -0.170  
 -0.080  
 -0.170  
 -0.080  
 -0.170  
 -0.080  
 -0.135  
 -0.025  
 -0.080  
  0.040  
 -0.025  
  0.030  
 -0.080  
 -0.030  
 -0.165  
 -0.080  
 -0.175  
 -0.115  
 -0.200  
 -0.125  
 -0.210  
 -0.130  
 -0.235  
 -0.490  
 -0.780  
  0.200  
  2.065  
  3.175  
  1.970  
  0.305  
 -0.390  
 -0.230  
 -0.230  
 -0.170  
 -0.235  
 -0.165  
 -0.240  
 -0.170  
 -0.250  
 -0.165  
 -0.220  
 -0.130  
 -0.185  
 -0.110  
 -0.175  
 -0.080  
 -0.130  
 -0.025  
 -0.050  
  0.080  
  0.080  
  0.220  
  0.215  
  0.350  
  0.325  
  0.420  
  0.315  
  0.345  
  0.170  
  0.155  
  0.020  
  0.020  
 -0.080  
 -0.030  
 -0.110  
 -0.035  
 -0.120  
 -0.070  
 -0.150  
 -0.080  
 -0.155  
 -0.100  
 -0.170  
 -0.090  
 -0.155  
 -0.105  
 -0.180  
 -0.120  
 -0.210  
 -0.150  
 -0.190  
 -0.130  
 -0.235  
 -0.170  
 -0.235  
 -0.185  
 -0.250  
 -0.175  
 -0.240  
 -0.175  
 -0.225  
 -0.145  
 -0.160  
 -0.040  
 -0.140  
 -0.110  
 -0.190  
 -0.155  
 -0.240  
 -0.190  
 -0.265  
 -0.210  
 -0.275  
 -0.195  
 -0.255  
 -0.220  
 -0.520  
 -0.770  
 -0.295  
  1.520  
  3.060  
  2.465  
  0.540  
 -0.310  
 -0.465  
 -0.200  
 -0.260  
 -0.200  
 -0.260  
 -0.180  
 -0.235  
 -0.190  
 -0.220  
 -0.145  
 -0.200  
 -0.140  
 -0.195  
 -0.120  
 -0.150  
 -0.070  
 -0.095  
  0.010  
  0.020  
  0.155  
  0.160  
  0.290  
  0.290  
  0.410  
  0.385  
  0.420  
  0.300  
  0.285  
  0.140  
  0.100  
 -0.020  
  0.005  
 -0.080  
 -0.055  
 -0.125  
 -0.070  
 -0.135  
 -0.070  
 -0.135  
 -0.095  
 -0.180  
 -0.110  
 -0.150  
 -0.115  
 -0.150  
 -0.095  
 -0.170  
 -0.130  
 -0.190  
 -0.130  
 -0.180  
 -0.120  
 -0.180  
 -0.135  
 -0.170  
 -0.110  
 -0.120  
 -0.040  
 -0.050  
  0.050  
 -0.020  
  0.010  
 -0.080  
 -0.070  
 -0.145  
 -0.130  
 -0.190  
 -0.130  
 -0.190  
 -0.165  
 -0.200  
 -0.170  
 -0.530  
 -0.720  
  0.020  
  2.020  
  3.140  
  2.190  
  0.400  
 -0.360  
 -0.375  
 -0.145  
 -0.200  
 -0.135  
 -0.180  
 -0.135  
 -0.180  
 -0.120  
 -0.160  
 -0.105  
 -0.130  
 -0.075  
 -0.120  
 -0.050  
 -0.095  
 -0.020  
 -0.030  
  0.080  
  0.080  
  0.205  
  0.240  
  0.345  
  0.365  
  0.440  
  0.415  
  0.450  
  0.355  
  0.325  
  0.210  
  0.175  
  0.080  
  0.095  
  0.030  
  0.060  
 -0.005  
  0.040  
 -0.015  
  0.025  
  0.005  
  0.040  
  0.020  
  0.065  
  0.025  
  0.090  
  0.045  
  0.100  
  0.060  
  0.090  
  0.040  
  0.080  
  0.020  
  0.050  
  0.010  
  0.050  
  0.015  
  0.080  
  0.065  
  0.130  
  0.135  
  0.200  
  0.125  
  0.145  
  0.080  
  0.080  
 -0.005  
  0.015  
 -0.040  
 -0.010  
 -0.050  
 -0.020  
 -0.060  
 -0.190  
 -0.600  
 -0.300  
  1.140  
  3.120  
  2.900  
  1.080  
 -0.065  
 -0.215  
 -0.105  
 -0.050  
 -0.100  
 -0.045  
 -0.080  
 -0.050  
 -0.080  
 -0.040  
 -0.080  
 -0.020  
 -0.040  
  0.005  
 -0.020  
  0.050  
  0.020  
  0.085  
  0.095  
  0.175  
  0.200  
  0.310  
  0.335  
  0.440  
  0.445  
  0.500  
  0.470  
  0.455  
  0.345  
  0.290  
  0.180  
  0.160  
  0.080  
  0.070  
  0.025  
  0.050  
  0.005  
  0.030  
 -0.010  
  0.000  
 -0.030  
  0.000  
 -0.050  
 -0.015  
 -0.045  
 -0.005  
 -0.040  
 -0.030  
 -0.070  
 -0.040  
 -0.080  
 -0.065  
 -0.060  
 -0.035  
 -0.070  
 -0.030  
 -0.030  
  0.040  
 -0.010  
  0.090  
  0.105  
  0.100  
  0.080  
  0.070  
 -0.035  
 -0.030  
 -0.150  
 -0.210  
 -0.240  
 -0.235  
 -0.280  
 -0.235  
 -0.300  
 -0.600  
 -0.840  
  0.090  
  1.960  
  3.020  
  1.930  
  0.260  
 -0.440  
 -0.320  
 -0.215  
 -0.170  
 -0.170  
 -0.165  
 -0.180  
 -0.090  
 -0.115  
 -0.080  
 -0.095  
 -0.020  
 -0.040  
  0.030  
  0.040  
  0.055  
  0.060  
  0.180  
  0.210  
  0.310  
  0.315  
  0.405  
  0.440  
  0.540  
  0.590  
  0.625  
  0.575  
  0.530  
  0.425  
  0.365  
  0.220  
  0.210  
  0.180  
  0.200  
  0.110  
  0.105  
  0.080  
  0.085  
  0.105  
  0.140  
  0.070  
  0.100  
  0.105  
  0.110  
  0.055  
  0.080  
  0.040  
  0.050  
  0.030  
  0.035  
  0.020  
  0.030  
 -0.005  
  0.030  
  0.010  
  0.065  
  0.050  
  0.130  
  0.170  
  0.200  
  0.120  
  0.105  
  0.060  
  0.060  
  0.030  
  0.040  
  0.015  
  0.025  
 -0.015  
 -0.010  
 -0.040  
 -0.295  
 -0.605  
  0.050  
  1.830  
  3.265  
  2.430  
  0.660  
 -0.255  
 -0.270  
 -0.100  
 -0.075  
 -0.080  
 -0.040  
 -0.080  
 -0.050  
 -0.075  
 -0.060  
 -0.070  
 -0.035  
 -0.060  
 -0.025  
 -0.035  
 -0.005  
  0.000  
  0.065  
  0.095  
  0.185  
  0.220  
  0.315  
  0.350  
  0.430  
  0.450  
  0.470  
  0.405  
  0.345  
  0.260  
  0.205  
  0.120  
  0.090  
  0.080  
  0.100  
  0.080  
  0.125  
  0.070  
  0.080  
  0.010  
 -0.020  
 -0.050  
 -0.010  
 -0.040  
 -0.010  
 -0.015  
  0.010  
 -0.020  
 -0.010  
 -0.020  
 -0.010  
 -0.040  
 -0.020  
 -0.055  
 -0.035  
 -0.030  
  0.010  
  0.045  
  0.090  
  0.080  
  0.080  
  0.030  
 -0.010  
 -0.075  
 -0.065  
 -0.120  
 -0.120  
 -0.135  
 -0.110  
 -0.155  
 -0.130  
 -0.300  
 -0.625  
 -0.315  
  1.245  
  3.010  
  2.745  
  0.945  
 -0.055  
 -0.260  
 -0.115  
 -0.135  
 -0.150  
 -0.210  
 -0.215  
 -0.170  
 -0.155  
 -0.185  
 -0.120  
 -0.170  
 -0.180  
 -0.175  
 -0.135  
 -0.135  
 -0.060  
 -0.025  
  0.060  
  0.100  
  0.200  
  0.220  
  0.290  
  0.320  
  0.380  
  0.370  
  0.420  
  0.405  
  0.360  
  0.285  
  0.280  
  0.210  
  0.185  
  0.120  
  0.100  
  0.040  
 -0.040  
 -0.175  
 -0.295  
 -0.475  
 -0.435  
 -0.380  
 -0.415  
 -0.460  
 -0.495  
 -0.435  
 -0.395  
 -0.455  
 -0.430  
 -0.455  
 -0.495  
 -0.530  
 -0.490  
 -0.495  
 -0.490  
 -0.515  
 -0.560  
 -0.710  
 -0.895  
 -1.100  
 -1.230  
 -1.350  
 -1.360  
 -1.320  
 -1.270  
 -1.415  
 -1.470  
 -1.480  
 -1.460  
 -1.375  
 -1.305  
 -1.870  
 -2.260  
 -1.545  
  0.195  
  1.025  
  0.060  
 -1.630  
 -2.300  
 -2.305  
 -2.150  
 -2.180  
 -2.190  
 -2.195  
 -2.200  
 -2.190  
 -2.200  
 -2.240  
 -2.255  
 -2.310  
 -2.340  
 -2.425  
 -2.445  
 -2.475  
 -2.450  
 -2.480  
 -2.520  
 -2.515  
 -2.465  
 -2.495  
 -2.460  
 -2.470  
 -2.495  
 -2.480  
 -2.515  
 -2.610  
 -2.675  
 -2.705  
 -2.775  
 -2.870  
 -2.840  
 -2.855  
 -2.910  
 -3.010  
 -2.980  
 -2.950  
 -2.960  
 -3.035  
 -3.035  
 -3.090  
 -3.120  
 -3.080  
 -2.960  
 -3.000  
 -2.970  
 -2.975  
 -2.980  
 -3.035  
 -3.060  
 -3.090  
 -3.095  
 -3.090  
 -2.985  
 -3.020  
 -3.000  
 -3.035  
 -3.020  
 -3.160  
 -3.230  
 -3.320  
 -3.310  
 -3.295  
 -3.280  
 -3.365  
 -3.345  
 -3.390  
 -3.650  
 -3.910  
 -3.265  
 -1.560  
 -0.280  
 -1.020  
 -2.670  
 -3.635  
 -3.660  
 -3.440  
 -3.440  
 -3.500  
 -3.490  
 -3.490  
 -3.515  
 -3.535  
 -3.510  
 -3.560  
 -3.590  
 -3.600  
 -3.630  
 -3.665  
 -3.600  
 -3.550  
 -3.515  
 -3.460  
 -3.370  
 -3.335  
 -3.275  
 -3.280  
 -3.220  
 -3.145  
 -3.155  
 -3.110  
 -3.165  
 -3.365  
 -3.400  
 -3.465  
 -3.520  
 -3.595  
 -3.600  
 -3.575  
 -3.625  
 -3.635  
 -3.630  
 -3.660  
 -3.600  
 -3.645  
 -3.695  
 -3.635  
 -3.635  
 -3.745  
 -3.750  
 -3.820  
 -3.915  
 -3.935  
 -4.010  
 -4.070  
 -3.960  
 -3.985  
 -3.970  
 -3.915  
 -4.030  
 -4.060  
 -4.000  
 -4.060  
 -4.080  
 -4.080  
 -4.080  
 -4.100  
 -4.115  
 -4.075  
 -3.995  
 -3.975  
 -4.280  
 -4.355  
 -3.320  
 -1.440  
 -0.615  
 -1.700  
 -3.155  
 -3.780  
 -3.640  
 -3.410  
 -3.395  
 -3.400  
 -3.360  
 -3.360  
 -3.355  
 -3.390  
 -3.330  
 -3.300  
 -3.310  
 -3.270  
 -3.260  
 -3.280  
 -3.220  
 -3.160  
 -3.150  
 -3.115  
 -3.030  
 -2.890  
 -2.800  
 -2.750  
 -2.670  
 -2.640  
 -2.635  
 -2.635  
 -2.635  
 -2.700  
 -2.745  
 -2.750  
 -2.760  
 -2.790  
 -2.770  
 -2.790  
 -2.795  
 -2.750  
 -2.705  
 -2.655  
 -2.665  
 -2.630  
 -2.600  
 -2.595  
 -2.590  
 -2.605  
 -2.535  
 -2.480  
 -2.450  
 -2.400  
 -2.320  
 -2.280  
 -2.260  
 -2.195  
 -2.150  
 -2.235  
 -2.300  
 -2.300  
 -2.300  
 -2.290  
 -2.295  
 -2.315  
 -2.305  
 -2.290  
 -2.285  
 -2.515  
 -2.785  
 -2.275  
 -0.645  
  0.795  
  0.300  
 -1.445  
 -2.320  
 -2.340  
 -2.200  
 -2.180  
 -2.155  
 -2.155  
 -2.140  
 -2.115  
 -2.100  
 -2.090  
 -2.035  
 -1.985  
 -1.980  
 -2.000  
 -1.970  
 -1.940  
 -1.880  
 -1.785  
 -1.720  
 -1.680  
 -1.635  
 -1.550  
 -1.455  
 -1.410  
 -1.375  
 -1.320  
 -1.285  
 -1.315  
 -1.410  
 -1.480  
 -1.520  
 -1.515  
 -1.490  
 -1.500  
 -1.500  
 -1.500  
 -1.505  
 -1.495  
 -1.475  
 -1.460  
 -1.450  
 -1.400  
 -1.400  
 -1.360  
 -1.330  
 -1.340  
 -1.275  
 -1.200  
 -1.195  
 -1.195  
 -1.140  
 -1.105  
 -1.140  
 -1.115  
 -1.125  
 -1.155  
 -1.160  
 -1.160  
 -1.175  
 -1.195  
 -1.215  
 -1.230  
 -1.170  
 -1.145  
 -1.450  
 -1.720  
 -0.965  
  0.905  
  2.130  
  1.390  
 -0.325  
 -1.115  
 -1.130  
 -1.040  
 -1.055  
 -1.010  
 -0.990  
 -0.975  
 -0.935  
 -0.855  
 -0.830  
 -0.770  
 -0.720  
 -0.720  
 -0.690  
 -0.600  
 -0.635  
 -0.630  
 -0.540  
 -0.440  
 -0.385  
 -0.300  
 -0.215  
 -0.155  
 -0.080  
 -0.020  
  0.005  
 -0.005  
 -0.060  
 -0.100  
 -0.185  
 -0.235  
 -0.240  
 -0.260  
 -0.315  
 -0.325  
 -0.335  
 -0.315  
 -0.300  
 -0.320  
 -0.300  
 -0.260  
 -0.255  
 -0.240  
 -0.240  
 -0.210  
 -0.220  
 -0.200  
 -0.175  
 -0.080  
 -0.040  
  0.040  
  0.045  
  0.045  
  0.040  
  0.045  
  0.020  
  0.020  
 -0.020  
 -0.025  
 -0.025  
 -0.005  
  0.000  
  0.040  
  0.030  
  0.010  
 -0.350  
 -0.390  
  0.750  
  2.780  
  3.240  
  1.810  
  0.440  
  0.065  
  0.245  
  0.320  
  0.315  
  0.335  
  0.340  
  0.385  
  0.400  
  0.420  
  0.410  
  0.440  
  0.440  
  0.440  
  0.435  
  0.445  
  0.420  
  0.440  
  0.445  
  0.495  
  0.550  
  0.600  
  0.670  
  0.750  
  0.795  
  0.885  
  0.910  
  0.940  
  0.890  
  0.850  
  0.775  
  0.760  
  0.725  
  0.725  
  0.720  
  0.740  
  0.680  
  0.690  
  0.720  
  0.745  
  0.750  
  0.790  
  0.790  
  0.780  
  0.760  
  0.785  
  0.780  
  0.800  
  0.820  
  0.880  
  0.880  
  0.945  
  0.985  
  1.015  
  0.975  
  1.015  
  1.040  
  1.000  
  0.935  
  0.960  
  0.930  
  0.970  
  0.975  
  1.000  
  1.000  
  1.040  
  1.010  
  0.690  
  0.560  
  1.580  
  3.480  
  4.120  
  2.860  
  1.380  
  0.870  
  1.080  
  1.140  
  1.165  
  1.190  
  1.210  
  1.225  
  1.250  
  1.230  
  1.240  
  1.200  
  1.180  
  1.160  
  1.170  
  1.160  
  1.200  
  1.220  
  1.280  
  1.330  
  1.415  
  1.455  
  1.530  
  1.565  
  1.640  
  1.665  
  1.690  
  1.650  
  1.610  
  1.550  
  1.480  
  1.380  
  1.350  
  1.280  
  1.285  
  1.240  
  1.220  
  1.170  
  1.180  
  1.160  
  1.170  
  1.140  
  1.160  
  1.140  
  1.160  
  1.135  
  1.150  
  1.140  
  1.160  
  1.120  
  1.145  
  1.160  
  1.215  
  1.240  
  1.310  
  1.320  
  1.330  
  1.310  
  1.325  
  1.220  
  1.185  
  1.130  
  1.110  
  1.080  
  1.080  
  1.070  
  1.070  
  1.060  
  1.020  
  0.645  
  0.580  
  1.700  
  3.675  
  4.140  
  2.730  
  1.310  
  0.865  
  1.010  
  1.130  
  1.095  
  1.140  
  1.115  
  1.145  
  1.115  
  1.145  
  1.130  
  1.170  
  1.140  
  1.160  
  1.145  
  1.170  
  1.175  
  1.215  
  1.220  
  1.285  
  1.310  
  1.390  
  1.425  
  1.505  
  1.530  
  1.590  
  1.600  
  1.600  
  1.530  
  1.485  
  1.405  
  1.370  
  1.295  
  1.290  
  1.250  
  1.260  
  1.205  
  1.240  
  1.220  
  1.225  
  1.205  
  1.225  
  1.190  
  1.215  
  1.190  
  1.180  
  1.165  
  1.285  
  1.320  
  1.345  
  1.340  
  1.400  
  1.400  
  1.425  
  1.445  
  1.530  
  1.480  
  1.520  
  1.575  
  1.465  
  1.340  
  1.335  
  1.250  
  1.210  
  1.140  
  1.130  
  1.080  
  1.100  
  1.040  
  0.780  
  0.505  
  1.335  
  3.205  
  4.345  
  3.305  
  1.650  
  0.855  
  0.940  
  1.065  
  1.105  
  1.100  
  1.120  
  1.105  
  1.145  
  1.110  
  1.150  
  1.115  
  1.180  
  1.130  
  1.160  
  1.160  
  1.210  
  1.180  
  1.240  
  1.255  
  1.325  
  1.360  
  1.445  
  1.450  
  1.540  
  1.540  
  1.580  
  1.505  
  1.520  
  1.420  
  1.380  
  1.245  
  1.250  
  1.170  
  1.165  
  1.110  
  1.140  
  1.110  
  1.135  
  1.090  
  1.125  
  1.070  
  1.110  
  1.065  
  1.105  
  1.060  
  1.085  
  1.040  
  1.050  
  1.015  
  1.060  
  1.040  
  1.100  
  1.095  
  1.170  
  1.170  
  1.205  
  1.140  
  1.195  
  1.080  
  1.050  
  0.960  
  0.965  
  0.920  
  0.935  
  0.880  
  0.920  
  0.880  
  0.880  
  0.490  
  0.345  
  1.285  
  3.320  
  4.100  
  2.920  
  1.285  
  0.665  
  0.710  
  0.900  
  0.860  
  0.905  
  0.865  
  0.905  
  0.860  
  0.920  
  0.880  
  0.935  
  0.910  
  0.950  
  0.920  
  0.965  
  0.940  
  1.005  
  1.000  
  1.080  
  1.090  
  1.205  
  1.210  
  1.300  
  1.305  
  1.400  
  1.360  
  1.360  
  1.270  
  1.250  
  1.135  
  1.125  
  1.020  
  1.040  
  0.960  
  0.960  
  0.910  
  0.940  
  0.880  
  0.925  
  0.870  
  0.920  
  0.880  
  0.940  
  0.880  
  0.930  
  0.880  
  0.930  
  0.880  
  0.920  
  0.880  
  0.960  
  0.945  
  1.020  
  1.020  
  1.065  
  0.990  
  1.025  
  0.920  
  0.870  
  0.780  
  0.785  
  0.710  
  0.745  
  0.680  
  0.720  
  0.670  
  0.705  
  0.520  
  0.190  
  0.310  
  1.780  
  3.640  
  3.625  
  1.790  
  0.705  
  0.420  
  0.635  
  0.605  
  0.640  
  0.610  
  0.660  
  0.610  
  0.680  
  0.625  
  0.690  
  0.645  
  0.700  
  0.660  
  0.745  
  0.695  
  0.760  
  0.730  
  0.840  
  0.840  
  0.940  
  0.940  
  1.065  
  1.050  
  1.145  
  1.120  
  1.180  
  1.080  
  1.070  
  0.940  
  0.940  
  0.820  
  0.830  
  0.740  
  0.780  
  0.710  
  0.770  
  0.700  
  0.750  
  0.670  
  0.740  
  0.680  
  0.745  
  0.680  
  0.740  
  0.670  
  0.720  
  0.645  
  0.705  
  0.640  
  0.720  
  0.685  
  0.785  
  0.760  
  0.850  
  0.770  
  0.820  
  0.740  
  0.720  
  0.615  
  0.640  
  0.530  
  0.580  
  0.505  
  0.560  
  0.485  
  0.550  
  0.400  
  0.080  
 -0.030  
  1.200  
  3.145  
  3.610  
  2.010  
  0.700  
  0.220  
  0.450  
  0.445  
  0.490  
  0.420  
  0.490  
  0.410  
  0.485  
  0.425  
  0.510  
  0.450  
  0.530  
  0.470  
  0.545  
  0.495  
  0.580  
  0.535  
  0.645  
  0.620  
  0.760  
  0.730  
  0.860  
  0.840  
  0.965  
  0.920  
  0.990  
  0.880  
  0.880  
  0.725  
  0.710  
  0.580  
  0.600  
  0.500  
  0.545  
  0.460  
  0.500  
  0.420  
  0.490  
  0.405  
  0.460  
  0.400  
  0.455  
  0.370  
  0.450  
  0.350  
  0.420  
  0.330  
  0.400  
  0.345  
  0.445  
  0.400  
  0.505  
  0.470  
  0.580  
  0.465  
  0.560  
  0.450  
  0.450  
  0.330  
  0.370  
  0.265  
  0.330  
  0.220  
  0.300  
  0.220  
  0.300  
  0.105  
 -0.180  
 -0.200  
  1.175  
  3.060  
  3.295  
  1.540  
  0.375  
 -0.015  
  0.225  
  0.200  
  0.260  
  0.190  
  0.270  
  0.185  
  0.260  
  0.190  
  0.285  
  0.220  
  0.320  
  0.250  
  0.350  
  0.275  
  0.370  
  0.325  
  0.445  
  0.410  
  0.540  
  0.510  
  0.660  
  0.635  
  0.780  
  0.720  
  0.795  
  0.645  
  0.670  
  0.510  
  0.495  
  0.360  
  0.400  
  0.285  
  0.340  
  0.210  
  0.290  
  0.200  
  0.280  
  0.200  
  0.270  
  0.160  
  0.255  
  0.185  
  0.260  
  0.165  
  0.240  
  0.140  
  0.220  
  0.140  
  0.245  
  0.165  
  0.290  
  0.255  
  0.390  
  0.310  
  0.365  
  0.270  
  0.350  
  0.190  
  0.240  
  0.110  
  0.175  
  0.080  
  0.135  
  0.045  
  0.120  
  0.010  
 -0.040  
 -0.500  
 -0.215  
  1.170  
  3.185  
  2.925  
  1.240  
 -0.005  
 -0.165  
 -0.070  
  0.080  
 -0.040  
  0.080  
 -0.020  
  0.095  
  0.000  
  0.100  
 -0.010  
  0.090  
  0.040  
  0.145  
  0.045  
  0.150  
  0.080  
  0.220  
  0.165  
  0.320  
  0.270  
  0.440  
  0.400  
  0.560  
  0.495  
  0.615  
  0.525  
  0.560  
  0.360  
  0.415  
  0.240  
  0.270  
  0.130  
  0.185  
  0.065  
  0.140  
  0.050  
  0.130  
  0.040  
  0.140  
  0.025  
  0.140  
  0.025  
  0.130  
  0.040  
  0.125  
  0.015  
  0.140  
  0.005  
  0.105  
 -0.005  
  0.120  
  0.040  
  0.190  
  0.130  
  0.285  
  0.170  
  0.270  
  0.165  
  0.200  
  0.040  
  0.105  
 -0.040  
  0.045  
 -0.070  
  0.025  
 -0.080  
  0.010  
 -0.095  
 -0.235  
 -0.670  
  0.000  
  1.660  
  3.285  
  2.505  
  0.780  
 -0.240  
 -0.190  
 -0.120  
 -0.005  
 -0.110  
  0.010  
 -0.100  
  0.010  
 -0.100  
  0.020  
 -0.075  
  0.055  
 -0.040  
  0.080  
 -0.030  
  0.090  
  0.020  
  0.150  
  0.080  
  0.240  
  0.200  
  0.365  
  0.310  
  0.470  
  0.420  
  0.540  
  0.420  
  0.470  
  0.310  
  0.345  
  0.155  
  0.220  
  0.065  
  0.150  
  0.020  
  0.120  
 -0.005  
  0.090  
 -0.015  
  0.085  
 -0.020  
  0.100  
 -0.010  
  0.100  
 -0.020  
  0.090  
 -0.015  
  0.080  
 -0.040  
  0.080  
 -0.040  
  0.065  
 -0.040  
  0.060  
 -0.060  
  0.045  
 -0.060  
  0.055  
 -0.050  
  0.050  
 -0.070  
  0.045  
 -0.070  
  0.060  
 -0.075  
  0.035  
 -0.080  
  0.040  
 -0.060  
  0.080  
 -0.010  
  0.150  
  0.080  
  0.225  
  0.105  
  0.210  
  0.100  
  0.140  
 -0.020  
  0.050  
 -0.100  
  0.005  
 -0.120  
 -0.020  
 -0.130  
 -0.050  
 -0.495  
 -0.610  
  0.180  
  2.260  
  3.190  
  2.140  
  0.300  
 -0.230  
 -0.255  
 -0.040  
 -0.180  
 -0.065  
 -0.170  
 -0.060  
 -0.175  
 -0.060  
 -0.160  
 -0.020  
 -0.135  
  0.000  
 -0.100  
  0.030  
 -0.060  
  0.070  
 -0.010  
  0.140  
  0.080  
  0.260  
  0.200  
  0.370  
  0.305  
  0.460  
  0.370  
  0.475  
  0.330  
  0.385  
  0.220  
  0.250  
  0.090  
  0.155  
  0.010  
  0.110  
 -0.020  
  0.080  
 -0.050  
  0.080  
 -0.040  
  0.080  
 -0.040  
  0.060  
 -0.055  
  0.065  
 -0.065  
  0.050  
 -0.080  
  0.040  
 -0.080  
  0.020  
 -0.090  
  0.030  
 -0.100  
  0.025  
 -0.080  
  0.020  
 -0.100  
  0.020  
 -0.110  
  0.010  
 -0.110  
  0.005  
 -0.110  
  0.010  
 -0.100  
  0.040  
 -0.050  
  0.090  
  0.025  
  0.155  
  0.005  
  0.105  
 -0.040  
  0.040  
 -0.110  
 -0.015  
 -0.140  
 -0.040  
 -0.155  
 -0.030  
 -0.160  
 -0.210  
 -0.700  
 -0.310  
  1.085  
  3.095  
  2.745  
  1.015  
 -0.175  
 -0.240  
 -0.215  
 -0.070  
 -0.195  
 -0.065  
 -0.200  
 -0.070  
 -0.195  
 -0.055  
 -0.160  
 -0.040  
 -0.150  
 -0.010  
 -0.115  
  0.025  
 -0.080  
  0.065  
 -0.020  
  0.155  
  0.090  
  0.285  
  0.220  
  0.385  
  0.310  
  0.465  
  0.340  
  0.445  
  0.255  
  0.305  
  0.110  
  0.170  
 -0.005  
  0.100  
 -0.060  
  0.040  
 -0.095  
  0.015  
 -0.110  
  0.010  
 -0.110  
 -0.005  
 -0.135  
 -0.015  
 -0.120  
 -0.020  
 -0.140  
 -0.020  
 -0.150  
 -0.025  
 -0.160  
 -0.030  
 -0.155  
 -0.030  
 -0.165  
 -0.050  
 -0.170  
 -0.030  
 -0.155  
 -0.020  
 -0.120  
  0.030  
 -0.060  
  0.105  
 -0.010  
  0.070  
 -0.090  
  0.020  
 -0.140  
 -0.040  
 -0.180  
 -0.070  
 -0.210  
 -0.080  
 -0.200  
 -0.080  
 -0.420  
 -0.655  
 -0.360  
  1.400  
  3.020  
  2.680  
  0.680  
 -0.195  
 -0.460  
 -0.140  
 -0.255  
 -0.135  
 -0.260  
 -0.145  
 -0.260  
 -0.130  
 -0.240  
 -0.115  
 -0.240  
 -0.100  
 -0.210  
 -0.080  
 -0.200  
 -0.060  
 -0.155  
  0.030  
 -0.040  
  0.160  
  0.110  
  0.300  
  0.225  
  0.405  
  0.320  
  0.450  
  0.260  
  0.310  
  0.100  
  0.120  
 -0.055  
  0.010  
 -0.160  
 -0.030  
 -0.185  
 -0.065  
 -0.220  
 -0.110  
 -0.210  
 -0.065  
 -0.215  
 -0.100  
 -0.230  
 -0.095  
 -0.225  
 -0.110  
 -0.240  
 -0.080  
 -0.220  
 -0.080  
 -0.230  
 -0.110  
 -0.225  
 -0.080  
 -0.240  
 -0.080  
 -0.220  
 -0.100  
 -0.220  
 -0.030  
 -0.130  
  0.015  
 -0.080  
  0.025  
 -0.140  
 -0.040  
 -0.210  
 -0.080  
 -0.250  
 -0.125  
 -0.260  
 -0.120  
 -0.275  
 -0.145  
 -0.390  
 -0.625  
 -0.690  
  0.825  
  2.715  
  3.000  
  1.185  
  0.025  
 -0.520  
 -0.200  
 -0.255  
 -0.120  
 -0.265  
 -0.120  
 -0.260  
 -0.115  
 -0.240  
 -0.100  
 -0.230  
 -0.065  
 -0.200  
 -0.050  
 -0.170  
 -0.015  
 -0.130  
  0.045  
 -0.035  
  0.170  
  0.100  
  0.310  
  0.225  
  0.410  
  0.315  
  0.445  
  0.270  
  0.350  
  0.135  
  0.200  
 -0.010  
  0.080  
 -0.090  
  0.025  
 -0.140  
 -0.010  
 -0.145  
 -0.010  
 -0.150  
 -0.010  
 -0.140  
  0.010  
 -0.135  
  0.000  
 -0.140  
  0.000  
 -0.140  
 -0.010  
 -0.140  
 -0.025  
 -0.160  
 -0.025  
 -0.165  
 -0.020  
 -0.175  
 -0.035  
 -0.170  
 -0.035  
 -0.165  
 -0.010  
 -0.120  
  0.050  
 -0.050  
  0.125  
 -0.040  
  0.080  
 -0.090  
 -0.010  
 -0.170  
 -0.055  
 -0.195  
 -0.070  
 -0.225  
 -0.060  
 -0.215  
 -0.155  
 -0.660  
 -0.585  
  0.430  
  2.600  
  3.020  
  1.690  
  0.050  
 -0.290  
 -0.290  
 -0.080  
 -0.235  
 -0.090  
 -0.225  
 -0.100  
 -0.240  
 -0.100  
 -0.235  
 -0.080  
 -0.185  
 -0.040  
 -0.175  
 -0.020  
 -0.140  
  0.020  
 -0.080  
  0.100  
  0.030  
  0.240  
  0.150  
  0.360  
  0.270  
  0.460  
  0.325  
  0.425  
  0.220  
  0.290  
  0.080  
  0.150  
 -0.060  
  0.050  
 -0.120  
  0.010  
 -0.140  
 -0.020  
 -0.170  
 -0.035  
 -0.180  
 -0.030  
 -0.180  
 -0.040  
 -0.180  
 -0.050  
 -0.185  
 -0.040  
 -0.200  
 -0.060  
 -0.200  
 -0.060  
 -0.210  
 -0.070  
 -0.200  
 -0.060  
 -0.220  
 -0.080  
 -0.215  
 -0.080  
 -0.215  
 -0.080  
 -0.215  
 -0.060  
 -0.170  
 -0.010  
 -0.115  
  0.080  
 -0.095  
  0.020  
 -0.140  
 -0.040  
 -0.210  
 -0.095  
 -0.270  
 -0.120  
 -0.275  
 -0.135  
 -0.280  
 -0.170  
 -0.660  
 -0.700  
  0.140  
  2.240  
  3.020  
  1.960  
  0.140  
 -0.330  
 -0.380  
 -0.130  
 -0.305  
 -0.160  
 -0.300  
 -0.150  
 -0.290  
 -0.145  
 -0.275  
 -0.120  
 -0.250  
 -0.095  
 -0.230  
 -0.075  
 -0.200  
 -0.040  
 -0.140  
  0.050  
 -0.040  
  0.170  
  0.090  
  0.300  
  0.205  
  0.420  
  0.280  
  0.400  
  0.170  
  0.255  
  0.040  
  0.105  
 -0.110  
  0.005  
 -0.170  
 -0.040  
 -0.195  
 -0.070  
 -0.230  
 -0.080  
 -0.220  
 -0.080  
 -0.220  
 -0.080  
 -0.220  
 -0.080  
 -0.240  
 -0.100  
 -0.240  
 -0.115  
 -0.255  
 -0.105  
 -0.270  
 -0.130  
 -0.270  
 -0.120  
 -0.270  
 -0.125  
 -0.280  
 -0.135  
 -0.280  
 -0.120  
 -0.280  
 -0.120  
 -0.240  
 -0.070  
 -0.180  
 -0.015  
 -0.190  
 -0.070  
 -0.230  
 -0.115  
 -0.290  
 -0.165  
 -0.320  
 -0.190  
 -0.340  
 -0.195  
 -0.320  
 -0.240  
 -0.750  
 -0.745  
  0.170  
  2.320  
  2.920  
  1.740  
  0.005  
 -0.390  
 -0.430  
 -0.200  
 -0.360  
 -0.200  
 -0.340  
 -0.190  
 -0.345  
 -0.195  
 -0.335  
 -0.180  
 -0.315  
 -0.150  
 -0.280  
 -0.120  
 -0.260  
 -0.070  
 -0.175  
  0.020  
 -0.060  
  0.155  
  0.065  
  0.280  
  0.180  
  0.390  
  0.265  
  0.365  
  0.165  
  0.255  
  0.010  
  0.080  
 -0.130  
 -0.030  
 -0.210  
 -0.075  
 -0.230  
 -0.095  
 -0.240  
 -0.120  
 -0.265  
 -0.110  
 -0.255  
 -0.115  
 -0.275  
 -0.120  
 -0.270  
 -0.135  
 -0.290  
 -0.140  
 -0.280  
 -0.140  
 -0.280  
 -0.135  
 -0.290  
 -0.150  
 -0.280  
 -0.140  
 -0.285  
 -0.150  
 -0.290  
 -0.155  
 -0.270  
 -0.100  
 -0.220  
 -0.055  
 -0.165  
 -0.035  
 -0.210  
 -0.075  
 -0.250  
 -0.140  
 -0.310  
 -0.180  
 -0.335  
 -0.195  
 -0.340  
 -0.190  
 -0.340  
 -0.495  
 -0.915  
 -0.055  
  1.685  
  3.125  
  2.110  
  0.505  
 -0.500  
 -0.400  
 -0.370  
 -0.200  
 -0.360  
 -0.220  
 -0.350  
 -0.215  
 -0.345  
 -0.180  
 -0.320  
 -0.170  
 -0.290  
 -0.140  
 -0.305  
