7680.0
128.0
 -0.122	
 -0.133	
 -0.133	
 -0.128	
 -0.148	
 -0.194	
 -0.204	
 -0.250	
 -0.286	
 -0.296	
 -0.311	
 -0.326	
 -0.337	
 -0.316	
 -0.301	
 -0.240	
 -0.224	
 -0.158	
 -0.107	
 -0.046	
  0.005	
  0.061	
  0.051	
  0.082	
  0.092	
  0.056	
  0.046	
  0.031	
  0.005	
 -0.010	
 -0.071	
 -0.117	
 -0.117	
 -0.163	
 -0.189	
 -0.219	
 -0.224	
 -0.230	
 -0.224	
 -0.250	
 -0.230	
 -0.219	
 -0.209	
 -0.133	
 -0.245	
 -0.434	
 -0.204	
  0.622	
  1.591	
  2.173	
  1.438	
  0.643	
  0.168	
  0.026	
 -0.046	
 -0.112	
 -0.173	
 -0.199	
 -0.245	
 -0.275	
 -0.281	
 -0.281	
 -0.296	
 -0.291	
 -0.286	
 -0.296	
 -0.306	
 -0.311	
 -0.306	
 -0.306	
 -0.296	
 -0.275	
 -0.245	
 -0.204	
 -0.107	
 -0.056	
 -0.026	
  0.061	
  0.082	
  0.092	
  0.056	
  0.031	
  0.000	
 -0.026	
 -0.082	
 -0.102	
 -0.102	
 -0.122	
 -0.056	
 -0.046	
 -0.224	
 -0.117	
  0.490	
  1.474	
  2.224	
  2.030	
  1.153	
  0.388	
  0.179	
  0.082	
 -0.056	
 -0.138	
 -0.199	
 -0.245	
 -0.255	
 -0.296	
 -0.301	
 -0.316	
 -0.326	
 -0.296	
 -0.265	
 -0.270	
 -0.235	
 -0.209	
 -0.245	
 -0.214	
 -0.158	
 -0.097	
 -0.051	
 -0.020	
  0.046	
  0.087	
  0.133	
  0.153	
  0.143	
  0.117	
  0.087	
  0.005	
 -0.056	
 -0.097	
 -0.122	
 -0.117	
 -0.128	
 -0.168	
 -0.194	
 -0.173	
 -0.138	
 -0.082	
 -0.041	
 -0.031	
 -0.020	
 -0.036	
 -0.041	
 -0.056	
 -0.066	
 -0.077	
 -0.087	
 -0.077	
 -0.117	
 -0.122	
 -0.133	
 -0.168	
 -0.163	
 -0.199	
 -0.209	
 -0.250	
 -0.250	
 -0.184	
 -0.179	
 -0.179	
 -0.179	
 -0.189	
 -0.163	
 -0.128	
 -0.133	
 -0.112	
 -0.097	
 -0.082	
 -0.102	
 -0.337	
 -0.316	
  0.408	
  1.535	
  2.198	
  1.663	
  0.683	
  0.010	
 -0.189	
 -0.168	
 -0.179	
 -0.245	
 -0.275	
 -0.281	
 -0.291	
 -0.286	
 -0.301	
 -0.291	
 -0.316	
 -0.316	
 -0.281	
 -0.189	
 -0.143	
 -0.117	
 -0.112	
 -0.117	
 -0.122	
 -0.138	
 -0.128	
 -0.107	
 -0.107	
 -0.071	
 -0.031	
  0.010	
  0.036	
  0.071	
  0.046	
  0.056	
 -0.005	
 -0.046	
 -0.061	
 -0.087	
 -0.138	
 -0.148	
 -0.153	
 -0.092	
 -0.056	
 -0.041	
 -0.036	
 -0.036	
 -0.046	
 -0.036	
 -0.020	
 -0.020	
  0.005	
  0.051	
 -0.179	
 -0.087	
  0.449	
  1.275	
  2.096	
  2.055	
  1.158	
  0.377	
  0.138	
  0.061	
 -0.061	
 -0.184	
 -0.194	
 -0.143	
 -0.148	
 -0.158	
 -0.153	
 -0.168	
 -0.158	
 -0.168	
 -0.158	
 -0.138	
 -0.138	
 -0.133	
 -0.128	
 -0.112	
 -0.122	
 -0.071	
 -0.056	
 -0.056	
 -0.077	
 -0.061	
 -0.031	
  0.092	
  0.092	
  0.051	
  0.026	
 -0.026	
 -0.071	
 -0.041	
 -0.041	
 -0.031	
 -0.051	
 -0.051	
 -0.041	
  0.005	
  0.046	
 -0.296	
 -0.403	
  0.194	
  1.290	
  2.229	
  1.948	
  1.061	
  0.316	
  0.036	
 -0.026	
 -0.107	
 -0.173	
 -0.184	
 -0.199	
 -0.214	
 -0.204	
 -0.143	
 -0.102	
 -0.082	
 -0.092	
 -0.097	
 -0.087	
 -0.122	
 -0.148	
 -0.148	
 -0.117	
 -0.112	
 -0.071	
 -0.077	
 -0.015	
  0.031	
  0.087	
  0.102	
  0.133	
  0.097	
  0.066	
  0.026	
 -0.005	
 -0.020	
 -0.036	
  0.000	
  0.046	
  0.026	
 -0.041	
 -0.005	
 -0.010	
 -0.005	
 -0.020	
 -0.036	
 -0.051	
 -0.015	
 -0.036	
 -0.036	
 -0.046	
 -0.066	
 -0.066	
 -0.061	
 -0.071	
 -0.087	
 -0.071	
 -0.061	
 -0.051	
 -0.087	
 -0.102	
 -0.107	
 -0.097	
 -0.128	
 -0.102	
 -0.102	
 -0.112	
 -0.117	
 -0.143	
 -0.148	
 -0.153	
 -0.138	
 -0.153	
 -0.153	
 -0.153	
 -0.133	
 -0.122	
 -0.082	
 -0.046	
 -0.015	
 -0.097	
 -0.332	
 -0.403	
  0.179	
  1.306	
  2.091	
  1.775	
  0.775	
  0.102	
 -0.158	
 -0.163	
 -0.138	
 -0.173	
 -0.214	
 -0.224	
 -0.214	
 -0.168	
 -0.153	
 -0.128	
 -0.163	
 -0.179	
 -0.163	
 -0.168	
 -0.189	
 -0.219	
 -0.224	
 -0.255	
 -0.265	
 -0.275	
 -0.275	
 -0.270	
 -0.245	
 -0.214	
 -0.189	
 -0.128	
 -0.056	
 -0.015	
  0.041	
  0.097	
  0.071	
  0.026	
  0.010	
  0.026	
  0.041	
  0.061	
  0.015	
 -0.031	
 -0.066	
 -0.128	
 -0.117	
 -0.112	
 -0.117	
 -0.133	
 -0.133	
 -0.158	
 -0.138	
 -0.138	
 -0.102	
 -0.092	
 -0.087	
 -0.092	
 -0.133	
 -0.102	
 -0.107	
 -0.107	
 -0.112	
 -0.071	
 -0.026	
 -0.102	
 -0.362	
 -0.224	
  0.459	
  1.418	
  2.224	
  1.744	
  0.770	
  0.148	
 -0.071	
 -0.122	
 -0.179	
 -0.224	
 -0.235	
 -0.209	
 -0.214	
 -0.163	
 -0.122	
 -0.138	
 -0.143	
 -0.184	
 -0.179	
 -0.179	
 -0.168	
 -0.153	
 -0.138	
 -0.122	
 -0.107	
 -0.097	
 -0.097	
 -0.061	
 -0.051	
 -0.056	
  0.015	
  0.077	
  0.122	
  0.112	
  0.087	
  0.031	
 -0.036	
 -0.071	
 -0.112	
 -0.122	
 -0.138	
 -0.133	
 -0.087	
 -0.112	
 -0.138	
 -0.138	
 -0.138	
 -0.143	
 -0.128	
 -0.138	
 -0.082	
 -0.056	
 -0.026	
 -0.066	
 -0.235	
  0.102	
  0.877	
  1.642	
  2.234	
  1.459	
  0.597	
  0.056	
 -0.087	
 -0.117	
 -0.173	
 -0.235	
 -0.291	
 -0.275	
 -0.265	
 -0.235	
 -0.224	
 -0.204	
 -0.179	
 -0.189	
 -0.158	
 -0.143	
 -0.133	
 -0.097	
 -0.082	
 -0.041	
 -0.026	
 -0.015	
 -0.005	
  0.020	
  0.087	
  0.122	
  0.153	
  0.092	
  0.031	
 -0.015	
 -0.041	
 -0.082	
 -0.128	
 -0.128	
 -0.112	
 -0.092	
 -0.097	
 -0.092	
 -0.097	
 -0.097	
 -0.071	
 -0.097	
 -0.087	
 -0.097	
 -0.097	
 -0.097	
 -0.056	
 -0.087	
 -0.092	
 -0.153	
 -0.204	
 -0.189	
 -0.214	
 -0.265	
 -0.235	
 -0.209	
 -0.194	
 -0.189	
 -0.194	
 -0.194	
 -0.173	
 -0.184	
 -0.163	
 -0.158	
 -0.143	
 -0.133	
 -0.071	
 -0.107	
 -0.316	
 -0.388	
  0.332	
  1.392	
  2.142	
  1.678	
  0.658	
  0.041	
 -0.179	
 -0.184	
 -0.224	
 -0.265	
 -0.301	
 -0.326	
 -0.326	
 -0.347	
 -0.321	
 -0.301	
 -0.270	
 -0.240	
 -0.199	
 -0.189	
 -0.153	
 -0.153	
 -0.168	
 -0.168	
 -0.163	
 -0.122	
 -0.082	
 -0.036	
  0.000	
  0.031	
  0.026	
  0.061	
  0.041	
  0.010	
 -0.015	
 -0.056	
 -0.112	
 -0.122	
 -0.158	
 -0.168	
 -0.189	
 -0.214	
 -0.235	
 -0.204	
 -0.179	
 -0.143	
 -0.133	
 -0.112	
 -0.041	
 -0.036	
 -0.026	
 -0.061	
 -0.077	
 -0.082	
 -0.077	
 -0.112	
 -0.107	
 -0.107	
 -0.097	
 -0.082	
 -0.092	
 -0.173	
 -0.194	
 -0.204	
 -0.230	
 -0.245	
 -0.265	
 -0.311	
 -0.337	
 -0.230	
 -0.204	
 -0.163	
 -0.158	
 -0.143	
 -0.128	
 -0.128	
 -0.133	
 -0.107	
 -0.117	
 -0.117	
 -0.122	
 -0.148	
 -0.143	
 -0.143	
 -0.082	
 -0.189	
 -0.536	
 -0.388	
  0.479	
  1.499	
  2.147	
  1.377	
  0.505	
 -0.015	
 -0.122	
 -0.117	
 -0.148	
 -0.189	
 -0.204	
 -0.230	
 -0.214	
 -0.230	
 -0.224	
 -0.240	
 -0.230	
 -0.230	
 -0.214	
 -0.230	
 -0.224	
 -0.199	
 -0.128	
 -0.077	
 -0.061	
 -0.077	
 -0.051	
 -0.061	
 -0.066	
 -0.026	
 -0.005	
  0.020	
  0.005	
 -0.015	
 -0.051	
 -0.066	
 -0.133	
 -0.153	
 -0.184	
 -0.189	
 -0.194	
 -0.153	
 -0.148	
 -0.128	
 -0.102	
 -0.082	
 -0.061	
 -0.087	
 -0.092	
 -0.092	
 -0.107	
 -0.122	
 -0.077	
 -0.056	
 -0.102	
 -0.321	
 -0.148	
  0.587	
  1.591	
  2.020	
  1.397	
  0.525	
 -0.041	
 -0.071	
 -0.061	
 -0.112	
 -0.184	
 -0.235	
 -0.204	
 -0.194	
 -0.209	
 -0.209	
 -0.209	
 -0.189	
 -0.179	
 -0.148	
 -0.143	
 -0.117	
 -0.107	
 -0.102	
 -0.107	
 -0.056	
 -0.041	
  0.005	
  0.031	
  0.066	
  0.077	
  0.066	
  0.036	
  0.020	
 -0.031	
 -0.112	
 -0.143	
 -0.179	
 -0.204	
 -0.204	
 -0.163	
 -0.153	
 -0.128	
 -0.148	
 -0.138	
 -0.133	
 -0.117	
 -0.122	
 -0.102	
 -0.097	
 -0.102	
 -0.066	
 -0.051	
 -0.051	
 -0.122	
 -0.372	
 -0.209	
  0.704	
  1.647	
  2.045	
  1.454	
  0.607	
  0.071	
 -0.122	
 -0.173	
 -0.173	
 -0.199	
 -0.219	
 -0.219	
 -0.224	
 -0.250	
 -0.224	
 -0.250	
 -0.235	
 -0.245	
 -0.240	
 -0.265	
 -0.245	
 -0.240	
 -0.224	
 -0.184	
 -0.158	
 -0.158	
 -0.138	
 -0.046	
  0.056	
  0.138	
  0.158	
  0.163	
  0.148	
  0.112	
  0.056	
  0.000	
 -0.056	
 -0.071	
 -0.112	
 -0.143	
 -0.168	
 -0.184	
 -0.179	
 -0.219	
 -0.194	
 -0.189	
 -0.204	
 -0.184	
 -0.214	
 -0.235	
 -0.219	
 -0.133	
 -0.107	
 -0.056	
 -0.077	
 -0.082	
 -0.066	
 -0.097	
 -0.097	
 -0.102	
 -0.107	
 -0.143	
 -0.179	
 -0.219	
 -0.214	
 -0.199	
 -0.214	
 -0.245	
 -0.260	
 -0.255	
 -0.260	
 -0.224	
 -0.184	
 -0.179	
 -0.153	
 -0.143	
 -0.158	
 -0.138	
 -0.138	
 -0.102	
 -0.087	
 -0.066	
 -0.092	
 -0.066	
 -0.071	
 -0.071	
 -0.133	
 -0.510	
 -0.454	
  0.281	
  1.367	
  2.173	
  1.617	
  0.632	
 -0.041	
 -0.260	
 -0.209	
 -0.179	
 -0.209	
 -0.235	
 -0.224	
 -0.224	
 -0.230	
 -0.224	
 -0.224	
 -0.194	
 -0.184	
 -0.179	
 -0.179	
 -0.189	
 -0.189	
 -0.204	
 -0.270	
 -0.255	
 -0.260	
 -0.245	
 -0.209	
 -0.240	
 -0.179	
 -0.082	
 -0.036	
  0.056	
  0.056	
  0.056	
  0.041	
  0.000	
 -0.061	
 -0.071	
 -0.097	
 -0.087	
 -0.082	
 -0.082	
 -0.005	
 -0.005	
 -0.204	
 -0.143	
  0.383	
  1.301	
  1.953	
  1.698	
  0.836	
  0.077	
 -0.128	
 -0.066	
 -0.122	
 -0.168	
 -0.189	
 -0.219	
 -0.204	
 -0.235	
 -0.235	
 -0.245	
 -0.260	
 -0.245	
 -0.260	
 -0.230	
 -0.204	
 -0.148	
 -0.087	
 -0.046	
 -0.061	
 -0.036	
  0.010	
  0.041	
  0.097	
  0.128	
  0.143	
  0.173	
  0.179	
  0.158	
  0.133	
  0.077	
  0.010	
 -0.036	
 -0.092	
 -0.077	
 -0.082	
 -0.097	
 -0.128	
 -0.179	
 -0.158	
 -0.138	
 -0.133	
 -0.449	
 -0.311	
  0.474	
  1.545	
  2.275	
  1.923	
  1.097	
  0.347	
  0.041	
 -0.056	
 -0.107	
 -0.158	
 -0.204	
 -0.184	
 -0.209	
 -0.219	
 -0.224	
 -0.240	
 -0.255	
 -0.260	
 -0.296	
 -0.332	
 -0.332	
 -0.347	
 -0.291	
 -0.270	
 -0.260	
 -0.255	
 -0.209	
 -0.122	
 -0.046	
  0.036	
  0.087	
  0.097	
  0.112	
  0.077	
  0.031	
 -0.031	
 -0.066	
 -0.102	
 -0.102	
 -0.143	
 -0.158	
 -0.173	
 -0.204	
 -0.163	
 -0.189	
 -0.194	
 -0.168	
 -0.163	
 -0.112	
 -0.041	
 -0.133	
 -0.383	
 -0.291	
  0.587	
  1.647	
  2.244	
  1.836	
  0.745	
  0.041	
 -0.071	
 -0.128	
 -0.184	
 -0.240	
 -0.260	
 -0.250	
 -0.224	
 -0.214	
 -0.245	
 -0.265	
 -0.250	
 -0.199	
 -0.219	
 -0.219	
 -0.219	
 -0.235	
 -0.209	
 -0.230	
 -0.214	
 -0.214	
 -0.209	
 -0.189	
 -0.163	
 -0.158	
 -0.138	
 -0.102	
 -0.128	
 -0.051	
 -0.051	
 -0.046	
 -0.097	
 -0.138	
 -0.092	
 -0.087	
 -0.107	
 -0.128	
 -0.122	
 -0.117	
 -0.092	
 -0.102	
 -0.077	
 -0.046	
 -0.235	
 -0.230	
  0.173	
  1.061	
  1.907	
  2.025	
  1.290	
  0.388	
 -0.092	
 -0.122	
 -0.122	
 -0.133	
 -0.143	
 -0.148	
 -0.163	
 -0.168	
 -0.204	
 -0.189	
 -0.204	
 -0.199	
 -0.214	
 -0.240	
 -0.214	
 -0.235	
 -0.250	
 -0.255	
 -0.270	
 -0.240	
 -0.230	
 -0.214	
 -0.173	
 -0.128	
 -0.097	
 -0.082	
 -0.020	
  0.031	
  0.071	
  0.031	
  0.015	
 -0.015	
 -0.046	
 -0.056	
 -0.071	
 -0.056	
 -0.077	
 -0.092	
 -0.112	
 -0.148	
 -0.138	
 -0.153	
 -0.168	
 -0.179	
 -0.219	
 -0.240	
 -0.230	
 -0.230	
 -0.214	
 -0.199	
 -0.214	
 -0.204	
 -0.255	
 -0.117	
 -0.010	
  0.000	
 -0.015	
 -0.041	
 -0.046	
 -0.041	
 -0.066	
 -0.071	
 -0.087	
 -0.066	
 -0.066	
 -0.403	
 -0.490	
  0.061	
  1.168	
  2.137	
  1.877	
  0.898	
  0.168	
 -0.143	
 -0.153	
 -0.189	
 -0.209	
 -0.179	
 -0.173	
 -0.148	
 -0.173	
 -0.168	
 -0.168	
 -0.184	
 -0.158	
 -0.204	
 -0.219	
 -0.235	
 -0.240	
 -0.184	
 -0.230	
 -0.235	
 -0.230	
 -0.250	
 -0.209	
 -0.168	
 -0.153	
 -0.107	
 -0.041	
  0.005	
  0.036	
  0.061	
  0.056	
  0.036	
 -0.015	
  0.026	
  0.031	
 -0.036	
 -0.112	
 -0.107	
 -0.097	
 -0.097	
 -0.117	
 -0.117	
 -0.071	
 -0.102	
 -0.265	
 -0.051	
  0.648	
  1.515	
  2.111	
  1.658	
  0.796	
  0.240	
  0.071	
 -0.020	
 -0.107	
 -0.153	
 -0.219	
 -0.224	
 -0.230	
 -0.230	
 -0.199	
 -0.194	
 -0.209	
 -0.224	
 -0.235	
 -0.230	
 -0.204	
 -0.194	
 -0.194	
 -0.163	
 -0.158	
 -0.133	
 -0.102	
 -0.061	
 -0.051	
 -0.005	
  0.092	
  0.102	
  0.097	
  0.061	
 -0.005	
 -0.041	
 -0.010	
 -0.026	
 -0.056	
 -0.077	
 -0.107	
 -0.071	
 -0.102	
 -0.082	
 -0.077	
 -0.393	
 -0.158	
  0.627	
  1.561	
  2.331	
  1.795	
  0.893	
  0.230	
  0.020	
 -0.031	
 -0.117	
 -0.184	
 -0.224	
 -0.240	
 -0.189	
 -0.179	
 -0.173	
 -0.189	
 -0.173	
 -0.194	
 -0.199	
 -0.224	
 -0.224	
 -0.245	
 -0.214	
 -0.189	
 -0.173	
 -0.148	
 -0.112	
 -0.056	
  0.005	
  0.071	
  0.102	
  0.097	
  0.061	
  0.026	
 -0.036	
 -0.026	
 -0.046	
 -0.046	
 -0.071	
 -0.066	
 -0.117	
 -0.107	
 -0.117	
 -0.122	
 -0.143	
 -0.112	
 -0.133	
 -0.128	
 -0.138	
 -0.133	
 -0.143	
 -0.122	
 -0.143	
 -0.133	
 -0.153	
 -0.107	
 -0.061	
 -0.015	
 -0.020	
 -0.046	
 -0.071	
 -0.051	
 -0.046	
 -0.056	
 -0.087	
 -0.102	
 -0.122	
 -0.143	
 -0.189	
 -0.153	
 -0.189	
 -0.199	
 -0.214	
 -0.235	
 -0.281	
 -0.199	
 -0.153	
 -0.117	
 -0.092	
 -0.077	
 -0.071	
 -0.031	
 -0.031	
 -0.051	
 -0.082	
 -0.097	
 -0.122	
 -0.107	
 -0.138	
 -0.128	
 -0.138	
 -0.148	
 -0.153	
 -0.122	
 -0.163	
 -0.189	
 -0.117	
 -0.056	
 -0.051	
 -0.031	
 -0.036	
 -0.036	
 -0.051	
 -0.031	
 -0.158	
 -0.311	
 -0.260	
  0.576	
  1.607	
  2.168	
  1.586	
  0.597	
  0.000	
 -0.168	
 -0.168	
 -0.189	
 -0.219	
 -0.184	
 -0.168	
 -0.158	
 -0.148	
 -0.153	
 -0.214	
 -0.219	
 -0.209	
 -0.194	
 -0.199	
 -0.214	
 -0.230	
 -0.209	
 -0.219	
 -0.245	
 -0.245	
 -0.240	
 -0.250	
 -0.219	
 -0.199	
 -0.163	
 -0.097	
  0.015	
  0.046	
  0.107	
  0.148	
  0.112	
  0.082	
  0.082	
  0.031	
  0.010	
  0.010	
  0.000	
  0.010	
 -0.005	
 -0.026	
 -0.010	
 -0.020	
 -0.041	
 -0.051	
 -0.071	
 -0.092	
 -0.112	
 -0.117	
 -0.107	
 -0.112	
 -0.377	
 -0.138	
  0.607	
  1.479	
  2.147	
  1.882	
  0.918	
  0.235	
  0.061	
 -0.010	
 -0.097	
 -0.128	
 -0.153	
 -0.168	
 -0.173	
 -0.143	
 -0.163	
 -0.158	
 -0.199	
 -0.235	
 -0.281	
 -0.286	
 -0.255	
 -0.219	
 -0.214	
 -0.163	
 -0.143	
 -0.138	
 -0.158	
 -0.102	
 -0.061	
 -0.010	
  0.041	
  0.102	
  0.087	
  0.082	
  0.046	
 -0.005	
 -0.051	
 -0.051	
 -0.107	
 -0.128	
 -0.153	
 -0.189	
 -0.179	
 -0.122	
 -0.112	
 -0.107	
 -0.122	
 -0.092	
 -0.077	
 -0.051	
 -0.117	
 -0.153	
 -0.158	
 -0.143	
 -0.158	
 -0.138	
 -0.122	
 -0.107	
 -0.117	
 -0.128	
 -0.128	
 -0.112	
 -0.117	
 -0.173	
 -0.173	
 -0.133	
 -0.112	
 -0.077	
 -0.107	
 -0.138	
 -0.148	
 -0.148	
 -0.148	
 -0.138	
 -0.138	
 -0.122	
 -0.107	
 -0.122	
 -0.168	
 -0.179	
 -0.184	
 -0.184	
 -0.184	
 -0.189	
 -0.189	
 -0.168	
 -0.184	
 -0.179	
 -0.179	
 -0.143	
 -0.117	
 -0.097	
 -0.097	
 -0.082	
 -0.051	
 -0.036	
 -0.260	
 -0.337	
  0.092	
  1.137	
  2.015	
  1.969	
  1.086	
  0.286	
 -0.051	
 -0.112	
 -0.138	
 -0.204	
 -0.240	
 -0.275	
 -0.301	
 -0.235	
 -0.235	
 -0.214	
 -0.224	
 -0.209	
 -0.219	
 -0.214	
 -0.209	
 -0.214	
 -0.230	
 -0.219	
 -0.235	
 -0.204	
 -0.189	
 -0.168	
 -0.128	
 -0.097	
 -0.092	
 -0.061	
  0.000	
  0.000	
  0.051	
  0.015	
  0.005	
  0.015	
  0.026	
 -0.026	
 -0.031	
 -0.071	
 -0.077	
 -0.097	
 -0.107	
 -0.122	
 -0.133	
 -0.143	
 -0.214	
 -0.204	
 -0.148	
 -0.077	
 -0.107	
 -0.066	
 -0.066	
 -0.214	
 -0.041	
  0.663	
  1.566	
  2.127	
  1.887	
  1.000	
  0.281	
  0.153	
  0.015	
 -0.087	
 -0.138	
 -0.189	
 -0.204	
 -0.235	
 -0.250	
 -0.260	
 -0.275	
 -0.321	
 -0.265	
 -0.214	
 -0.214	
 -0.214	
 -0.143	
 -0.097	
 -0.061	
 -0.056	
 -0.041	
 -0.031	
 -0.005	
  0.020	
  0.071	
  0.087	
  0.097	
  0.087	
  0.046	
  0.010	
 -0.015	
 -0.061	
 -0.107	
 -0.133	
 -0.158	
 -0.168	
 -0.148	
 -0.102	
  0.000	
 -0.179	
 -0.408	
 -0.082	
  1.102	
  2.009	
  2.162	
  1.443	
  0.474	
  0.061	
  0.015	
 -0.097	
 -0.173	
 -0.240	
 -0.286	
 -0.311	
 -0.316	
 -0.311	
 -0.260	
 -0.245	
 -0.235	
 -0.245	
 -0.230	
 -0.245	
 -0.230	
 -0.209	
 -0.173	
 -0.158	
 -0.122	
 -0.082	
 -0.015	
  0.031	
  0.066	
  0.112	
  0.158	
  0.148	
  0.097	
  0.061	
  0.005	
 -0.046	
 -0.077	
 -0.107	
 -0.153	
 -0.184	
 -0.219	
 -0.224	
 -0.204	
 -0.148	
 -0.128	
 -0.117	
 -0.066	
 -0.138	
 -0.347	
 -0.066	
  0.847	
  1.851	
  2.321	
  1.760	
  0.801	
  0.143	
 -0.061	
 -0.128	
 -0.128	
 -0.158	
 -0.204	
 -0.224	
 -0.224	
 -0.260	
 -0.275	
 -0.316	
 -0.367	
 -0.337	
 -0.250	
 -0.250	
 -0.240	
 -0.235	
 -0.230	
 -0.235	
 -0.204	
 -0.189	
 -0.189	
 -0.133	
 -0.071	
  0.015	
  0.031	
  0.066	
  0.051	
  0.041	
 -0.031	
 -0.071	
 -0.117	
 -0.133	
 -0.158	
 -0.179	
 -0.194	
 -0.184	
 -0.189	
 -0.168	
 -0.148	
 -0.143	
 -0.138	
 -0.163	
 -0.199	
 -0.153	
 -0.087	
 -0.082	
 -0.066	
 -0.026	
 -0.066	
 -0.255	
  0.031	
  0.755	
  1.698	
  2.259	
  1.754	
  0.709	
  0.071	
 -0.102	
 -0.112	
 -0.184	
 -0.255	
 -0.311	
 -0.306	
 -0.311	
 -0.326	
 -0.326	
 -0.296	
 -0.260	
 -0.219	
 -0.199	
 -0.209	
 -0.199	
 -0.204	
 -0.199	
 -0.194	
 -0.163	
 -0.184	
 -0.173	
 -0.158	
 -0.112	
 -0.066	
  0.020	
  0.056	
  0.082	
  0.066	
  0.041	
 -0.010	
 -0.036	
 -0.148	
 -0.158	
 -0.168	
 -0.158	
 -0.199	
 -0.184	
 -0.189	
 -0.209	
 -0.219	
 -0.260	
 -0.235	
 -0.168	
 -0.138	
 -0.107	
 -0.102	
 -0.107	
 -0.128	
 -0.097	
 -0.097	
 -0.071	
 -0.046	
 -0.219	
 -0.163	
  0.367	
  1.392	
  2.055	
  1.800	
  0.928	
  0.240	
 -0.026	
 -0.102	
 -0.158	
 -0.230	
 -0.281	
 -0.326	
 -0.301	
 -0.326	
 -0.316	
 -0.326	
 -0.321	
 -0.301	
 -0.219	
 -0.133	
 -0.097	
 -0.122	
 -0.158	
 -0.133	
 -0.133	
 -0.153	
 -0.158	
 -0.122	
 -0.107	
 -0.036	
  0.000	
  0.026	
  0.015	
 -0.010	
 -0.051	
 -0.056	
 -0.112	
 -0.148	
 -0.163	
 -0.158	
 -0.153	
 -0.143	
 -0.087	
  0.015	
  0.041	
 -0.199	
 -0.015	
  0.632	
  1.601	
  2.203	
  1.775	
  0.903	
  0.250	
  0.082	
 -0.071	
 -0.153	
 -0.214	
 -0.214	
 -0.265	
 -0.291	
 -0.301	
 -0.311	
 -0.337	
 -0.326	
 -0.281	
 -0.204	
 -0.173	
 -0.179	
 -0.179	
 -0.158	
 -0.153	
 -0.148	
 -0.122	
 -0.122	
 -0.066	
 -0.020	
  0.026	
  0.077	
  0.107	
  0.122	
  0.107	
  0.077	
  0.000	
 -0.031	
 -0.005	
  0.015	
 -0.015	
 -0.031	
 -0.087	
 -0.128	
 -0.097	
 -0.122	
 -0.133	
 -0.143	
 -0.148	
 -0.158	
 -0.138	
 -0.168	
 -0.179	
 -0.173	
 -0.189	
 -0.189	
 -0.199	
 -0.219	
 -0.179	
 -0.122	
 -0.071	
 -0.092	
 -0.092	
 -0.148	
 -0.194	
 -0.148	
 -0.107	
 -0.102	
 -0.128	
 -0.148	
 -0.143	
 -0.148	
 -0.138	
 -0.128	
 -0.133	
 -0.168	
 -0.148	
 -0.163	
 -0.168	
 -0.184	
 -0.184	
 -0.112	
 -0.097	
 -0.107	
 -0.107	
 -0.066	
 -0.189	
 -0.428	
 -0.260	
  0.648	
  1.719	
  2.096	
  1.270	
  0.393	
 -0.097	
 -0.214	
 -0.194	
 -0.204	
 -0.224	
 -0.250	
 -0.250	
 -0.250	
 -0.235	
 -0.235	
 -0.260	
 -0.230	
 -0.214	
 -0.224	
 -0.194	
 -0.199	
 -0.179	
 -0.194	
 -0.245	
 -0.214	
 -0.235	
 -0.250	
 -0.240	
 -0.224	
 -0.199	
 -0.148	
 -0.102	
 -0.046	
  0.005	
  0.015	
  0.046	
  0.046	
  0.015	
 -0.015	
 -0.015	
 -0.026	
  0.015	
  0.046	
 -0.082	
 -0.102	
  0.281	
  1.081	
  1.811	
  1.637	
  0.847	
  0.077	
 -0.413	
 -0.622	
 -0.796	
 -0.954	
 -0.719	
 -0.439	
 -0.301	
 -0.199	
 -0.179	
 -0.143	
 -0.102	
 -0.082	
 -0.041	
 -0.005	
 -0.010	
 -0.015	
  0.015	
  0.036	
  0.097	
  0.133	
  0.168	
  0.224	
  0.291	
  0.342	
  0.428	
  0.479	
  0.530	
  0.479	
  0.393	
  0.286	
  0.214	
  0.102	
  0.026	
 -0.036	
 -0.102	
 -0.153	
 -0.122	
 -0.143	
 -0.138	
 -0.148	
 -0.148	
 -0.143	
 -0.128	
 -0.133	
 -0.107	
 -0.077	
 -0.041	
 -0.005	
 -0.209	
 -0.224	
  0.163	
  1.148	
  1.953	
  1.933	
  0.989	
  0.184	
 -0.133	
 -0.184	
 -0.184	
 -0.189	
 -0.260	
 -0.260	
 -0.260	
 -0.260	
 -0.260	
 -0.214	
 -0.230	
 -0.250	
 -0.245	
 -0.219	
 -0.209	
 -0.173	
 -0.173	
 -0.143	
 -0.143	
 -0.158	
 -0.173	
 -0.148	
 -0.143	
 -0.107	
 -0.077	
 -0.046	
 -0.046	
 -0.015	
 -0.077	
 -0.117	
 -0.138	
 -0.153	
 -0.133	
 -0.117	
 -0.138	
 -0.148	
 -0.143	
 -0.143	
 -0.107	
 -0.128	
 -0.117	
 -0.102	
 -0.066	
 -0.071	
 -0.031	
 -0.240	
 -0.117	
  0.459	
  1.367	
  2.101	
  2.004	
  1.102	
  0.240	
 -0.015	
 -0.031	
 -0.128	
 -0.173	
 -0.235	
 -0.265	
 -0.291	
 -0.301	
 -0.311	
 -0.296	
 -0.326	
 -0.311	
 -0.326	
 -0.326	
 -0.347	
 -0.321	
 -0.316	
 -0.255	
 -0.214	
 -0.209	
 -0.189	
 -0.117	
 -0.087	
  0.000	
  0.066	
  0.097	
  0.117	
  0.128	
  0.066	
  0.020	
 -0.041	
 -0.107	
 -0.128	
 -0.117	
 -0.158	
 -0.163	
 -0.179	
 -0.128	
 -0.265	
 -0.439	
 -0.051	
  0.882	
  1.800	
  2.173	
  1.341	
  0.485	
  0.005	
 -0.102	
 -0.112	
 -0.148	
 -0.158	
 -0.194	
 -0.189	
 -0.224	
 -0.240	
 -0.270	
 -0.260	
 -0.265	
 -0.270	
 -0.240	
 -0.224	
 -0.230	
 -0.199	
 -0.214	
 -0.209	
 -0.214	
 -0.158	
 -0.112	
 -0.020	
  0.036	
  0.102	
  0.133	
  0.128	
  0.102	
  0.051	
 -0.015	
 -0.051	
 -0.087	
 -0.117	
 -0.097	
 -0.107	
 -0.128	
 -0.117	
 -0.056	
 -0.224	
 -0.326	
  0.148	
  1.086	
  1.902	
  2.122	
  1.316	
  0.541	
  0.087	
  0.000	
 -0.056	
 -0.122	
 -0.163	
 -0.158	
 -0.199	
 -0.240	
 -0.260	
 -0.265	
 -0.270	
 -0.270	
 -0.270	
 -0.245	
 -0.255	
 -0.260	
 -0.224	
 -0.224	
 -0.245	
 -0.230	
 -0.184	
 -0.153	
 -0.051	
  0.005	
  0.061	
  0.082	
  0.102	
  0.077	
  0.046	
  0.000	
 -0.071	
 -0.097	
 -0.122	
 -0.117	
 -0.097	
 -0.097	
 -0.041	
 -0.189	
 -0.316	
  0.077	
  1.107	
  2.004	
  2.157	
  1.403	
  0.520	
  0.138	
  0.026	
 -0.082	
 -0.153	
 -0.204	
 -0.204	
 -0.173	
 -0.173	
 -0.189	
 -0.230	
 -0.265	
 -0.245	
 -0.255	
 -0.281	
 -0.281	
 -0.286	
 -0.260	
 -0.250	
 -0.270	
 -0.255	
 -0.214	
 -0.179	
 -0.097	
 -0.031	
  0.046	
  0.066	
  0.092	
  0.112	
  0.087	
  0.031	
  0.010	
  0.010	
 -0.026	
 -0.066	
 -0.092	
 -0.087	
 -0.082	
 -0.107	
 -0.097	
 -0.107	
 -0.112	
 -0.128	
 -0.122	
 -0.148	
 -0.148	
 -0.179	
 -0.087	
 -0.066	
 -0.071	
 -0.092	
 -0.092	
 -0.087	
 -0.056	
 -0.010	
  0.000	
  0.031	
 -0.316	
 -0.398	
  0.066	
  1.132	
  2.076	
  2.055	
  1.010	
  0.265	
 -0.107	
 -0.240	
 -0.255	
 -0.306	
 -0.326	
 -0.316	
 -0.316	
 -0.316	
 -0.250	
 -0.209	
 -0.219	
 -0.219	
 -0.184	
 -0.173	
 -0.153	
 -0.184	
 -0.173	
 -0.158	
 -0.138	
 -0.153	
 -0.153	
 -0.163	
 -0.153	
 -0.153	
 -0.102	
 -0.061	
 -0.026	
 -0.026	
 -0.041	
 -0.051	
 -0.102	
 -0.138	
 -0.158	
 -0.194	
 -0.184	
 -0.138	
 -0.112	
 -0.102	
 -0.031	
  0.015	
  0.020	
 -0.010	
 -0.005	
  0.041	
  0.031	
 -0.148	
  0.061	
  0.857	
  1.816	
  2.300	
  1.923	
  0.882	
  0.209	
  0.082	
 -0.082	
 -0.209	
 -0.204	
 -0.194	
 -0.199	
 -0.230	
 -0.245	
 -0.275	
 -0.265	
 -0.260	
 -0.265	
 -0.219	
 -0.204	
 -0.199	
 -0.235	
 -0.219	
 -0.204	
 -0.204	
 -0.194	
 -0.173	
 -0.143	
 -0.082	
 -0.041	
 -0.010	
 -0.010	
 -0.015	
 -0.051	
 -0.077	
 -0.148	
 -0.184	
 -0.209	
 -0.163	
 -0.143	
 -0.092	
 -0.082	
 -0.082	
 -0.077	
 -0.112	
 -0.158	
 -0.122	
 -0.092	
 -0.097	
 -0.097	
 -0.087	
 -0.066	
 -0.224	
 -0.240	
  0.240	
  1.301	
  2.045	
  2.066	
  1.204	
  0.388	
 -0.077	
 -0.179	
 -0.240	
 -0.291	
 -0.260	
 -0.194	
 -0.204	
 -0.163	
 -0.163	
 -0.158	
 -0.230	
 -0.199	
 -0.199	
 -0.209	
 -0.224	
 -0.214	
 -0.214	
 -0.189	
 -0.194	
 -0.184	
 -0.173	
 -0.153	
 -0.138	
 -0.071	
 -0.010	
  0.000	
  0.000	
 -0.020	
 -0.056	
 -0.082	
 -0.112	
 -0.173	
 -0.194	
 -0.117	
 -0.031	
 -0.031	
  0.010	
  0.005	
  0.046	
 -0.133	
 -0.184	
  0.255	
  1.127	
  1.969	
  2.173	
  1.428	
  0.587	
  0.194	
  0.056	
 -0.097	
 -0.173	
 -0.214	
 -0.245	
 -0.275	
 -0.255	
 -0.270	
 -0.275	
 -0.275	
 -0.260	
 -0.265	
 -0.235	
 -0.250	
 -0.255	
 -0.255	
 -0.255	
 -0.255	
 -0.260	
 -0.265	
 -0.230	
 -0.133	
 -0.066	
 -0.015	
  0.005	
  0.026	
 -0.015	
 -0.031	
 -0.056	
 -0.071	
 -0.097	
 -0.056	
 -0.041	
  0.000	
 -0.097	
 -0.398	
 -0.015	
  0.898	
  1.811	
  2.168	
  1.433	
  0.668	
  0.153	
  0.020	
 -0.071	
 -0.179	
 -0.250	
 -0.270	
 -0.291	
 -0.296	
 -0.286	
 -0.326	
 -0.316	
 -0.301	
 -0.245	
 -0.219	
 -0.179	
 -0.179	
 -0.163	
 -0.168	
 -0.173	
 -0.168	
 -0.138	
 -0.112	
 -0.046	
  0.020	
  0.051	
  0.051	
  0.026	
 -0.031	
 -0.041	
 -0.056	
 -0.087	
 -0.122	
 -0.133	
 -0.153	
 -0.168	
 -0.173	
 -0.179	
 -0.204	
 -0.102	
 -0.036	
 -0.010	
 -0.005	
 -0.010	
 -0.036	
 -0.066	
 -0.082	
 -0.117	
 -0.184	
 -0.214	
 -0.209	
 -0.189	
 -0.189	
 -0.189	
 -0.194	
 -0.204	
 -0.173	
 -0.245	
 -0.474	
 -0.612	
  0.179	
  1.341	
  2.157	
  1.826	
  0.857	
  0.189	
 -0.010	
 -0.020	
 -0.056	
 -0.128	
 -0.189	
 -0.235	
 -0.224	
 -0.235	
 -0.265	
 -0.286	
 -0.286	
 -0.321	
 -0.347	
 -0.342	
 -0.362	
 -0.377	
 -0.352	
 -0.281	
 -0.255	
 -0.214	
 -0.204	
 -0.163	
 -0.122	
 -0.077	
  0.010	
  0.077	
  0.117	
  0.143	
  0.082	
  0.026	
 -0.010	
 -0.046	
 -0.082	
 -0.092	
 -0.128	
 -0.138	
 -0.153	
 -0.168	
 -0.184	
 -0.158	
 -0.168	
 -0.138	
 -0.087	
 -0.077	
 -0.041	
 -0.036	
 -0.066	
 -0.092	
 -0.097	
 -0.117	
 -0.097	
 -0.087	
 -0.031	
 -0.010	
 -0.250	
 -0.230	
  0.326	
  1.163	
  2.004	
  1.831	
  0.913	
  0.265	
 -0.051	
 -0.102	
 -0.133	
 -0.138	
 -0.163	
 -0.153	
 -0.173	
 -0.163	
 -0.148	
 -0.158	
 -0.128	
 -0.117	
 -0.143	
 -0.143	
 -0.128	
 -0.163	
 -0.143	
 -0.158	
 -0.133	
 -0.112	
 -0.138	
 -0.143	
 -0.087	
 -0.071	
 -0.026	
 -0.005	
 -0.026	
 -0.041	
 -0.041	
 -0.051	
 -0.071	
 -0.061	
 -0.071	
 -0.046	
 -0.046	
 -0.031	
 -0.031	
 -0.020	
 -0.020	
  0.000	
 -0.020	
 -0.031	
 -0.041	
 -0.056	
 -0.066	
 -0.107	
 -0.133	
 -0.138	
 -0.168	
 -0.189	
 -0.179	
 -0.163	
 -0.158	
 -0.163	
 -0.153	
 -0.168	
 -0.122	
 -0.122	
 -0.128	
 -0.128	
 -0.077	
 -0.036	
  0.036	
 -0.168	
 -0.332	
 -0.189	
  0.928	
  1.907	
  2.096	
  1.224	
  0.352	
 -0.036	
 -0.128	
 -0.153	
 -0.179	
 -0.240	
 -0.250	
 -0.265	
 -0.260	
 -0.270	
 -0.230	
 -0.214	
 -0.184	
 -0.163	
 -0.148	
 -0.128	
 -0.133	
 -0.117	
 -0.036	
 -0.046	
 -0.031	
 -0.036	
 -0.051	
 -0.046	
  0.000	
  0.026	
  0.031	
  0.041	
  0.036	
  0.005	
 -0.020	
 -0.066	
 -0.102	
 -0.097	
 -0.122	
 -0.128	
 -0.117	
 -0.097	
 -0.117	
 -0.097	
 -0.102	
 -0.031	
  0.000	
  0.005	
  0.020	
  0.071	
 -0.122	
 -0.056	
  0.469	
  1.301	
  2.040	
  1.749	
  0.933	
  0.291	
  0.056	
 -0.026	
 -0.077	
 -0.117	
 -0.148	
 -0.194	
 -0.250	
 -0.291	
 -0.281	
 -0.306	
 -0.245	
 -0.173	
 -0.153	
 -0.189	
 -0.153	
 -0.148	
 -0.133	
 -0.122	
 -0.092	
 -0.066	
 -0.036	
 -0.036	
  0.036	
  0.092	
  0.148	
  0.138	
  0.107	
  0.077	
  0.061	
  0.026	
 -0.051	
 -0.066	
 -0.102	
 -0.138	
 -0.143	
 -0.168	
 -0.143	
 -0.087	
 -0.077	
 -0.046	
 -0.036	
 -0.051	
 -0.041	
 -0.031	
 -0.066	
 -0.133	
 -0.158	
 -0.163	
 -0.148	
 -0.153	
 -0.143	
 -0.153	
 -0.158	
 -0.168	
 -0.133	
 -0.163	
 -0.189	
 -0.184	
 -0.122	
 -0.102	
 -0.071	
 -0.087	
 -0.066	
 -0.046	
 -0.061	
 -0.102	
 -0.061	
 -0.219	
 -0.418	
 -0.245	
  0.745	
  1.760	
  2.152	
  1.316	
  0.362	
 -0.092	
 -0.219	
 -0.179	
 -0.235	
 -0.235	
 -0.281	
 -0.326	
 -0.270	
 -0.194	
 -0.194	
 -0.179	
 -0.173	
 -0.199	
 -0.179	
 -0.168	
 -0.168	
 -0.179	
 -0.148	
 -0.168	
 -0.133	
 -0.128	
 -0.102	
 -0.092	
 -0.082	
 -0.041	
  0.015	
  0.046	
  0.046	
  0.036	
 -0.010	
 -0.051	
 -0.143	
 -0.168	
 -0.122	
 -0.066	
 -0.082	
 -0.056	
 -0.087	
 -0.077	
 -0.071	
 -0.082	
 -0.092	
 -0.071	
 -0.087	
 -0.082	
 -0.082	
 -0.097	
 -0.077	
 -0.097	
 -0.122	
 -0.168	
 -0.184	
 -0.204	
 -0.189	
 -0.219	
 -0.214	
 -0.163	
 -0.143	
 -0.102	
 -0.087	
 -0.061	
 -0.066	
 -0.092	
 -0.128	
 -0.102	
 -0.117	
 -0.133	
 -0.143	
 -0.163	
 -0.082	
 -0.153	
 -0.434	
 -0.571	
  0.260	
  1.469	
  2.142	
  1.617	
  0.638	
  0.061	
 -0.107	
 -0.107	
 -0.097	
 -0.143	
 -0.158	
 -0.163	
 -0.173	
 -0.158	
 -0.189	
 -0.189	
 -0.214	
 -0.219	
 -0.214	
 -0.224	
 -0.214	
 -0.199	
 -0.143	
 -0.179	
 -0.148	
 -0.112	
 -0.077	
 -0.051	
 -0.036	
  0.000	
  0.036	
  0.056	
  0.026	
  0.015	
 -0.010	
 -0.026	
 -0.066	
 -0.092	
 -0.122	
 -0.143	
 -0.133	
 -0.117	
 -0.092	
 -0.122	
 -0.122	
 -0.143	
 -0.128	
 -0.097	
 -0.128	
 -0.245	
  0.031	
  0.734	
  1.530	
  1.872	
  1.285	
  0.581	
  0.133	
  0.056	
 -0.066	
 -0.117	
 -0.143	
 -0.158	
 -0.143	
 -0.143	
 -0.148	
 -0.173	
 -0.194	
 -0.173	
 -0.143	
 -0.168	
 -0.179	
 -0.184	
 -0.209	
 -0.199	
 -0.194	
 -0.168	
 -0.143	
 -0.107	
 -0.056	
  0.000	
  0.056	
  0.122	
  0.163	
  0.179	
  0.204	
  0.122	
  0.066	
  0.020	
 -0.031	
 -0.051	
 -0.066	
 -0.097	
 -0.117	
 -0.143	
 -0.168	
 -0.153	
 -0.184	
 -0.199	
 -0.204	
 -0.219	
 -0.179	
 -0.138	
 -0.102	
 -0.041	
 -0.235	
 -0.219	
  0.459	
  1.377	
  2.122	
  2.015	
  1.061	
  0.321	
 -0.041	
 -0.133	
 -0.163	
 -0.184	
 -0.219	
 -0.219	
 -0.250	
 -0.235	
 -0.219	
 -0.214	
 -0.194	
 -0.153	
 -0.179	
 -0.173	
 -0.163	
 -0.189	
 -0.199	
 -0.179	
 -0.143	
 -0.097	
 -0.036	
 -0.026	
  0.041	
  0.092	
  0.122	
  0.112	
  0.102	
  0.041	
  0.020	
 -0.051	
 -0.061	
 -0.061	
 -0.077	
 -0.082	
 -0.071	
 -0.117	
 -0.112	
 -0.117	
 -0.102	
 -0.066	
 -0.051	
 -0.082	
 -0.097	
 -0.122	
 -0.143	
 -0.158	
 -0.163	
 -0.168	
 -0.179	
 -0.179	
 -0.189	
 -0.163	
 -0.173	
 -0.153	
 -0.122	
 -0.122	
 -0.138	
 -0.122	
 -0.102	
 -0.082	
 -0.087	
 -0.097	
 -0.112	
 -0.112	
 -0.112	
 -0.122	
 -0.138	
 -0.117	
 -0.148	
 -0.153	
 -0.163	
 -0.168	
 -0.179	
 -0.184	
 -0.163	
 -0.117	
 -0.122	
 -0.117	
 -0.112	
 -0.071	
 -0.265	
 -0.352	
 -0.102	
  1.010	
  1.994	
  1.928	
  1.000	
  0.291	
 -0.015	
 -0.046	
 -0.061	
 -0.122	
 -0.148	
 -0.158	
 -0.204	
 -0.224	
 -0.255	
 -0.281	
 -0.306	
 -0.255	
 -0.260	
 -0.245	
 -0.255	
 -0.260	
 -0.260	
 -0.224	
 -0.214	
 -0.173	
 -0.117	
 -0.051	
  0.015	
  0.092	
  0.143	
  0.184	
  0.189	
  0.153	
  0.107	
  0.087	
  0.031	
 -0.041	
 -0.097	
 -0.143	
 -0.184	
 -0.173	
 -0.209	
 -0.184	
 -0.194	
 -0.153	
 -0.122	
 -0.097	
 -0.092	
 -0.077	
 -0.082	
 -0.071	
 -0.082	
 -0.056	
 -0.051	
 -0.031	
 -0.046	
 -0.046	
 -0.056	
 -0.082	
 -0.112	
 -0.138	
 -0.138	
 -0.153	
 -0.153	
 -0.148	
 -0.168	
 -0.163	
 -0.194	
 -0.240	
 -0.219	
 -0.148	
 -0.138	
 -0.128	
 -0.122	
 -0.117	
 -0.102	
 -0.061	
 -0.077	
 -0.097	
 -0.097	
 -0.087	
 -0.082	
 -0.097	
 -0.082	
 -0.071	
 -0.092	
 -0.122	
 -0.071	
 -0.321	
 -0.485	
 -0.102	
  0.933	
  1.928	
  1.882	
  0.862	
  0.199	
 -0.071	
 -0.092	
 -0.077	
 -0.087	
 -0.138	
 -0.163	
 -0.194	
 -0.194	
 -0.194	
 -0.179	
 -0.204	
 -0.199	
 -0.214	
 -0.179	
 -0.153	
 -0.117	
 -0.133	
 -0.153	
 -0.168	
 -0.163	
 -0.168	
 -0.117	
 -0.087	
 -0.046	
  0.020	
  0.071	
  0.066	
  0.097	
  0.056	
  0.010	
 -0.046	
 -0.056	
 -0.112	
 -0.066	
 -0.066	
 -0.056	
 -0.092	
 -0.097	
 -0.102	
 -0.061	
 -0.051	
 -0.026	
 -0.051	
 -0.087	
 -0.092	
 -0.092	
 -0.153	
 -0.138	
 -0.148	
 -0.143	
 -0.107	
 -0.332	
 -0.342	
  0.143	
  1.102	
  1.999	
  1.683	
  0.862	
  0.230	
 -0.071	
 -0.143	
 -0.189	
 -0.087	
 -0.077	
 -0.107	
 -0.122	
 -0.133	
 -0.168	
 -0.148	
 -0.158	
 -0.179	
 -0.189	
 -0.179	
 -0.184	
 -0.153	
 -0.148	
 -0.138	
 -0.112	
 -0.092	
 -0.056	
  0.031	
  0.061	
  0.122	
  0.189	
  0.214	
  0.209	
  0.179	
  0.066	
  0.015	
  0.031	
  0.000	
 -0.046	
 -0.077	
 -0.092	
 -0.128	
 -0.122	
 -0.143	
 -0.128	
 -0.148	
 -0.148	
 -0.163	
 -0.153	
 -0.173	
 -0.148	
 -0.153	
 -0.158	
 -0.173	
 -0.173	
 -0.148	
 -0.087	
 -0.005	
 -0.173	
 -0.321	
  0.087	
  1.061	
  1.953	
  2.147	
  1.275	
  0.495	
  0.015	
 -0.041	
 -0.077	
 -0.128	
 -0.163	
 -0.184	
 -0.194	
 -0.189	
 -0.194	
 -0.199	
 -0.184	
 -0.209	
 -0.194	
 -0.179	
 -0.179	
 -0.173	
 -0.163	
 -0.138	
 -0.031	
  0.000	
 -0.005	
  0.015	
  0.051	
  0.092	
  0.133	
  0.148	
  0.128	
  0.102	
  0.036	
  0.020	
 -0.036	
 -0.082	
 -0.117	
 -0.122	
 -0.168	
 -0.138	
 -0.148	
 -0.148	
 -0.148	
 -0.158	
 -0.148	
 -0.077	
 -0.071	
 -0.066	
 -0.051	
 -0.020	
 -0.122	
 -0.224	
 -0.020	
  0.821	
  1.719	
  2.035	
  1.428	
  0.602	
  0.071	
  0.005	
 -0.071	
 -0.122	
 -0.204	
 -0.224	
 -0.240	
 -0.250	
 -0.255	
 -0.250	
 -0.260	
 -0.240	
 -0.224	
 -0.245	
 -0.224	
 -0.189	
 -0.117	
 -0.056	
 -0.031	
 -0.020	
  0.010	
  0.010	
  0.010	
  0.031	
  0.082	
  0.077	
  0.087	
  0.077	
  0.026	
 -0.046	
 -0.071	
 -0.128	
 -0.143	
 -0.153	
 -0.148	
 -0.168	
 -0.138	
 -0.163	
 -0.168	
 -0.168	
 -0.153	
 -0.051	
  0.031	
  0.031	
  0.056	
 -0.112	
 -0.398	
 -0.071	
  0.949	
  1.928	
  2.275	
  1.311	
  0.423	
 -0.015	
 -0.112	
 -0.143	
 -0.199	
 -0.235	
 -0.265	
 -0.296	
 -0.337	
 -0.260	
 -0.209	
 -0.204	
 -0.179	
 -0.224	
 -0.235	
 -0.224	
 -0.199	
 -0.209	
 -0.184	
 -0.148	
 -0.128	
 -0.128	
 -0.066	
 -0.046	
  0.015	
  0.051	
  0.051	
  0.031	
  0.020	
 -0.036	
 -0.077	
 -0.117	
 -0.158	
 -0.173	
 -0.112	
 -0.077	
 -0.077	
 -0.036	
 -0.168	
 -0.224	
  0.184	
  1.076	
  1.887	
  2.004	
  1.275	
  0.485	
  0.107	
  0.036	
 -0.077	
 -0.143	
 -0.209	
 -0.255	
 -0.316	
 -0.321	
 -0.372	
 -0.383	
 -0.347	
 -0.316	
 -0.337	
 -0.291	
 -0.245	
 -0.209	
 -0.168	
 -0.153	
 -0.143	
 -0.122	
 -0.061	
 -0.041	
  0.020	
  0.061	
  0.138	
  0.168	
  0.199	
  0.158	
  0.117	
  0.046	
 -0.015	
 -0.128	
 -0.173	
 -0.219	
 -0.245	
 -0.260	
 -0.265	
 -0.281	
 -0.291	
 -0.265	
 -0.199	
 -0.163	
 -0.148	
 -0.153	
 -0.148	
 -0.117	
 -0.107	
 -0.102	
 -0.087	
 -0.077	
 -0.087	
 -0.056	
 -0.015	
  0.056	
 -0.311	
 -0.449	
 -0.061	
  1.000	
  1.989	
  2.101	
  1.122	
  0.306	
 -0.122	
 -0.240	
 -0.245	
 -0.250	
 -0.296	
 -0.321	
 -0.326	
 -0.270	
 -0.230	
 -0.224	
 -0.260	
 -0.270	
 -0.286	
 -0.255	
 -0.286	
 -0.286	
 -0.291	
 -0.275	
 -0.250	
 -0.235	
 -0.235	
 -0.209	
 -0.168	
 -0.107	
 -0.056	
  0.005	
  0.020	
  0.005	
 -0.010	
 -0.031	
 -0.092	
 -0.082	
 -0.117	
 -0.102	
 -0.122	
 -0.117	
 -0.122	
 -0.122	
 -0.128	
 -0.122	
 -0.153	
 -0.173	
 -0.194	
 -0.158	
 -0.148	
 -0.128	
 -0.133	
 -0.128	
 -0.133	
 -0.122	
 -0.122	
 -0.102	
 -0.143	
 -0.337	
 -0.158	
  0.632	
  1.637	
  2.270	
  1.836	
  0.898	
  0.219	
  0.000	
 -0.036	
 -0.087	
 -0.143	
 -0.209	
 -0.204	
 -0.230	
 -0.240	
 -0.255	
 -0.265	
 -0.275	
 -0.245	
 -0.250	
 -0.245	
 -0.214	
 -0.184	
 -0.173	
 -0.158	
 -0.133	
 -0.117	
 -0.082	
 -0.056	
  0.020	
  0.097	
  0.199	
  0.214	
  0.179	
  0.138	
  0.128	
  0.036	
 -0.066	
 -0.097	
 -0.158	
 -0.204	
 -0.250	
 -0.235	
 -0.224	
 -0.219	
 -0.194	
 -0.168	
 -0.184	
 -0.168	
 -0.163	
 -0.168	
 -0.133	
 -0.158	
 -0.138	
 -0.112	
 -0.107	
 -0.087	
 -0.092	
 -0.112	
 -0.133	
 -0.133	
 -0.128	
 -0.112	
 -0.117	
 -0.143	
 -0.158	
 -0.158	
 -0.133	
 -0.133	
 -0.153	
 -0.168	
 -0.189	
 -0.173	
 -0.163	
 -0.158	
 -0.107	
 -0.270	
 -0.454	
 -0.301	
  0.734	
  1.805	
  2.157	
  1.418	
  0.474	
 -0.036	
 -0.117	
 -0.092	
 -0.128	
 -0.158	
 -0.173	
 -0.184	
 -0.214	
 -0.245	
 -0.219	
 -0.255	
 -0.265	
 -0.270	
 -0.281	
 -0.219	
 -0.204	
 -0.189	
 -0.179	
 -0.184	
 -0.173	
 -0.153	
 -0.112	
 -0.056	
  0.005	
  0.036	
  0.077	
  0.102	
  0.102	
  0.077	
  0.066	
  0.056	
  0.005	
 -0.036	
 -0.066	
 -0.087	
 -0.092	
 -0.112	
 -0.138	
 -0.138	
 -0.163	
 -0.153	
 -0.097	
 -0.087	
 -0.066	
 -0.061	
 -0.071	
 -0.066	
 -0.087	
 -0.097	
 -0.107	
 -0.107	
 -0.128	
 -0.107	
 -0.112	
 -0.061	
 -0.224	
 -0.245	
  0.224	
  1.117	
  1.928	
  1.943	
  1.107	
  0.362	
  0.056	
 -0.020	
 -0.071	
 -0.112	
 -0.158	
 -0.194	
 -0.179	
 -0.194	
 -0.199	
 -0.199	
 -0.204	
 -0.194	
 -0.209	
 -0.209	
 -0.204	
 -0.158	
 -0.128	
 -0.082	
 -0.061	
 -0.031	
 -0.005	
  0.010	
  0.051	
  0.082	
  0.107	
  0.122	
  0.112	
  0.082	
  0.056	
 -0.005	
 -0.061	
 -0.107	
 -0.128	
 -0.158	
 -0.148	
 -0.163	
 -0.143	
 -0.122	
 -0.071	
 -0.051	
 -0.051	
 -0.066	
 -0.071	
 -0.082	
 -0.082	
 -0.066	
 -0.097	
 -0.143	
 -0.143	
 -0.153	
 -0.179	
 -0.148	
 -0.163	
 -0.184	
 -0.194	
 -0.184	
 -0.214	
 -0.184	
 -0.133	
 -0.082	
 -0.066	
 -0.061	
 -0.071	
 -0.051	
 -0.071	
 -0.061	
 -0.071	
 -0.082	
 -0.102	
 -0.102	
 -0.128	
 -0.143	
 -0.133	
 -0.143	
 -0.133	
 -0.148	
 -0.143	
 -0.148	
 -0.138	
 -0.138	
 -0.117	
 -0.128	
 -0.107	
 -0.107	
 -0.122	
 -0.133	
 -0.107	
 -0.112	
 -0.112	
 -0.128	
 -0.092	
 -0.092	
 -0.092	
 -0.102	
 -0.296	
 -0.403	
 -0.056	
  1.015	
  1.958	
  1.831	
  0.959	
  0.173	
 -0.112	
 -0.117	
 -0.117	
 -0.168	
 -0.199	
 -0.209	
 -0.224	
 -0.230	
 -0.224	
 -0.235	
 -0.240	
 -0.235	
 -0.230	
 -0.194	
 -0.173	
 -0.204	
 -0.219	
 -0.189	
 -0.189	
 -0.148	
 -0.128	
 -0.077	
 -0.020	
  0.026	
  0.031	
  0.051	
  0.046	
  0.051	
  0.026	
  0.010	
 -0.015	
 -0.026	
 -0.061	
 -0.071	
 -0.082	
 -0.092	
 -0.087	
 -0.087	
 -0.122	
 -0.122	
 -0.107	
 -0.097	
 -0.087	
 -0.056	
 -0.041	
 -0.051	
 -0.056	
 -0.087	
 -0.041	
 -0.077	
 -0.311	
 -0.224	
  0.418	
  1.372	
  1.994	
  1.448	
  0.638	
  0.061	
 -0.112	
 -0.138	
 -0.133	
 -0.163	
 -0.194	
 -0.189	
 -0.173	
 -0.128	
 -0.077	
 -0.112	
 -0.128	
 -0.128	
 -0.168	
 -0.173	
 -0.173	
 -0.199	
 -0.209	
 -0.199	
 -0.199	
 -0.158	
 -0.128	
 -0.102	
 -0.071	
  0.000	
  0.036	
  0.082	
  0.097	
  0.082	
  0.061	
  0.010	
  0.020	
  0.036	
  0.020	
 -0.020	
 -0.056	
 -0.066	
 -0.087	
 -0.097	
 -0.128	
 -0.102	
 -0.133	
 -0.418	
 -0.469	
  0.286	
  1.448	
  2.132	
  1.760	
  0.857	
  0.107	
 -0.031	
 -0.036	
 -0.066	
 -0.071	
 -0.122	
 -0.138	
 -0.122	
 -0.128	
 -0.173	
 -0.209	
 -0.235	
 -0.265	
 -0.291	
 -0.291	
 -0.281	
 -0.306	
 -0.275	
 -0.265	
 -0.235	
 -0.194	
 -0.133	
 -0.041	
  0.061	
  0.128	
  0.189	
  0.204	
  0.163	
  0.148	
  0.112	
  0.077	
  0.031	
 -0.041	
 -0.097	
 -0.102	
 -0.158	
 -0.173	
 -0.194	
 -0.194	
 -0.189	
 -0.168	
 -0.230	
 -0.546	
 -0.592	
  0.316	
  1.489	
  2.244	
  1.846	
  0.903	
  0.184	
  0.046	
  0.020	
 -0.031	
 -0.087	
 -0.148	
 -0.189	
 -0.214	
 -0.291	
 -0.316	
 -0.347	
 -0.362	
 -0.347	
 -0.352	
 -0.342	
 -0.321	
 -0.301	
 -0.286	
 -0.219	
 -0.224	
 -0.133	
 -0.051	
 -0.015	
  0.066	
  0.133	
  0.184	
  0.184	
  0.158	
  0.087	
  0.036	
 -0.056	
 -0.122	
 -0.153	
 -0.199	
 -0.199	
 -0.209	
 -0.219	
 -0.219	
 -0.214	
 -0.224	
 -0.209	
 -0.163	
 -0.143	
 -0.347	
 -0.097	
  0.668	
  1.576	
  2.321	
  1.841	
  0.898	
  0.184	
 -0.015	
  0.000	
 -0.071	
 -0.143	
 -0.209	
 -0.209	
 -0.230	
 -0.260	
 -0.301	
 -0.306	
 -0.347	
 -0.286	
 -0.255	
 -0.255	
 -0.255	
 -0.230	
 -0.219	
 -0.204	
 -0.194	
 -0.168	
 -0.153	
 -0.117	
 -0.077	
 -0.010	
  0.031	
  0.031	
  0.020	
  0.005	
 -0.015	
 -0.061	
 -0.148	
 -0.138	
 -0.122	
 -0.158	
 -0.097	
 -0.066	
 -0.092	
 -0.107	
 -0.112	
 -0.133	
 -0.138	
 -0.061	
 -0.133	
 -0.342	
 -0.168	
  0.770	
  1.790	
  2.341	
  1.867	
  0.857	
  0.133	
 -0.056	
 -0.087	
 -0.112	
 -0.153	
 -0.168	
 -0.189	
 -0.214	
 -0.240	
 -0.219	
 -0.260	
 -0.265	
 -0.301	
 -0.306	
 -0.326	
 -0.316	
 -0.311	
 -0.311	
 -0.306	
 -0.281	
 -0.240	
 -0.163	
 -0.143	
 -0.082	
  0.000	
  0.097	
  0.107	
  0.143	
  0.087	
  0.051	
  0.000	
 -0.046	
 -0.097	
 -0.077	
 -0.122	
 -0.138	
 -0.117	
 -0.163	
 -0.367	
 -0.036	
  0.775	
  1.683	
  2.270	
  1.520	
  0.683	
  0.194	
  0.071	
 -0.036	
 -0.087	
 -0.117	
 -0.148	
 -0.133	
 -0.153	
 -0.173	
 -0.184	
 -0.204	
 -0.250	
 -0.260	
 -0.296	
 -0.337	
 -0.337	
 -0.326	
 -0.286	
 -0.235	
 -0.189	
 -0.138	
 -0.092	
 -0.061	
 -0.010	
  0.051	
  0.102	
  0.092	
  0.107	
  0.102	
  0.071	
  0.031	
  0.041	
 -0.005	
 -0.041	
 -0.107	
 -0.153	
 -0.153	
 -0.102	
 -0.102	
 -0.107	
 -0.133	
 -0.158	
 -0.173	
 -0.158	
 -0.153	
 -0.163	
 -0.173	
 -0.158	
 -0.153	
 -0.133	
 -0.117	
 -0.143	
 -0.117	
 -0.122	
 -0.117	
 -0.133	
 -0.153	
 -0.189	
 -0.189	
 -0.204	
 -0.071	
 -0.301	
 -0.449	
 -0.122	
  0.893	
  1.892	
  2.173	
  1.142	
  0.326	
 -0.051	
 -0.138	
 -0.102	
 -0.138	
 -0.168	
 -0.143	
 -0.122	
 -0.184	
 -0.240	
 -0.255	
 -0.250	
 -0.250	
 -0.250	
 -0.265	
 -0.270	
 -0.296	
 -0.316	
 -0.357	
 -0.240	
 -0.209	
 -0.214	
 -0.219	
 -0.179	
 -0.138	
 -0.061	
  0.020	
  0.082	
  0.092	
  0.087	
  0.051	
  0.051	
  0.031	
 -0.005	
 -0.020	
 -0.031	
 -0.056	
 -0.061	
 -0.071	
 -0.102	
 -0.143	
 -0.163	
 -0.138	
 -0.097	
 -0.061	
 -0.082	
 -0.092	
 -0.092	
 -0.102	
 -0.112	
 -0.082	
 -0.071	
 -0.015	
 -0.005	
 -0.015	
 -0.056	
 -0.056	
 -0.107	
 -0.128	
 -0.143	
 -0.143	
 -0.179	
 -0.163	
 -0.189	
 -0.153	
 -0.342	
 -0.434	
  0.041	
  1.132	
  2.030	
  1.933	
  0.923	
  0.230	
 -0.071	
 -0.097	
 -0.138	
 -0.179	
 -0.204	
 -0.209	
 -0.224	
 -0.179	
 -0.168	
 -0.153	
 -0.148	
 -0.148	
 -0.204	
 -0.209	
 -0.219	
 -0.173	
 -0.143	
 -0.128	
 -0.128	
 -0.087	
 -0.107	
 -0.092	
 -0.092	
 -0.046	
 -0.005	
  0.046	
  0.036	
  0.031	
  0.000	
 -0.051	
 -0.077	
 -0.082	
 -0.184	
 -0.163	
 -0.133	
 -0.143	
 -0.153	
 -0.061	
 -0.010	
 -0.158	
 -0.046	
  0.607	
  1.474	
  2.162	
  1.836	
  0.933	
  0.275	
  0.097	
 -0.005	
 -0.097	
 -0.153	
 -0.199	
 -0.224	
 -0.265	
 -0.250	
 -0.270	
 -0.321	
 -0.301	
 -0.245	
 -0.286	
 -0.245	
 -0.199	
 -0.138	
 -0.107	
 -0.102	
 -0.102	
 -0.082	
 -0.077	
 -0.036	
 -0.015	
  0.031	
  0.087	
  0.117	
  0.112	
  0.082	
  0.056	
 -0.020	
 -0.061	
 -0.117	
 -0.117	
 -0.128	
 -0.122	
 -0.128	
 -0.107	
 -0.117	
 -0.158	
 -0.377	
 -0.224	
  0.485	
  1.571	
  2.193	
  1.836	
  0.923	
  0.204	
 -0.046	
 -0.036	
 -0.097	
 -0.148	
 -0.173	
 -0.214	
 -0.286	
 -0.291	
 -0.255	
 -0.235	
 -0.255	
 -0.255	
 -0.255	
 -0.240	
 -0.245	
 -0.235	
 -0.240	
 -0.209	
 -0.138	
 -0.082	
 -0.061	
 -0.020	
  0.026	
  0.041	
  0.102	
  0.092	
  0.046	
  0.015	
 -0.020	
 -0.077	
 -0.087	
 -0.143	
 -0.143	
 -0.122	
 -0.046	
 -0.224	
 -0.464	
 -0.194	
  0.984	
  1.948	
  2.106	
  1.326	
  0.454	
  0.112	
  0.051	
 -0.066	
 -0.158	
 -0.235	
 -0.240	
 -0.275	
 -0.311	
 -0.342	
 -0.347	
 -0.352	
 -0.316	
 -0.291	
 -0.321	
 -0.306	
 -0.275	
 -0.270	
 -0.235	
 -0.204	
 -0.168	
 -0.117	
 -0.066	
  0.010	
  0.133	
  0.158	
  0.148	
  0.117	
  0.061	
 -0.005	
 -0.020	
 -0.061	
 -0.102	
 -0.128	
 -0.128	
 -0.128	
 -0.128	
 -0.179	
 -0.173	
 -0.158	
 -0.148	
 -0.158	
 -0.133	
 -0.143	
 -0.138	
 -0.168	
 -0.199	
 -0.163	
 -0.117	
 -0.138	
 -0.143	
 -0.158	
 -0.179	
 -0.179	
 -0.143	
 -0.122	
 -0.128	
 -0.153	
 -0.173	
 -0.158	
 -0.153	
 -0.138	
 -0.138	
 -0.163	
 -0.194	
 -0.153	
 -0.117	
 -0.092	
 -0.051	
 -0.255	
 -0.439	
 -0.056	
  0.974	
  1.953	
  2.111	
  1.076	
  0.255	
 -0.117	
 -0.199	
 -0.153	
 -0.194	
 -0.204	
 -0.189	
 -0.168	
 -0.199	
 -0.179	
 -0.173	
 -0.173	
 -0.163	
 -0.184	
 -0.214	
 -0.209	
 -0.219	
 -0.240	
 -0.214	
 -0.214	
 -0.209	
 -0.219	
 -0.189	
 -0.179	
 -0.138	
 -0.112	
 -0.036	
  0.010	
  0.046	
  0.051	
  0.061	
  0.036	
  0.000	
 -0.041	
 -0.077	
 -0.066	
 -0.102	
 -0.122	
 -0.122	
 -0.122	
 -0.163	
 -0.133	
 -0.117	
 -0.092	
 -0.097	
 -0.077	
 -0.061	
 -0.015	
  0.000	
 -0.026	
 -0.031	
 -0.056	
 -0.066	
 -0.082	
 -0.097	
 -0.133	
 -0.163	
 -0.204	
 -0.179	
 -0.133	
 -0.224	
 -0.413	
 -0.250	
  0.561	
  1.658	
  2.173	
  1.658	
  0.770	
  0.153	
 -0.036	
 -0.077	
 -0.112	
 -0.153	
 -0.163	
 -0.168	
 -0.168	
 -0.194	
 -0.209	
 -0.209	
 -0.250	
 -0.260	
 -0.245	
 -0.265	
 -0.235	
 -0.230	
 -0.250	
 -0.224	
 -0.138	
 -0.138	
 -0.122	
 -0.092	
 -0.071	
 -0.010	
  0.036	
  0.066	
  0.066	
  0.041	
 -0.010	
  0.000	
 -0.026	
 -0.046	
 -0.066	
 -0.071	
 -0.082	
 -0.097	
 -0.148	
 -0.138	
 -0.143	
 -0.163	
 -0.148	
 -0.133	
 -0.133	
 -0.133	
 -0.107	
 -0.112	
 -0.087	
 -0.097	
 -0.092	
 -0.275	
 -0.250	
  0.265	
  1.295	
  2.066	
  2.035	
  1.255	
  0.357	
  0.071	
  0.036	
 -0.046	
 -0.112	
 -0.138	
 -0.163	
 -0.168	
 -0.189	
 -0.199	
 -0.235	
 -0.255	
 -0.240	
 -0.214	
 -0.219	
 -0.199	
 -0.173	
 -0.163	
 -0.122	
 -0.153	
 -0.133	
 -0.107	
 -0.077	
 -0.015	
  0.061	
  0.097	
  0.112	
  0.097	
  0.056	
  0.026	
 -0.020	
 -0.071	
 -0.107	
 -0.122	
 -0.128	
 -0.168	
 -0.122	
 -0.117	
 -0.117	
 -0.117	
 -0.133	
 -0.128	
 -0.122	
 -0.102	
 -0.107	
 -0.020	
 -0.148	
 -0.301	
 -0.005	
  1.051	
  1.979	
  2.117	
  1.413	
  0.469	
  0.010	
 -0.077	
 -0.153	
 -0.209	
 -0.245	
 -0.245	
 -0.255	
 -0.240	
 -0.255	
 -0.255	
 -0.250	
 -0.265	
 -0.240	
 -0.240	
 -0.235	
 -0.209	
 -0.184	
 -0.168	
 -0.163	
 -0.168	
 -0.179	
 -0.133	
 -0.061	
  0.000	
  0.061	
  0.097	
  0.097	
  0.077	
  0.056	
 -0.015	
 -0.066	
 -0.092	
 -0.148	
 -0.158	
 -0.184	
 -0.209	
 -0.209	
 -0.194	
 -0.173	
 -0.173	
 -0.143	
 -0.128	
 -0.087	
 -0.281	
 -0.301	
  0.230	
  1.341	
  2.132	
  1.933	
  1.025	
  0.184	
 -0.010	
 -0.051	
 -0.138	
 -0.179	
 -0.209	
 -0.235	
 -0.275	
 -0.316	
 -0.332	
 -0.321	
 -0.321	
 -0.316	
 -0.296	
 -0.296	
 -0.255	
 -0.230	
 -0.199	
 -0.158	
 -0.128	
 -0.092	
 -0.056	
 -0.020	
  0.005	
  0.066	
  0.077	
  0.087	
  0.026	
 -0.005	
 -0.051	
 -0.092	
 -0.122	
 -0.138	
 -0.128	
 -0.117	
 -0.143	
 -0.163	
 -0.133	
 -0.133	
 -0.128	
 -0.107	
 -0.041	
 -0.342	
 -0.184	
  0.408	
  1.290	
  2.096	
  1.897	
  1.066	
  0.306	
  0.010	
 -0.031	
 -0.087	
 -0.158	
 -0.173	
 -0.199	
 -0.219	
 -0.235	
 -0.240	
 -0.265	
 -0.240	
 -0.245	
 -0.230	
 -0.270	
 -0.306	
 -0.326	
 -0.311	
 -0.291	
 -0.219	
 -0.179	
 -0.133	
 -0.087	
 -0.005	
  0.046	
  0.097	
  0.102	
  0.092	
  0.066	
  0.077	
  0.010	
 -0.051	
 -0.102	
 -0.148	
 -0.158	
 -0.138	
 -0.138	
 -0.112	
 -0.087	
 -0.092	
 -0.321	
 -0.342	
  0.184	
  1.290	
  2.071	
  1.902	
  0.989	
  0.184	
 -0.005	
 -0.056	
 -0.112	
 -0.148	
 -0.148	
 -0.158	
 -0.179	
 -0.204	
 -0.184	
 -0.204	
 -0.214	
 -0.230	
 -0.270	
 -0.281	
 -0.275	
 -0.281	
 -0.296	
 -0.250	
 -0.255	
 -0.240	
 -0.194	
 -0.148	
 -0.051	
  0.046	
  0.092	
  0.097	
  0.087	
  0.051	
  0.031	
 -0.010	
 -0.061	
 -0.082	
 -0.082	
 -0.092	
 -0.046	
 -0.204	
 -0.459	
 -0.107	
  0.770	
  1.668	
  2.030	
  1.290	
  0.490	
  0.061	
 -0.005	
 -0.097	
 -0.133	
 -0.163	
 -0.189	
 -0.209	
 -0.219	
 -0.240	
 -0.240	
 -0.240	
 -0.255	
 -0.260	
 -0.265	
 -0.291	
 -0.281	
 -0.296	
 -0.281	
 -0.250	
 -0.204	
 -0.194	
 -0.179	
 -0.087	
  0.000	
  0.031	
  0.046	
  0.026	
  0.020	
 -0.010	
 -0.041	
 -0.061	
 -0.082	
 -0.102	
 -0.097	
 -0.128	
 -0.138	
 -0.128	
 -0.117	
 -0.122	
 -0.128	
 -0.138	
 -0.148	
 -0.133	
 -0.163	
 -0.377	
 -0.306	
  0.413	
  1.397	
  2.076	
  1.719	
  0.826	
  0.158	
 -0.056	
 -0.071	
 -0.097	
 -0.158	
 -0.189	
 -0.158	
 -0.153	
 -0.168	
 -0.163	
 -0.184	
 -0.219	
 -0.219	
 -0.255	
 -0.281	
 -0.301	
 -0.321	
 -0.352	
 -0.332	
 -0.337	
 -0.321	
 -0.347	
 -0.291	
 -0.214	
 -0.122	
 -0.077	
 -0.010	
  0.036	
  0.056	
  0.056	
  0.036	
  0.005	
 -0.026	
 -0.056	
 -0.077	
 -0.092	
 -0.087	
 -0.107	
 -0.107	
 -0.122	
 -0.143	
 -0.153	
 -0.143	
 -0.163	
 -0.398	
 -0.250	
  0.383	
  1.311	
  2.162	
  2.045	
  1.025	
  0.209	
  0.031	
  0.031	
 -0.031	
 -0.066	
 -0.107	
 -0.143	
 -0.184	
 -0.189	
 -0.235	
 -0.245	
 -0.270	
 -0.260	
 -0.275	
 -0.275	
 -0.321	
 -0.296	
 -0.275	
 -0.265	
 -0.260	
 -0.214	
 -0.209	
 -0.153	
 -0.082	
 -0.026	
  0.041	
  0.097	
  0.071	
  0.056	
  0.000	
 -0.071	
 -0.112	
 -0.122	
 -0.148	
 -0.148	
 -0.148	
 -0.148	
 -0.128	
 -0.133	
 -0.117	
 -0.077	
 -0.230	
 -0.204	
  0.245	
  1.158	
  1.999	
  2.091	
  1.306	
  0.454	
  0.051	
 -0.026	
 -0.077	
 -0.148	
 -0.219	
 -0.224	
 -0.250	
 -0.255	
 -0.270	
 -0.270	
 -0.291	
 -0.301	
 -0.306	
 -0.296	
 -0.275	
 -0.265	
 -0.230	
 -0.214	
 -0.184	
 -0.168	
 -0.133	
 -0.092	
  0.000	
  0.041	
  0.087	
  0.102	
  0.071	
  0.087	
  0.066	
  0.031	
 -0.026	
 -0.031	
 -0.056	
 -0.061	
 -0.102	
 -0.041	
 -0.148	
 -0.347	
 -0.071	
  0.893	
  1.867	
  2.152	
  1.428	
  0.525	
  0.077	
 -0.020	
 -0.097	
 -0.173	
 -0.204	
 -0.219	
 -0.194	
 -0.204	
 -0.199	
 -0.189	
 -0.194	
 -0.189	
 -0.179	
 -0.204	
 -0.255	
 -0.250	
 -0.265	
 -0.224	
 -0.240	
 -0.240	
 -0.224	
 -0.184	
 -0.153	
 -0.087	
 -0.051	
 -0.010	
  0.015	
  0.051	
  0.026	
  0.000	
 -0.041	
 -0.036	
 -0.046	
 -0.051	
 -0.041	
 -0.031	
 -0.051	
 -0.066	
 -0.066	
 -0.061	
 -0.107	
 -0.128	
 -0.148	
 -0.158	
 -0.194	
 -0.204	
 -0.224	
 -0.219	
 -0.260	
 -0.265	
 -0.219	
 -0.194	
 -0.224	
 -0.204	
 -0.219	
 -0.209	
 -0.199	
 -0.148	
 -0.133	
 -0.092	
 -0.097	
 -0.087	
 -0.071	
 -0.071	
 -0.097	
 -0.077	
 -0.097	
 -0.066	
 -0.332	
 -0.434	
 -0.061	
  0.984	
  2.040	
  2.045	
  1.117	
  0.286	
 -0.128	
 -0.189	
 -0.148	
 -0.184	
 -0.245	
 -0.281	
 -0.286	
 -0.265	
 -0.245	
 -0.255	
 -0.235	
 -0.230	
 -0.235	
 -0.240	
 -0.214	
 -0.214	
 -0.240	
 -0.235	
 -0.235	
 -0.240	
 -0.219	
 -0.184	
 -0.179	
 -0.158	
 -0.102	
 -0.036	
  0.005	
  0.031	
  0.015	
  0.026	
 -0.010	
 -0.031	
 -0.066	
 -0.061	
 -0.082	
 -0.071	
 -0.087	
 -0.097	
 -0.112	
 -0.097	
 -0.117	
 -0.112	
 -0.128	
 -0.260	
 -0.133	
  0.485	
  1.418	
  2.060	
  1.780	
  0.923	
  0.326	
  0.148	
  0.015	
 -0.087	
 -0.133	
 -0.163	
 -0.189	
 -0.204	
 -0.189	
 -0.204	
 -0.230	
 -0.245	
 -0.255	
 -0.240	
 -0.260	
 -0.270	
 -0.265	
 -0.245	
 -0.209	
 -0.189	
 -0.168	
 -0.148	
 -0.112	
 -0.087	
  0.000	
  0.051	
  0.061	
  0.077	
  0.051	
  0.031	
 -0.010	
 -0.036	
 -0.102	
 -0.092	
 -0.097	
 -0.112	
 -0.077	
 -0.061	
 -0.102	
 -0.092	
 -0.041	
 -0.041	
 -0.026	
 -0.311	
 -0.219	
  0.444	
  1.438	
  2.183	
  2.020	
  1.137	
  0.367	
 -0.005	
 -0.046	
 -0.102	
 -0.199	
 -0.235	
 -0.230	
 -0.204	
 -0.204	
 -0.194	
 -0.209	
 -0.204	
 -0.219	
 -0.204	
 -0.194	
 -0.173	
 -0.235	
 -0.230	
 -0.224	
 -0.199	
 -0.194	
 -0.148	
 -0.112	
 -0.061	
 -0.005	
  0.036	
  0.036	
  0.031	
 -0.005	
 -0.051	
 -0.102	
 -0.143	
 -0.092	
 -0.061	
 -0.087	
 -0.082	
 -0.071	
 -0.041	
  0.000	
 -0.184	
 -0.224	
  0.204	
  1.117	
  1.969	
  2.234	
  1.423	
  0.602	
  0.133	
 -0.051	
 -0.179	
 -0.230	
 -0.296	
 -0.270	
 -0.255	
 -0.209	
 -0.189	
 -0.168	
 -0.173	
 -0.128	
 -0.163	
 -0.173	
 -0.179	
 -0.194	
 -0.204	
 -0.184	
 -0.204	
 -0.204	
 -0.199	
 -0.173	
 -0.138	
 -0.082	
 -0.061	
 -0.041	
 -0.020	
  0.046	
  0.061	
  0.071	
 -0.020	
 -0.005	
 -0.020	
 -0.051	
 -0.066	
 -0.036	
 -0.026	
 -0.061	
 -0.281	
 -0.148	
  0.668	
  1.642	
  2.270	
  1.831	
  0.847	
  0.097	
 -0.036	
 -0.087	
 -0.138	
 -0.194	
 -0.204	
 -0.240	
 -0.245	
 -0.275	
 -0.245	
 -0.230	
 -0.245	
 -0.240	
 -0.230	
 -0.250	
 -0.245	
 -0.230	
 -0.240	
 -0.194	
 -0.184	
 -0.158	
 -0.112	
 -0.056	
  0.005	
  0.041	
  0.051	
  0.056	
  0.041	
 -0.005	
 -0.026	
 -0.077	
 -0.107	
 -0.148	
 -0.148	
 -0.102	
 -0.077	
 -0.097	
 -0.071	
 -0.173	
 -0.326	
  0.031	
  0.852	
  1.693	
  2.142	
  1.433	
  0.571	
  0.046	
 -0.082	
 -0.158	
 -0.173	
 -0.163	
 -0.163	
 -0.189	
 -0.209	
 -0.219	
 -0.245	
 -0.219	
 -0.255	
 -0.281	
 -0.275	
 -0.291	
 -0.255	
 -0.250	
 -0.230	
 -0.260	
 -0.270	
 -0.230	
 -0.189	
 -0.153	
 -0.092	
 -0.046	
 -0.031	
 -0.026	
 -0.061	
 -0.056	
 -0.056	
 -0.087	
 -0.077	
 -0.097	
 -0.107	
 -0.112	
 -0.107	
 -0.077	
 -0.056	
 -0.051	
 -0.056	
 -0.066	
 -0.107	
 -0.112	
 -0.128	
 -0.153	
 -0.158	
 -0.194	
 -0.179	
 -0.214	
 -0.240	
 -0.245	
 -0.235	
 -0.163	
 -0.153	
 -0.133	
 -0.133	
 -0.122	
 -0.112	
 -0.128	
 -0.133	
 -0.133	
 -0.148	
 -0.133	
 -0.087	
 -0.122	
 -0.168	
 -0.199	
 -0.235	
 -0.219	
 -0.199	
 -0.199	
 -0.189	
 -0.168	
 -0.209	
 -0.173	
 -0.153	
 -0.128	
 -0.097	
 -0.133	
 -0.403	
 -0.388	
  0.245	
  1.362	
  2.173	
  1.663	
  0.734	
  0.082	
 -0.122	
 -0.061	
 -0.066	
 -0.128	
 -0.168	
 -0.224	
 -0.245	
 -0.255	
 -0.260	
 -0.250	
 -0.240	
 -0.255	
 -0.265	
 -0.270	
 -0.286	
 -0.260	
 -0.260	
 -0.245	
 -0.230	
 -0.230	
 -0.204	
 -0.163	
 -0.128	
 -0.077	
 -0.026	
  0.020	
  0.056	
  0.056	
  0.046	
  0.005	
 -0.020	
 -0.087	
 -0.097	
 -0.112	
 -0.082	
 -0.071	
 -0.056	
 -0.020	
 -0.087	
 -0.184	
  0.224	
  0.974	
  1.754	
  1.754	
  1.030	
  0.301	
 -0.219	
 -0.495	
 -0.673	
 -0.872	
 -0.653	
 -0.418	
 -0.321	
 -0.245	
 -0.219	
 -0.194	
 -0.194	
 -0.179	
 -0.158	
 -0.138	
 -0.107	
 -0.046	
 -0.031	
  0.015	
  0.071	
  0.128	
  0.189	
  0.281	
  0.281	
  0.311	
  0.372	
  0.423	
  0.428	
  0.423	
  0.393	
  0.311	
  0.230	
  0.117	
  0.056	
 -0.031	
 -0.092	
 -0.148	
 -0.168	
 -0.194	
 -0.184	
 -0.199	
 -0.194	
 -0.204	
 -0.194	
 -0.153	
 -0.122	
 -0.122	
 -0.117	
 -0.112	
 -0.128	
 -0.138	
 -0.138	
 -0.148	
 -0.148	
 -0.128	
 -0.122	
 -0.092	
 -0.082	
 -0.097	
 -0.122	
 -0.128	
 -0.158	
 -0.128	
 -0.143	
 -0.153	
 -0.168	
 -0.189	
 -0.199	
 -0.122	
 -0.128	
 -0.173	
 -0.173	
 -0.179	
 -0.158	
 -0.311	
 -0.459	
 -0.286	
  0.821	
  1.821	
  1.948	
  1.086	
  0.245	
 -0.102	
 -0.143	
 -0.112	
 -0.102	
 -0.138	
 -0.148	
 -0.168	
 -0.168	
 -0.194	
 -0.168	
 -0.173	
 -0.168	
 -0.179	
 -0.179	
 -0.235	
 -0.250	
 -0.250	
 -0.255	
 -0.286	
 -0.296	
 -0.306	
 -0.260	
 -0.224	
 -0.138	
 -0.071	
 -0.015	
  0.087	
  0.148	
  0.148	
  0.158	
  0.133	
  0.082	
  0.061	
  0.026	
  0.000	
 -0.010	
 -0.026	
 -0.066	
 -0.071	
 -0.097	
 -0.102	
 -0.066	
 -0.173	
 -0.281	
  0.158	
  0.944	
  1.800	
  2.152	
  1.397	
  0.602	
  0.204	
  0.097	
 -0.015	
 -0.071	
 -0.112	
 -0.117	
 -0.143	
 -0.189	
 -0.204	
 -0.189	
 -0.204	
 -0.153	
 -0.173	
 -0.184	
 -0.209	
 -0.214	
 -0.209	
 -0.184	
 -0.184	
 -0.148	
 -0.107	
 -0.056	
 -0.005	
  0.010	
  0.071	
  0.128	
  0.163	
  0.158	
  0.148	
  0.107	
  0.077	
  0.041	
  0.031	
 -0.015	
 -0.020	
 -0.061	
 -0.061	
 -0.082	
 -0.107	
 -0.117	
 -0.133	
 -0.158	
 -0.163	
 -0.173	
 -0.179	
 -0.122	
 -0.143	
 -0.173	
 -0.179	
 -0.189	
 -0.163	
 -0.112	
 -0.133	
 -0.138	
 -0.148	
 -0.158	
 -0.143	
 -0.133	
 -0.143	
 -0.168	
 -0.168	
 -0.184	
 -0.133	
 -0.107	
 -0.102	
 -0.107	
 -0.087	
 -0.051	
  0.031	
 -0.209	
 -0.372	
 -0.087	
  0.918	
  2.009	
  2.127	
  1.193	
  0.377	
 -0.051	
 -0.107	
 -0.087	
 -0.138	
 -0.194	
 -0.245	
 -0.281	
 -0.219	
 -0.173	
 -0.173	
 -0.173	
 -0.173	
 -0.163	
 -0.184	
 -0.209	
 -0.224	
 -0.214	
 -0.230	
 -0.219	
 -0.214	
 -0.204	
 -0.194	
 -0.179	
 -0.117	
 -0.066	
 -0.015	
  0.000	
  0.010	
  0.031	
  0.138	
  0.153	
  0.133	
  0.107	
  0.071	
  0.020	
 -0.020	
 -0.046	
 -0.082	
 -0.102	
 -0.122	
 -0.107	
 -0.138	
 -0.143	
 -0.143	
 -0.138	
 -0.117	
 -0.117	
 -0.128	
 -0.148	
 -0.163	
 -0.107	
 -0.036	
 -0.026	
 -0.015	
  0.000	
 -0.005	
 -0.051	
 -0.046	
 -0.046	
 -0.066	
 -0.066	
 -0.082	
 -0.077	
 -0.082	
 -0.122	
 -0.138	
 -0.153	
 -0.179	
 -0.179	
 -0.219	
 -0.260	
 -0.199	
 -0.158	
 -0.173	
 -0.128	
 -0.163	
 -0.128	
 -0.097	
 -0.107	
 -0.194	
 -0.158	
 -0.148	
 -0.153	
 -0.138	
 -0.107	
 -0.097	
 -0.051	
  0.005	
 -0.219	
 -0.347	
 -0.056	
  0.918	
  1.913	
  2.132	
  1.229	
  0.449	
  0.015	
 -0.071	
 -0.066	
 -0.122	
 -0.184	
 -0.219	
 -0.219	
 -0.240	
 -0.219	
 -0.235	
 -0.245	
 -0.240	
 -0.230	
 -0.204	
 -0.173	
 -0.148	
 -0.117	
 -0.117	
 -0.122	
 -0.107	
 -0.102	
 -0.097	
 -0.077	
 -0.046	
 -0.020	
  0.031	
  0.071	
  0.066	
  0.020	
 -0.010	
 -0.031	
 -0.031	
 -0.026	
 -0.031	
 -0.041	
 -0.077	
 -0.066	
 -0.077	
 -0.087	
 -0.097	
 -0.092	
 -0.102	
 -0.097	
 -0.020	
 -0.158	
 -0.301	
  0.148	
  1.020	
  1.841	
  2.009	
  1.168	
  0.444	
  0.117	
  0.046	
 -0.071	
 -0.128	
 -0.148	
 -0.173	
 -0.173	
 -0.173	
 -0.158	
 -0.173	
 -0.153	
 -0.173	
 -0.158	
 -0.158	
 -0.163	
 -0.138	
 -0.128	
 -0.153	
 -0.133	
 -0.112	
 -0.082	
 -0.061	
 -0.015	
  0.041	
  0.102	
  0.158	
  0.158	
  0.138	
  0.138	
  0.082	
  0.051	
  0.010	
 -0.036	
 -0.082	
 -0.066	
 -0.097	
 -0.112	
 -0.138	
 -0.148	
 -0.158	
 -0.122	
 -0.148	
 -0.143	
 -0.138	
 -0.163	
 -0.204	
 -0.163	
 -0.138	
 -0.133	
 -0.133	
 -0.128	
 -0.128	
 -0.107	
 -0.117	
 -0.117	
 -0.122	
 -0.107	
 -0.122	
 -0.117	
 -0.143	
 -0.133	
 -0.138	
 -0.158	
 -0.184	
 -0.194	
 -0.245	
 -0.245	
 -0.230	
 -0.224	
 -0.199	
 -0.158	
 -0.117	
 -0.112	
 -0.102	
 -0.102	
 -0.097	
 -0.082	
 -0.046	
 -0.270	
 -0.383	
 -0.117	
  0.913	
  1.877	
  2.045	
  1.163	
  0.347	
 -0.066	
 -0.189	
 -0.168	
 -0.128	
 -0.163	
 -0.179	
 -0.194	
 -0.209	
 -0.230	
 -0.209	
 -0.245	
 -0.250	
 -0.250	
 -0.245	
 -0.235	
 -0.219	
 -0.219	
 -0.194	
 -0.189	
 -0.173	
 -0.168	
 -0.122	
 -0.112	
 -0.087	
 -0.061	
 -0.041	
  0.015	
  0.143	
  0.138	
  0.138	
  0.082	
  0.031	
 -0.020	
 -0.026	
 -0.066	
 -0.087	
 -0.117	
 -0.117	
 -0.122	
 -0.107	
 -0.112	
 -0.117	
 -0.117	
 -0.128	
 -0.112	
 -0.097	
 -0.117	
 -0.153	
 -0.143	
 -0.128	
 -0.061	
  0.005	
 -0.199	
 -0.107	
  0.479	
  1.362	
  2.101	
  1.821	
  0.893	
  0.173	
 -0.026	
 -0.097	
 -0.153	
 -0.184	
 -0.214	
 -0.224	
 -0.224	
 -0.260	
 -0.255	
 -0.245	
 -0.230	
 -0.179	
 -0.143	
 -0.148	
 -0.092	
 -0.087	
 -0.082	
 -0.061	
 -0.031	
 -0.015	
  0.041	
  0.087	
  0.117	
  0.148	
  0.163	
  0.138	
  0.128	
  0.051	
 -0.010	
 -0.066	
 -0.102	
 -0.148	
 -0.148	
 -0.189	
 -0.189	
 -0.204	
 -0.153	
 -0.092	
 -0.051	
 -0.087	
 -0.082	
 -0.092	
 -0.097	
 -0.087	
 -0.097	
 -0.087	
 -0.087	
 -0.097	
 -0.112	
 -0.082	
 -0.122	
 -0.138	
 -0.173	
 -0.194	
 -0.189	
 -0.143	
 -0.148	
 -0.168	
 -0.230	
 -0.163	
 -0.112	
 -0.097	
 -0.117	
 -0.117	
 -0.122	
 -0.122	
 -0.122	
 -0.122	
 -0.128	
 -0.112	
 -0.071	
 -0.250	
 -0.439	
 -0.337	
  0.750	
  1.744	
  2.071	
  1.321	
  0.474	
 -0.031	
 -0.133	
 -0.138	
 -0.189	
 -0.245	
 -0.138	
 -0.153	
 -0.199	
 -0.199	
 -0.204	
 -0.199	
 -0.189	
 -0.204	
 -0.209	
 -0.209	
 -0.214	
 -0.204	
 -0.199	
 -0.199	
 -0.189	
 -0.184	
 -0.173	
 -0.107	
 -0.051	
  0.046	
  0.117	
  0.143	
  0.112	
  0.128	
  0.097	
  0.092	
  0.056	
  0.061	
 -0.041	
 -0.056	
 -0.056	
 -0.071	
 -0.097	
 -0.087	
 -0.097	
 -0.082	
 -0.102	
 -0.107	
 -0.112	
 -0.128	
 -0.138	
 -0.117	
 -0.133	
 -0.097	
 -0.082	
 -0.041	
 -0.061	
 -0.041	
 -0.046	
 -0.031	
 -0.010	
 -0.020	
 -0.082	
 -0.122	
 -0.168	
 -0.179	
 -0.148	
 -0.291	
 -0.413	
 -0.077	
  0.734	
  1.749	
  2.060	
  1.265	
  0.408	
 -0.005	
 -0.112	
 -0.112	
 -0.148	
 -0.163	
 -0.189	
 -0.179	
 -0.194	
 -0.194	
 -0.189	
 -0.179	
 -0.184	
 -0.138	
 -0.102	
 -0.097	
 -0.036	
 -0.020	
 -0.061	
 -0.041	
  0.000	
 -0.005	
  0.036	
  0.061	
  0.092	
  0.143	
  0.179	
  0.148	
  0.133	
  0.077	
  0.031	
 -0.020	
 -0.046	
 -0.071	
 -0.077	
 -0.061	
 -0.041	
 -0.020	
  0.000	
 -0.015	
 -0.020	
 -0.031	
 -0.046	
 -0.051	
 -0.061	
 -0.112	
 -0.163	
 -0.194	
 -0.189	
 -0.204	
 -0.173	
 -0.179	
 -0.173	
 -0.173	
 -0.179	
 -0.199	
 -0.194	
 -0.204	
 -0.199	
 -0.199	
 -0.168	
 -0.158	
 -0.122	
 -0.128	
 -0.097	
 -0.082	
 -0.107	
 -0.117	
 -0.092	
 -0.046	
 -0.005	
 -0.347	
 -0.434	
  0.087	
  1.127	
  2.081	
  1.882	
  0.872	
  0.168	
 -0.148	
 -0.158	
 -0.168	
 -0.204	
 -0.224	
 -0.240	
 -0.204	
 -0.179	
 -0.173	
 -0.117	
 -0.122	
 -0.138	
 -0.122	
 -0.158	
 -0.158	
 -0.168	
 -0.184	
 -0.199	
 -0.173	
 -0.189	
 -0.173	
 -0.153	
 -0.112	
 -0.082	
 -0.061	
 -0.041	
 -0.015	
  0.010	
  0.005	
  0.015	
  0.015	
  0.010	
  0.000	
 -0.015	
 -0.071	
 -0.046	
 -0.087	
 -0.102	
 -0.112	
 -0.133	
 -0.158	
 -0.117	
 -0.107	
 -0.219	
 -0.087	
  0.464	
  1.362	
  2.045	
  1.744	
  0.893	
  0.194	
  0.015	
 -0.051	
 -0.138	
 -0.158	
 -0.163	
 -0.158	
 -0.179	
 -0.209	
 -0.189	
 -0.179	
 -0.194	
 -0.209	
 -0.194	
 -0.194	
 -0.209	
 -0.204	
 -0.179	
 -0.189	
 -0.138	
 -0.122	
 -0.112	
 -0.097	
 -0.056	
  0.010	
  0.082	
  0.128	
  0.128	
  0.117	
  0.061	
  0.005	
 -0.061	
 -0.082	
 -0.107	
 -0.122	
 -0.128	
 -0.107	
 -0.117	
 -0.128	
 -0.143	
 -0.158	
 -0.128	
 -0.153	
 -0.163	
 -0.122	
 -0.077	
 -0.372	
 -0.133	
  0.592	
  1.515	
  2.280	
  1.790	
  0.867	
  0.133	
 -0.133	
 -0.184	
 -0.224	
 -0.245	
 -0.260	
 -0.296	
 -0.286	
 -0.265	
 -0.275	
 -0.230	
 -0.219	
 -0.199	
 -0.204	
 -0.189	
 -0.204	
 -0.163	
 -0.199	
 -0.204	
 -0.189	
 -0.194	
 -0.168	
 -0.158	
 -0.082	
  0.000	
  0.036	
  0.026	
  0.051	
  0.015	
 -0.046	
 -0.082	
 -0.112	
 -0.117	
 -0.087	
 -0.077	
 -0.102	
 -0.092	
 -0.107	
 -0.112	
 -0.117	
 -0.102	
 -0.097	
 -0.046	
 -0.224	
 -0.326	
  0.117	
  1.285	
  2.066	
  1.918	
  1.148	
  0.393	
  0.133	
 -0.026	
 -0.143	
 -0.204	
 -0.230	
 -0.275	
 -0.301	
 -0.337	
 -0.342	
 -0.311	
 -0.321	
 -0.296	
 -0.260	
 -0.230	
 -0.209	
 -0.194	
 -0.153	
 -0.158	
 -0.138	
 -0.133	
 -0.107	
 -0.056	
 -0.010	
  0.051	
  0.071	
  0.082	
  0.046	
  0.010	
 -0.026	
 -0.107	
 -0.148	
 -0.168	
 -0.173	
 -0.128	
 -0.413	
 -0.337	
  0.321	
  1.290	
  2.162	
  1.958	
  1.051	
  0.367	
  0.138	
  0.082	
 -0.056	
 -0.112	
 -0.138	
 -0.184	
 -0.204	
 -0.235	
 -0.270	
 -0.281	
 -0.296	
 -0.306	
 -0.306	
 -0.321	
 -0.316	
 -0.240	
 -0.224	
 -0.204	
 -0.173	
 -0.173	
 -0.153	
 -0.107	
 -0.026	
  0.046	
  0.087	
  0.112	
  0.112	
  0.092	
  0.041	
 -0.005	
 -0.077	
 -0.097	
 -0.138	
 -0.138	
 -0.163	
 -0.163	
 -0.148	
 -0.122	
 -0.117	
 -0.117	
 -0.122	
 -0.153	
 -0.117	
 -0.133	
 -0.143	
 -0.158	
 -0.168	
 -0.173	
 -0.168	
 -0.179	
 -0.189	
 -0.184	
 -0.179	
 -0.184	
 -0.194	
 -0.204	
 -0.199	
 -0.158	
 -0.153	
 -0.133	
 -0.148	
 -0.133	
 -0.153	
 -0.168	
 -0.194	
 -0.138	
 -0.377	
 -0.505	
 -0.245	
  0.755	
  1.856	
  2.239	
  1.316	
  0.403	
 -0.077	
 -0.189	
 -0.138	
 -0.173	
 -0.230	
 -0.296	
 -0.311	
 -0.301	
 -0.270	
 -0.306	
 -0.326	
 -0.291	
 -0.265	
 -0.270	
 -0.270	
 -0.291	
 -0.275	
 -0.275	
 -0.275	
 -0.265	
 -0.235	
 -0.214	
 -0.199	
 -0.163	
 -0.128	
 -0.087	
 -0.071	
 -0.036	
 -0.015	
  0.000	
 -0.026	
 -0.041	
 -0.107	
 -0.092	
 -0.077	
 -0.056	
 -0.056	
 -0.026	
 -0.051	
 -0.066	
 -0.077	
 -0.107	
 -0.128	
 -0.128	
 -0.173	
 -0.179	
 -0.184	
 -0.173	
 -0.128	
 -0.092	
 -0.041	
 -0.281	
 -0.179	
  0.393	
  1.244	
  2.025	
  2.040	
  1.188	
  0.372	
  0.041	
  0.026	
 -0.061	
 -0.122	
 -0.158	
 -0.179	
 -0.230	
 -0.219	
 -0.235	
 -0.224	
 -0.245	
 -0.270	
 -0.265	
 -0.250	
 -0.255	
 -0.260	
 -0.245	
 -0.224	
 -0.209	
 -0.163	
 -0.148	
 -0.102	
 -0.046	
 -0.015	
  0.046	
  0.087	
  0.051	
 -0.010	
 -0.061	
 -0.092	
 -0.097	
 -0.148	
 -0.153	
 -0.092	
 -0.071	
 -0.082	
 -0.051	
 -0.010	
 -0.097	
 -0.275	
 -0.020	
  0.714	
  1.637	
  2.203	
  1.397	
  0.561	
  0.026	
 -0.117	
 -0.117	
 -0.173	
 -0.219	
 -0.250	
 -0.306	
 -0.393	
 -0.321	
 -0.291	
 -0.275	
 -0.270	
 -0.230	
 -0.230	
 -0.204	
 -0.189	
 -0.153	
 -0.138	
 -0.107	
 -0.107	
 -0.087	
 -0.071	
 -0.020	
  0.046	
  0.082	
  0.077	
  0.092	
  0.005	
 -0.026	
 -0.046	
 -0.071	
 -0.122	
 -0.102	
 -0.148	
 -0.148	
 -0.133	
 -0.107	
 -0.153	
 -0.138	
 -0.158	
 -0.128	
 -0.143	
 -0.148	
 -0.158	
 -0.133	
 -0.163	
 -0.163	
 -0.184	
 -0.168	
 -0.112	
 -0.066	
 -0.097	
 -0.087	
 -0.046	
 -0.204	
 -0.377	
 -0.352	
  0.449	
  1.525	
  2.106	
  1.397	
  0.495	
  0.000	
 -0.143	
 -0.143	
 -0.168	
 -0.214	
 -0.219	
 -0.255	
 -0.204	
 -0.163	
 -0.163	
 -0.173	
 -0.173	
 -0.199	
 -0.219	
 -0.255	
 -0.265	
 -0.270	
 -0.245	
 -0.260	
 -0.265	
 -0.245	
 -0.235	
 -0.184	
 -0.138	
 -0.092	
 -0.041	
  0.005	
  0.020	
  0.082	
  0.092	
  0.066	
  0.005	
 -0.020	
 -0.046	
 -0.046	
 -0.077	
 -0.102	
 -0.133	
 -0.158	
 -0.173	
 -0.173	
 -0.189	
 -0.184	
 -0.179	
 -0.148	
 -0.112	
 -0.291	
 -0.128	
  0.510	
  1.459	
  2.101	
  1.882	
  0.969	
  0.199	
  0.061	
 -0.005	
 -0.092	
 -0.168	
 -0.209	
 -0.240	
 -0.245	
 -0.250	
 -0.224	
 -0.250	
 -0.235	
 -0.235	
 -0.245	
 -0.224	
 -0.219	
 -0.209	
 -0.184	
 -0.194	
 -0.219	
 -0.189	
 -0.173	
 -0.153	
 -0.107	
 -0.036	
  0.026	
  0.051	
  0.087	
  0.066	
  0.026	
 -0.031	
 -0.066	
 -0.107	
 -0.122	
 -0.133	
 -0.184	
 -0.199	
 -0.219	
 -0.219	
 -0.199	
 -0.163	
 -0.138	
 -0.097	
 -0.061	
  0.031	
 -0.133	
 -0.342	
  0.092	
  1.071	
  1.933	
  2.336	
  1.433	
  0.546	
  0.056	
 -0.082	
 -0.158	
 -0.245	
 -0.286	
 -0.265	
 -0.275	
 -0.270	
 -0.275	
 -0.306	
 -0.301	
 -0.296	
 -0.296	
 -0.291	
 -0.275	
 -0.255	
 -0.209	
 -0.199	
 -0.204	
 -0.163	
 -0.092	
 -0.041	
  0.015	
  0.082	
  0.092	
  0.061	
  0.092	
  0.138	
  0.061	
  0.015	
 -0.036	
 -0.061	
 -0.087	
 -0.082	
 -0.122	
 -0.143	
 -0.158	
 -0.173	
 -0.184	
 -0.189	
 -0.173	
 -0.194	
 -0.179	
 -0.173	
 -0.148	
 -0.148	
 -0.117	
 -0.133	
 -0.199	
 -0.209	
 -0.133	
 -0.143	
 -0.143	
 -0.143	
 -0.138	
 -0.143	
 -0.102	
 -0.122	
 -0.133	
 -0.153	
 -0.133	
 -0.163	
 -0.138	
 -0.148	
 -0.133	
 -0.153	
 -0.128	
 -0.321	
 -0.520	
 -0.444	
  0.530	
  1.596	
  2.101	
  1.362	
  0.505	
  0.010	
 -0.122	
 -0.133	
 -0.153	
 -0.189	
 -0.194	
 -0.219	
 -0.235	
 -0.235	
 -0.240	
 -0.270	
 -0.265	
 -0.265	
 -0.260	
 -0.245	
 -0.219	
 -0.219	
 -0.199	
 -0.179	
 -0.168	
 -0.168	
 -0.133	
 -0.128	
 -0.143	
 -0.117	
 -0.077	
 -0.036	
 -0.015	
 -0.015	
 -0.010	
 -0.020	
 -0.077	
 -0.112	
 -0.133	
 -0.133	
 -0.153	
 -0.122	
 -0.138	
 -0.138	
 -0.148	
 -0.143	
 -0.143	
 -0.112	
 -0.112	
 -0.087	
 -0.092	
 -0.092	
 -0.041	
 -0.020	
 -0.275	
 -0.010	
  0.678	
  1.525	
  2.168	
  1.637	
  0.791	
  0.194	
  0.041	
 -0.046	
 -0.128	
 -0.173	
 -0.189	
 -0.235	
 -0.214	
 -0.209	
 -0.194	
 -0.179	
 -0.153	
 -0.179	
 -0.224	
 -0.230	
 -0.219	
 -0.224	
 -0.204	
 -0.209	
 -0.168	
 -0.148	
 -0.097	
 -0.077	
  0.020	
  0.066	
  0.117	
  0.133	
  0.117	
  0.102	
  0.077	
  0.036	
  0.000	
 -0.015	
 -0.056	
 -0.112	
 -0.143	
 -0.138	
 -0.163	
 -0.163	
 -0.199	
 -0.209	
 -0.194	
 -0.179	
 -0.179	
 -0.163	
 -0.163	
 -0.158	
 -0.148	
 -0.046	
 -0.158	
 -0.372	
 -0.041	
  0.903	
  1.765	
  2.331	
  1.489	
  0.704	
  0.173	
  0.005	
 -0.071	
 -0.158	
 -0.189	
 -0.224	
 -0.240	
 -0.250	
 -0.265	
 -0.270	
 -0.255	
 -0.250	
 -0.230	
 -0.214	
 -0.209	
 -0.224	
 -0.153	
 -0.163	
 -0.133	
 -0.117	
 -0.077	
 -0.056	
  0.010	
  0.046	
  0.102	
  0.133	
  0.158	
  0.153	
  0.112	
  0.036	
  0.000	
 -0.046	
 -0.077	
 -0.117	
 -0.107	
 -0.128	
 -0.112	
 -0.112	
 -0.117	
 -0.122	
 -0.087	
 -0.102	
 -0.143	
 -0.158	
 -0.158	
 -0.179	
 -0.153	
 -0.138	
 -0.128	
 -0.148	
 -0.173	
 -0.184	
 -0.173	
 -0.128	
 -0.163	
 -0.173	
 -0.179	
 -0.219	
 -0.184	
 -0.168	
 -0.158	
 -0.148	
 -0.128	
 -0.122	
 -0.087	
 -0.087	
 -0.117	
 -0.117	
 -0.112	
 -0.133	
 -0.128	
 -0.133	
 -0.138	
 -0.428	
 -0.495	
  0.020	
  1.163	
  2.086	
  1.785	
  0.862	
  0.148	
 -0.184	
 -0.163	
 -0.138	
 -0.173	
 -0.209	
 -0.209	
 -0.224	
 -0.209	
 -0.224	
 -0.214	
 -0.184	
 -0.153	
 -0.153	
 -0.128	
 -0.153	
 -0.199	
 -0.199	
 -0.219	
 -0.199	
 -0.214	
 -0.219	
 -0.209	
 -0.194	
 -0.173	
 -0.102	
 -0.071	
 -0.041	
 -0.020	
 -0.020	
 -0.005	
 -0.005	
  0.005	
 -0.005	
 -0.010	
 -0.031	
 -0.056	
 -0.102	
 -0.143	
 -0.148	
 -0.173	
 -0.158	
 -0.158	
 -0.168	
 -0.179	
 -0.168	
 -0.133	
 -0.066	
 -0.214	
 -0.296	
  0.163	
  1.010	
  1.836	
  1.918	
  1.153	
  0.423	
  0.148	
  0.097	
 -0.005	
 -0.036	
 -0.107	
 -0.148	
 -0.117	
 -0.184	
 -0.209	
 -0.240	
 -0.245	
 -0.275	
 -0.250	
 -0.250	
 -0.265	
 -0.245	
 -0.250	
 -0.209	
 -0.184	
 -0.153	
 -0.112	
 -0.061	
 -0.005	
  0.066	
  0.122	
  0.138	
  0.153	
  0.158	
  0.153	
  0.122	
  0.092	
  0.015	
 -0.082	
 -0.097	
 -0.153	
 -0.173	
 -0.179	
 -0.189	
 -0.143	
 -0.107	
 -0.444	
 -0.459	
  0.214	
  1.280	
  2.183	
  1.948	
  1.061	
  0.321	
  0.020	
 -0.015	
 -0.061	
 -0.112	
 -0.158	
 -0.173	
 -0.204	
 -0.250	
 -0.260	
 -0.260	
 -0.250	
 -0.255	
 -0.230	
 -0.245	
 -0.245	
 -0.230	
 -0.224	
 -0.224	
 -0.168	
 -0.153	
 -0.117	
 -0.071	
 -0.031	
  0.066	
  0.117	
  0.117	
  0.128	
  0.143	
  0.092	
  0.071	
 -0.015	
 -0.056	
 -0.087	
 -0.112	
 -0.112	
 -0.138	
 -0.158	
 -0.179	
 -0.189	
 -0.194	
 -0.163	
 -0.204	
 -0.189	
 -0.204	
 -0.199	
 -0.204	
 -0.184	
 -0.194	
 -0.194	
 -0.179	
 -0.194	
 -0.138	
 -0.102	
 -0.071	
  0.051	
 -0.153	
 -0.377	
 -0.133	
  0.831	
  1.892	
  2.244	
  1.357	
  0.495	
  0.026	
 -0.117	
 -0.138	
 -0.194	
 -0.250	
 -0.245	
 -0.281	
 -0.291	
 -0.301	
 -0.311	
 -0.316	
 -0.291	
 -0.296	
 -0.265	
 -0.219	
 -0.173	
 -0.179	
 -0.209	
 -0.133	
 -0.036	
 -0.005	
 -0.005	
  0.026	
  0.041	
  0.097	
  0.122	
  0.122	
  0.097	
  0.082	
  0.026	
 -0.036	
 -0.087	
 -0.138	
 -0.143	
 -0.168	
 -0.189	
 -0.189	
 -0.184	
 -0.204	
 -0.173	
 -0.163	
 -0.143	
 -0.128	
 -0.066	
 -0.020	
  0.046	
  0.046	
  0.066	
  0.056	
 -0.158	
  0.107	
  0.734	
  1.520	
  2.219	
  1.673	
  0.770	
  0.163	
 -0.005	
 -0.107	
 -0.209	
 -0.250	
 -0.296	
 -0.301	
 -0.352	
 -0.347	
 -0.255	
 -0.194	
 -0.143	
 -0.097	
 -0.102	
 -0.092	
 -0.077	
 -0.056	
 -0.026	
  0.000	
  0.005	
  0.026	
  0.051	
  0.066	
  0.128	
  0.153	
  0.163	
  0.148	
  0.122	
  0.051	
  0.000	
 -0.061	
 -0.117	
 -0.158	
 -0.173	
 -0.153	
 -0.138	
 -0.143	
 -0.128	
 -0.117	
 -0.117	
 -0.112	
 -0.122	
 -0.117	
 -0.117	
 -0.102	
 -0.112	
 -0.082	
 -0.107	
 -0.117	
 -0.122	
 -0.092	
 -0.138	
 -0.337	
 -0.148	
  0.597	
  1.561	
  2.117	
  1.601	
  0.796	
  0.219	
 -0.015	
 -0.031	
 -0.071	
 -0.112	
 -0.184	
 -0.173	
 -0.173	
 -0.168	
 -0.194	
 -0.184	
 -0.219	
 -0.209	
 -0.194	
 -0.184	
 -0.168	
 -0.153	
 -0.168	
 -0.163	
 -0.153	
 -0.148	
 -0.107	
 -0.071	
 -0.026	
  0.015	
  0.066	
  0.061	
  0.071	
  0.122	
  0.153	
  0.117	
  0.015	
 -0.010	
 -0.010	
 -0.026	
 -0.051	
 -0.066	
 -0.071	
 -0.061	
 -0.082	
 -0.077	
 -0.087	
 -0.087	
 -0.092	
 -0.092	
 -0.092	
 -0.102	
 -0.107	
 -0.148	
 -0.128	
 -0.148	
 -0.163	
 -0.184	
 -0.184	
 -0.224	
 -0.209	
 -0.270	
 -0.286	
 -0.138	
 -0.107	
 -0.092	
 -0.071	
 -0.061	
 -0.056	
  0.015	
 -0.158	
 -0.352	
 -0.204	
  0.887	
  1.872	
  2.132	
  1.336	
  0.428	
  0.061	
 -0.031	
 -0.051	
 -0.133	
 -0.148	
 -0.189	
 -0.204	
 -0.204	
 -0.224	
 -0.204	
 -0.214	
 -0.204	
 -0.214	
 -0.209	
 -0.163	
 -0.092	
 -0.092	
 -0.092	
 -0.097	
 -0.102	
 -0.077	
 -0.071	
 -0.056	
 -0.036	
  0.005	
  0.026	
  0.036	
  0.005	
  0.010	
 -0.020	
 -0.056	
 -0.041	
 -0.082	
 -0.092	
 -0.112	
 -0.122	
 -0.133	
 -0.097	
 -0.087	
 -0.077	
 -0.102	
 -0.122	
 -0.117	
 -0.133	
 -0.117	
 -0.092	
 -0.077	
 -0.082	
 -0.077	
 -0.087	
 -0.122	
 -0.133	
 -0.148	
 -0.128	
 -0.153	
 -0.168	
 -0.153	
 -0.189	
 -0.184	
 -0.122	
 -0.082	
 -0.082	
 -0.077	
 -0.082	
 -0.061	
 -0.051	
 -0.056	
 -0.051	
 -0.020	
 -0.143	
 -0.372	
 -0.265	
  0.607	
  1.586	
  2.137	
  1.571	
  0.734	
  0.204	
 -0.056	
 -0.153	
 -0.173	
 -0.255	
 -0.291	
 -0.311	
 -0.286	
 -0.291	
 -0.286	
 -0.286	
 -0.265	
 -0.240	
 -0.265	
 -0.235	
 -0.235	
 -0.219	
 -0.214	
 -0.168	
 -0.082	
 -0.010	
  0.005	
  0.051	
  0.097	
  0.143	
  0.194	
  0.199	
  0.184	
  0.168	
  0.143	
  0.071	
  0.082	
  0.056	
  0.000	
 -0.082	
 -0.128	
 -0.133	
 -0.128	
 -0.158	
 -0.168	
 -0.184	
 -0.204	
 -0.219	
 -0.163	
 -0.107	
 -0.092	
 -0.082	
 -0.087	
 -0.077	
 -0.041	
 -0.066	
 -0.046	
 -0.046	
 -0.056	
 -0.056	
 -0.020	
 -0.015	
  0.046	
 -0.107	
 -0.255	
  0.097	
  0.928	
  1.785	
  1.913	
  1.040	
  0.321	
 -0.102	
 -0.158	
 -0.102	
 -0.122	
 -0.143	
 -0.163	
 -0.148	
 -0.158	
 -0.158	
 -0.153	
 -0.143	
 -0.153	
 -0.133	
 -0.107	
 -0.066	
 -0.015	
  0.026	
  0.077	
  0.122	
  0.148	
  0.107	
  0.071	
  0.061	
  0.077	
  0.153	
  0.199	
  0.199	
  0.173	
  0.138	
  0.077	
  0.056	
  0.020	
 -0.005	
 -0.031	
 -0.041	
 -0.066	
 -0.061	
 -0.077	
 -0.092	
 -0.092	
 -0.071	
 -0.071	
 -0.036	
  0.000	
  0.041	
  0.041	
  0.000	
 -0.020	
 -0.026	
 -0.046	
 -0.056	
 -0.082	
 -0.092	
 -0.102	
 -0.097	
 -0.102	
 -0.112	
 -0.112	
 -0.102	
 -0.112	
 -0.092	
 -0.036	
 -0.122	
 -0.362	
 -0.398	
  0.301	
  1.494	
  2.132	
  1.663	
  0.745	
  0.189	
  0.031	
  0.071	
  0.077	
  0.031	
 -0.056	
 -0.097	
 -0.112	
 -0.128	
 -0.122	
 -0.148	
 -0.138	
 -0.133	
 -0.148	
 -0.143	
 -0.117	
 -0.112	
 -0.107	
 -0.097	
 -0.071	
 -0.036	
 -0.010	
  0.031	
  0.082	
  0.128	
  0.173	
  0.163	
  0.179	
  0.138	
  0.133	
  0.128	
  0.107	
  0.036	
  0.020	
 -0.056	
 -0.066	
 -0.061	
 -0.071	
 -0.077	
 -0.061	
 -0.077	
 -0.077	
 -0.077	
 -0.077	
 -0.082	
 -0.061	
 -0.082	
 -0.071	
 -0.077	
 -0.092	
 -0.097	
 -0.082	
 -0.102	
 -0.107	
 -0.122	
 -0.128	
 -0.143	
 -0.122	
 -0.199	
 -0.240	
 -0.286	
 -0.332	
 -0.352	
 -0.321	
 -0.306	
 -0.281	
 -0.245	
 -0.148	
 -0.041	
  0.010	
 -0.015	
  0.005	
  0.026	
  0.015	
  0.020	
  0.066	
  0.056	
  0.061	
  0.061	
  0.066	
  0.056	
  0.071	
  0.097	
 -0.066	
 -0.214	
 -0.077	
  0.867	
  1.846	
  2.050	
  1.250	
  0.367	
 -0.056	
 -0.214	
 -0.204	
 -0.255	
 -0.270	
 -0.306	
 -0.321	
 -0.286	
 -0.138	
 -0.082	
 -0.051	
 -0.031	
 -0.026	
 -0.015	
  0.026	
  0.015	
  0.041	
  0.077	
  0.092	
  0.107	
  0.143	
  0.168	
  0.204	
  0.255	
  0.296	
  0.326	
  0.326	
  0.301	
  0.255	
  0.209	
  0.133	
  0.117	
  0.077	
  0.046	
  0.031	
  0.000	
 -0.031	
  0.000	
 -0.005	
 -0.020	
 -0.020	
 -0.031	
 -0.031	
 -0.015	
 -0.031	
 -0.026	
 -0.041	
