6000.0
100.0
 -0.135 
 -0.185 
 -0.175 
 -0.185 
 -0.160 
 -0.185 
 -0.170 
 -0.150 
 -0.130 
 -0.120 
 -0.080 
 -0.070 
 -0.050 
 -0.060 
 -0.030 
 -0.035 
 -0.020 
 -0.020 
 -0.015 
 -0.040 
 -0.025 
 -0.040 
 -0.030 
 -0.040 
 -0.035 
 -0.050 
 -0.050 
 -0.050 
 -0.055 
 -0.065 
 -0.070 
 -0.080 
 -0.055 
 -0.060 
 -0.015 
 -0.010 
  0.030 
  0.055 
  0.120 
  0.135 
  0.130 
  0.090 
  0.050 
  0.010 
 -0.040 
 -0.090 
 -0.090 
 -0.120 
 -0.120 
 -0.140 
 -0.130 
 -0.140 
 -0.115 
 -0.110 
 -0.015 
  0.715 
  2.270 
  2.200 
  0.190 
 -1.195 
 -1.610 
 -1.310 
 -0.575 
 -0.300 
 -0.160 
 -0.110 
 -0.075 
 -0.050 
 -0.035 
 -0.040 
 -0.005 
 -0.020 
  0.005 
  0.010 
  0.020 
  0.010 
  0.030 
  0.040 
  0.060 
  0.070 
  0.105 
  0.120 
  0.165 
  0.185 
  0.240 
  0.240 
  0.255 
  0.255 
  0.255 
  0.220 
  0.190 
  0.135 
  0.100 
  0.040 
  0.015 
 -0.030 
 -0.025 
 -0.055 
 -0.070 
 -0.110 
 -0.115 
 -0.140 
 -0.130 
 -0.145 
 -0.130 
 -0.130 
 -0.115 
 -0.130 
 -0.105 
 -0.110 
 -0.080 
 -0.080 
 -0.060 
 -0.060 
 -0.025 
 -0.035 
 -0.020 
 -0.030 
 -0.030 
 -0.035 
 -0.030 
 -0.050 
 -0.035 
 -0.050 
 -0.030 
 -0.050 
 -0.040 
 -0.060 
 -0.040 
 -0.040 
 -0.040 
 -0.060 
 -0.030 
 -0.065 
 -0.030 
 -0.005 
  0.040 
  0.080 
  0.130 
  0.160 
  0.185 
  0.150 
  0.120 
  0.055 
  0.025 
 -0.045 
 -0.055 
 -0.080 
 -0.095 
 -0.110 
 -0.110 
 -0.120 
 -0.110 
 -0.115 
 -0.080 
  0.200 
  1.420 
  2.520 
  1.300 
 -0.600 
 -1.465 
 -1.600 
 -0.940 
 -0.420 
 -0.235 
 -0.135 
 -0.080 
 -0.080 
 -0.070 
 -0.060 
 -0.030 
 -0.040 
 -0.015 
 -0.030 
 -0.015 
 -0.030 
 -0.020 
 -0.010 
  0.025 
  0.030 
  0.055 
  0.055 
  0.105 
  0.130 
  0.170 
  0.200 
  0.240 
  0.240 
  0.240 
  0.215 
  0.185 
  0.130 
  0.090 
  0.020 
 -0.010 
 -0.065 
 -0.090 
 -0.130 
 -0.130 
 -0.160 
 -0.175 
 -0.200 
 -0.210 
 -0.230 
 -0.225 
 -0.235 
 -0.215 
 -0.220 
 -0.225 
 -0.230 
 -0.190 
 -0.190 
 -0.160 
 -0.160 
 -0.125 
 -0.140 
 -0.140 
 -0.140 
 -0.120 
 -0.130 
 -0.120 
 -0.130 
 -0.130 
 -0.150 
 -0.120 
 -0.130 
 -0.135 
 -0.160 
 -0.140 
 -0.140 
 -0.130 
 -0.150 
 -0.140 
 -0.140 
 -0.100 
 -0.090 
 -0.055 
 -0.030 
  0.030 
  0.050 
  0.050 
 -0.015 
 -0.060 
 -0.105 
 -0.145 
 -0.190 
 -0.190 
 -0.215 
 -0.220 
 -0.235 
 -0.215 
 -0.220 
 -0.195 
 -0.195 
 -0.040 
  0.805 
  2.215 
  1.640 
 -0.455 
 -1.580 
 -1.910 
 -1.425 
 -0.610 
 -0.370 
 -0.240 
 -0.180 
 -0.120 
 -0.120 
 -0.120 
 -0.115 
 -0.075 
 -0.095 
 -0.065 
 -0.070 
 -0.040 
 -0.065 
 -0.040 
 -0.030 
 -0.005 
  0.010 
  0.035 
  0.030 
  0.085 
  0.135 
  0.180 
  0.180 
  0.200 
  0.180 
  0.185 
  0.130 
  0.095 
  0.030 
  0.010 
 -0.055 
 -0.070 
 -0.120 
 -0.140 
 -0.160 
 -0.185 
 -0.200 
 -0.215 
 -0.235 
 -0.225 
 -0.250 
 -0.255 
 -0.250 
 -0.220 
 -0.235 
 -0.200 
 -0.195 
 -0.160 
 -0.160 
 -0.140 
 -0.140 
 -0.135 
 -0.130 
 -0.135 
 -0.150 
 -0.120 
 -0.145 
 -0.140 
 -0.155 
 -0.160 
 -0.155 
 -0.130 
 -0.145 
 -0.130 
 -0.130 
 -0.135 
 -0.155 
 -0.120 
 -0.120 
 -0.100 
 -0.090 
 -0.080 
 -0.040 
  0.030 
  0.055 
  0.100 
  0.085 
  0.020 
 -0.040 
 -0.060 
 -0.120 
 -0.150 
 -0.180 
 -0.175 
 -0.180 
 -0.185 
 -0.190 
 -0.180 
 -0.190 
 -0.145 
 -0.010 
  0.905 
  2.270 
  1.650 
 -0.500 
 -1.585 
 -1.915 
 -1.385 
 -0.575 
 -0.340 
 -0.240 
 -0.150 
 -0.120 
 -0.090 
 -0.100 
 -0.080 
 -0.095 
 -0.060 
 -0.070 
 -0.040 
 -0.040 
 -0.030 
 -0.015 
  0.020 
  0.030 
  0.025 
  0.040 
  0.090 
  0.120 
  0.160 
  0.170 
  0.200 
  0.205 
  0.215 
  0.180 
  0.140 
  0.090 
  0.045 
 -0.020 
 -0.050 
 -0.100 
 -0.135 
 -0.170 
 -0.180 
 -0.225 
 -0.225 
 -0.250 
 -0.240 
 -0.270 
 -0.265 
 -0.280 
 -0.245 
 -0.225 
 -0.215 
 -0.220 
 -0.170 
 -0.170 
 -0.160 
 -0.170 
 -0.140 
 -0.130 
 -0.120 
 -0.135 
 -0.135 
 -0.160 
 -0.140 
 -0.160 
 -0.160 
 -0.160 
 -0.155 
 -0.180 
 -0.160 
 -0.160 
 -0.145 
 -0.160 
 -0.150 
 -0.160 
 -0.115 
 -0.110 
 -0.085 
 -0.050 
  0.005 
  0.030 
  0.085 
  0.065 
  0.020 
 -0.025 
 -0.040 
 -0.110 
 -0.140 
 -0.160 
 -0.160 
 -0.180 
 -0.160 
 -0.185 
 -0.170 
 -0.160 
 -0.140 
 -0.055 
  0.720 
  2.205 
  2.000 
 -0.130 
 -1.435 
 -1.860 
 -1.465 
 -0.620 
 -0.325 
 -0.200 
 -0.120 
 -0.090 
 -0.055 
 -0.055 
 -0.030 
 -0.035 
 -0.020 
 -0.030 
 -0.020 
 -0.020 
  0.005 
  0.005 
  0.030 
  0.040 
  0.070 
  0.080 
  0.120 
  0.130 
  0.200 
  0.225 
  0.255 
  0.245 
  0.245 
  0.210 
  0.190 
  0.140 
  0.100 
  0.050 
  0.025 
 -0.030 
 -0.060 
 -0.105 
 -0.110 
 -0.145 
 -0.160 
 -0.190 
 -0.200 
 -0.215 
 -0.200 
 -0.210 
 -0.205 
 -0.200 
 -0.165 
 -0.160 
 -0.150 
 -0.140 
 -0.110 
 -0.110 
 -0.090 
 -0.090 
 -0.070 
 -0.080 
 -0.065 
 -0.080 
 -0.065 
 -0.080 
 -0.065 
 -0.085 
 -0.095 
 -0.100 
 -0.090 
 -0.095 
 -0.080 
 -0.110 
 -0.080 
 -0.095 
 -0.080 
 -0.095 
 -0.070 
 -0.070 
 -0.055 
 -0.040 
  0.000 
  0.005 
  0.040 
  0.080 
  0.125 
  0.120 
  0.090 
  0.045 
  0.015 
 -0.040 
 -0.070 
 -0.115 
 -0.120 
 -0.145 
 -0.120 
 -0.150 
 -0.140 
 -0.145 
 -0.120 
 -0.100 
  0.220 
  1.480 
  2.580 
  1.260 
 -0.625 
 -1.505 
 -1.580 
 -0.915 
 -0.395 
 -0.250 
 -0.145 
 -0.120 
 -0.080 
 -0.060 
 -0.045 
 -0.050 
 -0.040 
 -0.040 
 -0.025 
 -0.025 
 -0.020 
 -0.015 
  0.015 
  0.020 
  0.045 
  0.055 
  0.080 
  0.090 
  0.140 
  0.165 
  0.190 
  0.195 
  0.225 
  0.210 
  0.200 
  0.150 
  0.125 
  0.065 
  0.040 
 -0.010 
 -0.030 
 -0.075 
 -0.095 
 -0.135 
 -0.145 
 -0.160 
 -0.180 
 -0.200 
 -0.195 
 -0.225 
 -0.210 
 -0.210 
 -0.190 
 -0.195 
 -0.160 
 -0.170 
 -0.140 
 -0.145 
 -0.130 
 -0.130 
 -0.120 
 -0.120 
 -0.110 
 -0.120 
 -0.120 
 -0.120 
 -0.115 
 -0.145 
 -0.140 
 -0.150 
 -0.140 
 -0.150 
 -0.140 
 -0.155 
 -0.150 
 -0.160 
 -0.155 
 -0.160 
 -0.150 
 -0.160 
 -0.155 
 -0.170 
 -0.160 
 -0.160 
 -0.155 
 -0.170 
 -0.155 
 -0.135 
 -0.100 
 -0.070 
 -0.030 
  0.015 
  0.070 
  0.050 
  0.020 
 -0.030 
 -0.055 
 -0.110 
 -0.140 
 -0.180 
 -0.180 
 -0.200 
 -0.190 
 -0.200 
 -0.180 
 -0.190 
 -0.170 
 -0.155 
  0.120 
  1.270 
  2.480 
  1.380 
 -0.535 
 -1.470 
 -1.585 
 -0.985 
 -0.450 
 -0.300 
 -0.185 
 -0.155 
 -0.115 
 -0.110 
 -0.100 
 -0.100 
 -0.075 
 -0.065 
 -0.055 
 -0.060 
 -0.035 
 -0.040 
 -0.020 
 -0.030 
  0.010 
  0.015 
  0.040 
  0.030 
  0.080 
  0.095 
  0.145 
  0.145 
  0.160 
  0.140 
  0.150 
  0.095 
  0.070 
  0.015 
 -0.015 
 -0.065 
 -0.075 
 -0.120 
 -0.120 
 -0.160 
 -0.170 
 -0.200 
 -0.210 
 -0.220 
 -0.215 
 -0.250 
 -0.230 
 -0.240 
 -0.220 
 -0.230 
 -0.210 
 -0.220 
 -0.185 
 -0.180 
 -0.155 
 -0.160 
 -0.145 
 -0.135 
 -0.130 
 -0.155 
 -0.145 
 -0.155 
 -0.135 
 -0.145 
 -0.120 
 -0.140 
 -0.135 
 -0.160 
 -0.155 
 -0.170 
 -0.145 
 -0.160 
 -0.140 
 -0.150 
 -0.150 
 -0.160 
 -0.150 
 -0.170 
 -0.160 
 -0.180 
 -0.160 
 -0.175 
 -0.160 
 -0.180 
 -0.170 
 -0.190 
 -0.180 
 -0.155 
 -0.130 
 -0.105 
 -0.050 
 -0.030 
  0.010 
 -0.020 
 -0.055 
 -0.110 
 -0.120 
 -0.180 
 -0.200 
 -0.240 
 -0.240 
 -0.250 
 -0.230 
 -0.240 
 -0.235 
 -0.230 
 -0.215 
 -0.145 
  0.490 
  1.915 
  2.100 
  0.160 
 -1.295 
 -1.860 
 -1.615 
 -0.810 
 -0.450 
 -0.305 
 -0.205 
 -0.195 
 -0.170 
 -0.170 
 -0.140 
 -0.125 
 -0.120 
 -0.120 
 -0.105 
 -0.130 
 -0.120 
 -0.120 
 -0.100 
 -0.100 
 -0.065 
 -0.080 
 -0.055 
 -0.025 
  0.030 
  0.040 
  0.070 
  0.070 
  0.080 
  0.045 
  0.030 
 -0.015 
 -0.040 
 -0.110 
 -0.130 
 -0.170 
 -0.175 
 -0.190 
 -0.195 
 -0.230 
 -0.240 
 -0.280 
 -0.280 
 -0.310 
 -0.310 
 -0.310 
 -0.280 
 -0.290 
 -0.270 
 -0.265 
 -0.245 
 -0.230 
 -0.210 
 -0.210 
 -0.180 
 -0.190 
 -0.175 
 -0.170 
 -0.160 
 -0.185 
 -0.170 
 -0.175 
 -0.180 
 -0.190 
 -0.180 
 -0.185 
 -0.200 
 -0.200 
 -0.185 
 -0.200 
 -0.185 
 -0.200 
 -0.185 
 -0.185 
 -0.180 
 -0.190 
 -0.160 
 -0.210 
 -0.190 
 -0.185 
 -0.160 
 -0.150 
 -0.095 
 -0.060 
 -0.030 
 -0.015 
 -0.005 
 -0.060 
 -0.100 
 -0.135 
 -0.185 
 -0.210 
 -0.225 
 -0.255 
 -0.230 
 -0.240 
 -0.230 
 -0.250 
 -0.220 
 -0.200 
 -0.080 
  0.690 
  2.105 
  1.670 
 -0.430 
 -1.640 
 -2.015 
 -1.545 
 -0.690 
 -0.435 
 -0.310 
 -0.265 
 -0.210 
 -0.205 
 -0.195 
 -0.170 
 -0.155 
 -0.180 
 -0.160 
 -0.150 
 -0.140 
 -0.120 
 -0.095 
 -0.085 
 -0.065 
 -0.040 
 -0.020 
 -0.010 
  0.050 
  0.070 
  0.110 
  0.120 
  0.135 
  0.120 
  0.095 
  0.050 
 -0.005 
 -0.040 
 -0.070 
 -0.110 
 -0.140 
 -0.190 
 -0.220 
 -0.240 
 -0.240 
 -0.260 
 -0.280 
 -0.310 
 -0.280 
 -0.290 
 -0.300 
 -0.280 
 -0.245 
 -0.240 
 -0.245 
 -0.230 
 -0.180 
 -0.190 
 -0.170 
 -0.150 
 -0.160 
 -0.160 
 -0.130 
 -0.160 
 -0.180 
 -0.185 
 -0.160 
 -0.150 
 -0.160 
 -0.170 
 -0.150 
 -0.185 
 -0.190 
 -0.180 
 -0.175 
 -0.160 
 -0.155 
 -0.170 
 -0.170 
 -0.180 
 -0.140 
 -0.120 
 -0.095 
 -0.075 
 -0.040 
  0.025 
  0.040 
 -0.025 
 -0.055 
 -0.080 
 -0.120 
 -0.190 
 -0.230 
 -0.240 
 -0.225 
 -0.250 
 -0.230 
 -0.240 
 -0.230 
 -0.220 
 -0.170 
  0.365 
  1.835 
  2.165 
  0.150 
 -1.465 
 -1.990 
 -1.735 
 -0.825 
 -0.450 
 -0.275 
 -0.200 
 -0.155 
 -0.130 
 -0.115 
 -0.100 
 -0.100 
 -0.080 
 -0.050 
 -0.055 
 -0.040 
 -0.040 
 -0.050 
 -0.035 
 -0.010 
  0.020 
  0.030 
  0.060 
  0.125 
  0.150 
  0.160 
  0.160 
  0.205 
  0.230 
  0.200 
  0.160 
  0.110 
  0.040 
  0.010 
 -0.040 
 -0.080 
 -0.110 
 -0.120 
 -0.160 
 -0.195 
 -0.220 
 -0.235 
 -0.240 
 -0.235 
 -0.240 
 -0.230 
 -0.230 
 -0.200 
 -0.195 
 -0.175 
 -0.170 
 -0.160 
 -0.150 
 -0.120 
 -0.120 
 -0.120 
 -0.105 
 -0.100 
 -0.110 
 -0.105 
 -0.100 
 -0.105 
 -0.105 
 -0.110 
 -0.115 
 -0.105 
 -0.100 
 -0.115 
 -0.120 
 -0.120 
 -0.105 
 -0.085 
 -0.060 
 -0.050 
 -0.020 
  0.030 
  0.080 
  0.110 
  0.070 
  0.025 
 -0.005 
 -0.035 
 -0.100 
 -0.120 
 -0.135 
 -0.155 
 -0.170 
 -0.160 
 -0.150 
 -0.150 
 -0.150 
 -0.130 
  0.120 
  1.280 
  2.500 
  1.355 
 -0.670 
 -1.570 
 -1.760 
 -1.075 
 -0.420 
 -0.250 
 -0.130 
 -0.080 
 -0.055 
 -0.040 
 -0.010 
  0.005 
  0.015 
  0.010 
  0.025 
  0.040 
  0.040 
  0.045 
  0.055 
  0.080 
  0.090 
  0.110 
  0.130 
  0.150 
  0.190 
  0.210 
  0.240 
  0.250 
  0.270 
  0.260 
  0.240 
  0.205 
  0.160 
  0.120 
  0.065 
  0.030 
 -0.015 
 -0.050 
 -0.070 
 -0.105 
 -0.125 
 -0.145 
 -0.150 
 -0.160 
 -0.160 
 -0.160 
 -0.160 
 -0.145 
 -0.140 
 -0.135 
 -0.120 
 -0.090 
 -0.065 
 -0.060 
 -0.055 
 -0.040 
 -0.035 
 -0.040 
 -0.035 
 -0.030 
 -0.030 
 -0.020 
 -0.020 
 -0.030 
 -0.025 
 -0.020 
 -0.015 
 -0.025 
 -0.025 
 -0.020 
 -0.015 
 -0.025 
 -0.010 
 -0.020 
 -0.020 
 -0.025 
 -0.010 
  0.000 
  0.040 
  0.050 
  0.090 
  0.135 
  0.170 
  0.180 
  0.160 
  0.105 
  0.055 
  0.030 
 -0.025 
 -0.060 
 -0.060 
 -0.085 
 -0.085 
 -0.095 
 -0.080 
 -0.080 
 -0.080 
 -0.040 
  0.360 
  1.710 
  2.630 
  1.120 
 -0.650 
 -1.425 
 -1.440 
 -0.750 
 -0.315 
 -0.180 
 -0.080 
 -0.060 
 -0.030 
 -0.005 
  0.020 
  0.020 
  0.030 
  0.030 
  0.045 
  0.050 
  0.065 
  0.065 
  0.080 
  0.085 
  0.095 
  0.110 
  0.130 
  0.145 
  0.185 
  0.215 
  0.240 
  0.265 
  0.270 
  0.270 
  0.245 
  0.210 
  0.180 
  0.130 
  0.080 
  0.030 
  0.005 
 -0.030 
 -0.040 
 -0.075 
 -0.090 
 -0.105 
 -0.110 
 -0.120 
 -0.120 
 -0.120 
 -0.120 
 -0.115 
 -0.120 
 -0.130 
 -0.100 
 -0.090 
 -0.070 
 -0.065 
 -0.050 
 -0.035 
 -0.030 
 -0.045 
 -0.050 
 -0.040 
 -0.020 
 -0.020 
 -0.030 
 -0.060 
 -0.060 
 -0.050 
 -0.050 
 -0.060 
 -0.040 
 -0.040 
 -0.040 
 -0.040 
 -0.055 
 -0.050 
 -0.065 
 -0.070 
 -0.065 
 -0.065 
 -0.065 
 -0.050 
 -0.005 
 -0.010 
  0.030 
  0.050 
  0.110 
  0.140 
  0.125 
  0.080 
  0.040 
  0.010 
 -0.050 
 -0.080 
 -0.100 
 -0.115 
 -0.130 
 -0.170 
 -0.150 
 -0.130 
 -0.140 
 -0.135 
 -0.010 
  0.785 
  2.230 
  1.960 
 -0.085 
 -1.385 
 -1.820 
 -1.415 
 -0.595 
 -0.330 
 -0.170 
 -0.110 
 -0.080 
 -0.060 
 -0.060 
 -0.065 
 -0.040 
 -0.060 
 -0.070 
 -0.055 
 -0.020 
 -0.030 
 -0.015 
 -0.015 
  0.015 
  0.040 
  0.050 
  0.075 
  0.120 
  0.160 
  0.210 
  0.215 
  0.220 
  0.240 
  0.240 
  0.200 
  0.145 
  0.085 
  0.055 
 -0.005 
 -0.040 
 -0.060 
 -0.080 
 -0.105 
 -0.120 
 -0.155 
 -0.160 
 -0.160 
 -0.180 
 -0.200 
 -0.200 
 -0.210 
 -0.170 
 -0.160 
 -0.175 
 -0.160 
 -0.130 
 -0.135 
 -0.105 
 -0.095 
 -0.095 
 -0.090 
 -0.080 
 -0.105 
 -0.105 
 -0.100 
 -0.080 
 -0.080 
 -0.080 
 -0.080 
 -0.100 
 -0.120 
 -0.095 
 -0.095 
 -0.090 
 -0.090 
 -0.070 
 -0.080 
 -0.065 
 -0.050 
 -0.050 
 -0.015 
  0.055 
  0.120 
  0.120 
  0.080 
  0.040 
 -0.035 
 -0.050 
 -0.105 
 -0.120 
 -0.160 
 -0.185 
 -0.180 
 -0.170 
 -0.180 
 -0.170 
 -0.175 
 -0.155 
  0.070 
  1.140 
  2.340 
  1.215 
 -0.890 
 -1.780 
 -1.920 
 -1.180 
 -0.480 
 -0.280 
 -0.180 
 -0.130 
 -0.075 
 -0.020 
 -0.050 
 -0.055 
 -0.035 
  0.005 
 -0.010 
 -0.005 
  0.030 
  0.045 
  0.040 
  0.055 
  0.060 
  0.120 
  0.135 
  0.150 
  0.175 
  0.240 
  0.250 
  0.285 
  0.300 
  0.260 
  0.260 
  0.255 
  0.170 
  0.135 
  0.080 
  0.030 
 -0.005 
 -0.050 
 -0.095 
 -0.100 
 -0.115 
 -0.120 
 -0.150 
 -0.170 
 -0.180 
 -0.180 
 -0.175 
 -0.170 
 -0.180 
 -0.145 
 -0.130 
 -0.105 
 -0.100 
 -0.075 
 -0.085 
 -0.080 
 -0.070 
 -0.065 
 -0.080 
 -0.050 
 -0.080 
 -0.090 
 -0.080 
 -0.080 
 -0.110 
 -0.090 
 -0.090 
 -0.080 
 -0.080 
 -0.090 
 -0.120 
 -0.080 
 -0.040 
 -0.040 
 -0.040 
  0.030 
  0.060 
  0.110 
  0.120 
  0.065 
  0.040 
  0.010 
 -0.070 
 -0.100 
 -0.140 
 -0.160 
 -0.160 
 -0.160 
 -0.160 
 -0.150 
 -0.140 
 -0.145 
 -0.110 
  0.420 
  1.930 
  2.400 
  0.340 
 -1.405 
 -1.975 
 -1.735 
 -0.820 
 -0.380 
 -0.240 
 -0.130 
 -0.080 
 -0.075 
 -0.080 
 -0.040 
 -0.055 
 -0.050 
 -0.035 
 -0.020 
  0.000 
 -0.005 
 -0.010 
  0.020 
  0.040 
  0.090 
  0.080 
  0.120 
  0.165 
  0.210 
  0.220 
  0.240 
  0.250 
  0.270 
  0.250 
  0.240 
  0.165 
  0.125 
  0.080 
  0.020 
 -0.035 
 -0.080 
 -0.110 
 -0.110 
 -0.140 
 -0.170 
 -0.170 
 -0.185 
 -0.210 
 -0.220 
 -0.230 
 -0.215 
 -0.200 
 -0.180 
 -0.170 
 -0.145 
 -0.140 
 -0.110 
 -0.110 
 -0.115 
 -0.120 
 -0.100 
 -0.080 
 -0.100 
 -0.110 
 -0.105 
 -0.120 
 -0.090 
 -0.100 
 -0.110 
 -0.110 
 -0.100 
 -0.115 
 -0.110 
 -0.080 
 -0.060 
 -0.040 
 -0.005 
  0.070 
  0.120 
  0.075 
  0.035 
 -0.010 
 -0.040 
 -0.120 
 -0.155 
 -0.185 
 -0.210 
 -0.220 
 -0.200 
 -0.200 
 -0.190 
 -0.190 
 -0.170 
  0.005 
  1.030 
  2.475 
  1.605 
 -0.720 
 -1.830 
 -2.010 
 -1.335 
 -0.555 
 -0.310 
 -0.185 
 -0.130 
 -0.110 
 -0.090 
 -0.070 
 -0.065 
 -0.065 
 -0.040 
 -0.030 
 -0.020 
 -0.025 
 -0.010 
  0.020 
  0.050 
  0.050 
  0.085 
  0.110 
  0.145 
  0.180 
  0.210 
  0.225 
  0.265 
  0.280 
  0.280 
  0.240 
  0.215 
  0.170 
  0.120 
  0.045 
  0.010 
 -0.030 
 -0.060 
 -0.090 
 -0.105 
 -0.140 
 -0.150 
 -0.170 
 -0.180 
 -0.200 
 -0.200 
 -0.195 
 -0.180 
 -0.185 
 -0.160 
 -0.160 
 -0.130 
 -0.120 
 -0.110 
 -0.110 
 -0.080 
 -0.095 
 -0.080 
 -0.080 
 -0.075 
 -0.090 
 -0.070 
 -0.075 
 -0.080 
 -0.080 
 -0.080 
 -0.095 
 -0.100 
 -0.095 
 -0.080 
 -0.080 
 -0.060 
 -0.040 
  0.010 
  0.040 
  0.090 
  0.130 
  0.130 
  0.100 
  0.060 
  0.005 
 -0.030 
 -0.090 
 -0.105 
 -0.145 
 -0.140 
 -0.155 
 -0.160 
 -0.150 
 -0.130 
 -0.130 
 -0.065 
  0.530 
  2.090 
  2.520 
  0.650 
 -0.970 
 -1.530 
 -1.390 
 -0.660 
 -0.350 
 -0.200 
 -0.120 
 -0.070 
 -0.060 
 -0.030 
 -0.020 
 -0.020 
 -0.005 
 -0.005 
 -0.010 
  0.005 
  0.010 
  0.030 
  0.040 
  0.065 
  0.060 
  0.090 
  0.100 
  0.135 
  0.170 
  0.225 
  0.260 
  0.295 
  0.300 
  0.305 
  0.280 
  0.250 
  0.185 
  0.145 
  0.080 
  0.030 
 -0.020 
 -0.050 
 -0.080 
 -0.100 
 -0.110 
 -0.110 
 -0.130 
 -0.130 
 -0.130 
 -0.150 
 -0.175 
 -0.160 
 -0.175 
 -0.190 
 -0.180 
 -0.160 
 -0.170 
 -0.160 
 -0.145 
 -0.115 
 -0.110 
 -0.080 
 -0.080 
 -0.080 
 -0.090 
 -0.080 
 -0.075 
 -0.090 
 -0.080 
 -0.070 
 -0.075 
 -0.075 
 -0.075 
 -0.075 
 -0.090 
 -0.080 
 -0.090 
 -0.090 
 -0.095 
 -0.050 
 -0.055 
 -0.010 
  0.030 
  0.075 
  0.090 
  0.090 
  0.030 
 -0.030 
 -0.060 
 -0.100 
 -0.155 
 -0.180 
 -0.185 
 -0.200 
 -0.200 
 -0.205 
 -0.210 
 -0.180 
 -0.160 
  0.060 
  1.100 
  2.400 
  1.440 
 -0.650 
 -1.720 
 -1.915 
 -1.240 
 -0.555 
 -0.360 
 -0.235 
 -0.215 
 -0.175 
 -0.140 
 -0.120 
 -0.100 
 -0.090 
 -0.110 
 -0.090 
 -0.080 
 -0.080 
 -0.095 
 -0.035 
 -0.005 
 -0.010 
  0.015 
  0.065 
  0.070 
  0.105 
  0.170 
  0.220 
  0.240 
  0.265 
  0.270 
  0.280 
  0.225 
  0.175 
  0.110 
  0.055 
  0.000 
 -0.060 
 -0.115 
 -0.135 
 -0.160 
 -0.175 
 -0.185 
 -0.205 
 -0.210 
 -0.210 
 -0.255 
 -0.275 
 -0.260 
 -0.255 
 -0.275 
 -0.260 
 -0.265 
 -0.280 
 -0.240 
 -0.235 
 -0.235 
 -0.200 
 -0.200 
 -0.195 
 -0.190 
 -0.190 
 -0.180 
 -0.170 
 -0.170 
 -0.180 
 -0.190 
 -0.200 
 -0.170 
 -0.145 
 -0.180 
 -0.150 
 -0.145 
 -0.150 
 -0.085 
 -0.030 
 -0.005 
  0.065 
  0.050 
 -0.040 
 -0.095 
 -0.085 
 -0.135 
 -0.185 
 -0.220 
 -0.265 
 -0.250 
 -0.230 
 -0.240 
 -0.245 
 -0.230 
 -0.230 
 -0.145 
  0.560 
  2.105 
  2.050 
 -0.185 
 -1.680 
 -2.100 
 -1.680 
 -0.765 
 -0.420 
 -0.270 
 -0.180 
 -0.135 
 -0.130 
 -0.105 
 -0.100 
 -0.100 
 -0.055 
 -0.070 
 -0.040 
 -0.040 
 -0.035 
 -0.035 
 -0.025 
  0.010 
  0.040 
  0.050 
  0.080 
  0.120 
  0.160 
  0.190 
  0.250 
  0.270 
  0.270 
  0.260 
  0.230 
  0.190 
  0.125 
  0.055 
 -0.010 
 -0.055 
 -0.095 
 -0.150 
 -0.160 
 -0.195 
 -0.215 
 -0.215 
 -0.235 
 -0.270 
 -0.265 
 -0.240 
 -0.215 
 -0.230 
 -0.255 
 -0.235 
 -0.210 
 -0.200 
 -0.160 
 -0.160 
 -0.150 
 -0.150 
 -0.140 
 -0.135 
 -0.140 
 -0.105 
 -0.100 
 -0.140 
 -0.140 
 -0.130 
 -0.115 
 -0.100 
 -0.110 
 -0.110 
 -0.110 
 -0.105 
 -0.060 
 -0.040 
 -0.025 
  0.015 
  0.085 
  0.120 
  0.100 
  0.060 
 -0.010 
 -0.055 
 -0.135 
 -0.160 
 -0.150 
 -0.145 
 -0.185 
 -0.195 
 -0.190 
 -0.185 
 -0.190 
 -0.150 
  0.005 
  0.920 
  2.450 
  1.865 
 -0.515 
 -1.760 
 -2.020 
 -1.450 
 -0.590 
 -0.305 
 -0.215 
 -0.145 
 -0.100 
 -0.070 
 -0.060 
 -0.035 
 -0.035 
 -0.050 
 -0.030 
 -0.010 
  0.010 
  0.020 
  0.015 
  0.030 
  0.050 
  0.070 
  0.095 
  0.130 
  0.180 
  0.240 
  0.255 
  0.265 
  0.290 
  0.305 
  0.290 
  0.250 
  0.190 
  0.130 
  0.065 
  0.015 
 -0.030 
 -0.055 
 -0.100 
 -0.130 
 -0.155 
 -0.175 
 -0.220 
 -0.210 
 -0.200 
 -0.210 
 -0.215 
 -0.210 
 -0.210 
 -0.190 
 -0.175 
 -0.150 
 -0.160 
 -0.145 
 -0.140 
 -0.120 
 -0.110 
 -0.080 
 -0.105 
 -0.100 
 -0.100 
 -0.090 
 -0.110 
 -0.100 
 -0.090 
 -0.080 
 -0.100 
 -0.080 
 -0.105 
 -0.065 
 -0.040 
 -0.020 
  0.005 
  0.040 
  0.100 
  0.130 
  0.090 
  0.030 
 -0.005 
 -0.035 
 -0.095 
 -0.120 
 -0.130 
 -0.135 
 -0.150 
 -0.160 
 -0.155 
 -0.150 
 -0.150 
 -0.100 
  0.240 
  1.580 
  2.710 
  1.250 
 -0.745 
 -1.590 
 -1.670 
 -0.930 
 -0.390 
 -0.240 
 -0.120 
 -0.070 
 -0.055 
 -0.030 
 -0.030 
 -0.020 
 -0.010 
  0.010 
  0.005 
  0.025 
  0.045 
  0.055 
  0.060 
  0.085 
  0.095 
  0.135 
  0.160 
  0.200 
  0.230 
  0.280 
  0.320 
  0.360 
  0.350 
  0.360 
  0.345 
  0.320 
  0.280 
  0.210 
  0.140 
  0.100 
  0.050 
  0.015 
 -0.020 
 -0.030 
 -0.060 
 -0.075 
 -0.090 
 -0.100 
 -0.115 
 -0.105 
 -0.130 
 -0.135 
 -0.140 
 -0.135 
 -0.140 
 -0.130 
 -0.110 
 -0.095 
 -0.080 
 -0.060 
 -0.060 
 -0.035 
 -0.030 
 -0.030 
 -0.030 
 -0.030 
 -0.015 
 -0.020 
 -0.030 
 -0.030 
 -0.030 
 -0.030 
 -0.040 
 -0.040 
 -0.050 
 -0.035 
 -0.040 
 -0.040 
 -0.040 
 -0.040 
 -0.040 
 -0.010 
  0.010 
  0.045 
  0.080 
  0.110 
  0.145 
  0.145 
  0.110 
  0.080 
  0.035 
 -0.005 
 -0.040 
 -0.070 
 -0.090 
 -0.090 
 -0.100 
 -0.095 
 -0.090 
 -0.075 
 -0.075 
  0.010 
  0.705 
  2.280 
  2.485 
  0.575 
 -0.965 
 -1.420 
 -1.150 
 -0.495 
 -0.265 
 -0.130 
 -0.065 
 -0.035 
 -0.015 
  0.010 
  0.025 
  0.020 
  0.020 
  0.045 
  0.040 
  0.040 
  0.045 
  0.070 
  0.055 
  0.075 
  0.070 
  0.100 
  0.125 
  0.145 
  0.170 
  0.210 
  0.250 
  0.285 
  0.285 
  0.290 
  0.270 
  0.230 
  0.175 
  0.150 
  0.080 
  0.040 
 -0.010 
 -0.060 
 -0.080 
 -0.090 
 -0.110 
 -0.130 
 -0.135 
 -0.150 
 -0.190 
 -0.210 
 -0.240 
 -0.225 
 -0.245 
 -0.215 
 -0.210 
 -0.200 
 -0.185 
 -0.180 
 -0.180 
 -0.140 
 -0.120 
 -0.115 
 -0.120 
 -0.110 
 -0.110 
 -0.080 
 -0.080 
 -0.080 
 -0.100 
 -0.095 
 -0.085 
 -0.080 
 -0.100 
 -0.100 
 -0.100 
 -0.100 
 -0.120 
 -0.090 
 -0.095 
 -0.110 
 -0.105 
 -0.085 
 -0.100 
 -0.070 
 -0.040 
 -0.035 
  0.000 
  0.070 
  0.100 
  0.130 
  0.085 
  0.015 
 -0.020 
 -0.010 
 -0.065 
 -0.080 
 -0.105 
 -0.120 
 -0.115 
 -0.145 
 -0.140 
 -0.120 
 -0.110 
 -0.075 
  0.210 
  1.410 
  2.520 
  1.190 
 -0.920 
 -1.820 
 -1.850 
 -1.065 
 -0.460 
 -0.265 
 -0.140 
 -0.100 
 -0.055 
 -0.040 
 -0.040 
 -0.035 
 -0.030 
 -0.025 
  0.000 
  0.010 
  0.020 
  0.025 
  0.040 
  0.065 
  0.080 
  0.080 
  0.110 
  0.160 
  0.185 
  0.230 
  0.240 
  0.290 
  0.310 
  0.300 
  0.250 
  0.230 
  0.185 
  0.125 
  0.080 
  0.040 
 -0.010 
 -0.015 
 -0.070 
 -0.120 
 -0.130 
 -0.130 
 -0.160 
 -0.180 
 -0.160 
 -0.170 
 -0.190 
 -0.185 
 -0.160 
 -0.125 
 -0.160 
 -0.120 
 -0.120 
 -0.130 
 -0.095 
 -0.065 
 -0.070 
 -0.075 
 -0.090 
 -0.070 
 -0.035 
 -0.030 
 -0.045 
 -0.070 
 -0.050 
 -0.080 
 -0.040 
 -0.030 
 -0.080 
 -0.050 
 -0.060 
 -0.075 
 -0.005 
 -0.005 
 -0.005 
  0.090 
  0.100 
  0.160 
  0.165 
  0.090 
  0.050 
  0.020 
 -0.050 
 -0.095 
 -0.095 
 -0.130 
 -0.095 
 -0.095 
 -0.140 
 -0.135 
 -0.160 
 -0.170 
 -0.050 
  0.930 
  2.720 
  2.305 
 -0.305 
 -1.810 
 -2.070 
 -1.465 
 -0.630 
 -0.340 
 -0.180 
 -0.200 
 -0.170 
 -0.100 
 -0.075 
 -0.075 
 -0.080 
 -0.040 
 -0.060 
 -0.070 
 -0.005 
  0.010 
 -0.080 
 -0.060 
  0.010 
  0.050 
  0.120 
  0.180 
  0.185 
  0.225 
  0.270 
  0.335 
  0.360 
  0.340 
  0.280 
  0.200 
  0.185 
  0.120 
  0.075 
 -0.040 
 -0.110 
 -0.120 
 -0.200 
 -0.195 
 -0.220 
 -0.275 
 -0.280 
 -0.325 
 -0.290 
 -0.270 
 -0.260 
 -0.225 
 -0.215 
 -0.200 
 -0.145 
 -0.135 
 -0.160 
 -0.175 
 -0.160 
 -0.110 
 -0.075 
 -0.055 
 -0.060 
 -0.065 
 -0.090 
 -0.095 
 -0.105 
 -0.090 
 -0.080 
 -0.090 
 -0.095 
 -0.075 
 -0.080 
 -0.050 
 -0.015 
  0.040 
  0.040 
  0.110 
  0.155 
  0.135 
  0.080 
  0.050 
 -0.025 
 -0.095 
 -0.150 
 -0.180 
 -0.190 
 -0.200 
 -0.215 
 -0.195 
 -0.175 
 -0.185 
 -0.160 
  0.250 
  1.855 
  3.295 
  1.565 
 -1.015 
 -1.900 
 -1.800 
 -0.920 
 -0.315 
 -0.150 
  0.005 
  0.075 
  0.070 
  0.130 
  0.125 
  0.130 
  0.110 
  0.150 
  0.160 
  0.205 
  0.215 
  0.255 
  0.265 
  0.295 
  0.305 
  0.330 
  0.345 
  0.415 
  0.450 
  0.490 
  0.520 
  0.520 
  0.505 
  0.520 
  0.455 
  0.440 
  0.345 
  0.270 
  0.210 
  0.160 
  0.080 
  0.040 
 -0.025 
 -0.055 
 -0.065 
 -0.120 
 -0.165 
 -0.185 
 -0.190 
 -0.155 
 -0.170 
 -0.145 
 -0.140 
 -0.120 
 -0.105 
 -0.060 
 -0.075 
 -0.065 
 -0.060 
 -0.060 
 -0.055 
 -0.045 
 -0.080 
 -0.085 
 -0.100 
 -0.105 
 -0.110 
 -0.090 
 -0.110 
 -0.105 
 -0.130 
 -0.115 
 -0.080 
 -0.030 
 -0.025 
  0.005 
  0.080 
  0.085 
  0.020 
 -0.025 
 -0.105 
 -0.140 
 -0.190 
 -0.215 
 -0.230 
 -0.220 
 -0.220 
 -0.210 
 -0.200 
 -0.160 
 -0.160 
  0.415 
  2.305 
  3.160 
  0.790 
 -1.360 
 -1.990 
 -1.770 
 -0.890 
 -0.455 
 -0.335 
 -0.230 
 -0.170 
 -0.150 
 -0.150 
 -0.095 
 -0.095 
 -0.105 
 -0.090 
 -0.075 
 -0.075 
 -0.025 
 -0.005 
  0.005 
  0.010 
  0.070 
  0.100 
  0.120 
  0.130 
  0.190 
  0.255 
  0.285 
  0.320 
  0.345 
  0.295 
  0.260 
  0.230 
  0.160 
  0.080 
  0.025 
 -0.035 
 -0.080 
 -0.160 
 -0.160 
 -0.180 
 -0.210 
 -0.235 
 -0.235 
 -0.265 
 -0.255 
 -0.250 
 -0.240 
 -0.270 
 -0.250 
 -0.250 
 -0.230 
 -0.260 
 -0.230 
 -0.200 
 -0.180 
 -0.175 
 -0.160 
 -0.155 
 -0.160 
 -0.160 
 -0.170 
 -0.190 
 -0.130 
 -0.160 
 -0.210 
 -0.180 
 -0.100 
 -0.065 
 -0.040 
 -0.040 
  0.030 
  0.025 
 -0.005 
 -0.040 
 -0.065 
 -0.130 
 -0.185 
 -0.210 
 -0.205 
 -0.225 
 -0.215 
 -0.230 
 -0.220 
 -0.220 
 -0.155 
  0.395 
  2.200 
  3.130 
  0.955 
 -1.205 
 -1.825 
 -1.640 
 -0.795 
 -0.395 
 -0.255 
 -0.175 
 -0.140 
 -0.110 
 -0.080 
 -0.080 
 -0.070 
 -0.065 
 -0.050 
 -0.060 
 -0.045 
 -0.040 
 -0.015 
 -0.005 
  0.010 
  0.020 
  0.060 
  0.090 
  0.125 
  0.150 
  0.210 
  0.245 
  0.290 
  0.310 
  0.320 
  0.290 
  0.270 
  0.210 
  0.135 
  0.060 
  0.010 
 -0.050 
 -0.075 
 -0.110 
 -0.125 
 -0.135 
 -0.140 
 -0.160 
 -0.160 
 -0.180 
 -0.175 
 -0.175 
 -0.185 
 -0.210 
 -0.210 
 -0.220 
 -0.200 
 -0.200 
 -0.190 
 -0.180 
 -0.160 
 -0.150 
 -0.135 
 -0.130 
 -0.100 
 -0.080 
 -0.100 
 -0.120 
 -0.075 
 -0.035 
 -0.025 
 -0.025 
  0.025 
  0.100 
  0.100 
  0.065 
  0.040 
  0.000 
 -0.055 
 -0.115 
 -0.130 
 -0.150 
 -0.175 
 -0.190 
 -0.190 
 -0.190 
 -0.170 
 -0.130 
  0.170 
  1.445 
  2.620 
  1.220 
 -0.850 
 -1.720 
 -1.810 
 -1.060 
 -0.430 
 -0.280 
 -0.135 
 -0.100 
 -0.105 
 -0.065 
 -0.035 
 -0.030 
  0.000 
  0.010 
 -0.020 
 -0.030 
 -0.030 
 -0.015 
  0.060 
  0.080 
  0.075 
  0.110 
  0.150 
  0.180 
  0.245 
  0.290 
  0.340 
  0.380 
  0.385 
  0.390 
  0.405 
  0.360 
  0.245 
  0.160 
  0.090 
  0.020 
 -0.020 
 -0.115 
 -0.160 
 -0.170 
 -0.210 
 -0.200 
 -0.200 
 -0.220 
 -0.290 
 -0.290 
 -0.265 
 -0.285 
 -0.280 
 -0.280 
 -0.345 
 -0.305 
 -0.260 
 -0.325 
 -0.330 
 -0.265 
 -0.230 
 -0.250 
 -0.190 
 -0.250 
 -0.265 
 -0.185 
 -0.160 
 -0.110 
 -0.060 
 -0.035 
  0.010 
 -0.010 
 -0.035 
 -0.060 
 -0.095 
 -0.200 
 -0.240 
 -0.255 
 -0.280 
 -0.240 
 -0.230 
 -0.300 
 -0.300 
 -0.240 
 -0.230 
  0.405 
  2.385 
  3.020 
  0.430 
 -1.850 
 -2.360 
 -1.960 
 -0.945 
 -0.470 
 -0.340 
 -0.200 
 -0.115 
 -0.140 
 -0.120 
 -0.105 
 -0.080 
 -0.070 
 -0.035 
 -0.040 
  0.005 
 -0.010 
 -0.005 
  0.020 
  0.040 
  0.100 
  0.160 
  0.170 
  0.240 
  0.270 
  0.310 
  0.385 
  0.455 
  0.405 
  0.380 
  0.355 
  0.290 
  0.180 
  0.130 
 -0.020 
 -0.100 
 -0.140 
 -0.200 
 -0.210 
 -0.255 
 -0.280 
 -0.315 
 -0.340 
 -0.335 
 -0.345 
 -0.330 
 -0.325 
 -0.290 
 -0.265 
 -0.260 
 -0.265 
 -0.225 
 -0.220 
 -0.200 
 -0.210 
 -0.200 
 -0.200 
 -0.200 
 -0.200 
 -0.185 
 -0.200 
 -0.200 
 -0.220 
 -0.190 
 -0.140 
 -0.080 
 -0.055 
 -0.040 
  0.005 
  0.030 
 -0.030 
 -0.080 
 -0.130 
 -0.200 
 -0.230 
 -0.230 
 -0.265 
 -0.265 
 -0.270 
 -0.240 
 -0.240 
 -0.240 
 -0.160 
  0.740 
  2.800 
  2.960 
  0.240 
 -1.705 
 -2.080 
 -1.590 
 -0.730 
 -0.430 
 -0.290 
 -0.215 
 -0.190 
 -0.140 
 -0.145 
 -0.120 
 -0.100 
 -0.090 
 -0.080 
 -0.045 
 -0.040 
 -0.030 
 -0.015 
  0.020 
  0.045 
  0.085 
  0.100 
  0.150 
  0.190 
  0.250 
  0.300 
  0.350 
  0.360 
  0.380 
  0.365 
  0.340 
  0.280 
  0.215 
  0.120 
  0.060 
 -0.010 
 -0.040 
 -0.090 
 -0.100 
 -0.115 
 -0.120 
 -0.145 
 -0.155 
 -0.170 
 -0.160 
 -0.180 
 -0.190 
 -0.200 
 -0.185 
 -0.190 
 -0.175 
 -0.175 
 -0.145 
 -0.140 
 -0.105 
 -0.100 
 -0.090 
 -0.075 
 -0.075 
 -0.090 
 -0.080 
 -0.075 
 -0.065 
 -0.075 
 -0.060 
 -0.070 
 -0.040 
 -0.015 
  0.025 
  0.050 
  0.090 
  0.140 
  0.175 
  0.145 
  0.110 
  0.080 
  0.050 
 -0.020 
 -0.040 
 -0.065 
 -0.085 
 -0.100 
 -0.105 
 -0.100 
 -0.075 
 -0.080 
 -0.035 
  0.500 
  2.085 
  2.750 
  0.965 
 -0.740 
 -1.340 
 -1.260 
 -0.580 
 -0.260 
 -0.140 
 -0.065 
 -0.010 
  0.015 
  0.025 
  0.040 
  0.060 
  0.050 
  0.080 
  0.075 
  0.075 
  0.110 
  0.120 
  0.105 
  0.140 
  0.160 
  0.210 
  0.210 
  0.230 
  0.280 
  0.315 
  0.340 
  0.380 
  0.405 
  0.420 
  0.405 
  0.375 
  0.310 
  0.210 
  0.150 
  0.120 
  0.080 
  0.060 
  0.050 
  0.000 
 -0.050 
 -0.040 
 -0.040 
 -0.055 
 -0.070 
 -0.075 
 -0.120 
 -0.160 
 -0.135 
 -0.135 
 -0.180 
 -0.160 
 -0.130 
 -0.145 
 -0.160 
 -0.130 
 -0.140 
 -0.120 
 -0.095 
 -0.075 
 -0.080 
 -0.070 
 -0.060 
 -0.095 
 -0.095 
 -0.050 
 -0.080 
 -0.080 
 -0.040 
 -0.025 
 -0.015 
  0.025 
  0.060 
  0.125 
  0.125 
  0.070 
  0.030 
 -0.020 
 -0.080 
 -0.100 
 -0.115 
 -0.150 
 -0.130 
 -0.120 
 -0.160 
 -0.150 
 -0.130 
 -0.100 
  0.230 
  1.620 
  2.760 
  1.130 
 -0.950 
 -1.710 
 -1.730 
 -0.945 
 -0.390 
 -0.210 
 -0.130 
 -0.080 
 -0.040 
 -0.030 
 -0.005 
 -0.005 
  0.010 
  0.045 
  0.020 
  0.040 
  0.040 
  0.065 
  0.040 
  0.030 
  0.105 
  0.170 
  0.200 
  0.200 
  0.245 
  0.330 
  0.340 
  0.370 
  0.365 
  0.345 
  0.325 
  0.280 
  0.220 
  0.130 
  0.050 
  0.030 
 -0.040 
 -0.080 
 -0.100 
 -0.130 
 -0.150 
 -0.160 
 -0.200 
 -0.185 
 -0.185 
 -0.205 
 -0.215 
 -0.200 
 -0.195 
 -0.170 
 -0.150 
 -0.150 
 -0.140 
 -0.095 
 -0.080 
 -0.100 
 -0.090 
 -0.070 
 -0.090 
 -0.075 
 -0.080 
 -0.070 
 -0.075 
 -0.070 
 -0.075 
 -0.040 
 -0.020 
 -0.005 
  0.040 
  0.085 
  0.120 
  0.200 
  0.165 
  0.080 
  0.030 
 -0.010 
 -0.040 
 -0.095 
 -0.090 
 -0.005 
 -0.075 
 -0.140 
 -0.190 
 -0.155 
 -0.120 
  0.010 
  1.160 
  3.040 
  2.320 
 -0.455 
 -1.870 
 -1.965 
 -1.315 
 -0.530 
 -0.320 
 -0.160 
 -0.120 
 -0.110 
 -0.060 
 -0.020 
 -0.040 
 -0.020 
 -0.020 
 -0.010 
 -0.005 
  0.040 
  0.015 
  0.050 
  0.065 
  0.110 
  0.120 
  0.175 
  0.195 
  0.255 
  0.280 
  0.350 
  0.370 
  0.355 
  0.310 
  0.330 
  0.315 
  0.275 
  0.190 
  0.110 
  0.005 
 -0.050 
 -0.130 
 -0.180 
 -0.215 
 -0.200 
 -0.195 
 -0.230 
 -0.280 
 -0.240 
 -0.230 
 -0.240 
 -0.240 
 -0.215 
 -0.195 
 -0.200 
 -0.175 
 -0.135 
 -0.140 
 -0.120 
 -0.085 
 -0.060 
 -0.115 
 -0.145 
 -0.160 
 -0.160 
 -0.190 
 -0.175 
 -0.175 
 -0.175 
 -0.185 
 -0.180 
 -0.170 
 -0.110 
 -0.110 
 -0.075 
 -0.025 
  0.010 
  0.105 
  0.110 
  0.030 
  0.005 
 -0.090 
 -0.225 
 -0.295 
 -0.240 
 -0.220 
 -0.190 
 -0.190 
 -0.195 
 -0.200 
 -0.190 
 -0.180 
  0.075 
  1.440 
  3.080 
  1.970 
 -0.465 
 -1.605 
 -1.715 
 -1.060 
 -0.435 
 -0.270 
 -0.140 
 -0.090 
 -0.045 
 -0.060 
 -0.035 
 -0.010 
  0.010 
  0.010 
  0.015 
 -0.020 
  0.025 
  0.025 
  0.045 
  0.085 
  0.095 
  0.120 
  0.190 
  0.155 
  0.180 
  0.250 
  0.260 
  0.315 
  0.340 
  0.305 
  0.270 
  0.240 
  0.225 
  0.125 
  0.085 
  0.045 
 -0.030 
 -0.070 
 -0.100 
 -0.135 
 -0.150 
 -0.170 
 -0.170 
 -0.200 
 -0.220 
 -0.200 
 -0.200 
 -0.220 
 -0.180 
 -0.190 
 -0.195 
 -0.190 
 -0.170 
 -0.200 
 -0.160 
 -0.130 
 -0.140 
 -0.115 
 -0.100 
 -0.090 
 -0.110 
 -0.155 
 -0.115 
 -0.080 
 -0.120 
 -0.120 
 -0.095 
 -0.105 
 -0.095 
 -0.090 
 -0.090 
 -0.110 
 -0.085 
 -0.025 
  0.025 
  0.040 
  0.080 
  0.110 
  0.135 
  0.065 
  0.035 
  0.005 
 -0.050 
 -0.120 
 -0.150 
 -0.170 
 -0.160 
 -0.160 
 -0.170 
 -0.150 
 -0.160 
 -0.130 
  0.015 
  1.025 
  2.785 
  2.380 
  0.105 
 -1.190 
 -1.520 
 -1.065 
 -0.425 
 -0.260 
 -0.130 
 -0.085 
 -0.080 
 -0.050 
 -0.040 
 -0.030 
 -0.030 
  0.000 
 -0.010 
  0.010 
  0.040 
  0.050 
  0.070 
  0.080 
  0.100 
  0.125 
  0.150 
  0.200 
  0.255 
  0.285 
  0.305 
  0.360 
  0.385 
  0.390 
  0.380 
  0.365 
  0.310 
  0.255 
  0.175 
  0.120 
  0.075 
  0.050 
  0.015 
 -0.005 
 -0.025 
 -0.035 
 -0.060 
 -0.065 
 -0.080 
 -0.075 
 -0.115 
 -0.125 
 -0.110 
 -0.110 
 -0.120 
 -0.090 
 -0.070 
 -0.045 
 -0.050 
 -0.010 
 -0.010 
 -0.005 
 -0.025 
 -0.005 
  0.050 
  0.030 
 -0.015 
  0.040 
  0.030 
  0.005 
  0.040 
  0.080 
  0.050 
  0.030 
  0.010 
 -0.010 
  0.005 
  0.055 
  0.090 
  0.065 
  0.100 
  0.205 
  0.240 
  0.225 
  0.160 
  0.095 
  0.055 
  0.050 
 -0.005 
 -0.030 
 -0.050 
 -0.045 
 -0.075 
 -0.090 
 -0.055 
 -0.010 
 -0.015 
  0.530 
  1.965 
  2.560 
  0.825 
 -0.880 
 -1.580 
 -1.410 
 -0.610 
 -0.215 
 -0.040 
  0.055 
  0.020 
  0.010 
  0.045 
  0.085 
  0.080 
  0.095 
  0.130 
  0.135 
  0.105 
  0.135 
  0.180 
  0.170 
  0.190 
  0.240 
  0.240 
  0.260 
  0.290 
  0.325 
  0.385 
  0.420 
  0.440 
  0.430 
  0.430 
  0.400 
  0.365 
  0.300 
  0.220 
  0.185 
  0.120 
  0.075 
  0.040 
  0.000 
 -0.025 
 -0.040 
 -0.040 
 -0.040 
 -0.100 
 -0.095 
 -0.065 
 -0.105 
 -0.120 
 -0.090 
 -0.090 
 -0.055 
 -0.030 
 -0.040 
 -0.010 
  0.025 
  0.020 
  0.015 
 -0.025 
  0.015 
  0.000 
  0.050 
  0.070 
  0.030 
  0.040 
  0.030 
 -0.010 
  0.005 
  0.050 
  0.065 
  0.100 
  0.095 
  0.090 
  0.145 
  0.170 
  0.260 
  0.300 
  0.245 
  0.160 
  0.120 
  0.070 
  0.005 
  0.010 
 -0.020 
 -0.055 
 -0.055 
 -0.050 
 -0.025 
 -0.050 
 -0.040 
  0.020 
  0.820 
  2.720 
  2.920 
  0.440 
 -1.405 
 -1.770 
 -1.360 
 -0.555 
 -0.215 
 -0.105 
 -0.030 
  0.025 
  0.030 
  0.080 
  0.075 
  0.040 
  0.085 
  0.100 
  0.100 
  0.080 
  0.120 
  0.160 
  0.180 
  0.165 
  0.160 
  0.210 
  0.285 
  0.305 
  0.375 
  0.440 
  0.460 
  0.490 
  0.520 
  0.500 
  0.420 
  0.325 
  0.255 
  0.160 
  0.070 
  0.040 
 -0.015 
 -0.040 
 -0.060 
 -0.090 
 -0.105 
 -0.115 
 -0.150 
 -0.200 
 -0.200 
 -0.170 
 -0.150 
 -0.160 
 -0.180 
 -0.160 
 -0.095 
 -0.070 
 -0.080 
 -0.040 
 -0.035 
 -0.050 
 -0.025 
 -0.040 
 -0.020 
 -0.025 
 -0.015 
 -0.040 
 -0.080 
 -0.055 
 -0.050 
 -0.090 
 -0.050 
 -0.075 
 -0.110 
 -0.090 
 -0.015 
  0.020 
  0.020 
  0.100 
  0.180 
  0.200 
  0.175 
  0.150 
  0.020 
 -0.040 
 -0.060 
 -0.120 
 -0.110 
 -0.090 
 -0.080 
 -0.045 
 -0.020 
 -0.040 
  0.040 
  1.000 
  2.790 
  2.505 
  0.030 
 -1.435 
 -1.680 
 -1.175 
 -0.470 
 -0.260 
 -0.140 
 -0.065 
 -0.055 
 -0.065 
 -0.075 
 -0.130 
 -0.100 
 -0.055 
 -0.015 
 -0.015 
  0.030 
  0.040 
  0.040 
  0.040 
  0.095 
  0.130 
  0.180 
  0.245 
  0.300 
  0.330 
  0.360 
  0.360 
  0.350 
  0.335 
  0.350 
  0.290 
  0.225 
  0.150 
  0.090 
  0.035 
  0.010 
 -0.050 
 -0.100 
 -0.135 
 -0.145 
 -0.150 
 -0.135 
 -0.215 
 -0.240 
 -0.215 
 -0.210 
 -0.190 
 -0.150 
 -0.160 
 -0.130 
 -0.120 
 -0.075 
 -0.055 
 -0.020 
 -0.040 
 -0.080 
 -0.070 
 -0.040 
 -0.035 
 -0.045 
 -0.040 
 -0.025 
 -0.050 
 -0.030 
 -0.050 
 -0.055 
 -0.030 
 -0.030 
 -0.040 
  0.010 
  0.060 
  0.080 
  0.085 
  0.130 
  0.150 
  0.205 
  0.200 
  0.140 
  0.105 
  0.060 
 -0.015 
 -0.020 
 -0.060 
 -0.075 
 -0.105 
 -0.115 
 -0.110 
 -0.100 
 -0.100 
  0.025 
  0.840 
  2.380 
  2.280 
  0.415 
 -0.840 
 -1.290 
 -1.055 
 -0.410 
 -0.225 
 -0.145 
 -0.075 
 -0.050 
 -0.040 
 -0.020 
 -0.010 
  0.010 
 -0.005 
 -0.005 
  0.020 
  0.040 
  0.030 
  0.080 
  0.075 
  0.100 
  0.120 
  0.130 
  0.165 
  0.210 
  0.260 
  0.335 
  0.360 
  0.360 
  0.345 
  0.340 
  0.280 
  0.240 
  0.150 
  0.090 
  0.025 
 -0.020 
 -0.065 
 -0.100 
 -0.120 
 -0.155 
 -0.210 
 -0.230 
 -0.230 
 -0.180 
 -0.205 
 -0.190 
 -0.170 
 -0.160 
 -0.155 
 -0.140 
 -0.140 
 -0.110 
 -0.095 
 -0.080 
 -0.080 
 -0.055 
 -0.050 
 -0.060 
 -0.080 
 -0.040 
 -0.050 
 -0.120 
 -0.140 
 -0.100 
 -0.150 
 -0.150 
 -0.130 
 -0.110 
 -0.095 
 -0.080 
 -0.040 
 -0.015 
 -0.030 
  0.000 
  0.010 
  0.090 
  0.120 
  0.090 
  0.040 
 -0.020 
 -0.080 
 -0.140 
 -0.175 
 -0.215 
 -0.230 
 -0.220 
 -0.220 
 -0.230 
 -0.290 
 -0.260 
 -0.195 
  0.420 
  1.855 
  2.165 
  0.490 
 -0.890 
 -1.495 
 -1.380 
 -0.645 
 -0.375 
 -0.280 
 -0.275 
 -0.230 
 -0.185 
 -0.160 
 -0.120 
 -0.140 
 -0.150 
 -0.130 
 -0.080 
 -0.080 
 -0.050 
 -0.060 
 -0.035 
  0.010 
  0.045 
  0.045 
  0.060 
  0.110 
  0.150 
  0.180 
  0.200 
  0.215 
  0.290 
  0.280 
  0.220 
  0.190 
  0.120 
  0.050 
  0.010 
 -0.055 
 -0.080 
 -0.130 
 -0.180 
 -0.175 
 -0.160 
 -0.245 
 -0.230 
 -0.210 
 -0.270 
 -0.300 
 -0.265 
 -0.160 
 -0.155 
 -0.255 
 -0.315 
 -0.245 
 -0.160 
 -0.155 
 -0.150 
 -0.190 
 -0.150 
 -0.120 
 -0.130 
 -0.190 
 -0.160 
 -0.065 
 -0.050 
 -0.210 
 -0.335 
 -0.220 
 -0.090 
 -0.105 
 -0.190 
 -0.120 
  0.025 
 -0.040 
 -0.080 
 -0.060 
 -0.095 
 -0.180 
 -0.160 
 -0.135 
 -0.240 
 -0.325 
 -0.260 
 -0.280 
 -0.320 
 -0.300 
 -0.255 
 -0.225 
  0.325 
  2.070 
  2.640 
  0.440 
 -1.475 
 -2.000 
 -1.735 
 -0.840 
 -0.375 
 -0.280 
 -0.195 
 -0.180 
 -0.090 
 -0.080 
 -0.100 
 -0.020 
  0.000 
 -0.035 
  0.025 
  0.065 
  0.125 
  0.170 
  0.135 
  0.150 
  0.175 
  0.170 
  0.215 
  0.270 
  0.330 
  0.365 
  0.395 
  0.400 
  0.365 
  0.315 
  0.305 
  0.240 
  0.200 
  0.120 
  0.025 
 -0.035 
 -0.115 
 -0.155 
 -0.145 
 -0.185 
 -0.195 
 -0.185 
 -0.225 
 -0.210 
 -0.180 
 -0.140 
 -0.100 
 -0.075 
 -0.070 
 -0.050 
 -0.050 
 -0.020 
 -0.005 
 -0.020 
 -0.030 
 -0.060 
 -0.055 
 -0.080 
 -0.100 
 -0.105 
 -0.120 
 -0.110 
 -0.130 
 -0.160 
 -0.130 
 -0.110 
 -0.075 
 -0.050 
 -0.030 
 -0.010 
  0.065 
  0.125 
  0.090 
  0.015 
 -0.040 
 -0.050 
 -0.080 
 -0.135 
 -0.155 
 -0.170 
 -0.185 
 -0.215 
 -0.215 
 -0.200 
 -0.160 
  0.250 
  1.980 
  3.310 
  1.310 
 -1.195 
 -2.015 
 -1.825 
 -0.955 
 -0.440 
 -0.270 
 -0.135 
 -0.100 
 -0.075 
 -0.030 
  0.005 
  0.020 
  0.060 
  0.080 
  0.095 
  0.095 
  0.105 
  0.140 
  0.165 
  0.185 
  0.220 
  0.250 
  0.270 
  0.315 
  0.330 
  0.350 
  0.400 
  0.420 
  0.415 
  0.400 
  0.380 
  0.325 
  0.260 
  0.200 
  0.140 
  0.105 
  0.050 
  0.010 
 -0.025 
 -0.035 
 -0.045 
 -0.075 
 -0.090 
 -0.095 
 -0.085 
 -0.070 
 -0.055 
 -0.050 
 -0.015 
  0.010 
  0.040 
  0.045 
  0.060 
  0.085 
  0.095 
  0.110 
  0.100 
  0.100 
  0.095 
  0.095 
  0.075 
  0.075 
  0.080 
  0.090 
  0.095 
  0.120 
  0.160 
  0.190 
  0.230 
  0.275 
  0.315 
  0.300 
  0.230 
  0.185 
  0.150 
  0.110 
  0.090 
  0.070 
  0.050 
  0.040 
  0.050 
  0.050 
  0.060 
  0.070 
  0.170 
  0.990 
  2.720 
  2.680 
  0.480 
 -0.920 
 -1.320 
 -1.010 
 -0.300 
 -0.080 
  0.050 
  0.110 
  0.130 
  0.160 
  0.175 
  0.190 
  0.205 
  0.215 
  0.220 
  0.240 
  0.245 
  0.255 
  0.270 
  0.290 
  0.300 
  0.330 
  0.340 
  0.370 
  0.410 
  0.455 
  0.490 
  0.520 
  0.530 
  0.525 
  0.495 
  0.460 
  0.415 
  0.360 
  0.300 
  0.250 
  0.200 
  0.175 
  0.135 
  0.110 
  0.090 
  0.070 
  0.055 
  0.050 
  0.055 
  0.060 
  0.050 
  0.055 
  0.050 
  0.055 
  0.070 
  0.095 
  0.120 
  0.135 
  0.140 
  0.145 
  0.145 
  0.160 
  0.160 
  0.150 
  0.140 
  0.140 
  0.145 
  0.165 
  0.185 
  0.200 
  0.240 
  0.280 
  0.320 
  0.350 
  0.340 
  0.280 
  0.230 
  0.205 
  0.140 
  0.095 
  0.080 
  0.050 
  0.050 
  0.055 
  0.055 
  0.070 
  0.080 
  0.175 
  0.975 
  2.600 
  2.495 
  0.420 
 -0.890 
 -1.265 
 -0.940 
 -0.270 
 -0.060 
  0.050 
  0.125 
  0.145 
  0.175 
  0.190 
  0.200 
  0.210 
  0.210 
  0.200 
  0.220 
  0.240 
  0.245 
  0.250 
  0.255 
  0.285 
  0.295 
  0.315 
  0.345 
  0.400 
  0.420 
  0.450 
  0.465 
  0.470 
  0.470 
  0.440 
  0.405 
  0.345 
  0.285 
  0.230 
  0.185 
  0.145 
  0.100 
  0.080 
  0.060 
  0.040 
  0.015 
  0.010 
  0.010 
  0.000 
  0.000 
 -0.005 
  0.010 
  0.030 
  0.040 
  0.060 
  0.070 
  0.095 
  0.090 
  0.100 
  0.100 
  0.100 
  0.100 
  0.100 
  0.095 
  0.090 
  0.095 
  0.105 
  0.120 
  0.145 
  0.170 
  0.200 
  0.215 
  0.280 
  0.280 
  0.240 
  0.180 
  0.150 
  0.100 
  0.055 
  0.020 
 -0.005 
 -0.015 
 -0.020 
 -0.010 
 -0.010 
 -0.010 
  0.000 
  0.270 
  1.520 
  2.780 
  1.610 
 -0.360 
 -1.190 
 -1.335 
 -0.730 
 -0.240 
 -0.100 
  0.005 
  0.055 
  0.060 
  0.070 
  0.080 
  0.095 
  0.090 
  0.100 
  0.095 
  0.125 
  0.160 
  0.170 
  0.170 
  0.185 
  0.225 
  0.255 
  0.270 
  0.300 
  0.340 
  0.365 
  0.390 
  0.405 
  0.385 
  0.370 
  0.350 
  0.310 
  0.240 
  0.170 
  0.120 
  0.065 
  0.020 
  0.000 
 -0.035 
 -0.055 
 -0.065 
 -0.080 
 -0.095 
 -0.110 
 -0.110 
 -0.105 
 -0.090 
 -0.090 
 -0.070 
 -0.060 
 -0.065 
 -0.050 
 -0.030 
 -0.015 
 -0.010 
 -0.010 
 -0.010 
 -0.010 
 -0.005 
 -0.030 
 -0.040 
 -0.010 
  0.015 
  0.065 
  0.090 
  0.120 
  0.170 
  0.175 
  0.120 
  0.080 
  0.045 
 -0.005 
 -0.065 
 -0.080 
 -0.110 
 -0.100 
 -0.100 
 -0.120 
 -0.120 
 -0.090 
 -0.055 
  0.370 
  1.820 
  2.625 
  0.830 
 -0.880 
 -1.490 
 -1.450 
 -0.685 
 -0.260 
 -0.140 
 -0.040 
 -0.010 
  0.010 
  0.040 
  0.050 
  0.045 
  0.070 
  0.075 
  0.090 
  0.105 
  0.120 
  0.120 
  0.135 
  0.150 
  0.180 
  0.200 
  0.240 
  0.270 
  0.300 
  0.330 
  0.360 
  0.360 
  0.345 
  0.315 
  0.285 
  0.225 
  0.185 
  0.110 
  0.055 
  0.010 
 -0.020 
 -0.065 
 -0.080 
 -0.100 
 -0.120 
 -0.135 
 -0.130 
 -0.145 
 -0.130 
 -0.120 
 -0.120 
 -0.105 
 -0.080 
 -0.060 
 -0.040 
 -0.040 
 -0.025 
 -0.015 
  0.005 
 -0.010 
  0.005 
 -0.025 
 -0.020 
 -0.020 
  0.010 
  0.020 
  0.065 
  0.110 
  0.140 
  0.170 
  0.160 
  0.120 
  0.065 
  0.030 
 -0.035 
 -0.070 
 -0.080 
 -0.090 
 -0.090 
 -0.100 
 -0.080 
 -0.085 
 -0.070 
  0.015 
  0.790 
  2.260 
  2.000 
 -0.025 
 -1.145 
 -1.485 
 -1.150 
 -0.430 
 -0.190 
 -0.070 
 -0.010 
  0.025 
  0.040 
  0.045 
  0.080 
  0.070 
  0.080 
  0.090 
  0.110 
  0.105 
  0.130 
  0.140 
  0.160 
  0.170 
  0.200 
  0.220 
  0.250 
  0.270 
  0.315 
  0.350 
  0.360 
  0.345 
  0.330 
  0.305 
  0.280 
  0.210 
  0.150 
  0.090 
  0.040 
 -0.005 
 -0.030 
 -0.085 
 -0.095 
 -0.115 
 -0.120 
 -0.140 
 -0.145 
 -0.140 
 -0.125 
 -0.120 
 -0.110 
 -0.090 
 -0.070 
 -0.055 
 -0.040 
 -0.030 
 -0.035 
 -0.040 
 -0.020 
 -0.025 
 -0.030 
 -0.030 
 -0.020 
 -0.015 
  0.025 
  0.035 
  0.065 
  0.085 
  0.145 
  0.185 
  0.185 
  0.120 
  0.065 
  0.020 
 -0.030 
 -0.070 
 -0.080 
 -0.100 
 -0.095 
 -0.095 
 -0.080 
 -0.080 
 -0.080 
  0.005 
  0.660 
  2.100 
  2.085 
  0.050 
 -1.250 
 -1.690 
 -1.380 
 -0.540 
 -0.220 
 -0.105 
 -0.025 
  0.000 
  0.020 
  0.040 
  0.060 
  0.060 
  0.080 
  0.085 
  0.110 
  0.110 
  0.125 
  0.160 
  0.170 
  0.185 
  0.210 
  0.215 
  0.260 
  0.295 
  0.335 
  0.350 
  0.370 
  0.365 
  0.350 
  0.300 
  0.260 
  0.215 
  0.160 
  0.085 
  0.040 
 -0.010 
 -0.060 
 -0.095 
 -0.105 
 -0.130 
 -0.155 
 -0.160 
 -0.140 
 -0.150 
 -0.150 
 -0.125 
 -0.105 
 -0.080 
 -0.050 
 -0.060 
 -0.030 
 -0.035 
 -0.040 
 -0.030 
 -0.035 
 -0.040 
 -0.040 
 -0.050 
 -0.035 
 -0.040 
 -0.020 
  0.010 
  0.050 
  0.075 
  0.130 
  0.180 
  0.135 
  0.080 
  0.025 
 -0.050 
 -0.070 
 -0.115 
 -0.130 
 -0.135 
 -0.170 
 -0.180 
 -0.140 
 -0.145 
 -0.120 
 -0.070 
  0.545 
  2.095 
  2.120 
 -0.120 
 -1.560 
 -1.925 
 -1.560 
 -0.640 
 -0.300 
 -0.170 
 -0.090 
 -0.060 
 -0.040 
 -0.030 
 -0.025 
 -0.010 
  0.040 
  0.050 
  0.050 
  0.040 
  0.065 
  0.080 
  0.120 
  0.160 
  0.165 
  0.180 
  0.230 
  0.250 
  0.285 
  0.300 
  0.315 
  0.300 
  0.280 
  0.230 
  0.180 
  0.130 
  0.095 
  0.010 
 -0.070 
 -0.115 
 -0.120 
 -0.145 
 -0.190 
 -0.215 
 -0.205 
 -0.220 
 -0.225 
 -0.215 
 -0.185 
 -0.160 
 -0.160 
 -0.135 
 -0.090 
 -0.075 
 -0.065 
 -0.095 
 -0.080 
 -0.090 
 -0.095 
 -0.090 
 -0.095 
 -0.105 
 -0.095 
 -0.110 
 -0.115 
 -0.120 
 -0.090 
 -0.060 
 -0.005 
  0.050 
  0.110 
  0.110 
  0.050 
 -0.005 
 -0.060 
 -0.110 
 -0.130 
 -0.170 
 -0.195 
 -0.215 
 -0.205 
 -0.220 
 -0.200 
 -0.215 
 -0.195 
 -0.115 
  0.725 
  2.430 
  2.075 
 -0.420 
 -1.780 
 -2.025 
 -1.480 
 -0.615 
 -0.340 
 -0.210 
 -0.140 
 -0.110 
 -0.090 
 -0.075 
 -0.040 
 -0.040 
 -0.020 
 -0.010 
  0.005 
  0.000 
  0.030 
  0.045 
  0.085 
  0.105 
  0.135 
  0.160 
  0.180 
  0.220 
  0.250 
  0.260 
  0.260 
  0.245 
  0.220 
  0.185 
  0.140 
  0.080 
  0.025 
 -0.040 
 -0.075 
 -0.115 
 -0.150 
 -0.190 
 -0.215 
 -0.240 
 -0.245 
 -0.245 
 -0.230 
 -0.210 
 -0.190 
 -0.175 
 -0.150 
 -0.110 
 -0.080 
 -0.065 
 -0.050 
 -0.050 
 -0.040 
 -0.060 
 -0.060 
 -0.075 
 -0.070 
 -0.070 
 -0.080 
 -0.080 
 -0.080 
 -0.100 
 -0.085 
 -0.090 
 -0.070 
 -0.050 
 -0.020 
  0.030 
  0.050 
  0.095 
  0.135 
  0.120 
  0.065 
  0.010 
 -0.020 
 -0.080 
 -0.105 
 -0.140 
 -0.150 
 -0.150 
 -0.160 
 -0.170 
 -0.160 
 -0.145 
 -0.115 
  0.045 
  1.080 
  2.575 
  1.900 
 -0.250 
 -1.340 
 -1.605 
 -1.080 
 -0.410 
 -0.235 
 -0.115 
 -0.055 
 -0.030 
 -0.015 
 -0.005 
  0.010 
  0.010 
  0.040 
  0.050 
  0.060 
  0.080 
  0.100 
  0.110 
  0.130 
  0.145 
  0.180 
  0.195 
  0.225 
  0.255 
  0.300 
  0.325 
  0.340 
  0.320 
  0.300 
  0.280 
  0.240 
  0.180 
  0.110 
  0.050 
  0.025 
 -0.030 
 -0.065 
 -0.100 
 -0.110 
 -0.135 
 -0.150 
 -0.160 
 -0.160 
 -0.160 
 -0.140 
 -0.145 
 -0.130 
 -0.105 
 -0.100 
 -0.080 
 -0.055 
 -0.050 
 -0.025 
 -0.030 
 -0.025 
 -0.035 
 -0.045 
 -0.055 
 -0.050 
 -0.055 
 -0.050 
 -0.050 
 -0.050 
 -0.055 
 -0.040 
 -0.045 
 -0.060 
 -0.055 
 -0.035 
 -0.005 
  0.020 
  0.050 
  0.090 
  0.140 
  0.160 
  0.120 
  0.085 
  0.045 
 -0.015 
 -0.060 
 -0.075 
 -0.095 
 -0.105 
 -0.120 
 -0.120 
 -0.120 
 -0.120 
 -0.110 
 -0.075 
  0.280 
  1.615 
  2.580 
  1.105 
 -0.690 
 -1.440 
 -1.490 
 -0.775 
 -0.315 
 -0.190 
 -0.085 
 -0.050 
 -0.015 
  0.000 
  0.010 
  0.020 
  0.030 
  0.045 
  0.040 
  0.060 
  0.070 
  0.080 
  0.110 
  0.110 
  0.130 
  0.160 
  0.185 
  0.230 
  0.260 
  0.290 
  0.305 
  0.315 
  0.290 
  0.275 
  0.235 
  0.205 
  0.160 
  0.100 
  0.055 
  0.010 
 -0.030 
 -0.065 
 -0.090 
 -0.100 
 -0.120 
 -0.130 
 -0.140 
 -0.140 
 -0.135 
 -0.135 
 -0.120 
 -0.100 
 -0.100 
 -0.080 
 -0.060 
 -0.050 
 -0.050 
 -0.050 
 -0.040 
 -0.040 
 -0.040 
 -0.050 
 -0.060 
 -0.060 
 -0.070 
 -0.065 
 -0.080 
 -0.090 
 -0.075 
 -0.095 
 -0.090 
 -0.095 
 -0.085 
 -0.080 
 -0.080 
 -0.095 
 -0.070 
 -0.050 
 -0.025 
  0.005 
  0.060 
  0.105 
  0.100 
  0.055 
  0.020 
 -0.030 
 -0.070 
 -0.115 
 -0.135 
 -0.160 
 -0.170 
 -0.170 
 -0.175 
 -0.170 
 -0.160 
 -0.150 
 -0.120 
  0.160 
  1.380 
  2.450 
  1.200 
 -0.620 
 -1.430 
 -1.545 
 -0.875 
 -0.370 
 -0.220 
 -0.120 
 -0.080 
 -0.040 
 -0.035 
 -0.025 
 -0.010 
 -0.035 
 -0.005 
  0.010 
  0.015 
  0.015 
  0.050 
  0.055 
  0.070 
  0.090 
  0.110 
  0.130 
  0.180 
  0.200 
  0.230 
  0.250 
  0.245 
  0.220 
  0.200 
  0.160 
  0.120 
  0.070 
  0.030 
 -0.030 
 -0.065 
 -0.095 
 -0.130 
 -0.160 
 -0.160 
 -0.170 
 -0.170 
 -0.185 
 -0.170 
 -0.165 
 -0.150 
 -0.145 
 -0.130 
 -0.110 
 -0.090 
 -0.090 
 -0.070 
 -0.070 
 -0.060 
 -0.050 
 -0.050 
 -0.055 
 -0.055 
 -0.040 
 -0.055 
 -0.055 
 -0.050 
 -0.070 
 -0.050 
 -0.060 
 -0.050 
 -0.060 
 -0.050 
 -0.060 
 -0.055 
 -0.070 
 -0.065 
 -0.070 
 -0.065 
 -0.065 
 -0.050 
 -0.040 
 -0.005 
  0.010 
  0.050 
  0.090 
  0.140 
  0.140 
  0.125 
  0.080 
  0.050 
  0.005 
 -0.050 
 -0.090 
 -0.100 
 -0.115 
 -0.120 
 -0.130 
 -0.130 
 -0.150 
 -0.115 
 -0.095 
  0.035 
  0.940 
  2.330 
  1.760 
 -0.210 
 -1.255 
 -1.555 
 -1.090 
 -0.435 
 -0.250 
 -0.140 
 -0.095 
 -0.055 
 -0.040 
 -0.015 
 -0.020 
  0.005 
  0.010 
  0.010 
  0.025 
  0.020 
  0.020 
  0.040 
  0.060 
  0.080 
  0.100 
  0.120 
  0.140 
  0.175 
  0.200 
  0.220 
  0.210 
  0.200 
  0.170 
  0.145 
  0.105 
  0.060 
  0.010 
 -0.040 
 -0.065 
 -0.095 
 -0.120 
 -0.140 
 -0.170 
 -0.170 
 -0.185 
 -0.195 
 -0.185 
 -0.170 
 -0.160 
 -0.145 
 -0.130 
 -0.120 
 -0.090 
 -0.075 
 -0.060 
 -0.040 
 -0.045 
 -0.040 
 -0.040 
 -0.050 
 -0.060 
 -0.060 
 -0.060 
 -0.070 
 -0.075 
 -0.080 
 -0.075 
 -0.080 
 -0.080 
 -0.080 
 -0.085 
 -0.085 
 -0.075 
 -0.070 
 -0.075 
 -0.070 
 -0.070 
 -0.070 
 -0.065 
 -0.060 
 -0.060 
 -0.040 
 -0.015 
 -0.010 
  0.025 
  0.085 
  0.140 
  0.150 
  0.130 
  0.070 
  0.030 
 -0.010 
 -0.060 
 -0.080 
 -0.110 
 -0.120 
 -0.120 
 -0.120 
 -0.120 
 -0.135 
 -0.120 
 -0.090 
  0.080 
  1.085 
  2.370 
  1.580 
 -0.340 
 -1.270 
 -1.520 
 -1.005 
 -0.400 
 -0.230 
 -0.120 
 -0.075 
 -0.055 
 -0.040 
 -0.020 
 -0.010 
 -0.020 
 -0.010 
  0.005 
  0.020 
  0.030 
  0.030 
  0.035 
  0.050 
  0.065 
  0.080 
  0.105 
  0.110 
  0.150 
  0.170 
  0.185 
  0.175 
  0.170 
  0.140 
  0.105 
  0.055 
  0.010 
 -0.025 
 -0.060 
 -0.095 
 -0.120 
 -0.150 
 -0.170 
 -0.190 
 -0.210 
 -0.220 
 -0.220 
 -0.210 
 -0.190 
 -0.175 
 -0.160 
 -0.150 
 -0.120 
 -0.110 
 -0.100 
 -0.085 
 -0.070 
 -0.080 
 -0.080 
 -0.090 
 -0.080 
 -0.100 
 -0.100 
 -0.115 
 -0.110 
 -0.110 
 -0.110 
 -0.120 
 -0.120 
 -0.120 
 -0.115 
 -0.120 
 -0.120 
 -0.130 
 -0.110 
 -0.110 
 -0.120 
 -0.120 
 -0.110 
 -0.120 
 -0.110 
 -0.120 
 -0.110 
 -0.110 
 -0.095 
 -0.070 
 -0.060 
 -0.020 
  0.030 
  0.080 
  0.100 
  0.080 
  0.045 
 -0.005 
 -0.040 
 -0.105 
 -0.120 
 -0.135 
 -0.145 
 -0.145 
 -0.135 
 -0.140 
 -0.120 
 -0.115 
 -0.100 
  0.070 
  1.050 
  2.330 
  1.560 
 -0.340 
 -1.270 
 -1.520 
 -1.000 
 -0.405 
 -0.245 
 -0.140 
 -0.095 
 -0.070 
 -0.050 
 -0.040 
 -0.025 
 -0.025 
 -0.015 
 -0.015 
  0.010 
  0.010 
  0.020 
  0.010 
  0.040 
  0.055 
  0.070 
  0.090 
  0.120 
  0.135 
  0.160 
  0.165 
  0.150 
  0.125 
  0.110 
  0.070 
  0.030 
 -0.025 
 -0.055 
 -0.075 
 -0.110 
 -0.145 
 -0.155 
 -0.180 
 -0.195 
 -0.220 
 -0.220 
 -0.220 
 -0.210 
 -0.210 
 -0.195 
 -0.190 
 -0.160 
 -0.150 
 -0.135 
 -0.120 
 -0.110 
 -0.095 
 -0.080 
 -0.085 
 -0.080 
 -0.100 
 -0.095 
 -0.105 
 -0.095 
 -0.100 
 -0.110 
 -0.120 
 -0.120 
 -0.130 
 -0.130 
 -0.115 
 -0.120 
 -0.120 
 -0.130 
 -0.135 
 -0.140 
 -0.135 
 -0.140 
 -0.140 
 -0.135 
 -0.140 
 -0.135 
 -0.140 
 -0.120 
 -0.140 
 -0.135 
 -0.120 
 -0.080 
 -0.075 
 -0.030 
  0.010 
  0.050 
  0.055 
  0.040 
 -0.010 
 -0.050 
 -0.085 
 -0.135 
 -0.160 
 -0.170 
 -0.200 
 -0.195 
 -0.195 
 -0.195 
 -0.200 
 -0.170 
 -0.150 
  0.135 
  1.310 
  2.330 
  1.070 
 -0.645 
 -1.410 
 -1.525 
 -0.885 
 -0.405 
 -0.270 
 -0.185 
 -0.155 
 -0.115 
 -0.105 
 -0.090 
 -0.080 
 -0.075 
 -0.070 
 -0.055 
 -0.055 
 -0.050 
 -0.025 
  0.010 
  0.010 
  0.030 
  0.050 
  0.065 
  0.090 
  0.110 
  0.110 
  0.140 
  0.130 
  0.105 
  0.060 
  0.030 
 -0.030 
 -0.065 
 -0.095 
 -0.110 
 -0.130 
 -0.145 
 -0.160 
 -0.185 
 -0.200 
 -0.200 
 -0.220 
 -0.215 
 -0.220 
 -0.200 
 -0.190 
 -0.170 
 -0.160 
 -0.145 
 -0.120 
 -0.105 
 -0.090 
 -0.070 
 -0.075 
 -0.070 
 -0.070 
 -0.070 
 -0.080 
 -0.080 
 -0.090 
 -0.080 
 -0.090 
 -0.090 
 -0.100 
 -0.100 
 -0.100 
 -0.090 
 -0.110 
 -0.110 
 -0.110 
 -0.110 
 -0.130 
 -0.110 
 -0.100 
 -0.095 
 -0.110 
 -0.115 
 -0.120 
 -0.110 
 -0.110 
 -0.075 
 -0.065 
 -0.030 
  0.010 
  0.060 
  0.090 
  0.085 
  0.025 
 -0.030 
 -0.065 
 -0.115 
 -0.145 
 -0.150 
 -0.190 
 -0.180 
 -0.185 
 -0.180 
 -0.180 
 -0.170 
 -0.150 
  0.110 
  1.250 
  2.320 
  1.100 
 -0.715 
 -1.515 
 -1.640 
 -0.970 
 -0.405 
 -0.275 
 -0.160 
 -0.120 
 -0.090 
 -0.070 
 -0.055 
 -0.050 
 -0.030 
 -0.030 
 -0.020 
 -0.015 
  0.005 
  0.020 
  0.030 
  0.045 
  0.080 
  0.090 
  0.110 
  0.135 
  0.175 
  0.190 
  0.200 
  0.190 
  0.165 
  0.150 
  0.095 
  0.020 
 -0.015 
 -0.035 
 -0.065 
 -0.085 
 -0.100 
 -0.140 
 -0.170 
 -0.190 
 -0.200 
 -0.220 
 -0.210 
 -0.215 
 -0.200 
 -0.210 
 -0.160 
 -0.140 
 -0.120 
 -0.110 
 -0.080 
 -0.060 
 -0.060 
 -0.055 
 -0.065 
 -0.070 
 -0.055 
 -0.075 
 -0.070 
 -0.060 
 -0.075 
 -0.080 
 -0.075 
 -0.075 
 -0.075 
 -0.090 
 -0.100 
 -0.100 
 -0.090 
 -0.105 
 -0.100 
 -0.080 
 -0.070 
 -0.070 
 -0.050 
 -0.050 
 -0.005 
  0.040 
  0.120 
  0.120 
  0.085 
  0.040 
  0.005 
 -0.040 
 -0.100 
 -0.135 
 -0.160 
 -0.155 
 -0.150 
 -0.190 
 -0.190 
 -0.160 
 -0.140 
 -0.095 
  0.430 
  1.880 
  2.120 
  0.160 
 -1.340 
 -1.830 
 -1.560 
 -0.670 
 -0.320 
 -0.195 
 -0.120 
 -0.120 
 -0.090 
 -0.070 
 -0.040 
 -0.035 
 -0.035 
 -0.015 
 -0.005 
 -0.005 
  0.010 
  0.030 
  0.040 
  0.055 
  0.080 
  0.095 
  0.130 
  0.160 
  0.195 
  0.215 
  0.225 
  0.215 
  0.200 
  0.145 
  0.105 
  0.050 
  0.015 
 -0.025 
 -0.055 
 -0.090 
 -0.100 
 -0.135 
 -0.170 
 -0.190 
 -0.190 
 -0.200 
 -0.200 
 -0.200 
 -0.180 
 -0.170 
 -0.160 
 -0.140 
 -0.115 
 -0.090 
 -0.070 
 -0.065 
 -0.060 
 -0.055 
 -0.040 
 -0.050 
 -0.050 
 -0.070 
 -0.080 
 -0.070 
 -0.070 
 -0.075 
 -0.070 
 -0.090 
 -0.080 
 -0.085 
 -0.100 
 -0.090 
 -0.080 
 -0.090 
 -0.085 
 -0.065 
 -0.035 
 -0.005 
  0.040 
  0.080 
  0.125 
  0.130 
  0.065 
  0.020 
 -0.020 
 -0.075 
 -0.105 
 -0.130 
 -0.150 
 -0.150 
 -0.145 
 -0.145 
 -0.145 
 -0.145 
 -0.110 
  0.150 
  1.340 
  2.465 
  1.210 
 -0.615 
 -1.410 
 -1.550 
 -0.900 
 -0.350 
 -0.200 
 -0.110 
 -0.070 
 -0.050 
 -0.030 
 -0.015 
  0.005 
  0.015 
  0.025 
  0.045 
  0.030 
  0.050 
  0.060 
  0.065 
  0.095 
  0.120 
  0.130 
  0.160 
  0.200 
  0.215 
  0.250 
  0.270 
  0.270 
  0.255 
  0.260 
  0.200 
  0.150 
  0.100 
  0.050 
  0.005 
 -0.025 
 -0.050 
 -0.075 
 -0.100 
 -0.120 
 -0.140 
 -0.155 
 -0.160 
 -0.160 
 -0.150 
 -0.130 
 -0.115 
 -0.090 
 -0.075 
 -0.055 
 -0.040 
 -0.015 
 -0.005 
  0.010 
  0.025 
  0.025 
  0.015 
  0.020 
  0.005 
 -0.005 
 -0.010 
 -0.020 
 -0.015 
 -0.030 
 -0.020 
 -0.020 
 -0.020 
 -0.015 
 -0.020 
 -0.010 
 -0.015 
 -0.040 
 -0.040 
 -0.005 
  0.020 
  0.050 
  0.085 
  0.130 
  0.185 
  0.175 
  0.130 
  0.080 
  0.055 
 -0.010 
 -0.040 
 -0.060 
 -0.090 
 -0.090 
 -0.090 
 -0.095 
 -0.100 
 -0.090 
 -0.060 
  0.070 
  0.920 
  2.330 
  1.860 
 -0.095 
 -1.175 
 -1.510 
 -1.100 
 -0.425 
 -0.210 
 -0.095 
 -0.040 
 -0.020 
  0.000 
  0.010 
  0.015 
  0.040 
  0.040 
  0.040 
  0.050 
  0.055 
  0.070 
  0.080 
  0.090 
  0.105 
  0.130 
  0.145 
  0.180 
  0.210 
  0.240 
  0.260 
  0.270 
  0.260 
  0.250 
  0.220 
  0.180 
  0.135 
  0.080 
  0.030 
  0.000 
 -0.025 
 -0.050 
 -0.075 
 -0.100 
 -0.120 
 -0.145 
 -0.150 
 -0.160 
 -0.160 
 -0.155 
 -0.145 
 -0.140 
 -0.130 
 -0.115 
 -0.090 
 -0.090 
 -0.070 
 -0.060 
 -0.050 
 -0.055 
 -0.050 
 -0.050 
 -0.060 
 -0.070 
 -0.070 
 -0.070 
 -0.070 
 -0.075 
 -0.070 
 -0.070 
 -0.080 
 -0.085 
 -0.075 
 -0.080 
 -0.070 
 -0.085 
 -0.075 
 -0.080 
 -0.080 
 -0.085 
 -0.080 
 -0.055 
 -0.030 
 -0.005 
  0.040 
  0.085 
  0.135 
  0.135 
  0.085 
  0.050 
  0.030 
 -0.040 
 -0.070 
 -0.095 
 -0.115 
 -0.115 
 -0.120 
 -0.140 
 -0.135 
 -0.120 
 -0.120 
 -0.060 
  0.500 
  1.950 
  2.210 
  0.400 
 -0.990 
 -1.525 
 -1.350 
 -0.620 
 -0.290 
 -0.160 
 -0.100 
 -0.065 
 -0.040 
 -0.035 
 -0.010 
 -0.020 
  0.000 
 -0.005 
  0.010 
  0.015 
  0.040 
  0.030 
  0.055 
  0.060 
  0.085 
  0.105 
  0.140 
  0.150 
  0.190 
  0.200 
  0.230 
  0.230 
  0.220 
  0.180 
  0.160 
  0.100 
  0.055 
 -0.010 
 -0.040 
 -0.075 
 -0.090 
 -0.130 
 -0.140 
 -0.170 
 -0.180 
 -0.200 
 -0.210 
 -0.215 
 -0.200 
 -0.200 
 -0.175 
 -0.160 
 -0.135 
 -0.145 
 -0.110 
 -0.120 
 -0.100 
 -0.080 
 -0.070 
 -0.080 
 -0.065 
 -0.080 
 -0.065 
 -0.080 
 -0.080 
 -0.095 
 -0.080 
 -0.100 
 -0.090 
 -0.110 
 -0.105 
 -0.105 
 -0.095 
 -0.110 
 -0.100 
 -0.120 
 -0.100 
 -0.110 
 -0.105 
 -0.120 
 -0.090 
 -0.070 
 -0.035 
 -0.020 
  0.040 
  0.075 
  0.125 
  0.080 
  0.030 
 -0.015 
 -0.035 
 -0.095 
 -0.120 
 -0.150 
 -0.140 
 -0.160 
 -0.140 
 -0.170 
 -0.140 
 -0.145 
 -0.115 
  0.040 
  1.055 
  2.320 
  1.540 
 -0.385 
 -1.315 
 -1.570 
 -1.035 
 -0.435 
 -0.265 
 -0.175 
 -0.105 
 -0.090 
 -0.070 
 -0.065 
 -0.030 
 -0.030 
 -0.015 
 -0.025 
 -0.010 
 -0.010 
  0.010 
  0.025 
  0.045 
  0.050 
  0.090 
  0.090 
