7680.0
128.0
 -0.118	
 -0.087	
 -0.094	
 -0.055	
 -0.087	
 -0.055	
 -0.087	
 -0.087	
 -0.016	
 -0.024	
  0.039	
  0.039	
  0.008	
 -0.008	
 -0.063	
 -0.039	
 -0.087	
 -0.110	
 -0.142	
 -0.102	
 -0.079	
 -0.047	
 -0.071	
 -0.087	
 -0.102	
 -0.110	
 -0.094	
 -0.024	
 -0.008	
  0.024	
  0.016	
 -0.016	
 -0.016	
 -0.031	
 -0.047	
 -0.031	
 -0.063	
 -0.087	
 -0.102	
 -0.150	
 -0.110	
 -0.094	
 -0.094	
 -0.055	
 -0.205	
 -0.291	
  0.031	
  0.693	
  1.590	
  2.204	
  1.480	
  0.354	
 -0.087	
 -0.150	
  0.016	
  0.016	
 -0.079	
 -0.031	
 -0.047	
 -0.031	
 -0.071	
 -0.055	
 -0.039	
 -0.063	
 -0.063	
 -0.079	
 -0.024	
 -0.008	
  0.071	
  0.087	
  0.110	
  0.134	
  0.157	
  0.189	
  0.197	
  0.283	
  0.346	
  0.370	
  0.425	
  0.425	
  0.543	
  0.527	
  0.559	
  0.567	
  0.567	
  0.535	
  0.519	
  0.456	
  0.323	
  0.252	
  0.142	
  0.079	
  0.055	
 -0.016	
 -0.024	
 -0.024	
  0.000	
 -0.024	
  0.000	
 -0.047	
 -0.094	
 -0.134	
 -0.102	
 -0.047	
 -0.039	
 -0.024	
 -0.055	
 -0.016	
 -0.008	
 -0.055	
 -0.063	
 -0.055	
 -0.055	
 -0.055	
 -0.047	
 -0.110	
 -0.110	
 -0.110	
 -0.134	
 -0.173	
 -0.212	
 -0.157	
 -0.118	
 -0.079	
 -0.079	
 -0.063	
 -0.071	
 -0.094	
 -0.094	
 -0.071	
 -0.087	
 -0.016	
 -0.024	
 -0.039	
 -0.055	
 -0.071	
 -0.079	
 -0.102	
 -0.071	
 -0.150	
 -0.212	
 -0.157	
 -0.079	
 -0.039	
 -0.063	
 -0.055	
 -0.087	
 -0.031	
 -0.039	
 -0.055	
 -0.063	
 -0.118	
 -0.079	
 -0.102	
 -0.134	
 -0.118	
 -0.134	
 -0.118	
 -0.150	
 -0.157	
 -0.212	
 -0.157	
 -0.063	
 -0.031	
 -0.071	
 -0.087	
 -0.031	
 -0.039	
 -0.039	
 -0.087	
 -0.087	
 -0.055	
 -0.047	
 -0.079	
 -0.079	
 -0.079	
 -0.134	
 -0.134	
 -0.150	
 -0.165	
 -0.157	
 -0.150	
 -0.157	
 -0.110	
 -0.079	
 -0.055	
 -0.252	
 -0.157	
  0.433	
  1.157	
  1.928	
  1.480	
  0.417	
 -0.189	
 -0.441	
 -0.307	
 -0.244	
 -0.205	
 -0.205	
 -0.236	
 -0.157	
 -0.142	
 -0.102	
 -0.118	
 -0.118	
 -0.063	
 -0.063	
 -0.071	
 -0.055	
 -0.079	
 -0.016	
  0.016	
  0.008	
  0.024	
  0.063	
  0.150	
  0.165	
  0.220	
  0.291	
  0.362	
  0.496	
  0.575	
  0.669	
  0.748	
  0.708	
  0.708	
  0.606	
  0.472	
  0.370	
  0.212	
  0.157	
  0.031	
  0.000	
 -0.047	
 -0.110	
 -0.110	
 -0.142	
 -0.181	
 -0.157	
 -0.212	
 -0.134	
 -0.126	
 -0.110	
 -0.008	
 -0.016	
  0.031	
  0.016	
  0.016	
  0.016	
 -0.031	
 -0.008	
 -0.039	
 -0.071	
 -0.094	
 -0.181	
 -0.189	
 -0.197	
 -0.220	
 -0.212	
 -0.260	
 -0.205	
 -0.205	
 -0.110	
 -0.063	
 -0.071	
 -0.016	
 -0.063	
 -0.055	
 -0.055	
 -0.094	
 -0.071	
 -0.110	
 -0.094	
 -0.094	
 -0.134	
 -0.134	
 -0.197	
 -0.173	
 -0.189	
 -0.220	
 -0.165	
 -0.126	
 -0.102	
 -0.110	
 -0.110	
 -0.118	
 -0.110	
 -0.102	
 -0.118	
 -0.102	
 -0.126	
 -0.126	
 -0.110	
 -0.102	
 -0.102	
 -0.079	
 -0.039	
  0.016	
 -0.016	
 -0.055	
 -0.047	
 -0.087	
 -0.118	
 -0.126	
 -0.189	
 -0.157	
 -0.212	
 -0.212	
 -0.205	
 -0.299	
 -0.228	
 -0.126	
 -0.094	
 -0.087	
 -0.071	
 -0.071	
 -0.047	
 -0.039	
 -0.039	
 -0.134	
 -0.315	
 -0.118	
  0.464	
  1.267	
  1.873	
  1.259	
  0.378	
 -0.181	
 -0.299	
 -0.189	
 -0.142	
 -0.142	
 -0.157	
 -0.150	
 -0.142	
 -0.110	
 -0.094	
 -0.102	
 -0.110	
 -0.126	
 -0.094	
 -0.079	
 -0.031	
 -0.039	
 -0.031	
 -0.008	
  0.055	
  0.087	
  0.134	
  0.165	
  0.236	
  0.275	
  0.338	
  0.425	
  0.480	
  0.630	
  0.630	
  0.637	
  0.622	
  0.480	
  0.433	
  0.307	
  0.173	
  0.063	
 -0.039	
 -0.063	
 -0.118	
 -0.150	
 -0.165	
 -0.205	
 -0.181	
 -0.087	
 -0.063	
 -0.063	
 -0.094	
 -0.039	
 -0.071	
 -0.110	
 -0.165	
 -0.189	
 -0.181	
 -0.173	
 -0.244	
 -0.252	
 -0.236	
 -0.212	
 -0.260	
 -0.260	
 -0.236	
 -0.102	
 -0.118	
 -0.110	
 -0.118	
 -0.165	
 -0.134	
 -0.189	
 -0.205	
 -0.212	
 -0.252	
 -0.197	
 -0.244	
 -0.260	
 -0.268	
 -0.220	
 -0.252	
 -0.291	
 -0.275	
 -0.244	
 -0.150	
 -0.102	
 -0.173	
 -0.401	
 -0.346	
  0.283	
  1.149	
  1.999	
  1.810	
  0.677	
  0.016	
 -0.142	
 -0.087	
 -0.189	
 -0.189	
 -0.205	
 -0.173	
 -0.157	
 -0.189	
 -0.142	
 -0.142	
 -0.157	
 -0.134	
 -0.142	
 -0.102	
 -0.126	
 -0.126	
 -0.134	
 -0.087	
 -0.087	
 -0.071	
 -0.031	
  0.024	
  0.126	
  0.236	
  0.370	
  0.417	
  0.567	
  0.598	
  0.614	
  0.614	
  0.551	
  0.456	
  0.299	
  0.189	
  0.008	
 -0.024	
 -0.118	
 -0.157	
 -0.197	
 -0.299	
 -0.236	
 -0.189	
 -0.126	
 -0.165	
 -0.150	
 -0.165	
 -0.197	
 -0.228	
 -0.236	
 -0.236	
 -0.268	
 -0.275	
 -0.323	
 -0.268	
 -0.291	
 -0.268	
 -0.236	
 -0.212	
 -0.189	
 -0.252	
 -0.197	
 -0.142	
 -0.055	
 -0.055	
 -0.079	
 -0.102	
 -0.118	
 -0.087	
 -0.126	
 -0.142	
 -0.189	
 -0.181	
 -0.157	
 -0.157	
 -0.165	
 -0.197	
 -0.142	
 -0.181	
 -0.236	
 -0.205	
 -0.150	
 -0.118	
 -0.079	
 -0.047	
 -0.110	
 -0.039	
 -0.047	
 -0.102	
 -0.102	
 -0.102	
 -0.063	
 -0.110	
 -0.134	
 -0.189	
 -0.173	
 -0.228	
 -0.236	
 -0.134	
 -0.134	
 -0.079	
 -0.102	
 -0.102	
 -0.094	
 -0.126	
 -0.063	
 -0.071	
 -0.071	
 -0.110	
 -0.079	
 -0.087	
 -0.118	
 -0.110	
 -0.197	
 -0.205	
 -0.181	
 -0.094	
 -0.071	
 -0.079	
  0.024	
 -0.087	
 -0.205	
  0.024	
  0.677	
  1.550	
  2.117	
  1.377	
  0.370	
 -0.063	
 -0.087	
  0.039	
  0.000	
 -0.079	
 -0.087	
 -0.173	
 -0.118	
 -0.102	
 -0.079	
 -0.055	
 -0.024	
 -0.024	
 -0.024	
 -0.024	
 -0.024	
  0.016	
  0.008	
  0.047	
  0.110	
  0.150	
  0.173	
  0.197	
  0.260	
  0.354	
  0.401	
  0.417	
  0.401	
  0.480	
  0.598	
  0.693	
  0.677	
  0.645	
  0.575	
  0.488	
  0.370	
  0.260	
  0.150	
  0.126	
  0.087	
  0.055	
  0.031	
  0.016	
  0.008	
 -0.024	
 -0.071	
 -0.071	
 -0.150	
 -0.126	
 -0.094	
 -0.063	
 -0.008	
 -0.055	
  0.008	
 -0.008	
 -0.024	
 -0.008	
 -0.016	
  0.016	
 -0.016	
 -0.031	
 -0.063	
 -0.094	
 -0.071	
 -0.094	
 -0.102	
 -0.110	
 -0.102	
 -0.142	
 -0.079	
  0.000	
 -0.031	
  0.063	
  0.047	
  0.024	
 -0.008	
 -0.079	
 -0.055	
 -0.055	
 -0.071	
 -0.087	
 -0.142	
 -0.142	
 -0.157	
 -0.157	
 -0.228	
 -0.236	
 -0.165	
 -0.094	
 -0.126	
 -0.134	
  0.220	
  0.771	
  1.440	
  1.385	
  0.559	
  0.000	
 -0.165	
 -0.039	
  0.016	
 -0.024	
  0.008	
 -0.055	
 -0.071	
 -0.079	
 -0.102	
 -0.142	
 -0.110	
 -0.008	
  0.008	
  0.031	
  0.047	
  0.047	
  0.087	
  0.039	
  0.150	
  0.165	
  0.205	
  0.236	
  0.252	
  0.401	
  0.433	
  0.464	
  0.512	
  0.527	
  0.622	
  0.606	
  0.582	
  0.449	
  0.386	
  0.331	
  0.252	
  0.165	
  0.055	
  0.039	
 -0.008	
 -0.031	
 -0.063	
 -0.063	
 -0.008	
 -0.016	
 -0.024	
 -0.063	
 -0.087	
 -0.126	
 -0.157	
 -0.197	
 -0.260	
 -0.307	
 -0.291	
 -0.220	
 -0.173	
 -0.157	
 -0.126	
 -0.118	
 -0.110	
 -0.118	
 -0.110	
 -0.094	
 -0.094	
 -0.110	
 -0.118	
 -0.110	
 -0.094	
 -0.150	
 -0.212	
 -0.275	
 -0.331	
 -0.307	
 -0.244	
 -0.165	
 -0.142	
 -0.118	
 -0.126	
 -0.102	
 -0.110	
 -0.102	
 -0.087	
 -0.063	
 -0.079	
 -0.102	
 -0.102	
 -0.102	
 -0.126	
 -0.150	
 -0.157	
 -0.205	
 -0.260	
 -0.283	
 -0.228	
 -0.110	
 -0.071	
 -0.039	
 -0.031	
 -0.055	
 -0.047	
 -0.063	
 -0.087	
 -0.142	
 -0.134	
 -0.118	
 -0.165	
 -0.181	
 -0.205	
 -0.205	
 -0.228	
 -0.228	
 -0.275	
 -0.252	
 -0.165	
 -0.102	
 -0.071	
 -0.055	
 -0.047	
 -0.024	
 -0.024	
 -0.047	
 -0.016	
 -0.087	
 -0.079	
 -0.094	
 -0.126	
 -0.126	
 -0.291	
 -0.323	
  0.087	
  0.763	
  1.653	
  1.739	
  0.732	
  0.047	
 -0.205	
 -0.094	
 -0.031	
 -0.087	
 -0.126	
 -0.205	
 -0.173	
 -0.236	
 -0.173	
 -0.150	
 -0.094	
 -0.079	
 -0.055	
 -0.024	
 -0.047	
  0.039	
  0.039	
  0.055	
  0.016	
  0.000	
  0.016	
  0.016	
  0.039	
  0.016	
  0.102	
  0.118	
  0.205	
  0.331	
  0.433	
  0.512	
  0.567	
  0.567	
  0.535	
  0.512	
  0.433	
  0.338	
  0.150	
  0.016	
 -0.055	
 -0.157	
 -0.228	
 -0.275	
 -0.236	
 -0.205	
 -0.165	
 -0.165	
 -0.173	
 -0.126	
 -0.118	
 -0.150	
 -0.118	
 -0.110	
 -0.016	
 -0.039	
 -0.063	
 -0.134	
 -0.150	
 -0.197	
 -0.205	
 -0.212	
 -0.244	
 -0.197	
 -0.212	
 -0.252	
 -0.260	
 -0.228	
 -0.071	
 -0.087	
 -0.079	
 -0.094	
 -0.126	
 -0.094	
 -0.118	
 -0.110	
 -0.157	
 -0.150	
 -0.165	
 -0.205	
 -0.212	
 -0.283	
 -0.283	
 -0.283	
 -0.299	
 -0.252	
 -0.299	
 -0.291	
 -0.323	
 -0.181	
 -0.055	
 -0.118	
 -0.134	
  0.126	
  0.614	
  1.236	
  1.456	
  0.575	
 -0.016	
 -0.260	
 -0.220	
 -0.165	
 -0.126	
 -0.189	
 -0.244	
 -0.323	
 -0.291	
 -0.165	
 -0.118	
 -0.110	
 -0.094	
 -0.102	
 -0.047	
 -0.008	
 -0.008	
  0.016	
  0.024	
  0.039	
  0.047	
  0.071	
  0.118	
  0.173	
  0.189	
  0.212	
  0.268	
  0.354	
  0.409	
  0.441	
  0.488	
  0.535	
  0.519	
  0.472	
  0.362	
  0.244	
  0.110	
  0.024	
 -0.024	
 -0.087	
 -0.110	
 -0.134	
 -0.134	
 -0.118	
 -0.165	
 -0.189	
 -0.173	
 -0.212	
 -0.212	
 -0.236	
 -0.244	
 -0.291	
 -0.260	
 -0.157	
 -0.118	
 -0.102	
 -0.110	
 -0.094	
 -0.087	
 -0.094	
 -0.110	
 -0.126	
 -0.126	
 -0.142	
 -0.197	
 -0.228	
 -0.252	
 -0.283	
 -0.236	
 -0.268	
 -0.268	
 -0.291	
 -0.338	
 -0.197	
 -0.150	
 -0.087	
 -0.063	
 -0.055	
 -0.071	
 -0.102	
 -0.126	
 -0.142	
 -0.173	
 -0.126	
 -0.165	
 -0.150	
 -0.110	
 -0.283	
 -0.338	
  0.000	
  0.700	
  1.637	
  1.975	
  0.968	
  0.220	
 -0.260	
 -0.315	
 -0.165	
 -0.047	
 -0.079	
 -0.094	
 -0.110	
 -0.150	
 -0.110	
 -0.102	
 -0.142	
 -0.126	
 -0.087	
 -0.055	
 -0.039	
 -0.031	
 -0.031	
  0.008	
  0.008	
  0.063	
  0.126	
  0.189	
  0.268	
  0.315	
  0.362	
  0.409	
  0.441	
  0.488	
  0.519	
  0.543	
  0.551	
  0.504	
  0.472	
  0.346	
  0.244	
  0.126	
  0.000	
 -0.047	
 -0.134	
 -0.118	
 -0.039	
 -0.039	
  0.000	
  0.024	
  0.055	
  0.047	
  0.031	
  0.071	
  0.197	
  0.551	
  1.125	
  1.574	
  1.928	
  2.149	
  2.361	
  2.589	
  2.747	
  2.943	
  3.069	
  3.109	
  2.983	
  2.400	
  1.464	
  0.472	
 -0.126	
 -0.409	
 -0.622	
 -0.700	
 -0.811	
 -0.866	
 -0.905	
 -0.992	
 -0.952	
 -1.015	
 -1.086	
 -1.133	
 -1.228	
 -1.180	
 -1.243	
 -1.322	
 -1.377	
 -1.495	
 -1.519	
 -1.527	
 -1.543	
 -1.472	
 -1.432	
 -1.283	
 -1.141	
 -0.960	
 -0.811	
 -0.622	
 -0.417	
 -0.299	
 -0.220	
 -0.212	
 -0.150	
 -0.087	
 -0.055	
 -0.079	
 -0.094	
 -0.102	
 -0.126	
 -0.110	
 -0.150	
 -0.181	
 -0.181	
 -0.189	
 -0.220	
 -0.244	
 -0.220	
 -0.236	
 -0.252	
 -0.220	
 -0.236	
 -0.252	
 -0.244	
 -0.236	
 -0.126	
 -0.079	
 -0.055	
 -0.063	
 -0.063	
 -0.063	
 -0.110	
 -0.094	
 -0.110	
 -0.126	
 -0.157	
 -0.205	
 -0.173	
 -0.205	
 -0.181	
 -0.181	
 -0.197	
 -0.181	
 -0.212	
 -0.236	
 -0.275	
 -0.291	
 -0.165	
 -0.102	
 -0.071	
 -0.102	
 -0.087	
 -0.087	
 -0.102	
 -0.087	
 -0.212	
 -0.283	
  0.071	
  0.818	
  1.629	
  1.724	
  0.803	
 -0.071	
 -0.354	
 -0.307	
 -0.181	
 -0.181	
 -0.228	
 -0.189	
 -0.157	
 -0.063	
 -0.055	
 -0.102	
 -0.087	
 -0.150	
 -0.094	
 -0.118	
 -0.126	
 -0.150	
 -0.142	
 -0.118	
 -0.094	
 -0.063	
 -0.039	
  0.039	
  0.110	
  0.197	
  0.236	
  0.236	
  0.370	
  0.504	
  0.590	
  0.661	
  0.630	
  0.622	
  0.535	
  0.425	
  0.275	
  0.181	
  0.094	
  0.016	
 -0.047	
 -0.094	
 -0.079	
 -0.079	
 -0.102	
 -0.118	
 -0.087	
 -0.087	
 -0.094	
 -0.150	
 -0.126	
 -0.047	
 -0.055	
 -0.094	
 -0.134	
 -0.134	
 -0.118	
 -0.142	
 -0.150	
 -0.150	
 -0.173	
 -0.142	
 -0.189	
 -0.150	
 -0.173	
 -0.189	
 -0.165	
 -0.173	
 -0.142	
 -0.173	
 -0.212	
 -0.126	
 -0.102	
 -0.047	
 -0.055	
 -0.110	
 -0.087	
 -0.142	
 -0.150	
 -0.157	
 -0.181	
 -0.126	
 -0.142	
 -0.142	
 -0.142	
 -0.157	
 -0.071	
 -0.142	
 -0.150	
 -0.134	
 -0.165	
 -0.110	
 -0.134	
 -0.181	
 -0.118	
 -0.079	
 -0.016	
 -0.016	
 -0.079	
 -0.094	
 -0.102	
 -0.087	
 -0.079	
 -0.063	
 -0.126	
 -0.142	
 -0.142	
 -0.150	
 -0.134	
 -0.157	
 -0.157	
 -0.134	
 -0.157	
 -0.150	
 -0.189	
 -0.102	
 -0.039	
 -0.039	
 -0.031	
 -0.063	
 -0.063	
  0.000	
 -0.031	
 -0.071	
 -0.094	
 -0.102	
 -0.134	
 -0.331	
 -0.110	
  0.464	
  1.204	
  1.755	
  1.047	
  0.173	
 -0.260	
 -0.283	
 -0.118	
  0.008	
  0.016	
  0.016	
  0.000	
 -0.047	
 -0.016	
 -0.063	
 -0.102	
 -0.110	
 -0.110	
 -0.102	
 -0.110	
 -0.126	
 -0.094	
 -0.079	
 -0.031	
  0.000	
  0.047	
  0.126	
  0.134	
  0.236	
  0.331	
  0.393	
  0.433	
  0.409	
  0.464	
  0.464	
  0.472	
  0.504	
  0.456	
  0.433	
  0.346	
  0.244	
  0.157	
  0.063	
  0.047	
  0.024	
 -0.024	
 -0.047	
 -0.102	
 -0.055	
  0.031	
  0.016	
 -0.008	
 -0.024	
 -0.047	
 -0.071	
 -0.094	
 -0.102	
 -0.094	
 -0.102	
 -0.102	
 -0.094	
 -0.126	
 -0.102	
 -0.134	
 -0.118	
 -0.150	
 -0.173	
 -0.039	
  0.008	
  0.016	
 -0.008	
 -0.079	
 -0.039	
 -0.063	
 -0.087	
 -0.087	
 -0.150	
 -0.087	
 -0.110	
 -0.126	
 -0.134	
 -0.165	
 -0.118	
 -0.205	
 -0.228	
 -0.181	
 -0.126	
 -0.055	
 -0.063	
 -0.047	
 -0.079	
 -0.079	
 -0.063	
 -0.102	
 -0.094	
 -0.126	
 -0.055	
 -0.102	
 -0.205	
 -0.134	
  0.212	
  0.889	
  1.472	
  1.141	
  0.299	
 -0.252	
 -0.354	
 -0.268	
 -0.165	
 -0.110	
 -0.079	
 -0.039	
 -0.039	
 -0.031	
 -0.094	
 -0.024	
 -0.024	
 -0.024	
 -0.008	
 -0.055	
  0.055	
  0.031	
  0.047	
  0.079	
  0.063	
  0.134	
  0.134	
  0.220	
  0.244	
  0.323	
  0.315	
  0.464	
  0.582	
  0.630	
  0.740	
  0.724	
  0.748	
  0.661	
  0.535	
  0.401	
  0.252	
  0.189	
  0.071	
  0.008	
 -0.094	
 -0.126	
 -0.181	
 -0.205	
 -0.181	
 -0.260	
 -0.307	
 -0.244	
 -0.165	
 -0.102	
 -0.126	
 -0.118	
 -0.126	
 -0.079	
 -0.110	
 -0.102	
 -0.126	
 -0.126	
 -0.079	
 -0.047	
 -0.110	
 -0.126	
 -0.126	
 -0.142	
 -0.118	
 -0.189	
 -0.205	
 -0.181	
 -0.173	
 -0.205	
 -0.212	
 -0.173	
 -0.165	
 -0.126	
 -0.110	
 -0.142	
 -0.134	
 -0.134	
 -0.134	
 -0.157	
 -0.142	
 -0.126	
 -0.087	
 -0.126	
 -0.134	
 -0.150	
 -0.173	
 -0.197	
 -0.205	
 -0.205	
 -0.165	
 -0.228	
 -0.425	
 -0.220	
  0.417	
  1.236	
  1.905	
  1.306	
  0.299	
 -0.212	
 -0.441	
 -0.338	
 -0.197	
 -0.110	
 -0.079	
 -0.102	
 -0.126	
 -0.157	
 -0.118	
 -0.150	
 -0.118	
 -0.150	
 -0.094	
 -0.102	
 -0.087	
 -0.055	
 -0.008	
  0.031	
  0.055	
  0.118	
  0.126	
  0.236	
  0.244	
  0.307	
  0.331	
  0.417	
  0.409	
  0.472	
  0.488	
  0.480	
  0.456	
  0.370	
  0.275	
  0.173	
  0.110	
  0.016	
 -0.016	
 -0.055	
 -0.039	
 -0.079	
 -0.094	
 -0.142	
 -0.118	
 -0.063	
 -0.039	
 -0.087	
 -0.134	
 -0.094	
 -0.181	
 -0.173	
 -0.205	
 -0.181	
 -0.197	
 -0.173	
 -0.205	
 -0.220	
 -0.181	
 -0.236	
 -0.142	
 -0.094	
 -0.024	
 -0.055	
 -0.047	
 -0.102	
 -0.126	
 -0.134	
 -0.173	
 -0.197	
 -0.236	
 -0.228	
 -0.268	
 -0.252	
 -0.244	
 -0.268	
 -0.244	
 -0.275	
 -0.220	
 -0.165	
 -0.110	
 -0.087	
 -0.031	
 -0.016	
 -0.094	
 -0.181	
  0.016	
  0.693	
  1.503	
  1.771	
  0.842	
 -0.087	
 -0.496	
 -0.527	
 -0.378	
 -0.212	
 -0.126	
 -0.102	
 -0.110	
 -0.055	
 -0.087	
 -0.063	
 -0.055	
 -0.055	
 -0.008	
 -0.024	
 -0.055	
 -0.063	
 -0.071	
 -0.039	
 -0.055	
 -0.008	
  0.102	
  0.220	
  0.283	
  0.354	
  0.386	
  0.417	
  0.527	
  0.575	
  0.622	
  0.645	
  0.590	
  0.512	
  0.354	
  0.260	
  0.102	
 -0.031	
 -0.055	
 -0.173	
 -0.102	
 -0.063	
 -0.094	
 -0.087	
 -0.110	
 -0.134	
 -0.142	
 -0.142	
 -0.126	
 -0.126	
 -0.126	
 -0.134	
 -0.102	
 -0.110	
 -0.157	
 -0.181	
 -0.228	
 -0.220	
 -0.228	
 -0.197	
 -0.197	
 -0.205	
 -0.134	
 -0.181	
 -0.110	
 -0.071	
 -0.079	
 -0.047	
 -0.079	
 -0.071	
 -0.110	
 -0.150	
 -0.118	
 -0.165	
 -0.205	
 -0.228	
 -0.252	
 -0.205	
 -0.252	
 -0.244	
 -0.252	
 -0.228	
 -0.205	
 -0.220	
 -0.244	
 -0.275	
 -0.189	
 -0.087	
 -0.087	
 -0.079	
 -0.126	
 -0.142	
 -0.150	
 -0.142	
 -0.142	
 -0.165	
 -0.134	
 -0.150	
 -0.150	
 -0.150	
 -0.181	
 -0.110	
 -0.173	
 -0.338	
 -0.236	
  0.236	
  1.110	
  1.747	
  1.322	
  0.283	
 -0.331	
 -0.260	
 -0.087	
 -0.031	
 -0.031	
 -0.079	
 -0.047	
 -0.071	
 -0.094	
 -0.087	
 -0.126	
 -0.102	
 -0.134	
 -0.142	
 -0.157	
 -0.126	
 -0.126	
 -0.118	
 -0.071	
  0.000	
  0.087	
  0.197	
  0.260	
  0.338	
  0.386	
  0.441	
  0.480	
  0.535	
  0.598	
  0.598	
  0.614	
  0.567	
  0.464	
  0.362	
  0.236	
  0.126	
  0.016	
 -0.071	
 -0.165	
 -0.220	
 -0.212	
 -0.071	
 -0.016	
  0.000	
  0.008	
 -0.008	
 -0.031	
 -0.071	
 -0.087	
 -0.094	
 -0.142	
 -0.142	
 -0.181	
 -0.197	
 -0.189	
 -0.228	
 -0.228	
 -0.220	
 -0.197	
 -0.189	
 -0.197	
 -0.102	
 -0.039	
  0.008	
  0.016	
  0.008	
 -0.016	
 -0.063	
 -0.039	
 -0.079	
 -0.118	
 -0.142	
 -0.181	
 -0.150	
 -0.197	
 -0.189	
 -0.181	
 -0.236	
 -0.150	
 -0.189	
 -0.173	
 -0.205	
 -0.275	
 -0.189	
 -0.134	
 -0.102	
 -0.079	
 -0.102	
 -0.055	
 -0.063	
 -0.079	
 -0.110	
 -0.126	
 -0.134	
 -0.157	
 -0.173	
 -0.197	
 -0.165	
 -0.173	
 -0.173	
 -0.181	
 -0.173	
 -0.126	
 -0.126	
 -0.150	
 -0.110	
 -0.071	
 -0.047	
 -0.063	
 -0.071	
 -0.094	
 -0.102	
 -0.110	
 -0.118	
 -0.299	
 -0.346	
  0.157	
  0.866	
  1.731	
  1.676	
  0.606	
 -0.102	
 -0.275	
 -0.205	
 -0.157	
 -0.189	
 -0.110	
 -0.047	
 -0.039	
 -0.055	
 -0.039	
 -0.047	
 -0.047	
 -0.055	
 -0.094	
 -0.071	
 -0.071	
 -0.055	
 -0.055	
 -0.063	
  0.000	
  0.031	
  0.063	
  0.102	
  0.220	
  0.354	
  0.417	
  0.464	
  0.488	
  0.551	
  0.575	
  0.575	
  0.567	
  0.535	
  0.472	
  0.346	
  0.212	
  0.134	
  0.063	
 -0.016	
 -0.063	
 -0.094	
 -0.142	
 -0.189	
 -0.197	
 -0.134	
 -0.079	
 -0.055	
 -0.055	
 -0.031	
 -0.063	
 -0.039	
 -0.024	
 -0.016	
 -0.047	
 -0.079	
 -0.039	
 -0.110	
 -0.087	
 -0.118	
 -0.126	
 -0.150	
 -0.205	
 -0.205	
 -0.197	
 -0.063	
 -0.079	
 -0.087	
 -0.094	
 -0.094	
 -0.063	
 -0.071	
 -0.079	
 -0.094	
 -0.079	
 -0.102	
 -0.173	
 -0.181	
 -0.205	
 -0.197	
 -0.157	
 -0.150	
 -0.134	
 -0.102	
 -0.063	
 -0.087	
 -0.071	
 -0.047	
 -0.031	
 -0.055	
 -0.102	
 -0.087	
 -0.118	
 -0.173	
 -0.323	
 -0.181	
  0.519	
  1.393	
  1.849	
  1.055	
  0.055	
 -0.362	
 -0.401	
 -0.244	
 -0.118	
 -0.110	
 -0.118	
 -0.102	
 -0.118	
 -0.118	
 -0.126	
 -0.134	
 -0.079	
 -0.094	
 -0.079	
 -0.063	
 -0.063	
 -0.063	
 -0.024	
  0.016	
  0.079	
  0.197	
  0.252	
  0.244	
  0.299	
  0.346	
  0.433	
  0.488	
  0.567	
  0.582	
  0.567	
  0.590	
  0.527	
  0.433	
  0.307	
  0.142	
  0.087	
 -0.039	
 -0.094	
 -0.102	
 -0.173	
 -0.110	
 -0.173	
 -0.181	
 -0.165	
 -0.205	
 -0.173	
 -0.173	
 -0.173	
 -0.165	
 -0.205	
 -0.150	
 -0.173	
 -0.205	
 -0.189	
 -0.197	
 -0.173	
 -0.205	
 -0.236	
 -0.220	
 -0.220	
 -0.142	
 -0.071	
 -0.047	
 -0.055	
 -0.071	
 -0.047	
 -0.039	
 -0.087	
 -0.079	
 -0.087	
 -0.079	
 -0.142	
 -0.126	
 -0.150	
 -0.189	
 -0.197	
 -0.228	
 -0.205	
 -0.220	
 -0.197	
 -0.173	
 -0.181	
 -0.165	
 -0.157	
 -0.157	
 -0.126	
 -0.150	
 -0.142	
 -0.134	
 -0.157	
 -0.110	
 -0.165	
 -0.157	
 -0.181	
 -0.220	
 -0.212	
 -0.268	
 -0.291	
 -0.268	
 -0.189	
 -0.087	
 -0.126	
 -0.087	
 -0.047	
 -0.079	
 -0.063	
 -0.094	
 -0.094	
 -0.094	
 -0.126	
 -0.102	
 -0.220	
 -0.346	
  0.055	
  0.748	
  1.590	
  1.700	
  0.700	
  0.024	
 -0.323	
 -0.291	
 -0.142	
 -0.079	
 -0.094	
 -0.087	
 -0.079	
 -0.102	
 -0.126	
 -0.134	
 -0.142	
 -0.102	
 -0.134	
 -0.102	
 -0.087	
 -0.094	
 -0.031	
 -0.087	
  0.008	
  0.094	
  0.134	
  0.236	
  0.283	
  0.362	
  0.433	
  0.449	
  0.512	
  0.480	
  0.535	
  0.527	
  0.519	
  0.527	
  0.425	
  0.323	
  0.236	
  0.110	
  0.063	
 -0.047	
 -0.079	
 -0.039	
 -0.055	
 -0.008	
 -0.031	
 -0.024	
 -0.039	
 -0.110	
 -0.110	
 -0.157	
 -0.181	
 -0.181	
 -0.205	
 -0.157	
 -0.165	
 -0.181	
 -0.165	
 -0.189	
 -0.134	
 -0.110	
 -0.063	
 -0.024	
 -0.016	
 -0.024	
 -0.047	
 -0.079	
 -0.110	
 -0.157	
 -0.150	
 -0.220	
 -0.228	
 -0.268	
 -0.275	
 -0.252	
 -0.283	
 -0.268	
 -0.268	
 -0.299	
 -0.252	
 -0.236	
 -0.181	
 -0.094	
 -0.063	
 -0.008	
 -0.031	
 -0.016	
 -0.008	
 -0.071	
 -0.008	
 -0.055	
 -0.094	
 -0.102	
 -0.157	
 -0.118	
 -0.173	
 -0.205	
 -0.252	
 -0.283	
 -0.220	
 -0.212	
 -0.236	
 -0.299	
 -0.275	
 -0.126	
 -0.118	
 -0.126	
 -0.094	
 -0.142	
 -0.094	
 -0.118	
 -0.126	
 -0.094	
 -0.110	
 -0.102	
 -0.118	
 -0.142	
 -0.118	
 -0.157	
 -0.150	
 -0.189	
 -0.189	
 -0.094	
 -0.094	
 -0.063	
 -0.094	
 -0.126	
 -0.087	
 -0.094	
 -0.094	
 -0.118	
 -0.150	
 -0.157	
 -0.205	
 -0.189	
 -0.205	
 -0.228	
 -0.212	
 -0.189	
 -0.181	
 -0.150	
 -0.134	
 -0.110	
 -0.094	
 -0.118	
 -0.126	
 -0.094	
 -0.071	
 -0.087	
 -0.063	
 -0.079	
 -0.252	
 -0.228	
  0.220	
  1.070	
  1.889	
  1.692	
  0.582	
 -0.181	
 -0.275	
 -0.150	
 -0.134	
 -0.134	
 -0.165	
 -0.142	
 -0.110	
 -0.031	
 -0.031	
 -0.016	
 -0.024	
 -0.055	
 -0.024	
 -0.016	
 -0.008	
 -0.047	
 -0.031	
 -0.016	
  0.008	
 -0.008	
  0.024	
  0.079	
  0.142	
  0.212	
  0.236	
  0.315	
  0.433	
  0.559	
  0.598	
  0.598	
  0.590	
  0.543	
  0.535	
  0.456	
  0.331	
  0.252	
  0.102	
  0.016	
 -0.079	
 -0.118	
 -0.157	
 -0.157	
 -0.197	
 -0.228	
 -0.205	
 -0.220	
 -0.102	
 -0.024	
  0.000	
  0.016	
  0.024	
  0.000	
 -0.039	
 -0.055	
 -0.055	
 -0.079	
 -0.118	
 -0.134	
 -0.157	
 -0.197	
 -0.228	
 -0.220	
 -0.236	
 -0.197	
 -0.260	
 -0.291	
 -0.165	
 -0.102	
 -0.087	
 -0.063	
 -0.071	
 -0.055	
 -0.063	
 -0.055	
 -0.094	
 -0.087	
 -0.118	
 -0.126	
 -0.126	
 -0.173	
 -0.181	
 -0.197	
 -0.150	
 -0.157	
 -0.205	
 -0.275	
 -0.197	
 -0.087	
 -0.047	
 -0.071	
 -0.079	
 -0.055	
 -0.071	
 -0.102	
 -0.118	
 -0.150	
 -0.118	
 -0.157	
 -0.181	
 -0.189	
 -0.205	
 -0.173	
 -0.220	
 -0.244	
 -0.252	
 -0.173	
 -0.087	
 -0.047	
 -0.039	
 -0.071	
 -0.016	
 -0.055	
 -0.063	
 -0.079	
 -0.118	
 -0.079	
 -0.087	
 -0.102	
 -0.142	
 -0.212	
 -0.197	
 -0.228	
 -0.236	
 -0.275	
 -0.260	
 -0.260	
 -0.118	
 -0.047	
 -0.055	
 -0.008	
 -0.016	
  0.024	
  0.000	
 -0.039	
  0.000	
 -0.039	
 -0.063	
 -0.094	
 -0.110	
 -0.134	
 -0.157	
 -0.173	
 -0.275	
 -0.354	
 -0.228	
  0.464	
  1.251	
  1.857	
  1.377	
  0.331	
 -0.165	
 -0.299	
 -0.165	
 -0.094	
 -0.063	
 -0.094	
 -0.142	
 -0.126	
 -0.142	
 -0.150	
 -0.150	
 -0.150	
 -0.079	
 -0.118	
 -0.087	
 -0.071	
 -0.055	
  0.031	
  0.071	
  0.134	
  0.165	
  0.197	
  0.244	
  0.283	
  0.323	
  0.346	
  0.449	
  0.496	
  0.535	
  0.535	
  0.519	
  0.559	
  0.504	
  0.449	
  0.346	
  0.212	
  0.189	
  0.055	
  0.000	
 -0.071	
 -0.079	
  0.031	
  0.008	
  0.000	
 -0.055	
 -0.071	
 -0.063	
 -0.063	
 -0.079	
 -0.118	
 -0.142	
 -0.165	
 -0.150	
 -0.134	
 -0.165	
 -0.126	
 -0.157	
 -0.126	
 -0.150	
 -0.189	
 -0.197	
 -0.189	
 -0.102	
 -0.063	
 -0.071	
 -0.024	
 -0.079	
 -0.079	
 -0.134	
 -0.142	
 -0.157	
 -0.157	
 -0.165	
 -0.181	
 -0.134	
 -0.165	
 -0.150	
 -0.142	
 -0.165	
 -0.094	
 -0.134	
 -0.157	
 -0.165	
 -0.118	
 -0.047	
 -0.071	
 -0.087	
 -0.110	
 -0.102	
 -0.134	
 -0.142	
 -0.142	
 -0.165	
 -0.126	
 -0.150	
 -0.126	
 -0.110	
 -0.126	
 -0.094	
 -0.150	
 -0.189	
 -0.212	
 -0.165	
 -0.094	
 -0.110	
 -0.102	
 -0.102	
 -0.079	
 -0.118	
 -0.079	
 -0.087	
 -0.110	
 -0.087	
 -0.102	
 -0.087	
 -0.118	
 -0.150	
 -0.126	
 -0.181	
 -0.173	
 -0.102	
 -0.055	
 -0.228	
 -0.212	
  0.346	
  1.118	
  1.897	
  1.590	
  0.567	
 -0.063	
 -0.331	
 -0.205	
 -0.118	
 -0.110	
 -0.134	
 -0.142	
 -0.165	
 -0.173	
 -0.181	
 -0.197	
 -0.189	
 -0.181	
 -0.142	
 -0.134	
 -0.110	
 -0.024	
  0.031	
  0.087	
  0.087	
  0.134	
  0.173	
  0.181	
  0.205	
  0.252	
  0.354	
  0.378	
  0.472	
  0.527	
  0.582	
  0.637	
  0.606	
  0.551	
  0.449	
  0.346	
  0.220	
  0.134	
  0.016	
 -0.110	
 -0.157	
 -0.244	
 -0.189	
 -0.181	
 -0.157	
 -0.134	
 -0.110	
 -0.094	
 -0.118	
 -0.071	
 -0.094	
 -0.087	
 -0.142	
 -0.118	
 -0.134	
 -0.126	
 -0.157	
 -0.189	
 -0.157	
 -0.244	
 -0.150	
 -0.118	
 -0.102	
 -0.110	
 -0.126	
 -0.173	
 -0.189	
 -0.094	
 -0.134	
 -0.134	
 -0.157	
 -0.142	
 -0.181	
 -0.173	
 -0.189	
 -0.260	
 -0.236	
 -0.173	
 -0.118	
 -0.134	
 -0.150	
 -0.173	
 -0.244	
 -0.220	
 -0.197	
 -0.118	
 -0.142	
 -0.299	
 -0.275	
  0.275	
  1.078	
  1.881	
  1.700	
  0.527	
 -0.252	
 -0.260	
 -0.110	
 -0.087	
 -0.039	
 -0.118	
 -0.102	
 -0.079	
 -0.087	
 -0.087	
 -0.094	
 -0.094	
 -0.118	
 -0.087	
 -0.110	
 -0.087	
 -0.071	
 -0.071	
 -0.047	
 -0.008	
  0.102	
  0.102	
  0.228	
  0.307	
  0.401	
  0.433	
  0.496	
  0.575	
  0.598	
  0.606	
  0.575	
  0.567	
  0.449	
  0.323	
  0.205	
  0.039	
  0.024	
 -0.031	
 -0.039	
 -0.079	
 -0.071	
 -0.118	
 -0.126	
 -0.157	
 -0.189	
 -0.142	
 -0.165	
 -0.157	
 -0.173	
 -0.212	
 -0.181	
 -0.236	
 -0.236	
 -0.189	
 -0.157	
 -0.110	
 -0.142	
 -0.134	
 -0.126	
 -0.071	
 -0.118	
 -0.134	
 -0.165	
 -0.212	
 -0.142	
 -0.181	
 -0.212	
 -0.197	
 -0.236	
 -0.189	
 -0.268	
 -0.299	
 -0.236	
 -0.220	
 -0.118	
 -0.142	
 -0.118	
 -0.126	
 -0.118	
 -0.087	
 -0.110	
 -0.118	
 -0.142	
 -0.157	
 -0.110	
 -0.142	
 -0.150	
 -0.150	
 -0.165	
 -0.126	
 -0.165	
 -0.173	
 -0.236	
 -0.157	
 -0.063	
 -0.024	
 -0.031	
 -0.094	
 -0.102	
 -0.110	
 -0.126	
 -0.126	
 -0.165	
 -0.134	
 -0.173	
 -0.197	
 -0.189	
 -0.228	
 -0.181	
 -0.205	
 -0.189	
 -0.157	
 -0.102	
 -0.024	
 -0.016	
 -0.047	
 -0.063	
 -0.102	
 -0.094	
 -0.118	
 -0.150	
 -0.150	
 -0.173	
 -0.150	
 -0.189	
 -0.212	
 -0.197	
 -0.181	
 -0.150	
 -0.220	
 -0.417	
 -0.315	
  0.331	
  1.125	
  1.865	
  1.543	
  0.456	
 -0.126	
 -0.228	
 -0.118	
 -0.071	
 -0.094	
 -0.079	
 -0.102	
 -0.126	
 -0.134	
 -0.157	
 -0.142	
 -0.134	
 -0.079	
 -0.110	
 -0.157	
 -0.102	
 -0.008	
  0.079	
  0.094	
  0.126	
  0.173	
  0.205	
  0.228	
  0.236	
  0.283	
  0.338	
  0.393	
  0.441	
  0.449	
  0.488	
  0.535	
  0.535	
  0.504	
  0.401	
  0.299	
  0.197	
  0.205	
  0.142	
  0.039	
  0.008	
 -0.039	
 -0.055	
 -0.063	
 -0.110	
 -0.055	
 -0.102	
 -0.126	
 -0.142	
 -0.181	
 -0.134	
 -0.165	
 -0.205	
 -0.260	
 -0.228	
 -0.134	
 -0.150	
 -0.142	
 -0.039	
 -0.016	
  0.024	
  0.000	
 -0.039	
 -0.055	
 -0.063	
 -0.102	
 -0.126	
 -0.165	
 -0.212	
 -0.220	
 -0.252	
 -0.291	
 -0.299	
 -0.283	
 -0.228	
 -0.205	
 -0.165	
 -0.157	
 -0.142	
 -0.087	
 -0.079	
 -0.047	
 -0.047	
 -0.079	
 -0.055	
 -0.110	
 -0.126	
 -0.102	
 -0.157	
 -0.150	
 -0.165	
 -0.157	
 -0.157	
 -0.173	
 -0.165	
 -0.181	
 -0.197	
 -0.212	
 -0.134	
 -0.094	
 -0.094	
 -0.079	
 -0.110	
 -0.102	
 -0.142	
 -0.173	
 -0.197	
 -0.181	
 -0.181	
 -0.157	
 -0.157	
 -0.150	
 -0.118	
 -0.205	
 -0.401	
 -0.055	
  0.685	
  1.598	
  2.030	
  0.999	
  0.102	
 -0.338	
 -0.362	
 -0.189	
 -0.102	
 -0.094	
 -0.094	
 -0.063	
 -0.118	
 -0.142	
 -0.142	
 -0.150	
 -0.094	
 -0.142	
 -0.142	
 -0.110	
 -0.079	
  0.000	
  0.039	
  0.071	
  0.079	
  0.087	
  0.197	
  0.228	
  0.260	
  0.299	
  0.378	
  0.433	
  0.449	
  0.512	
  0.512	
  0.559	
  0.512	
  0.393	
  0.307	
  0.260	
  0.228	
  0.173	
  0.087	
  0.055	
 -0.039	
 -0.055	
 -0.087	
 -0.110	
 -0.118	
 -0.118	
 -0.134	
 -0.150	
 -0.142	
 -0.181	
 -0.205	
 -0.181	
 -0.118	
 -0.094	
 -0.063	
 -0.079	
 -0.102	
 -0.157	
 -0.157	
 -0.142	
 -0.134	
 -0.157	
 -0.165	
 -0.181	
 -0.165	
 -0.165	
 -0.189	
 -0.212	
 -0.205	
 -0.157	
 -0.079	
 -0.063	
 -0.079	
 -0.031	
 -0.047	
 -0.071	
 -0.094	
 -0.110	
 -0.118	
 -0.094	
 -0.126	
 -0.142	
 -0.126	
 -0.157	
 -0.142	
 -0.173	
 -0.142	
 -0.102	
 -0.094	
 -0.134	
 -0.134	
 -0.079	
 -0.071	
 -0.039	
 -0.071	
 -0.102	
 -0.087	
 -0.142	
 -0.118	
 -0.142	
 -0.150	
 -0.157	
 -0.165	
 -0.189	
 -0.212	
 -0.157	
 -0.173	
 -0.142	
 -0.094	
 -0.063	
 -0.031	
 -0.008	
  0.024	
  0.000	
 -0.008	
 -0.031	
 -0.031	
 -0.055	
 -0.063	
 -0.071	
 -0.118	
 -0.126	
 -0.150	
 -0.181	
 -0.165	
 -0.197	
 -0.173	
 -0.173	
 -0.205	
 -0.142	
 -0.150	
 -0.110	
 -0.118	
 -0.134	
 -0.031	
 -0.063	
 -0.039	
 -0.047	
 -0.063	
 -0.031	
 -0.055	
 -0.071	
 -0.102	
 -0.126	
 -0.079	
 -0.079	
 -0.087	
 -0.094	
 -0.181	
 -0.323	
 -0.189	
  0.386	
  1.165	
  1.967	
  1.440	
  0.433	
 -0.134	
 -0.236	
 -0.110	
 -0.016	
 -0.055	
 -0.071	
 -0.063	
 -0.094	
 -0.079	
 -0.094	
 -0.134	
 -0.134	
 -0.150	
 -0.087	
 -0.087	
 -0.063	
 -0.055	
 -0.024	
  0.094	
  0.134	
  0.134	
  0.157	
  0.197	
  0.260	
  0.307	
  0.331	
  0.338	
  0.393	
  0.441	
  0.504	
  0.519	
  0.519	
  0.519	
  0.456	
  0.393	
  0.291	
  0.150	
  0.031	
 -0.071	
 -0.110	
 -0.102	
 -0.087	
 -0.102	
 -0.102	
 -0.079	
 -0.094	
 -0.087	
 -0.102	
 -0.126	
 -0.102	
 -0.142	
 -0.150	
 -0.181	
 -0.150	
 -0.079	
 -0.118	
 -0.134	
 -0.157	
 -0.126	
 -0.087	
 -0.071	
 -0.016	
 -0.016	
 -0.039	
 -0.047	
 -0.063	
 -0.079	
 -0.126	
 -0.142	
 -0.165	
 -0.150	
 -0.212	
 -0.212	
 -0.197	
 -0.181	
 -0.150	
 -0.181	
 -0.212	
 -0.197	
 -0.142	
 -0.055	
 -0.087	
 -0.110	
 -0.087	
 -0.134	
 -0.094	
 -0.118	
 -0.118	
 -0.102	
 -0.173	
 -0.197	
 -0.362	
 -0.102	
  0.582	
  1.511	
  1.944	
  1.110	
  0.142	
 -0.228	
 -0.205	
 -0.024	
 -0.031	
 -0.071	
 -0.079	
 -0.126	
 -0.102	
 -0.134	
 -0.157	
 -0.118	
 -0.157	
 -0.118	
 -0.165	
 -0.181	
 -0.087	
 -0.008	
  0.071	
  0.102	
  0.134	
  0.181	
  0.181	
  0.252	
  0.315	
  0.346	
  0.425	
  0.449	
  0.535	
  0.582	
  0.614	
  0.598	
  0.488	
  0.433	
  0.417	
  0.354	
  0.212	
  0.102	
 -0.008	
 -0.063	
 -0.157	
 -0.197	
 -0.228	
 -0.236	
 -0.244	
 -0.260	
 -0.268	
 -0.228	
 -0.205	
 -0.142	
 -0.110	
 -0.110	
 -0.094	
 -0.110	
 -0.102	
 -0.134	
 -0.126	
 -0.094	
 -0.087	
 -0.118	
 -0.165	
 -0.189	
 -0.181	
 -0.173	
 -0.197	
 -0.181	
 -0.157	
 -0.142	
 -0.118	
 -0.126	
 -0.126	
 -0.157	
 -0.134	
 -0.157	
 -0.212	
 -0.244	
 -0.252	
 -0.228	
 -0.220	
 -0.189	
 -0.126	
 -0.110	
 -0.094	
 -0.102	
 -0.110	
 -0.157	
 -0.134	
 -0.150	
 -0.173	
 -0.157	
 -0.220	
 -0.157	
 -0.228	
 -0.401	
 -0.236	
  0.456	
  1.377	
  1.975	
  1.306	
  0.220	
 -0.275	
 -0.283	
 -0.094	
 -0.039	
 -0.094	
 -0.055	
 -0.126	
 -0.142	
 -0.157	
 -0.118	
 -0.087	
 -0.087	
 -0.087	
 -0.110	
 -0.055	
 -0.079	
 -0.047	
 -0.063	
 -0.016	
  0.079	
  0.110	
  0.205	
  0.228	
  0.283	
  0.338	
  0.425	
  0.504	
  0.543	
  0.622	
  0.669	
  0.653	
  0.590	
  0.504	
  0.386	
  0.268	
  0.126	
  0.008	
 -0.071	
 -0.087	
 -0.126	
 -0.110	
 -0.150	
 -0.142	
 -0.134	
 -0.157	
 -0.157	
 -0.134	
 -0.118	
 -0.142	
 -0.094	
 -0.126	
 -0.094	
 -0.118	
 -0.102	
 -0.126	
 -0.110	
 -0.110	
 -0.094	
 -0.126	
 -0.071	
 -0.039	
 -0.102	
 -0.134	
 -0.197	
 -0.165	
 -0.189	
 -0.165	
 -0.157	
 -0.142	
 -0.134	
 -0.126	
 -0.165	
 -0.165	
 -0.110	
 -0.142	
 -0.150	
 -0.157	
 -0.094	
 -0.126	
 -0.094	
 -0.134	
 -0.110	
 -0.087	
 -0.087	
 -0.323	
 -0.205	
  0.449	
  1.220	
  2.125	
  1.621	
  0.409	
 -0.291	
 -0.551	
 -0.449	
 -0.268	
 -0.228	
 -0.197	
 -0.197	
 -0.189	
 -0.189	
 -0.079	
 -0.063	
 -0.024	
 -0.008	
  0.031	
  0.039	
  0.016	
  0.024	
  0.008	
  0.055	
  0.047	
  0.094	
  0.087	
  0.197	
  0.220	
  0.283	
  0.386	
  0.425	
  0.559	
  0.630	
  0.661	
  0.630	
  0.653	
  0.504	
  0.362	
  0.252	
  0.110	
  0.079	
 -0.031	
 -0.063	
 -0.126	
 -0.197	
 -0.150	
 -0.157	
 -0.157	
 -0.165	
 -0.110	
 -0.150	
 -0.126	
 -0.118	
 -0.157	
 -0.110	
 -0.134	
 -0.142	
 -0.142	
 -0.142	
 -0.134	
 -0.150	
 -0.165	
 -0.165	
 -0.150	
 -0.087	
 -0.047	
 -0.047	
 -0.024	
 -0.016	
 -0.055	
 -0.087	
 -0.126	
 -0.126	
 -0.134	
 -0.142	
 -0.173	
 -0.165	
 -0.165	
 -0.142	
 -0.142	
 -0.165	
 -0.134	
 -0.165	
 -0.126	
 -0.134	
 -0.118	
 -0.102	
 -0.055	
 -0.055	
 -0.039	
 -0.039	
 -0.031	
 -0.047	
 -0.071	
 -0.102	
 -0.079	
 -0.094	
 -0.126	
 -0.134	
 -0.157	
 -0.142	
 -0.142	
 -0.150	
 -0.165	
 -0.212	
 -0.212	
 -0.173	
 -0.142	
 -0.094	
 -0.079	
 -0.087	
 -0.024	
 -0.016	
 -0.024	
 -0.047	
 -0.024	
 -0.024	
 -0.024	
 -0.055	
 -0.031	
 -0.008	
  0.008	
 -0.197	
 -0.252	
  0.197	
  0.921	
  1.857	
  1.960	
  0.842	
 -0.071	
 -0.370	
 -0.283	
 -0.118	
 -0.079	
 -0.094	
 -0.047	
 -0.079	
 -0.079	
 -0.079	
 -0.094	
 -0.016	
 -0.024	
 -0.031	
 -0.071	
 -0.063	
 -0.031	
 -0.024	
 -0.008	
 -0.039	
  0.039	
  0.173	
  0.228	
  0.291	
  0.323	
  0.433	
  0.519	
  0.590	
  0.614	
  0.598	
  0.693	
  0.653	
  0.582	
  0.496	
  0.378	
  0.307	
  0.118	
  0.024	
 -0.008	
 -0.031	
 -0.031	
 -0.087	
 -0.102	
 -0.110	
 -0.110	
 -0.071	
 -0.110	
 -0.134	
 -0.134	
 -0.102	
 -0.142	
 -0.165	
 -0.173	
 -0.189	
 -0.134	
 -0.150	
 -0.150	
 -0.126	
 -0.157	
 -0.118	
 -0.142	
 -0.150	
 -0.142	
 -0.181	
 -0.150	
 -0.173	
 -0.181	
 -0.189	
 -0.181	
 -0.181	
 -0.197	
 -0.212	
 -0.236	
 -0.244	
 -0.189	
 -0.189	
 -0.181	
 -0.197	
 -0.142	
 -0.142	
 -0.173	
 -0.094	
 -0.126	
 -0.102	
 -0.118	
 -0.150	
 -0.142	
 -0.181	
 -0.165	
 -0.173	
 -0.212	
 -0.205	
 -0.197	
 -0.189	
 -0.173	
 -0.197	
 -0.197	
 -0.205	
 -0.197	
 -0.165	
 -0.181	
 -0.189	
 -0.189	
 -0.189	
 -0.189	
 -0.157	
 -0.150	
 -0.142	
 -0.150	
 -0.157	
 -0.110	
 -0.102	
 -0.094	
 -0.110	
 -0.134	
 -0.142	
 -0.142	
 -0.150	
 -0.134	
 -0.150	
 -0.142	
 -0.142	
 -0.142	
 -0.173	
 -0.181	
 -0.142	
 -0.063	
 -0.039	
 -0.094	
 -0.102	
 -0.102	
 -0.118	
 -0.102	
 -0.142	
 -0.150	
 -0.134	
 -0.157	
 -0.134	
 -0.173	
 -0.181	
 -0.165	
 -0.165	
 -0.157	
 -0.181	
 -0.142	
 -0.063	
 -0.055	
 -0.087	
 -0.110	
 -0.079	
 -0.087	
 -0.094	
 -0.110	
 -0.142	
 -0.087	
 -0.134	
 -0.142	
 -0.150	
 -0.118	
 -0.173	
 -0.205	
 -0.157	
 -0.118	
 -0.047	
 -0.087	
 -0.094	
 -0.094	
 -0.118	
 -0.102	
 -0.126	
 -0.110	
 -0.118	
 -0.031	
 -0.181	
 -0.268	
 -0.016	
  0.527	
  1.511	
  1.881	
  1.118	
  0.165	
 -0.228	
 -0.197	
 -0.110	
 -0.087	
 -0.150	
 -0.087	
 -0.150	
 -0.142	
 -0.134	
 -0.102	
 -0.055	
 -0.055	
 -0.047	
 -0.094	
 -0.039	
 -0.024	
  0.055	
  0.110	
  0.118	
  0.165	
  0.157	
  0.181	
  0.165	
  0.236	
  0.283	
  0.283	
  0.370	
  0.449	
  0.551	
  0.582	
  0.567	
  0.527	
  0.488	
  0.480	
  0.401	
  0.354	
  0.244	
  0.220	
  0.118	
  0.063	
  0.016	
 -0.063	
 -0.055	
 -0.063	
 -0.039	
 -0.094	
 -0.094	
 -0.110	
 -0.134	
 -0.142	
 -0.212	
 -0.165	
 -0.205	
 -0.134	
 -0.087	
 -0.079	
 -0.055	
 -0.071	
 -0.055	
 -0.087	
 -0.055	
 -0.055	
 -0.047	
 -0.079	
 -0.157	
 -0.118	
 -0.142	
 -0.142	
 -0.134	
 -0.181	
 -0.173	
 -0.212	
 -0.283	
 -0.244	
 -0.165	
 -0.102	
 -0.126	
 -0.150	
 -0.134	
 -0.118	
 -0.126	
 -0.142	
 -0.173	
 -0.212	
 -0.181	
 -0.173	
 -0.197	
 -0.189	
 -0.212	
 -0.181	
 -0.173	
 -0.228	
 -0.205	
 -0.197	
 -0.134	
 -0.094	
 -0.055	
 -0.063	
 -0.110	
 -0.118	
 -0.134	
 -0.197	
 -0.189	
 -0.236	
 -0.197	
 -0.165	
 -0.197	
 -0.212	
 -0.228	
 -0.181	
 -0.205	
 -0.244	
 -0.197	
 -0.126	
 -0.047	
 -0.063	
 -0.094	
 -0.087	
 -0.126	
 -0.110	
 -0.142	
 -0.150	
 -0.142	
 -0.150	
 -0.134	
 -0.165	
 -0.181	
 -0.150	
 -0.165	
 -0.157	
 -0.228	
 -0.220	
 -0.197	
 -0.173	
 -0.150	
 -0.110	
 -0.110	
 -0.118	
 -0.142	
 -0.142	
 -0.181	
 -0.157	
 -0.173	
 -0.150	
 -0.126	
 -0.142	
 -0.150	
 -0.181	
 -0.197	
 -0.165	
 -0.150	
 -0.283	
 -0.362	
 -0.024	
  0.685	
  1.684	
  1.952	
  1.007	
  0.150	
 -0.346	
 -0.417	
 -0.260	
 -0.173	
 -0.173	
 -0.142	
 -0.165	
 -0.173	
 -0.181	
 -0.197	
 -0.126	
 -0.157	
 -0.134	
 -0.142	
 -0.071	
  0.047	
  0.024	
  0.016	
  0.016	
  0.031	
  0.094	
  0.094	
  0.142	
  0.197	
  0.228	
  0.370	
  0.393	
  0.441	
  0.480	
  0.519	
  0.582	
  0.527	
  0.464	
  0.323	
  0.236	
  0.283	
  0.165	
  0.063	
  0.016	
 -0.079	
 -0.047	
 -0.087	
 -0.134	
 -0.126	
 -0.173	
 -0.142	
 -0.173	
 -0.189	
 -0.220	
 -0.252	
 -0.189	
 -0.181	
 -0.197	
 -0.197	
 -0.142	
 -0.102	
 -0.094	
 -0.118	
 -0.150	
 -0.173	
 -0.142	
 -0.150	
 -0.157	
 -0.165	
 -0.220	
 -0.220	
 -0.212	
 -0.212	
 -0.212	
 -0.220	
 -0.212	
 -0.220	
 -0.220	
 -0.236	
 -0.275	
 -0.220	
 -0.157	
 -0.118	
 -0.283	
 -0.275	
  0.275	
  1.039	
  1.889	
  1.668	
  0.622	
 -0.055	
 -0.275	
 -0.150	
 -0.094	
 -0.150	
 -0.110	
 -0.173	
 -0.197	
 -0.197	
 -0.252	
 -0.236	
 -0.173	
 -0.055	
  0.000	
 -0.008	
  0.016	
  0.047	
  0.039	
  0.071	
  0.079	
  0.157	
  0.205	
  0.252	
  0.307	
  0.323	
  0.409	
  0.472	
  0.551	
  0.614	
  0.582	
  0.582	
  0.567	
  0.496	
  0.393	
  0.275	
  0.165	
  0.063	
 -0.031	
 -0.087	
 -0.126	
 -0.110	
 -0.126	
 -0.189	
 -0.236	
 -0.283	
 -0.260	
 -0.260	
 -0.275	
 -0.268	
 -0.228	
 -0.165	
 -0.102	
 -0.102	
 -0.094	
 -0.134	
 -0.110	
 -0.126	
 -0.126	
 -0.126	
 -0.165	
 -0.173	
 -0.212	
 -0.244	
 -0.228	
 -0.252	
 -0.189	
 -0.165	
 -0.181	
 -0.157	
 -0.157	
 -0.157	
 -0.142	
 -0.142	
 -0.181	
 -0.244	
 -0.228	
 -0.228	
 -0.220	
 -0.228	
 -0.275	
 -0.236	
 -0.205	
 -0.260	
 -0.378	
 -0.008	
  0.708	
  1.527	
  1.810	
  0.818	
  0.000	
 -0.299	
 -0.260	
 -0.181	
 -0.165	
 -0.228	
 -0.228	
 -0.220	
 -0.244	
 -0.212	
 -0.197	
 -0.165	
 -0.118	
 -0.055	
 -0.031	
 -0.024	
  0.000	
 -0.024	
  0.000	
  0.016	
  0.047	
  0.047	
  0.047	
  0.087	
  0.157	
  0.228	
  0.299	
  0.346	
  0.488	
  0.590	
  0.622	
  0.606	
  0.559	
  0.464	
  0.354	
  0.212	
  0.079	
 -0.008	
 -0.087	
 -0.157	
 -0.189	
 -0.260	
 -0.291	
 -0.275	
 -0.220	
 -0.220	
 -0.197	
 -0.157	
 -0.134	
 -0.118	
 -0.118	
 -0.118	
 -0.126	
 -0.142	
 -0.142	
 -0.150	
 -0.173	
 -0.181	
 -0.205	
 -0.236	
 -0.291	
 -0.268	
 -0.189	
 -0.173	
 -0.197	
 -0.157	
 -0.126	
 -0.110	
 -0.134	
 -0.118	
 -0.142	
 -0.150	
 -0.173	
 -0.205	
 -0.197	
 -0.252	
 -0.228	
 -0.197	
 -0.197	
 -0.181	
 -0.189	
 -0.189	
 -0.197	
 -0.165	
 -0.157	
 -0.134	
 -0.126	
 -0.165	
 -0.118	
 -0.315	
 -0.346	
  0.071	
  0.771	
  1.747	
  1.881	
  0.811	
 -0.055	
 -0.449	
 -0.409	
 -0.165	
 -0.102	
 -0.102	
 -0.110	
 -0.157	
 -0.134	
 -0.102	
 -0.118	
 -0.079	
 -0.110	
 -0.087	
 -0.126	
 -0.102	
 -0.063	
 -0.024	
  0.094	
  0.087	
  0.134	
  0.189	
  0.205	
  0.315	
  0.307	
  0.370	
  0.417	
  0.488	
  0.543	
  0.567	
  0.606	
  0.559	
  0.504	
  0.386	
  0.346	
  0.283	
  0.181	
  0.142	
  0.008	
 -0.031	
 -0.094	
 -0.110	
 -0.087	
 -0.126	
 -0.094	
 -0.094	
 -0.102	
 -0.024	
 -0.024	
  0.212	
  0.653	
  1.236	
  1.621	
  1.842	
  2.023	
  2.219	
  2.471	
  2.629	
  2.794	
  2.943	
  2.928	
  2.613	
  1.873	
  0.992	
  0.189	
 -0.268	
 -0.480	
 -0.606	
 -0.700	
 -0.763	
 -0.795	
 -0.858	
 -0.858	
 -0.929	
 -0.952	
 -0.929	
 -0.952	
 -0.999	
 -1.094	
 -1.141	
 -1.204	
 -1.251	
 -1.330	
 -1.393	
 -1.385	
 -1.369	
 -1.314	
 -1.291	
 -1.204	
 -1.023	
 -0.881	
 -0.700	
 -0.527	
 -0.362	
 -0.244	
 -0.189	
 -0.165	
 -0.118	
 -0.087	
 -0.087	
 -0.087	
 -0.110	
 -0.126	
 -0.118	
 -0.118	
 -0.102	
 -0.173	
 -0.197	
 -0.212	
 -0.212	
 -0.236	
 -0.260	
 -0.260	
 -0.252	
 -0.236	
 -0.260	
 -0.260	
 -0.236	
 -0.189	
 -0.142	
 -0.126	
 -0.110	
 -0.110	
 -0.102	
 -0.079	
 -0.094	
 -0.110	
 -0.118	
 -0.134	
 -0.181	
 -0.165	
 -0.189	
 -0.205	
 -0.228	
 -0.260	
 -0.268	
 -0.275	
 -0.228	
 -0.244	
 -0.205	
 -0.189	
 -0.118	
 -0.110	
 -0.079	
 -0.047	
 -0.087	
 -0.039	
 -0.087	
 -0.087	
 -0.118	
 -0.150	
 -0.126	
 -0.150	
 -0.134	
 -0.157	
 -0.157	
 -0.173	
 -0.220	
 -0.220	
 -0.244	
 -0.220	
 -0.236	
 -0.236	
 -0.189	
 -0.181	
 -0.126	
 -0.157	
 -0.157	
 -0.165	
 -0.181	
 -0.181	
 -0.173	
 -0.150	
 -0.205	
 -0.134	
 -0.126	
 -0.236	
 -0.378	
 -0.228	
  0.504	
  1.259	
  1.802	
  1.275	
  0.244	
 -0.283	
 -0.378	
 -0.244	
 -0.189	
 -0.142	
 -0.150	
 -0.157	
 -0.126	
 -0.150	
 -0.094	
 -0.118	
 -0.126	
 -0.126	
 -0.134	
 -0.071	
 -0.079	
 -0.055	
 -0.063	
 -0.008	
 -0.008	
  0.024	
  0.094	
  0.126	
  0.236	
  0.268	
  0.323	
  0.393	
  0.441	
  0.519	
  0.535	
  0.622	
  0.637	
  0.669	
  0.559	
  0.425	
  0.299	
  0.157	
  0.087	
 -0.031	
 -0.071	
 -0.150	
 -0.142	
 -0.181	
 -0.087	
 -0.039	
 -0.047	
  0.039	
  0.000	
  0.016	
 -0.055	
 -0.063	
 -0.094	
 -0.110	
 -0.126	
 -0.165	
 -0.110	
 -0.165	
 -0.173	
 -0.205	
 -0.220	
 -0.220	
 -0.212	
 -0.157	
 -0.165	
 -0.087	
 -0.118	
 -0.110	
 -0.142	
 -0.134	
 -0.118	
 -0.118	
 -0.118	
 -0.189	
 -0.142	
 -0.181	
 -0.205	
 -0.220	
 -0.212	
 -0.220	
 -0.283	
 -0.307	
 -0.275	
 -0.157	
 -0.126	
 -0.102	
 -0.102	
 -0.071	
 -0.244	
 -0.283	
  0.134	
  0.952	
  1.779	
  1.786	
  0.779	
 -0.047	
 -0.181	
 -0.142	
 -0.118	
 -0.134	
 -0.134	
 -0.157	
 -0.260	
 -0.212	
 -0.181	
 -0.094	
 -0.110	
 -0.094	
 -0.118	
 -0.055	
 -0.055	
 -0.039	
 -0.031	
 -0.016	
  0.031	
  0.071	
  0.094	
  0.079	
  0.220	
  0.236	
  0.283	
  0.315	
  0.456	
  0.464	
  0.551	
  0.598	
  0.543	
  0.504	
  0.346	
  0.268	
  0.126	
  0.094	
 -0.024	
 -0.047	
 -0.102	
 -0.142	
 -0.134	
 -0.157	
 -0.189	
 -0.205	
 -0.142	
 -0.197	
 -0.205	
 -0.252	
 -0.283	
 -0.181	
 -0.102	
 -0.079	
 -0.102	
 -0.063	
 -0.087	
 -0.094	
 -0.126	
 -0.157	
 -0.134	
 -0.173	
 -0.134	
 -0.150	
 -0.205	
 -0.212	
 -0.228	
 -0.244	
 -0.268	
 -0.252	
 -0.212	
 -0.197	
 -0.197	
 -0.236	
 -0.165	
 -0.189	
 -0.126	
 -0.087	
 -0.134	
 -0.087	
 -0.142	
 -0.173	
 -0.181	
 -0.205	
 -0.142	
 -0.173	
 -0.173	
 -0.283	
 -0.441	
 -0.126	
  0.622	
  1.503	
  1.905	
  1.094	
  0.150	
 -0.197	
 -0.205	
 -0.150	
 -0.118	
 -0.142	
 -0.173	
 -0.134	
 -0.173	
 -0.118	
 -0.134	
 -0.134	
 -0.134	
 -0.157	
 -0.079	
 -0.102	
 -0.087	
 -0.031	
 -0.039	
  0.031	
  0.039	
  0.063	
  0.134	
  0.157	
  0.228	
  0.307	
  0.362	
  0.409	
  0.456	
  0.472	
  0.480	
  0.496	
  0.425	
  0.354	
  0.220	
  0.118	
  0.000	
 -0.055	
 -0.110	
 -0.134	
 -0.157	
 -0.157	
 -0.165	
 -0.142	
 -0.126	
 -0.118	
 -0.102	
 -0.102	
 -0.102	
 -0.094	
 -0.110	
 -0.126	
 -0.157	
 -0.181	
 -0.181	
 -0.205	
 -0.275	
 -0.252	
 -0.283	
 -0.283	
 -0.275	
 -0.299	
 -0.260	
 -0.275	
 -0.283	
 -0.291	
 -0.331	
 -0.260	
 -0.236	
 -0.212	
 -0.197	
 -0.244	
 -0.142	
 -0.126	
 -0.142	
 -0.165	
 -0.189	
 -0.181	
 -0.181	
 -0.189	
 -0.173	
 -0.228	
 -0.228	
 -0.252	
 -0.283	
 -0.291	
 -0.323	
 -0.291	
 -0.299	
 -0.307	
 -0.283	
 -0.291	
 -0.275	
 -0.260	
 -0.260	
 -0.212	
 -0.157	
 -0.142	
 -0.157	
 -0.181	
 -0.181	
 -0.291	
 -0.378	
 -0.016	
  0.732	
  1.598	
  1.684	
  0.582	
 -0.205	
 -0.331	
 -0.252	
 -0.118	
 -0.205	
 -0.212	
 -0.197	
 -0.157	
 -0.118	
 -0.173	
 -0.165	
 -0.157	
 -0.157	
 -0.150	
 -0.142	
 -0.126	
 -0.173	
 -0.126	
 -0.094	
 -0.094	
 -0.016	
  0.008	
  0.094	
  0.173	
  0.220	
  0.275	
  0.338	
  0.425	
  0.464	
  0.488	
  0.496	
  0.472	
  0.472	
  0.346	
  0.220	
  0.150	
  0.039	
 -0.024	
 -0.087	
 -0.165	
 -0.220	
 -0.236	
 -0.197	
 -0.197	
 -0.228	
 -0.220	
 -0.189	
 -0.087	
 -0.024	
 -0.039	
 -0.024	
 -0.024	
 -0.055	
 -0.047	
 -0.087	
 -0.126	
 -0.102	
 -0.150	
 -0.150	
 -0.173	
 -0.197	
 -0.189	
 -0.220	
 -0.197	
 -0.220	
 -0.236	
 -0.244	
 -0.244	
 -0.118	
 -0.087	
 -0.087	
 -0.055	
 -0.063	
 -0.055	
 -0.079	
 -0.110	
 -0.079	
 -0.142	
 -0.165	
 -0.212	
 -0.236	
 -0.228	
 -0.220	
 -0.228	
 -0.244	
 -0.244	
 -0.236	
 -0.236	
 -0.157	
 -0.102	
 -0.071	
 -0.055	
 -0.063	
 -0.063	
 -0.102	
 -0.063	
 -0.094	
 -0.071	
 -0.094	
 -0.165	
 -0.094	
 -0.102	
 -0.126	
 -0.157	
 -0.205	
 -0.181	
 -0.268	
 -0.244	
 -0.118	
 -0.165	
 -0.228	
  0.071	
  0.716	
  1.558	
  1.952	
  1.141	
  0.212	
 -0.173	
 -0.142	
 -0.055	
 -0.055	
 -0.134	
 -0.142	
 -0.165	
 -0.165	
 -0.157	
 -0.173	
 -0.189	
 -0.118	
 -0.039	
 -0.016	
  0.031	
  0.071	
  0.055	
  0.039	
  0.031	
  0.039	
  0.094	
  0.110	
  0.142	
  0.181	
  0.252	
  0.307	
  0.354	
  0.401	
  0.488	
  0.551	
  0.519	
  0.519	
  0.504	
  0.456	
  0.393	
  0.252	
  0.150	
  0.039	
 -0.039	
 -0.079	
 -0.094	
 -0.157	
 -0.157	
 -0.165	
 -0.173	
 -0.165	
 -0.142	
 -0.142	
 -0.118	
 -0.189	
 -0.197	
 -0.157	
 -0.118	
 -0.071	
 -0.087	
 -0.110	
 -0.102	
 -0.126	
 -0.102	
 -0.102	
 -0.110	
 -0.110	
 -0.094	
 -0.087	
 -0.110	
 -0.173	
 -0.150	
 -0.150	
 -0.212	
 -0.268	
 -0.197	
 -0.134	
 -0.071	
 -0.071	
 -0.102	
 -0.118	
 -0.094	
 -0.071	
 -0.071	
 -0.110	
 -0.165	
 -0.165	
 -0.205	
 -0.228	
 -0.268	
 -0.283	
 -0.220	
 -0.220	
 -0.165	
 -0.173	
 -0.165	
 -0.024	
  0.031	
  0.071	
  0.039	
 -0.008	
  0.024	
 -0.024	
 -0.024	
 -0.063	
 -0.126	
 -0.094	
 -0.150	
 -0.165	
 -0.181	
 -0.244	
 -0.205	
 -0.205	
 -0.197	
 -0.189	
 -0.189	
 -0.071	
 -0.031	
 -0.031	
 -0.157	
 -0.236	
  0.157	
  0.881	
  1.661	
  1.763	
  0.795	
  0.024	
 -0.370	
 -0.346	
 -0.252	
 -0.197	
 -0.157	
 -0.118	
 -0.110	
 -0.102	
 -0.079	
 -0.079	
 -0.016	
 -0.079	
 -0.055	
 -0.024	
 -0.008	
  0.024	
 -0.039	
 -0.024	
 -0.039	
 -0.071	
 -0.031	
 -0.039	
  0.016	
  0.118	
  0.212	
  0.362	
  0.425	
  0.449	
  0.488	
  0.488	
  0.527	
  0.488	
  0.417	
  0.307	
  0.197	
  0.094	
 -0.008	
 -0.126	
 -0.157	
 -0.212	
 -0.236	
 -0.299	
 -0.252	
 -0.252	
 -0.260	
 -0.228	
 -0.220	
 -0.181	
 -0.228	
 -0.252	
 -0.197	
 -0.181	
 -0.134	
 -0.150	
 -0.173	
 -0.197	
 -0.244	
 -0.228	
 -0.228	
 -0.212	
 -0.197	
 -0.189	
 -0.189	
 -0.181	
 -0.197	
 -0.173	
 -0.189	
 -0.220	
 -0.220	
 -0.244	
 -0.260	
 -0.252	
 -0.283	
 -0.275	
 -0.189	
 -0.197	
 -0.181	
 -0.205	
 -0.252	
 -0.244	
 -0.260	
 -0.236	
 -0.252	
 -0.275	
 -0.228	
 -0.252	
 -0.228	
 -0.228	
 -0.228	
 -0.212	
 -0.252	
 -0.212	
 -0.275	
 -0.252	
 -0.197	
 -0.181	
 -0.150	
 -0.181	
 -0.220	
 -0.244	
 -0.228	
 -0.220	
 -0.220	
 -0.236	
 -0.220	
 -0.236	
 -0.220	
 -0.205	
 -0.197	
 -0.197	
 -0.205	
 -0.181	
 -0.212	
 -0.165	
 -0.150	
 -0.126	
 -0.110	
 -0.134	
 -0.165	
 -0.173	
 -0.205	
 -0.181	
 -0.228	
 -0.212	
 -0.260	
 -0.252	
 -0.189	
 -0.228	
 -0.220	
 -0.268	
 -0.275	
 -0.244	
 -0.181	
 -0.118	
 -0.087	
 -0.102	
 -0.055	
 -0.102	
 -0.094	
 -0.118	
 -0.157	
 -0.102	
 -0.165	
 -0.220	
 -0.244	
 -0.236	
 -0.157	
 -0.189	
 -0.212	
 -0.260	
 -0.307	
 -0.252	
 -0.181	
 -0.134	
 -0.157	
 -0.134	
 -0.142	
 -0.142	
 -0.126	
 -0.189	
 -0.134	
 -0.142	
 -0.134	
 -0.150	
 -0.165	
 -0.134	
 -0.189	
 -0.197	
 -0.244	
 -0.299	
 -0.283	
 -0.299	
 -0.260	
 -0.220	
 -0.126	
 -0.079	
 -0.063	
 -0.063	
 -0.071	
 -0.031	
 -0.071	
 -0.047	
 -0.071	
 -0.094	
 -0.079	
 -0.110	
 -0.150	
 -0.173	
 -0.197	
 -0.220	
 -0.220	
 -0.244	
 -0.228	
 -0.181	
 -0.157	
 -0.087	
 -0.079	
 -0.079	
  0.000	
 -0.142	
 -0.291	
 -0.150	
  0.496	
  1.338	
  2.078	
  1.409	
  0.370	
 -0.244	
 -0.449	
 -0.307	
 -0.197	
 -0.150	
 -0.126	
 -0.055	
 -0.063	
 -0.071	
 -0.063	
 -0.087	
 -0.063	
 -0.118	
 -0.102	
 -0.079	
 -0.063	
 -0.063	
 -0.047	
 -0.024	
 -0.031	
 -0.016	
  0.016	
  0.031	
  0.134	
  0.220	
  0.291	
  0.386	
  0.425	
  0.488	
  0.527	
  0.559	
  0.582	
  0.567	
  0.504	
  0.401	
  0.283	
  0.197	
  0.094	
 -0.039	
 -0.079	
 -0.165	
 -0.087	
 -0.118	
 -0.094	
 -0.142	
 -0.071	
 -0.094	
 -0.102	
 -0.134	
 -0.157	
 -0.181	
 -0.181	
 -0.228	
 -0.252	
 -0.189	
 -0.228	
 -0.181	
 -0.181	
 -0.150	
 -0.126	
 -0.118	
 -0.150	
 -0.157	
 -0.142	
 -0.142	
 -0.142	
 -0.142	
 -0.126	
 -0.173	
 -0.212	
 -0.236	
 -0.212	
 -0.228	
 -0.212	
 -0.252	
 -0.220	
 -0.189	
 -0.197	
 -0.220	
 -0.260	
 -0.268	
 -0.236	
 -0.220	
 -0.244	
 -0.212	
 -0.228	
 -0.212	
 -0.212	
 -0.220	
 -0.291	
 -0.291	
 -0.260	
 -0.212	
 -0.165	
 -0.157	
 -0.118	
 -0.142	
 -0.134	
 -0.173	
 -0.150	
 -0.181	
 -0.181	
 -0.181	
 -0.197	
 -0.173	
 -0.189	
 -0.165	
 -0.205	
 -0.173	
 -0.189	
 -0.173	
 -0.134	
 -0.126	
 -0.102	
 -0.110	
 -0.087	
 -0.110	
 -0.150	
 -0.173	
 -0.197	
 -0.212	
 -0.228	
 -0.181	
 -0.205	
 -0.228	
 -0.212	
 -0.244	
 -0.212	
 -0.268	
 -0.244	
 -0.212	
 -0.205	
 -0.165	
 -0.134	
 -0.094	
 -0.079	
 -0.047	
 -0.031	
 -0.016	
  0.008	
 -0.031	
 -0.024	
 -0.079	
 -0.094	
 -0.102	
 -0.157	
 -0.087	
 -0.126	
 -0.118	
 -0.126	
 -0.142	
 -0.118	
 -0.142	
 -0.142	
 -0.142	
 -0.118	
 -0.102	
 -0.094	
 -0.110	
 -0.150	
 -0.055	
 -0.024	
 -0.024	
 -0.039	
 -0.079	
 -0.039	
 -0.055	
 -0.063	
 -0.039	
 -0.063	
 -0.008	
  0.031	
  0.016	
  0.063	
 -0.079	
 -0.181	
  0.142	
  0.826	
  1.708	
  2.054	
  1.125	
  0.173	
 -0.142	
 -0.102	
  0.016	
  0.031	
  0.016	
 -0.008	
 -0.039	
  0.016	
  0.016	
  0.016	
  0.008	
  0.016	
  0.024	
  0.031	
  0.016	
  0.118	
  0.173	
  0.189	
  0.189	
  0.181	
  0.189	
  0.228	
  0.275	
  0.346	
  0.386	
  0.417	
  0.527	
  0.559	
  0.582	
  0.645	
  0.700	
  0.748	
  0.716	
  0.661	
  0.567	
  0.488	
  0.409	
  0.323	
  0.181	
  0.094	
  0.063	
  0.016	
  0.000	
 -0.039	
 -0.071	
 -0.047	
 -0.063	
 -0.071	
 -0.087	
 -0.087	
 -0.039	
  0.000	
  0.063	
  0.063	
  0.055	
  0.016	
 -0.008	
 -0.047	
 -0.087	
 -0.079	
 -0.094	
 -0.094	
 -0.110	
 -0.134	
 -0.110	
 -0.150	
 -0.126	
 -0.150	
 -0.165	
 -0.118	
 -0.118	
 -0.063	
 -0.071	
 -0.039	
 -0.039	
 -0.063	
 -0.079	
 -0.110	
 -0.087	
 -0.110	
 -0.134	
 -0.134	
 -0.142	
 -0.071	
 -0.150	
 -0.173	
 -0.165	
 -0.228	
 -0.173	
 -0.205	
 -0.189	
 -0.165	
 -0.181	
 -0.165	
 -0.150	
 -0.118	
 -0.118	
 -0.079	
 -0.094	
 -0.157	
 -0.142	
 -0.134	
 -0.063	
 -0.055	
 -0.055	
 -0.047	
 -0.102	
 -0.071	
 -0.102	
 -0.110	
 -0.102	
 -0.165	
 -0.102	
 -0.079	
 -0.150	
 -0.291	
  0.110	
  0.913	
  1.708	
  2.007	
  0.905	
  0.118	
 -0.173	
 -0.118	
 -0.024	
 -0.063	
 -0.047	
 -0.071	
 -0.110	
 -0.094	
 -0.118	
 -0.087	
 -0.087	
 -0.110	
 -0.102	
 -0.039	
  0.024	
  0.118	
  0.173	
  0.197	
  0.228	
  0.260	
  0.252	
  0.283	
  0.315	
  0.370	
  0.433	
  0.449	
  0.512	
  0.582	
  0.582	
  0.622	
  0.622	
  0.590	
  0.575	
  0.456	
  0.370	
  0.244	
  0.228	
  0.212	
  0.165	
  0.110	
  0.031	
  0.055	
 -0.016	
 -0.016	
 -0.024	
 -0.087	
 -0.047	
 -0.071	
 -0.063	
 -0.094	
 -0.087	
 -0.039	
 -0.031	
  0.000	
 -0.087	
 -0.055	
 -0.008	
  0.024	
  0.063	
  0.047	
  0.047	
  0.016	
 -0.008	
 -0.079	
 -0.039	
 -0.039	
 -0.063	
 -0.039	
 -0.102	
 -0.079	
 -0.063	
 -0.063	
 -0.063	
 -0.071	
 -0.102	
 -0.142	
 -0.055	
 -0.024	
  0.047	
  0.039	
  0.024	
  0.008	
  0.008	
  0.000	
 -0.031	
 -0.016	
 -0.031	
 -0.024	
 -0.031	
 -0.071	
 -0.102	
 -0.118	
 -0.134	
 -0.142	
 -0.047	
 -0.087	
 -0.016	
 -0.039	
 -0.039	
 -0.087	
 -0.079	
 -0.079	
 -0.102	
 -0.087	
 -0.157	
 -0.079	
 -0.063	
 -0.055	
 -0.063	
 -0.063	
  0.031	
  0.031	
  0.055	
 -0.008	
 -0.008	
 -0.087	
 -0.118	
 -0.134	
 -0.197	
 -0.157	
 -0.197	
 -0.173	
 -0.173	
 -0.173	
 -0.181	
 -0.102	
 -0.024	
 -0.031	
  0.071	
  0.047	
  0.039	
  0.047	
  0.024	
 -0.110	
 -0.244	
  0.165	
  0.811	
  1.582	
  1.834	
  0.693	
 -0.071	
 -0.417	
 -0.323	
 -0.126	
 -0.055	
 -0.055	
 -0.102	
 -0.024	
  0.000	
  0.031	
  0.024	
 -0.031	
  0.047	
  0.016	
  0.031	
  0.008	
 -0.039	
  0.016	
 -0.008	
  0.024	
  0.087	
  0.157	
  0.236	
  0.252	
  0.307	
  0.370	
  0.464	
  0.567	
  0.614	
  0.645	
  0.677	
  0.700	
  0.693	
  0.630	
  0.519	
  0.346	
  0.315	
  0.228	
  0.142	
  0.087	
 -0.016	
  0.008	
 -0.039	
 -0.047	
 -0.016	
 -0.024	
 -0.016	
 -0.055	
 -0.071	
 -0.071	
 -0.055	
  0.000	
  0.000	
 -0.016	
 -0.039	
 -0.047	
 -0.024	
 -0.031	
 -0.063	
 -0.055	
 -0.063	
 -0.063	
 -0.071	
 -0.039	
 -0.063	
 -0.071	
 -0.094	
 -0.094	
 -0.031	
  0.008	
  0.016	
  0.031	
 -0.008	
 -0.047	
 -0.071	
 -0.087	
 -0.079	
 -0.094	
 -0.126	
 -0.150	
 -0.142	
 -0.134	
 -0.102	
 -0.063	
 -0.079	
 -0.087	
 -0.079	
 -0.071	
 -0.055	
 -0.063	
 -0.024	
  0.008	
 -0.087	
 -0.220	
  0.024	
  0.677	
  1.511	
  1.881	
  1.180	
  0.275	
 -0.252	
 -0.275	
 -0.118	
 -0.031	
  0.000	
  0.016	
  0.000	
 -0.039	
 -0.047	
 -0.087	
 -0.063	
 -0.071	
 -0.102	
 -0.071	
 -0.087	
 -0.047	
 -0.031	
  0.024	
  0.063	
  0.134	
  0.212	
  0.283	
  0.401	
  0.472	
  0.519	
  0.559	
  0.590	
  0.637	
  0.685	
  0.685	
  0.700	
  0.630	
  0.567	
  0.417	
  0.291	
  0.197	
  0.087	
  0.031	
 -0.024	
 -0.024	
 -0.016	
 -0.031	
  0.000	
 -0.024	
 -0.047	
 -0.071	
 -0.071	
 -0.157	
 -0.157	
 -0.142	
 -0.181	
 -0.126	
 -0.157	
 -0.110	
 -0.102	
 -0.102	
 -0.126	
 -0.055	
 -0.071	
 -0.079	
 -0.094	
 -0.047	
 -0.016	
 -0.031	
 -0.102	
 -0.126	
 -0.150	
 -0.189	
 -0.197	
 -0.189	
 -0.205	
 -0.165	
 -0.165	
 -0.189	
 -0.126	
 -0.126	
 -0.150	
 -0.165	
 -0.150	
 -0.181	
 -0.102	
 -0.102	
 -0.087	
 -0.118	
 -0.134	
 -0.150	
 -0.157	
 -0.150	
 -0.165	
 -0.110	
 -0.102	
 -0.079	
 -0.173	
 -0.338	
  0.047	
  0.748	
  1.566	
  1.692	
  0.622	
 -0.087	
 -0.315	
 -0.236	
 -0.126	
 -0.142	
 -0.142	
 -0.118	
 -0.126	
 -0.055	
 -0.063	
 -0.063	
 -0.047	
 -0.063	
 -0.094	
 -0.110	
 -0.079	
 -0.055	
 -0.031	
 -0.063	
 -0.047	
  0.000	
  0.024	
  0.063	
  0.110	
  0.165	
  0.252	
  0.346	
  0.417	
  0.480	
  0.551	
  0.606	
  0.630	
  0.575	
  0.496	
  0.354	
  0.260	
  0.126	
  0.039	
 -0.047	
 -0.071	
 -0.102	
 -0.134	
 -0.157	
 -0.197	
 -0.157	
 -0.197	
 -0.220	
 -0.244	
 -0.173	
 -0.102	
 -0.110	
 -0.126	
 -0.165	
 -0.087	
 -0.118	
 -0.134	
 -0.134	
 -0.173	
 -0.150	
 -0.197	
 -0.212	
 -0.299	
 -0.252	
 -0.299	
 -0.291	
 -0.283	
 -0.291	
 -0.189	
 -0.197	
 -0.134	
 -0.157	
 -0.126	
 -0.173	
 -0.173	
 -0.189	
 -0.236	
 -0.197	
 -0.212	
 -0.228	
 -0.275	
 -0.244	
 -0.299	
 -0.307	
 -0.283	
 -0.268	
 -0.370	
 -0.362	
  0.173	
  0.881	
  1.786	
  1.535	
  0.551	
 -0.087	
 -0.260	
 -0.063	
 -0.016	
 -0.047	
 -0.126	
 -0.079	
 -0.126	
 -0.165	
 -0.212	
 -0.212	
 -0.220	
 -0.205	
 -0.173	
 -0.181	
 -0.094	
 -0.071	
  0.000	
  0.055	
  0.094	
  0.110	
  0.142	
  0.110	
  0.189	
  0.228	
  0.291	
  0.315	
  0.378	
  0.386	
  0.480	
  0.496	
  0.488	
  0.425	
  0.362	
  0.307	
  0.197	
  0.126	
  0.000	
  0.008	
 -0.087	
 -0.094	
 -0.142	
 -0.134	
 -0.142	
 -0.181	
 -0.189	
 -0.220	
 -0.173	
 -0.236	
 -0.212	
 -0.197	
 -0.157	
 -0.150	
 -0.110	
 -0.134	
 -0.173	
 -0.157	
 -0.181	
 -0.181	
 -0.189	
 -0.189	
 -0.220	
 -0.220	
 -0.236	
 -0.260	
 -0.283	
 -0.252	
 -0.260	
 -0.197	
 -0.189	
 -0.157	
 -0.134	
 -0.181	
 -0.165	
 -0.228	
 -0.212	
 -0.268	
 -0.260	
 -0.283	
 -0.299	
 -0.299	
 -0.323	
 -0.291	
 -0.323	
 -0.244	
 -0.205	
 -0.197	
 -0.212	
 -0.197	
 -0.181	
 -0.181	
 -0.189	
 -0.212	
 -0.173	
 -0.197	
 -0.220	
 -0.212	
 -0.283	
 -0.236	
 -0.275	
 -0.315	
 -0.315	
 -0.260	
 -0.228	
 -0.252	
 -0.197	
 -0.228	
 -0.173	
 -0.189	
 -0.205	
 -0.189	
 -0.205	
 -0.189	
 -0.197	
 -0.189	
 -0.244	
 -0.205	
 -0.275	
 -0.268	
 -0.268	
 -0.268	
 -0.228	
 -0.275	
 -0.197	
 -0.181	
 -0.165	
 -0.165	
 -0.173	
 -0.197	
 -0.189	
 -0.150	
 -0.189	
 -0.157	
 -0.173	
 -0.189	
 -0.228	
 -0.197	
 -0.228	
 -0.283	
 -0.244	
 -0.283	
 -0.275	
 -0.291	
 -0.228	
 -0.181	
 -0.142	
 -0.142	
 -0.157	
 -0.126	
 -0.150	
 -0.157	
 -0.134	
 -0.126	
 -0.126	
 -0.142	
 -0.197	
 -0.220	
 -0.205	
 -0.268	
 -0.283	
 -0.338	
 -0.370	
 -0.393	
 -0.252	
 -0.189	
 -0.157	
 -0.079	
 -0.071	
 -0.110	
 -0.110	
 -0.102	
 -0.134	
 -0.126	
 -0.181	
 -0.181	
 -0.157	
 -0.165	
 -0.205	
 -0.189	
 -0.362	
 -0.449	
 -0.039	
  0.779	
  1.637	
  1.771	
  0.834	
  0.079	
 -0.362	
 -0.346	
 -0.173	
 -0.126	
 -0.118	
 -0.173	
 -0.165	
 -0.197	
 -0.236	
 -0.212	
 -0.205	
 -0.220	
 -0.244	
 -0.197	
 -0.197	
 -0.063	
 -0.047	
  0.016	
  0.016	
  0.087	
  0.087	
  0.110	
  0.165	
  0.189	
  0.275	
  0.291	
  0.315	
  0.315	
  0.417	
  0.401	
  0.425	
  0.425	
  0.449	
  0.441	
  0.370	
  0.315	
  0.205	
  0.165	
  0.071	
  0.008	
 -0.079	
 -0.063	
 -0.087	
 -0.126	
 -0.150	
 -0.181	
 -0.157	
 -0.205	
 -0.205	
 -0.244	
 -0.189	
 -0.236	
 -0.252	
 -0.189	
 -0.094	
 -0.047	
 -0.071	
 -0.063	
 -0.079	
 -0.079	
 -0.094	
 -0.079	
 -0.110	
 -0.102	
 -0.110	
 -0.118	
 -0.150	
 -0.165	
 -0.150	
 -0.236	
 -0.307	
 -0.346	
 -0.228	
 -0.134	
 -0.079	
 -0.094	
 -0.126	
 -0.118	
 -0.126	
 -0.181	
 -0.173	
 -0.189	
 -0.197	
 -0.212	
 -0.212	
 -0.236	
 -0.244	
 -0.244	
 -0.323	
 -0.386	
 -0.323	
 -0.165	
 -0.094	
 -0.047	
 -0.087	
 -0.031	
 -0.071	
 -0.063	
 -0.102	
 -0.094	
 -0.126	
 -0.165	
 -0.157	
 -0.212	
 -0.197	
 -0.244	
 -0.244	
 -0.283	
 -0.205	
 -0.331	
 -0.370	
 -0.024	
  0.771	
  1.621	
  1.857	
  0.874	
 -0.024	
 -0.283	
 -0.236	
 -0.134	
 -0.197	
 -0.173	
 -0.228	
 -0.157	
 -0.189	
 -0.102	
 -0.165	
 -0.110	
 -0.110	
 -0.031	
 -0.024	
  0.016	
  0.008	
  0.055	
  0.055	
  0.087	
  0.063	
  0.087	
  0.118	
  0.150	
  0.150	
  0.189	
  0.291	
  0.338	
  0.393	
  0.425	
  0.512	
  0.512	
  0.488	
  0.378	
  0.362	
  0.315	
  0.205	
  0.079	
  0.008	
 -0.055	
 -0.039	
 -0.110	
 -0.157	
 -0.197	
 -0.197	
 -0.228	
 -0.252	
 -0.244	
 -0.212	
 -0.236	
 -0.236	
 -0.268	
 -0.260	
 -0.315	
 -0.268	
 -0.228	
 -0.118	
 -0.173	
 -0.165	
 -0.205	
 -0.150	
 -0.205	
 -0.189	
 -0.228	
 -0.205	
 -0.228	
 -0.212	
 -0.236	
 -0.260	
 -0.244	
 -0.268	
 -0.291	
 -0.315	
 -0.299	
 -0.307	
 -0.268	
 -0.173	
 -0.110	
 -0.150	
 -0.134	
 -0.157	
 -0.173	
 -0.173	
 -0.157	
 -0.189	
 -0.181	
 -0.197	
 -0.205	
 -0.236	
 -0.252	
 -0.268	
 -0.268	
 -0.275	
 -0.268	
 -0.260	
 -0.228	
 -0.236	
 -0.299	
 -0.244	
 -0.189	
 -0.142	
 -0.173	
 -0.157	
 -0.173	
 -0.173	
 -0.189	
 -0.220	
 -0.220	
 -0.252	
 -0.260	
 -0.307	
 -0.283	
 -0.299	
 -0.260	
 -0.228	
 -0.181	
 -0.197	
 -0.134	
 -0.110	
 -0.118	
 -0.110	
 -0.150	
 -0.134	
 -0.157	
 -0.142	
 -0.205	
 -0.346	
 -0.331	
  0.071	
  0.834	
  1.724	
  1.582	
  0.464	
 -0.268	
 -0.480	
 -0.291	
 -0.189	
 -0.165	
 -0.150	
 -0.142	
 -0.055	
 -0.063	
 -0.039	
 -0.094	
 -0.079	
 -0.079	
 -0.102	
 -0.134	
 -0.165	
 -0.087	
 -0.087	
 -0.079	
 -0.063	
 -0.016	
  0.024	
  0.031	
  0.087	
  0.118	
  0.252	
  0.307	
  0.401	
  0.488	
  0.598	
  0.716	
  0.740	
  0.756	
  0.606	
  0.512	
  0.331	
  0.189	
  0.063	
 -0.071	
 -0.087	
 -0.165	
 -0.205	
 -0.244	
 -0.205	
 -0.212	
 -0.228	
 -0.197	
 -0.212	
 -0.094	
 -0.079	
 -0.079	
 -0.118	
 -0.102	
 -0.087	
 -0.134	
 -0.134	
 -0.189	
 -0.134	
 -0.157	
 -0.173	
 -0.173	
 -0.197	
 -0.173	
 -0.181	
 -0.118	
 -0.205	
 -0.173	
 -0.165	
 -0.181	
 -0.134	
 -0.142	
 -0.094	
 -0.118	
 -0.126	
 -0.142	
 -0.134	
 -0.134	
 -0.142	
 -0.142	
 -0.212	
 -0.150	
 -0.181	
 -0.181	
 -0.165	
 -0.165	
 -0.118	
 -0.118	
 -0.079	
 -0.118	
 -0.039	
 -0.071	
 -0.063	
 -0.063	
 -0.150	
 -0.150	
 -0.165	
 -0.142	
 -0.126	
 -0.102	
 -0.102	
 -0.110	
 -0.087	
 -0.134	
 -0.087	
 -0.110	
 -0.102	
 -0.134	
 -0.142	
 -0.118	
 -0.150	
 -0.126	
 -0.134	
 -0.055	
 -0.079	
 -0.047	
 -0.063	
 -0.039	
 -0.031	
 -0.079	
 -0.087	
 -0.134	
 -0.142	
 -0.150	
 -0.126	
 -0.157	
 -0.157	
 -0.142	
 -0.173	
 -0.165	
 -0.197	
 -0.189	
 -0.181	
 -0.157	
 -0.134	
 -0.071	
 -0.055	
 -0.055	
 -0.197	
 -0.370	
  0.047	
  0.795	
  1.676	
  2.070	
  1.062	
  0.157	
 -0.252	
 -0.220	
 -0.118	
 -0.079	
 -0.094	
 -0.102	
 -0.142	
 -0.134	
 -0.134	
 -0.110	
 -0.102	
 -0.087	
 -0.079	
 -0.063	
 -0.055	
 -0.071	
 -0.031	
  0.031	
  0.071	
  0.110	
  0.197	
  0.181	
  0.244	
  0.268	
  0.338	
  0.338	
  0.441	
  0.480	
  0.551	
  0.606	
  0.653	
  0.622	
  0.582	
  0.472	
  0.393	
  0.268	
  0.157	
  0.047	
 -0.031	
 -0.031	
 -0.008	
  0.016	
 -0.024	
 -0.008	
 -0.031	
 -0.031	
 -0.063	
 -0.031	
 -0.094	
 -0.102	
 -0.126	
 -0.087	
 -0.134	
 -0.134	
 -0.150	
 -0.134	
 -0.165	
 -0.102	
 -0.047	
  0.008	
  0.016	
  0.031	
 -0.008	
  0.000	
 -0.039	
 -0.063	
 -0.102	
 -0.126	
 -0.150	
 -0.157	
 -0.142	
 -0.181	
 -0.189	
 -0.205	
 -0.157	
 -0.142	
 -0.150	
 -0.150	
 -0.118	
 -0.110	
 -0.126	
 -0.094	
 -0.055	
 -0.063	
 -0.071	
 -0.079	
 -0.094	
 -0.047	
 -0.071	
 -0.252	
 -0.157	
  0.417	
  1.165	
  1.991	
  1.456	
  0.315	
 -0.283	
 -0.512	
 -0.393	
 -0.268	
 -0.212	
 -0.189	
 -0.110	
 -0.087	
 -0.047	
  0.008	
  0.016	
  0.031	
  0.008	
  0.016	
  0.016	
  0.031	
  0.000	
  0.031	
  0.031	
  0.079	
  0.102	
  0.102	
  0.173	
  0.212	
  0.323	
  0.417	
  0.519	
  0.598	
  0.661	
  0.677	
  0.669	
  0.708	
  0.598	
  0.527	
  0.386	
  0.212	
  0.142	
  0.016	
 -0.016	
 -0.087	
 -0.087	
 -0.142	
 -0.142	
 -0.150	
 -0.150	
 -0.118	
 -0.189	
 -0.142	
 -0.142	
 -0.142	
 -0.110	
 -0.126	
 -0.110	
 -0.134	
 -0.110	
 -0.094	
 -0.079	
 -0.110	
 -0.165	
 -0.110	
 -0.110	
 -0.063	
 -0.079	
 -0.071	
 -0.039	
 -0.110	
 -0.047	
 -0.071	
 -0.079	
 -0.079	
 -0.102	
 -0.094	
 -0.142	
 -0.197	
 -0.087	
 -0.071	
 -0.063	
 -0.055	
 -0.055	
 -0.087	
 -0.110	
 -0.142	
 -0.142	
 -0.157	
 -0.150	
 -0.150	
 -0.150	
 -0.165	
 -0.165	
 -0.173	
 -0.157	
 -0.134	
 -0.142	
 -0.173	
 -0.126	
 -0.071	
 -0.031	
 -0.024	
 -0.024	
 -0.063	
 -0.047	
 -0.047	
 -0.063	
 -0.087	
 -0.126	
 -0.157	
 -0.157	
 -0.181	
 -0.212	
 -0.212	
 -0.173	
 -0.197	
 -0.181	
 -0.134	
 -0.134	
 -0.236	
 -0.063	
  0.567	
  1.354	
  1.928	
  1.432	
  0.425	
 -0.228	
 -0.370	
 -0.236	
 -0.110	
 -0.094	
 -0.102	
 -0.126	
 -0.157	
 -0.173	
 -0.205	
 -0.165	
 -0.126	
 -0.079	
 -0.047	
 -0.024	
 -0.008	
 -0.008	
  0.000	
  0.031	
  0.071	
  0.126	
  0.157	
  0.173	
  0.228	
  0.291	
  0.346	
  0.417	
  0.480	
  0.543	
  0.630	
  0.622	
  0.645	
  0.614	
  0.527	
  0.456	
  0.291	
  0.189	
  0.102	
 -0.008	
 -0.016	
 -0.087	
 -0.110	
 -0.102	
 -0.150	
 -0.094	
 -0.118	
 -0.118	
 -0.087	
 -0.110	
 -0.047	
 -0.063	
 -0.039	
  0.039	
 -0.016	
  0.039	
  0.016	
 -0.024	
 -0.031	
 -0.110	
 -0.063	
 -0.094	
 -0.126	
 -0.134	
 -0.173	
 -0.157	
 -0.165	
 -0.165	
 -0.165	
 -0.205	
 -0.181	
 -0.094	
 -0.063	
 -0.047	
 -0.055	
 -0.024	
 -0.016	
 -0.024	
 -0.079	
 -0.126	
 -0.142	
 -0.150	
 -0.142	
 -0.110	
 -0.260	
 -0.346	
  0.000	
  0.787	
  1.802	
  2.054	
  1.118	
  0.291	
 -0.047	
 -0.039	
  0.024	
  0.024	
 -0.008	
 -0.055	
 -0.055	
 -0.071	
 -0.055	
 -0.063	
 -0.071	
 -0.071	
 -0.071	
 -0.031	
 -0.055	
 -0.071	
 -0.031	
  0.087	
  0.142	
  0.220	
  0.252	
  0.299	
  0.307	
  0.386	
  0.441	
  0.480	
  0.527	
  0.567	
  0.669	
  0.700	
  0.661	
  0.567	
  0.480	
  0.401	
  0.307	
  0.228	
  0.157	
  0.063	
  0.039	
 -0.008	
 -0.071	
 -0.094	
 -0.150	
 -0.134	
 -0.197	
 -0.220	
 -0.181	
 -0.165	
 -0.126	
 -0.142	
 -0.150	
 -0.134	
 -0.150	
 -0.126	
 -0.126	
 -0.134	
 -0.047	
 -0.031	
  0.008	
 -0.047	
 -0.079	
 -0.039	
 -0.039	
 -0.031	
 -0.055	
 -0.047	
 -0.055	
 -0.063	
 -0.039	
 -0.071	
 -0.110	
 -0.110	
 -0.173	
 -0.205	
 -0.260	
 -0.275	
 -0.307	
 -0.134	
 -0.079	
 -0.047	
 -0.024	
 -0.031	
 -0.016	
 -0.008	
 -0.079	
 -0.079	
 -0.079	
 -0.110	
 -0.142	
 -0.094	
 -0.087	
 -0.087	
 -0.094	
 -0.102	
 -0.126	
 -0.102	
 -0.102	
 -0.102	
 -0.134	
 -0.197	
 -0.142	
 -0.079	
 -0.079	
 -0.118	
 -0.094	
 -0.079	
 -0.047	
 -0.047	
 -0.063	
 -0.055	
 -0.063	
 -0.079	
 -0.102	
 -0.071	
 -0.087	
 -0.087	
 -0.134	
 -0.157	
 -0.150	
 -0.181	
 -0.134	
 -0.094	
 -0.031	
 -0.024	
  0.016	
 -0.016	
 -0.024	
 -0.094	
 -0.338	
 -0.071	
  0.535	
  1.401	
  2.030	
  1.322	
  0.307	
 -0.165	
 -0.283	
 -0.165	
 -0.071	
 -0.047	
 -0.047	
 -0.055	
 -0.087	
 -0.110	
 -0.087	
 -0.079	
 -0.039	
 -0.094	
 -0.087	
 -0.071	
 -0.055	
 -0.079	
 -0.063	
 -0.024	
  0.031	
  0.031	
  0.087	
  0.110	
  0.157	
  0.228	
  0.338	
  0.409	
  0.504	
  0.535	
  0.590	
  0.630	
  0.653	
  0.606	
  0.496	
  0.362	
  0.236	
  0.134	
  0.031	
  0.000	
 -0.094	
 -0.087	
 -0.134	
 -0.118	
 -0.157	
 -0.094	
 -0.134	
 -0.094	
 -0.094	
 -0.055	
 -0.087	
 -0.110	
 -0.118	
 -0.142	
 -0.118	
 -0.150	
 -0.150	
 -0.205	
 -0.150	
 -0.189	
 -0.197	
 -0.252	
 -0.252	
 -0.275	
 -0.346	
 -0.299	
 -0.236	
 -0.134	
 -0.126	
 -0.118	
 -0.126	
 -0.047	
 -0.063	
 -0.110	
 -0.118	
 -0.142	
 -0.118	
 -0.142	
 -0.173	
 -0.205	
 -0.189	
 -0.228	
 -0.236	
 -0.181	
 -0.228	
 -0.157	
 -0.157	
 -0.134	
 -0.150	
 -0.205	
 -0.315	
 -0.079	
  0.559	
  1.448	
  2.007	
  1.220	
  0.181	
 -0.283	
 -0.275	
 -0.087	
 -0.063	
 -0.039	
 -0.118	
 -0.094	
 -0.126	
 -0.126	
 -0.150	
 -0.205	
 -0.173	
 -0.165	
 -0.150	
 -0.157	
 -0.110	
 -0.055	
 -0.055	
  0.008	
  0.102	
  0.220	
  0.244	
  0.252	
  0.307	
  0.338	
  0.401	
  0.456	
  0.488	
  0.496	
  0.559	
  0.527	
  0.464	
  0.378	
  0.244	
  0.197	
  0.118	
  0.031	
  0.000	
 -0.055	
 -0.087	
 -0.087	
 -0.110	
 -0.134	
 -0.165	
 -0.173	
 -0.212	
 -0.220	
 -0.212	
 -0.212	
 -0.197	
 -0.212	
 -0.212	
 -0.157	
 -0.165	
 -0.157	
 -0.181	
 -0.181	
 -0.150	
 -0.189	
 -0.228	
 -0.197	
 -0.071	
 -0.039	
 -0.063	
 -0.110	
 -0.165	
 -0.126	
 -0.165	
 -0.173	
 -0.197	
 -0.212	
 -0.165	
 -0.165	
 -0.157	
 -0.189	
 -0.157	
 -0.150	
 -0.181	
 -0.173	
 -0.236	
 -0.189	
 -0.110	
 -0.071	
 -0.024	
 -0.039	
 -0.039	
 -0.118	
 -0.181	
 -0.181	
 -0.134	
 -0.134	
 -0.142	
 -0.150	
 -0.173	
 -0.157	
 -0.157	
 -0.150	
 -0.181	
 -0.173	
 -0.244	
 -0.142	
 -0.079	
 -0.063	
 -0.008	
 -0.047	
 -0.063	
 -0.055	
 -0.031	
  0.000	
 -0.047	
 -0.079	
 -0.142	
 -0.087	
 -0.126	
 -0.134	
 -0.126	
 -0.173	
 -0.157	
 -0.244	
 -0.236	
 -0.110	
 -0.087	
 -0.031	
 -0.008	
  0.008	
  0.008	
  0.031	
  0.024	
 -0.008	
 -0.031	
 -0.047	
 -0.039	
 -0.087	
 -0.134	
 -0.150	
 -0.165	
 -0.173	
 -0.205	
 -0.244	
 -0.173	
 -0.071	
 -0.024	
 -0.024	
 -0.024	
  0.000	
 -0.024	
 -0.008	
 -0.031	
 -0.063	
 -0.039	
 -0.071	
 -0.079	
 -0.087	
 -0.118	
 -0.134	
 -0.142	
 -0.134	
 -0.181	
 -0.157	
 -0.126	
 -0.039	
 -0.016	
 -0.008	
  0.039	
  0.008	
  0.000	
 -0.031	
 -0.039	
 -0.055	
 -0.087	
 -0.094	
 -0.126	
 -0.071	
 -0.118	
 -0.157	
 -0.197	
 -0.197	
 -0.165	
 -0.134	
 -0.079	
 -0.079	
 -0.024	
 -0.024	
 -0.016	
 -0.016	
 -0.047	
 -0.016	
  0.031	
 -0.197	
 -0.291	
  0.197	
  0.897	
  1.905	
  1.786	
  0.661	
 -0.118	
 -0.456	
 -0.275	
 -0.110	
 -0.008	
 -0.047	
 -0.047	
 -0.047	
 -0.047	
  0.000	
 -0.047	
 -0.063	
 -0.102	
 -0.047	
 -0.071	
 -0.079	
 -0.079	
 -0.087	
 -0.055	
 -0.047	
 -0.024	
 -0.110	
 -0.008	
  0.126	
  0.197	
  0.291	
  0.338	
  0.409	
  0.472	
  0.551	
  0.582	
  0.661	
  0.653	
  0.606	
  0.559	
  0.425	
  0.331	
  0.212	
  0.118	
  0.008	
 -0.055	
 -0.094	
 -0.181	
 -0.197	
 -0.118	
 -0.055	
 -0.039	
 -0.031	
 -0.016	
 -0.016	
 -0.008	
 -0.039	
 -0.055	
 -0.087	
 -0.118	
 -0.165	
 -0.189	
 -0.173	
 -0.181	
 -0.173	
 -0.228	
 -0.212	
 -0.205	
 -0.205	
 -0.220	
 -0.205	
 -0.142	
 -0.079	
 -0.047	
 -0.071	
 -0.079	
 -0.071	
 -0.071	
 -0.102	
 -0.102	
 -0.126	
 -0.157	
 -0.197	
 -0.205	
 -0.236	
 -0.205	
 -0.197	
 -0.205	
 -0.228	
 -0.393	
 -0.283	
  0.275	
  1.188	
  1.928	
  1.535	
  0.543	
 -0.102	
 -0.370	
 -0.212	
 -0.102	
 -0.094	
 -0.118	
 -0.142	
 -0.165	
 -0.150	
 -0.189	
 -0.157	
 -0.134	
 -0.102	
 -0.094	
 -0.063	
 -0.039	
  0.000	
  0.039	
  0.039	
  0.071	
  0.118	
  0.142	
  0.181	
  0.307	
  0.362	
  0.449	
  0.512	
  0.559	
  0.598	
  0.693	
  0.700	
  0.708	
  0.614	
  0.496	
  0.370	
  0.212	
  0.126	
  0.024	
 -0.031	
 -0.071	
 -0.094	
 -0.094	
 -0.118	
 -0.118	
 -0.102	
 -0.118	
 -0.134	
 -0.165	
 -0.110	
 -0.142	
 -0.134	
 -0.134	
 -0.173	
 -0.126	
 -0.118	
 -0.102	
 -0.118	
 -0.173	
 -0.134	
 -0.157	
 -0.165	
 -0.165	
 -0.197	
 -0.150	
 -0.189	
 -0.189	
 -0.205	
 -0.212	
 -0.173	
 -0.197	
 -0.205	
 -0.228	
 -0.236	
 -0.197	
 -0.197	
 -0.165	
 -0.071	
 -0.102	
 -0.102	
 -0.094	
 -0.102	
 -0.307	
 -0.236	
  0.307	
  1.086	
  1.905	
  1.503	
  0.441	
 -0.228	
 -0.370	
 -0.228	
 -0.212	
 -0.260	
 -0.252	
 -0.118	
 -0.071	
 -0.055	
 -0.063	
 -0.071	
 -0.031	
 -0.055	
  0.024	
  0.024	
  0.031	
  0.016	
  0.000	
  0.055	
  0.055	
  0.063	
  0.134	
  0.150	
  0.228	
  0.244	
  0.244	
  0.354	
  0.472	
  0.622	
  0.637	
  0.630	
  0.598	
  0.504	
  0.441	
  0.291	
  0.173	
  0.110	
 -0.031	
 -0.024	
 -0.071	
 -0.142	
 -0.150	
 -0.189	
 -0.197	
 -0.197	
 -0.212	
 -0.173	
 -0.150	
 -0.094	
 -0.031	
 -0.016	
 -0.039	
 -0.031	
 -0.071	
 -0.063	
 -0.102	
 -0.102	
 -0.102	
 -0.165	
 -0.150	
 -0.181	
 -0.205	
 -0.189	
 -0.228	
 -0.220	
 -0.220	
 -0.244	
 -0.205	
 -0.212	
 -0.173	
 -0.126	
 -0.094	
 -0.055	
 -0.047	
 -0.102	
 -0.102	
 -0.118	
 -0.071	
 -0.134	
 -0.150	
 -0.150	
 -0.283	
 -0.378	
 -0.016	
  0.708	
  1.613	
  1.842	
  0.724	
 -0.150	
 -0.417	
 -0.181	
 -0.063	
 -0.008	
 -0.008	
 -0.024	
 -0.047	
 -0.047	
 -0.055	
 -0.055	
 -0.071	
 -0.079	
 -0.055	
 -0.063	
 -0.039	
 -0.047	
 -0.039	
  0.008	
  0.008	
  0.016	
  0.079	
  0.197	
  0.283	
  0.291	
  0.386	
  0.409	
  0.417	
  0.504	
  0.535	
  0.559	
  0.504	
  0.409	
  0.362	
  0.228	
  0.118	
  0.031	
 -0.024	
 -0.055	
 -0.118	
 -0.063	
  0.008	
  0.039	
  0.039	
  0.016	
  0.008	
 -0.063	
 -0.063	
 -0.071	
 -0.118	
 -0.134	
 -0.157	
 -0.142	
 -0.118	
 -0.102	
 -0.094	
 -0.110	
 -0.110	
 -0.134	
 -0.055	
 -0.055	
 -0.055	
 -0.008	
 -0.024	
 -0.039	
 -0.094	
 -0.118	
 -0.118	
 -0.134	
 -0.142	
 -0.181	
 -0.181	
 -0.212	
 -0.173	
 -0.165	
 -0.212	
 -0.244	
 -0.197	
 -0.047	
  0.000	
 -0.008	
  0.039	
 -0.024	
 -0.055	
 -0.079	
 -0.094	
 -0.063	
 -0.118	
 -0.118	
 -0.142	
 -0.150	
 -0.157	
 -0.189	
 -0.173	
 -0.142	
 -0.126	
 -0.165	
 -0.228	
 -0.102	
 -0.047	
  0.000	
  0.000	
 -0.055	
 -0.071	
 -0.094	
 -0.047	
 -0.079	
 -0.079	
 -0.094	
 -0.094	
 -0.087	
 -0.079	
 -0.126	
 -0.134	
 -0.165	
 -0.173	
 -0.205	
 -0.197	
 -0.118	
 -0.047	
 -0.047	
 -0.031	
 -0.094	
 -0.079	
 -0.039	
 -0.087	
 -0.134	
 -0.126	
 -0.094	
 -0.063	
 -0.031	
 -0.102	
 -0.102	
 -0.142	
 -0.150	
 -0.110	
 -0.039	
 -0.016	
  0.008	
 -0.055	
 -0.063	
 -0.039	
 -0.063	
 -0.071	
 -0.087	
 -0.134	
 -0.094	
 -0.142	
 -0.142	
 -0.134	
 -0.150	
 -0.157	
 -0.197	
 -0.205	
 -0.220	
 -0.236	
 -0.150	
 -0.071	
 -0.055	
 -0.071	
 -0.087	
 -0.110	
 -0.063	
 -0.063	
 -0.055	
 -0.031	
 -0.252	
 -0.205	
  0.354	
  1.149	
  2.125	
  1.881	
  0.693	
 -0.055	
 -0.441	
 -0.346	
 -0.189	
 -0.126	
 -0.102	
 -0.087	
 -0.110	
 -0.110	
 -0.102	
 -0.126	
 -0.094	
 -0.134	
 -0.110	
 -0.071	
 -0.031	
 -0.031	
 -0.087	
 -0.047	
 -0.008	
 -0.008	
  0.063	
  0.118	
  0.205	
  0.307	
  0.346	
  0.409	
  0.441	
  0.472	
  0.535	
  0.582	
  0.614	
  0.669	
  0.645	
  0.543	
  0.370	
  0.252	
  0.197	
  0.087	
  0.024	
 -0.008	
 -0.039	
  0.008	
 -0.024	
 -0.024	
 -0.024	
 -0.047	
  0.016	
 -0.024	
 -0.047	
 -0.047	
 -0.039	
  0.031	
 -0.008	
 -0.047	
 -0.079	
 -0.063	
 -0.055	
 -0.071	
 -0.079	
 -0.087	
 -0.087	
 -0.071	
 -0.055	
 -0.031	
 -0.055	
 -0.039	
 -0.071	
 -0.094	
 -0.110	
 -0.126	
 -0.079	
 -0.118	
 -0.150	
 -0.134	
 -0.134	
 -0.110	
 -0.110	
 -0.094	
 -0.071	
 -0.047	
 -0.016	
 -0.173	
 -0.150	
  0.480	
  1.236	
  1.920	
  1.605	
  0.527	
 -0.063	
 -0.307	
 -0.236	
 -0.142	
 -0.189	
 -0.189	
 -0.181	
 -0.197	
 -0.173	
 -0.181	
 -0.181	
 -0.157	
 -0.150	
 -0.094	
 -0.039	
  0.039	
  0.118	
  0.165	
  0.228	
  0.260	
  0.283	
  0.362	
  0.362	
  0.386	
  0.393	
  0.496	
  0.519	
  0.590	
  0.637	
  0.614	
  0.708	
  0.669	
  0.567	
  0.417	
  0.252	
  0.181	
  0.024	
 -0.031	
 -0.126	
 -0.189	
 -0.071	
 -0.055	
 -0.087	
 -0.118	
 -0.063	
 -0.094	
 -0.118	
 -0.079	
 -0.118	
 -0.039	
 -0.055	
 -0.102	
 -0.102	
 -0.126	
 -0.087	
 -0.118	
 -0.150	
 -0.205	
 -0.197	
 -0.110	
 -0.079	
 -0.063	
 -0.102	
 -0.110	
 -0.102	
 -0.118	
 -0.094	
 -0.118	
 -0.126	
 -0.071	
 -0.071	
 -0.102	
 -0.094	
 -0.102	
 -0.118	
 -0.165	
 -0.205	
 -0.220	
 -0.165	
 -0.102	
 -0.102	
 -0.094	
 -0.110	
 -0.087	
 -0.071	
 -0.079	
 -0.055	
 -0.055	
 -0.063	
 -0.071	
 -0.047	
 -0.039	
 -0.031	
 -0.079	
 -0.126	
 -0.094	
 -0.189	
 -0.228	
 -0.220	
 -0.165	
 -0.110	
 -0.110	
 -0.110	
 -0.157	
 -0.126	
 -0.142	
 -0.110	
 -0.110	
 -0.118	
 -0.087	
 -0.110	
 -0.079	
 -0.071	
 -0.055	
 -0.102	
 -0.134	
 -0.118	
 -0.189	
 -0.165	
 -0.228	
 -0.157	
 -0.118	
 -0.087	
 -0.047	
 -0.094	
 -0.071	
 -0.126	
 -0.047	
 -0.094	
 -0.063	
 -0.055	
 -0.087	
 -0.008	
 -0.063	
 -0.071	
 -0.110	
 -0.102	
 -0.142	
 -0.150	
 -0.165	
 -0.205	
 -0.181	
 -0.228	
 -0.118	
 -0.047	
 -0.016	
  0.000	
 -0.055	
 -0.063	
 -0.079	
 -0.031	
 -0.039	
 -0.079	
 -0.110	
 -0.118	
 -0.094	
 -0.110	
 -0.126	
 -0.150	
 -0.134	
 -0.110	
 -0.181	
 -0.189	
 -0.212	
 -0.157	
 -0.063	
 -0.024	
 -0.031	
 -0.031	
 -0.047	
 -0.055	
 -0.024	
  0.000	
  0.000	
 -0.055	
 -0.087	
 -0.134	
 -0.150	
 -0.157	
 -0.181	
 -0.173	
 -0.150	
 -0.181	
 -0.212	
 -0.205	
 -0.102	
 -0.024	
 -0.016	
 -0.024	
 -0.039	
  0.016	
  0.039	
  0.008	
 -0.071	
 -0.275	
 -0.236	
  0.268	
  1.086	
  1.920	
  1.676	
  0.559	
 -0.260	
 -0.291	
 -0.173	
 -0.079	
 -0.016	
 -0.039	
 -0.055	
 -0.055	
 -0.063	
 -0.102	
 -0.110	
 -0.102	
 -0.110	
 -0.024	
 -0.016	
 -0.039	
 -0.039	
 -0.024	
