6000.0
100.0
 -0.050  
 -0.080  
 -0.155  
 -0.195  
 -0.225  
 -0.215  
 -0.250  
 -0.240  
 -0.250  
 -0.230  
 -0.225  
 -0.210  
 -0.180  
 -0.135  
  0.000  
  0.785  
  1.570  
  0.965  
 -0.330  
 -0.925  
 -1.030  
 -0.775  
 -0.405  
 -0.175  
 -0.105  
 -0.055  
 -0.025  
  0.000  
  0.005  
  0.045  
  0.080  
  0.125  
  0.150  
  0.200  
  0.250  
  0.315  
  0.385  
  0.475  
  0.535  
  0.610  
  0.645  
  0.695  
  0.690  
  0.640  
  0.525  
  0.415  
  0.265  
  0.170  
  0.070  
 -0.005  
 -0.050  
 -0.065  
 -0.090  
 -0.075  
 -0.065  
 -0.065  
 -0.090  
 -0.065  
 -0.055  
 -0.050  
 -0.050  
 -0.060  
 -0.060  
 -0.040  
 -0.055  
 -0.050  
 -0.070  
 -0.075  
 -0.080  
 -0.075  
 -0.100  
 -0.110  
 -0.125  
 -0.110  
 -0.080  
  0.045  
  0.145  
  0.175  
  0.190  
  0.200  
  0.095  
  0.030  
 -0.050  
 -0.105  
 -0.140  
 -0.150  
 -0.180  
 -0.170  
 -0.180  
 -0.170  
 -0.165  
 -0.160  
 -0.170  
 -0.125  
 -0.070  
  0.205  
  1.110  
  1.565  
  0.575  
 -0.515  
 -0.945  
 -0.920  
 -0.605  
 -0.240  
 -0.095  
 -0.030  
 -0.005  
  0.055  
  0.060  
  0.080  
  0.095  
  0.135  
  0.155  
  0.210  
  0.250  
  0.320  
  0.360  
  0.455  
  0.520  
  0.595  
  0.660  
  0.720  
  0.735  
  0.735  
  0.650  
  0.545  
  0.405  
  0.290  
  0.170  
  0.085  
  0.020  
 -0.005  
 -0.030  
 -0.010  
 -0.045  
 -0.025  
 -0.045  
 -0.035  
 -0.030  
 -0.035  
 -0.040  
 -0.020  
 -0.035  
 -0.025  
 -0.030  
 -0.030  
 -0.050  
 -0.050  
 -0.065  
 -0.070  
 -0.080  
 -0.080  
 -0.110  
 -0.075  
  0.035  
  0.140  
  0.150  
  0.185  
  0.170  
  0.095  
  0.015  
 -0.055  
 -0.135  
 -0.150  
 -0.185  
 -0.170  
 -0.195  
 -0.185  
 -0.190  
 -0.180  
 -0.170  
 -0.160  
 -0.155  
 -0.110  
  0.115  
  1.065  
  1.590  
  0.705  
 -0.395  
 -0.865  
 -0.920  
 -0.675  
 -0.365  
 -0.145  
 -0.085  
 -0.040  
 -0.025  
  0.035  
  0.040  
  0.040  
  0.055  
  0.100  
  0.140  
  0.195  
  0.245  
  0.305  
  0.350  
  0.435  
  0.490  
  0.570  
  0.605  
  0.635  
  0.610  
  0.550  
  0.450  
  0.340  
  0.210  
  0.110  
  0.025  
 -0.025  
 -0.060  
 -0.075  
 -0.105  
 -0.080  
 -0.090  
 -0.080  
 -0.095  
 -0.075  
 -0.085  
 -0.075  
 -0.080  
 -0.080  
 -0.080  
 -0.080  
 -0.100  
 -0.105  
 -0.125  
 -0.125  
 -0.145  
 -0.130  
 -0.155  
 -0.080  
  0.030  
  0.110  
  0.125  
  0.150  
  0.095  
  0.025  
 -0.055  
 -0.100  
 -0.155  
 -0.185  
 -0.235  
 -0.225  
 -0.225  
 -0.215  
 -0.225  
 -0.210  
 -0.235  
 -0.215  
 -0.195  
 -0.140  
  0.435  
  1.505  
  1.480  
  0.220  
 -0.690  
 -0.975  
 -0.905  
 -0.575  
 -0.290  
 -0.135  
 -0.110  
 -0.060  
 -0.050  
 -0.025  
 -0.005  
  0.050  
  0.055  
  0.100  
  0.135  
  0.195  
  0.240  
  0.300  
  0.360  
  0.430  
  0.505  
  0.560  
  0.580  
  0.585  
  0.545  
  0.465  
  0.350  
  0.260  
  0.125  
  0.030  
 -0.030  
 -0.070  
 -0.095  
 -0.105  
 -0.125  
 -0.115  
 -0.130  
 -0.080  
 -0.105  
 -0.090  
 -0.105  
 -0.095  
 -0.075  
 -0.080  
 -0.105  
 -0.105  
 -0.115  
 -0.105  
 -0.120  
 -0.125  
 -0.155  
 -0.150  
 -0.170  
 -0.155  
 -0.110  
  0.010  
  0.080  
  0.100  
  0.110  
  0.090  
 -0.015  
 -0.065  
 -0.125  
 -0.170  
 -0.215  
 -0.235  
 -0.255  
 -0.245  
 -0.265  
 -0.235  
 -0.240  
 -0.230  
 -0.230  
 -0.180  
 -0.105  
  0.390  
  1.410  
  1.435  
  0.125  
 -0.780  
 -1.060  
 -0.935  
 -0.565  
 -0.270  
 -0.160  
 -0.095  
 -0.065  
 -0.035  
 -0.035  
 -0.010  
  0.025  
  0.065  
  0.080  
  0.150  
  0.190  
  0.255  
  0.320  
  0.400  
  0.470  
  0.530  
  0.565  
  0.630  
  0.625  
  0.610  
  0.500  
  0.395  
  0.250  
  0.135  
  0.015  
 -0.065  
 -0.115  
 -0.130  
 -0.140  
 -0.140  
 -0.165  
 -0.150  
 -0.160  
 -0.135  
 -0.135  
 -0.130  
 -0.135  
 -0.120  
 -0.115  
 -0.100  
 -0.120  
 -0.130  
 -0.150  
 -0.135  
 -0.160  
 -0.165  
 -0.190  
 -0.190  
 -0.195  
 -0.170  
 -0.105  
  0.035  
  0.065  
  0.085  
  0.095  
  0.045  
 -0.065  
 -0.120  
 -0.185  
 -0.225  
 -0.255  
 -0.275  
 -0.285  
 -0.280  
 -0.295  
 -0.270  
 -0.270  
 -0.260  
 -0.260  
 -0.205  
 -0.110  
  0.475  
  1.425  
  1.200  
 -0.160  
 -0.925  
 -1.110  
 -0.925  
 -0.535  
 -0.265  
 -0.175  
 -0.130  
 -0.105  
 -0.060  
 -0.060  
 -0.040  
 -0.005  
  0.040  
  0.060  
  0.115  
  0.155  
  0.235  
  0.285  
  0.365  
  0.430  
  0.510  
  0.550  
  0.595  
  0.605  
  0.580  
  0.475  
  0.360  
  0.200  
  0.090  
 -0.025  
 -0.085  
 -0.135  
 -0.155  
 -0.170  
 -0.175  
 -0.190  
 -0.180  
 -0.190  
 -0.165  
 -0.165  
 -0.160  
 -0.160  
 -0.165  
 -0.160  
 -0.145  
 -0.165  
 -0.165  
 -0.175  
 -0.165  
 -0.185  
 -0.195  
 -0.215  
 -0.210  
 -0.230  
 -0.225  
 -0.235  
 -0.230  
 -0.185  
 -0.035  
  0.040  
  0.055  
  0.075  
  0.035  
 -0.075  
 -0.125  
 -0.195  
 -0.230  
 -0.275  
 -0.295  
 -0.295  
 -0.290  
 -0.310  
 -0.300  
 -0.310  
 -0.295  
 -0.285  
 -0.245  
 -0.205  
  0.180  
  1.155  
  1.350  
  0.190  
 -0.770  
 -1.120  
 -1.040  
 -0.675  
 -0.330  
 -0.205  
 -0.155  
 -0.135  
 -0.105  
 -0.080  
 -0.050  
 -0.050  
  0.005  
  0.030  
  0.080  
  0.130  
  0.190  
  0.240  
  0.320  
  0.400  
  0.490  
  0.525  
  0.570  
  0.580  
  0.575  
  0.495  
  0.405  
  0.255  
  0.145  
  0.020  
 -0.055  
 -0.115  
 -0.145  
 -0.175  
 -0.170  
 -0.190  
 -0.160  
 -0.165  
 -0.155  
 -0.150  
 -0.135  
 -0.145  
 -0.130  
 -0.145  
 -0.140  
 -0.155  
 -0.150  
 -0.160  
 -0.150  
 -0.180  
 -0.195  
 -0.210  
 -0.185  
 -0.195  
 -0.195  
 -0.225  
 -0.225  
 -0.225  
 -0.115  
 -0.010  
  0.060  
  0.085  
  0.105  
  0.010  
 -0.090  
 -0.160  
 -0.215  
 -0.250  
 -0.270  
 -0.305  
 -0.300  
 -0.300  
 -0.290  
 -0.305  
 -0.285  
 -0.280  
 -0.240  
 -0.235  
 -0.125  
  0.560  
  1.445  
  1.015  
 -0.230  
 -0.925  
 -1.095  
 -0.905  
 -0.525  
 -0.305  
 -0.190  
 -0.155  
 -0.115  
 -0.095  
 -0.065  
 -0.065  
 -0.035  
 -0.015  
  0.050  
  0.080  
  0.125  
  0.190  
  0.270  
  0.340  
  0.425  
  0.475  
  0.535  
  0.565  
  0.595  
  0.545  
  0.465  
  0.335  
  0.215  
  0.110  
  0.015  
 -0.075  
 -0.110  
 -0.150  
 -0.145  
 -0.165  
 -0.165  
 -0.170  
 -0.150  
 -0.170  
 -0.155  
 -0.150  
 -0.150  
 -0.170  
 -0.145  
 -0.155  
 -0.160  
 -0.170  
 -0.170  
 -0.210  
 -0.200  
 -0.220  
 -0.225  
 -0.245  
 -0.240  
 -0.160  
 -0.020  
  0.005  
  0.040  
  0.045  
 -0.025  
 -0.130  
 -0.185  
 -0.245  
 -0.285  
 -0.330  
 -0.330  
 -0.350  
 -0.350  
 -0.375  
 -0.355  
 -0.345  
 -0.315  
 -0.320  
 -0.315  
 -0.195  
  0.600  
  1.490  
  1.060  
 -0.190  
 -0.900  
 -1.085  
 -0.935  
 -0.620  
 -0.350  
 -0.240  
 -0.225  
 -0.195  
 -0.150  
 -0.155  
 -0.115  
 -0.105  
 -0.070  
 -0.030  
  0.025  
  0.065  
  0.125  
  0.170  
  0.255  
  0.315  
  0.365  
  0.400  
  0.445  
  0.440  
  0.405  
  0.315  
  0.225  
  0.080  
 -0.010  
 -0.075  
 -0.145  
 -0.190  
 -0.205  
 -0.215  
 -0.205  
 -0.205  
 -0.190  
 -0.200  
 -0.190  
 -0.195  
 -0.165  
 -0.190  
 -0.190  
 -0.195  
 -0.185  
 -0.185  
 -0.185  
 -0.205  
 -0.205  
 -0.235  
 -0.220  
 -0.240  
 -0.230  
 -0.200  
 -0.070  
  0.015  
  0.040  
  0.050  
  0.025  
 -0.065  
 -0.135  
 -0.200  
 -0.230  
 -0.290  
 -0.305  
 -0.325  
 -0.305  
 -0.305  
 -0.315  
 -0.310  
 -0.285  
 -0.290  
 -0.240  
 -0.180  
  0.315  
  1.320  
  1.390  
  0.140  
 -0.780  
 -1.090  
 -0.995  
 -0.615  
 -0.315  
 -0.190  
 -0.145  
 -0.120  
 -0.075  
 -0.070  
 -0.025  
 -0.010  
  0.030  
  0.060  
  0.115  
  0.155  
  0.240  
  0.305  
  0.385  
  0.440  
  0.525  
  0.580  
  0.620  
  0.615  
  0.595  
  0.510  
  0.415  
  0.260  
  0.135  
  0.025  
 -0.030  
 -0.080  
 -0.080  
 -0.125  
 -0.120  
 -0.125  
 -0.115  
 -0.115  
 -0.100  
 -0.110  
 -0.100  
 -0.115  
 -0.080  
 -0.095  
 -0.080  
 -0.105  
 -0.090  
 -0.115  
 -0.105  
 -0.130  
 -0.140  
 -0.155  
 -0.160  
 -0.125  
 -0.005  
  0.100  
  0.125  
  0.135  
  0.120  
  0.010  
 -0.045  
 -0.120  
 -0.165  
 -0.195  
 -0.220  
 -0.230  
 -0.235  
 -0.240  
 -0.235  
 -0.240  
 -0.230  
 -0.235  
 -0.185  
 -0.125  
  0.225  
  1.165  
  1.440  
  0.315  
 -0.685  
 -1.040  
 -0.950  
 -0.620  
 -0.275  
 -0.165  
 -0.090  
 -0.065  
 -0.030  
 -0.015  
  0.010  
  0.020  
  0.070  
  0.105  
  0.150  
  0.190  
  0.270  
  0.320  
  0.405  
  0.470  
  0.560  
  0.605  
  0.655  
  0.675  
  0.665  
  0.590  
  0.470  
  0.325  
  0.225  
  0.100  
  0.025  
 -0.040  
 -0.070  
 -0.090  
 -0.080  
 -0.095  
 -0.085  
 -0.095  
 -0.080  
 -0.090  
 -0.075  
 -0.085  
 -0.070  
 -0.080  
 -0.050  
 -0.070  
 -0.070  
 -0.085  
 -0.095  
 -0.095  
 -0.105  
 -0.125  
 -0.125  
 -0.145  
 -0.105  
  0.010  
  0.120  
  0.125  
  0.155  
  0.125  
  0.060  
 -0.045  
 -0.115  
 -0.170  
 -0.195  
 -0.230  
 -0.220  
 -0.250  
 -0.220  
 -0.240  
 -0.235  
 -0.230  
 -0.215  
 -0.180  
 -0.125  
  0.105  
  1.015  
  1.435  
  0.485  
 -0.600  
 -1.005  
 -1.005  
 -0.655  
 -0.345  
 -0.170  
 -0.120  
 -0.075  
 -0.070  
 -0.040  
 -0.020  
  0.010  
  0.030  
  0.085  
  0.105  
  0.165  
  0.205  
  0.290  
  0.360  
  0.430  
  0.490  
  0.555  
  0.595  
  0.630  
  0.610  
  0.560  
  0.430  
  0.310  
  0.165  
  0.060  
 -0.050  
 -0.095  
 -0.135  
 -0.140  
 -0.150  
 -0.140  
 -0.150  
 -0.140  
 -0.155  
 -0.135  
 -0.145  
 -0.130  
 -0.140  
 -0.135  
 -0.145  
 -0.130  
 -0.155  
 -0.145  
 -0.175  
 -0.180  
 -0.175  
 -0.180  
 -0.205  
 -0.195  
 -0.200  
 -0.075  
  0.030  
  0.080  
  0.080  
  0.080  
 -0.025  
 -0.095  
 -0.170  
 -0.225  
 -0.270  
 -0.300  
 -0.310  
 -0.300  
 -0.330  
 -0.320  
 -0.330  
 -0.305  
 -0.300  
 -0.260  
 -0.230  
 -0.030  
  0.820  
  1.405  
  0.575  
 -0.510  
 -1.020  
 -1.080  
 -0.830  
 -0.455  
 -0.285  
 -0.210  
 -0.185  
 -0.145  
 -0.130  
 -0.110  
 -0.080  
 -0.060  
 -0.035  
  0.035  
  0.055  
  0.105  
  0.165  
  0.230  
  0.305  
  0.400  
  0.440  
  0.490  
  0.520  
  0.520  
  0.465  
  0.375  
  0.225  
  0.110  
 -0.005  
 -0.085  
 -0.150  
 -0.180  
 -0.220  
 -0.225  
 -0.220  
 -0.205  
 -0.220  
 -0.210  
 -0.205  
 -0.185  
 -0.185  
 -0.185  
 -0.200  
 -0.190  
 -0.200  
 -0.195  
 -0.205  
 -0.210  
 -0.235  
 -0.240  
 -0.240  
 -0.165  
 -0.080  
  0.005  
  0.010  
  0.025  
 -0.020  
 -0.105  
 -0.175  
 -0.235  
 -0.290  
 -0.310  
 -0.360  
 -0.340  
 -0.355  
 -0.340  
 -0.350  
 -0.325  
 -0.335  
 -0.305  
 -0.300  
 -0.265  
  0.325  
  1.375  
  1.310  
  0.090  
 -0.775  
 -1.050  
 -0.995  
 -0.690  
 -0.410  
 -0.265  
 -0.215  
 -0.175  
 -0.155  
 -0.130  
 -0.125  
 -0.090  
 -0.070  
 -0.020  
  0.010  
  0.050  
  0.105  
  0.185  
  0.240  
  0.305  
  0.345  
  0.395  
  0.435  
  0.455  
  0.410  
  0.340  
  0.230  
  0.120  
  0.010  
 -0.070  
 -0.145  
 -0.180  
 -0.215  
 -0.210  
 -0.225  
 -0.220  
 -0.220  
 -0.205  
 -0.205  
 -0.175  
 -0.200  
 -0.195  
 -0.190  
 -0.185  
 -0.200  
 -0.190  
 -0.210  
 -0.225  
 -0.240  
 -0.240  
 -0.250  
 -0.240  
 -0.245  
 -0.155  
 -0.060  
  0.015  
  0.005  
  0.035  
 -0.045  
 -0.130  
 -0.180  
 -0.240  
 -0.300  
 -0.325  
 -0.345  
 -0.330  
 -0.340  
 -0.325  
 -0.345  
 -0.335  
 -0.340  
 -0.295  
 -0.270  
 -0.165  
  0.470  
  1.415  
  1.095  
 -0.210  
 -0.970  
 -1.135  
 -0.975  
 -0.575  
 -0.330  
 -0.230  
 -0.200  
 -0.165  
 -0.150  
 -0.105  
 -0.100  
 -0.060  
 -0.035  
  0.015  
  0.060  
  0.125  
  0.170  
  0.245  
  0.315  
  0.410  
  0.460  
  0.515  
  0.535  
  0.555  
  0.510  
  0.415  
  0.280  
  0.155  
  0.025  
 -0.060  
 -0.115  
 -0.155  
 -0.200  
 -0.210  
 -0.225  
 -0.200  
 -0.195  
 -0.185  
 -0.175  
 -0.170  
 -0.180  
 -0.160  
 -0.170  
 -0.165  
 -0.185  
 -0.165  
 -0.175  
 -0.180  
 -0.200  
 -0.195  
 -0.225  
 -0.220  
 -0.230  
 -0.230  
 -0.225  
 -0.115  
 -0.005  
  0.055  
  0.050  
  0.055  
 -0.035  
 -0.110  
 -0.150  
 -0.210  
 -0.270  
 -0.295  
 -0.310  
 -0.300  
 -0.300  
 -0.295  
 -0.310  
 -0.290  
 -0.280  
 -0.225  
 -0.200  
 -0.050  
  0.675  
  1.460  
  0.870  
 -0.385  
 -0.985  
 -1.080  
 -0.845  
 -0.430  
 -0.225  
 -0.155  
 -0.130  
 -0.080  
 -0.075  
 -0.035  
 -0.020  
  0.010  
  0.045  
  0.095  
  0.145  
  0.215  
  0.265  
  0.335  
  0.410  
  0.505  
  0.560  
  0.610  
  0.630  
  0.625  
  0.585  
  0.505  
  0.360  
  0.230  
  0.100  
  0.020  
 -0.045  
 -0.070  
 -0.105  
 -0.090  
 -0.130  
 -0.115  
 -0.110  
 -0.105  
 -0.105  
 -0.080  
 -0.095  
 -0.080  
 -0.100  
 -0.075  
 -0.095  
 -0.095  
 -0.105  
 -0.095  
 -0.080  
 -0.095  
 -0.150  
 -0.140  
 -0.155  
 -0.135  
 -0.025  
  0.105  
  0.130  
  0.175  
  0.140  
  0.055  
 -0.020  
 -0.030  
 -0.105  
 -0.205  
 -0.255  
 -0.225  
 -0.215  
 -0.235  
 -0.280  
 -0.260  
 -0.250  
 -0.230  
 -0.170  
 -0.095  
  0.040  
  0.785  
  1.445  
  0.830  
 -0.345  
 -0.875  
 -0.960  
 -0.645  
 -0.310  
 -0.185  
 -0.030  
  0.085  
  0.030  
 -0.115  
 -0.215  
 -0.080  
 -0.045  
 -0.045  
  0.015  
  0.085  
  0.125  
  0.230  
  0.235  
  0.470  
  0.710  
  0.565  
  0.465  
  0.595  
  0.665  
  0.565  
  0.430  
  0.325  
  0.085  
  0.040  
  0.010  
 -0.165  
 -0.165  
 -0.135  
 -0.110  
 -0.105  
 -0.290  
 -0.245  
 -0.170  
 -0.205  
 -0.280  
 -0.165  
 -0.055  
 -0.095  
 -0.135  
 -0.150  
 -0.105  
 -0.150  
 -0.355  
 -0.325  
 -0.240  
 -0.195  
 -0.100  
  0.030  
  0.005  
  0.030  
  0.005  
 -0.070  
 -0.150  
 -0.200  
 -0.250  
 -0.285  
 -0.345  
 -0.340  
 -0.345  
 -0.350  
 -0.355  
 -0.330  
 -0.330  
 -0.385  
 -0.350  
 -0.285  
  0.035  
  1.020  
  1.305  
  0.195  
 -0.790  
 -1.200  
 -1.150  
 -0.725  
 -0.365  
 -0.080  
 -0.135  
 -0.280  
 -0.115  
 -0.010  
 -0.250  
 -0.165  
 -0.090  
 -0.110  
  0.040  
  0.115  
 -0.005  
  0.175  
  0.290  
  0.295  
  0.440  
  0.565  
  0.500  
  0.405  
  0.430  
  0.485  
  0.360  
  0.115  
 -0.010  
 -0.230  
 -0.450  
 -0.315  
 -0.220  
 -0.185  
 -0.265  
 -0.415  
 -0.405  
 -0.180  
 -0.180  
 -0.285  
 -0.270  
 -0.195  
 -0.330  
 -0.440  
 -0.265  
 -0.250  
 -0.355  
 -0.165  
 -0.145  
 -0.270  
 -0.065  
 -0.175  
 -0.350  
 -0.045  
 -0.290  
 -0.440  
 -0.465  
 -0.555  
 -0.395  
 -0.310  
 -0.355  
 -0.585  
 -0.450  
 -0.350  
 -0.495  
 -0.470  
 -0.560  
 -0.595  
 -0.135  
  0.880  
  1.315  
  0.495  
 -0.555  
 -1.100  
 -1.200  
 -0.890  
 -0.760  
 -0.740  
 -0.515  
 -0.360  
 -0.315  
 -0.310  
 -0.175  
 -0.195  
 -0.305  
 -0.260  
 -0.140  
  0.085  
  0.125  
 -0.240  
 -0.425  
 -0.065  
  0.035  
  0.100  
  0.500  
  0.415  
 -0.050  
  0.015  
  0.090  
 -0.035  
  0.075  
 -0.225  
 -0.475  
 -0.320  
 -0.325  
 -0.365  
 -0.420  
 -0.355  
 -0.360  
 -0.345  
 -0.365  
 -0.340  
 -0.345  
 -0.340  
 -0.360  
 -0.325  
 -0.340  
 -0.350  
 -0.315  
 -0.240  
 -0.190  
 -0.170  
 -0.150  
 -0.170  
 -0.295  
 -0.315  
 -0.390  
 -0.415  
 -0.400  
 -0.435  
 -0.455  
 -0.490  
 -0.465  
 -0.425  
 -0.500  
 -0.495  
 -0.450  
 -0.380  
 -0.165  
  0.775  
  1.415  
  0.580  
 -0.560  
 -1.120  
 -1.220  
 -0.985  
 -0.675  
 -0.410  
 -0.025  
 -0.215  
 -0.525  
 -0.385  
 -0.360  
 -0.090  
  0.055  
 -0.175  
 -0.265  
  0.035  
  0.220  
 -0.020  
  0.100  
  0.315  
  0.050  
  0.370  
  0.625  
  0.410  
  0.610  
  0.720  
  0.055  
 -0.090  
 -0.220  
 -0.185  
  0.060  
 -0.300  
 -0.215  
 -0.255  
 -0.660  
 -0.295  
  0.050  
 -0.025  
 -0.625  
 -0.430  
 -0.130  
 -0.645  
 -0.220  
 -0.065  
 -0.555  
 -0.380  
 -0.205  
 -0.355  
 -0.355  
 -0.080  
 -0.300  
 -0.460  
 -0.375  
 -0.620  
 -0.785  
 -0.695  
 -0.720  
 -0.730  
 -0.830  
 -0.945  
 -1.025  
 -0.980  
 -0.810  
 -0.830  
 -0.685  
 -0.260  
  0.500  
  0.490  
 -0.990  
 -1.825  
 -1.855  
 -1.625  
 -1.235  
 -0.590  
 -0.615  
 -0.690  
 -0.275  
 -0.385  
 -0.500  
 -0.365  
 -0.035  
 -0.155  
 -0.305  
 -0.090  
 -0.080  
 -0.215  
 -0.045  
  0.170  
 -0.025  
  0.380  
  0.400  
  0.065  
  0.250  
  0.355  
  0.010  
 -0.165  
 -0.220  
 -0.325  
 -0.400  
 -0.480  
 -0.470  
 -0.495  
 -0.500  
 -0.475  
 -0.455  
 -0.445  
 -0.475  
 -0.465  
 -0.470  
 -0.400  
 -0.380  
 -0.360  
 -0.350  
 -0.240  
 -0.160  
 -0.130  
 -0.160  
 -0.235  
 -0.290  
 -0.320  
 -0.400  
 -0.465  
 -0.510  
 -0.535  
 -0.545  
 -0.540  
 -0.550  
 -0.520  
 -0.510  
 -0.490  
 -0.465  
 -0.430  
 -0.350  
  0.170  
  1.275  
  1.350  
 -0.050  
 -1.040  
 -1.315  
 -1.190  
 -0.810  
 -0.490  
 -0.355  
 -0.295  
 -0.255  
 -0.240  
 -0.210  
 -0.180  
 -0.165  
 -0.125  
 -0.095  
 -0.040  
  0.015  
  0.145  
  0.185  
  0.295  
  0.440  
  0.525  
  0.575  
  0.605  
  0.575  
  0.475  
  0.335  
  0.210  
  0.040  
 -0.070  
 -0.150  
 -0.180  
 -0.215  
 -0.205  
 -0.215  
 -0.205  
 -0.205  
 -0.225  
 -0.305  
 -0.260  
 -0.255  
 -0.230  
 -0.225  
 -0.245  
 -0.255  
 -0.225  
 -0.235  
 -0.220  
 -0.125  
  0.000  
  0.005  
  0.000  
 -0.035  
 -0.105  
 -0.170  
 -0.200  
 -0.255  
 -0.255  
 -0.300  
 -0.305  
 -0.290  
 -0.255  
 -0.070  
 -0.085  
 -0.405  
 -0.435  
 -0.290  
 -0.145  
  0.395  
  1.445  
  1.555  
  0.250  
 -0.760  
 -1.070  
 -1.080  
 -0.665  
 -0.395  
 -0.390  
 -0.310  
 -0.110  
 -0.065  
 -0.140  
 -0.020  
  0.110  
 -0.050  
  0.120  
  0.170  
 -0.070  
  0.095  
  0.325  
  0.260  
  0.390  
  0.560  
  0.430  
  0.435  
  0.635  
  0.545  
  0.460  
  0.295  
  0.170  
 -0.010  
 -0.200  
 -0.150  
 -0.135  
 -0.250  
 -0.280  
 -0.260  
 -0.235  
 -0.215  
 -0.215  
 -0.275  
 -0.295  
 -0.330  
 -0.325  
 -0.350  
 -0.335  
 -0.335  
 -0.280  
 -0.225  
 -0.190  
  0.085  
  0.235  
  0.130  
  0.035  
 -0.035  
 -0.100  
 -0.095  
  0.000  
 -0.145  
 -0.315  
 -0.395  
 -0.385  
 -0.335  
 -0.280  
 -0.290  
 -0.205  
 -0.130  
 -0.240  
 -0.260  
 -0.080  
  0.045  
  0.835  
  1.525  
  0.695  
 -0.565  
 -1.090  
 -1.160  
 -0.845  
 -0.455  
 -0.245  
 -0.115  
 -0.090  
 -0.125  
  0.000  
  0.045  
 -0.120  
 -0.105  
  0.030  
  0.035  
  0.110  
  0.205  
  0.305  
  0.365  
  0.425  
  0.545  
  0.650  
  0.740  
  0.755  
  0.730  
  0.625  
  0.495  
  0.320  
  0.135  
  0.170  
  0.070  
 -0.035  
 -0.045  
  0.025  
 -0.140  
 -0.260  
 -0.240  
 -0.185  
 -0.170  
 -0.165  
 -0.185  
 -0.150  
 -0.150  
 -0.125  
 -0.135  
 -0.205  
 -0.220  
 -0.195  
 -0.170  
 -0.185  
 -0.160  
 -0.015  
  0.190  
  0.235  
  0.055  
 -0.045  
 -0.070  
 -0.095  
 -0.165  
 -0.185  
 -0.185  
 -0.220  
 -0.225  
 -0.165  
 -0.235  
 -0.250  
 -0.285  
 -0.295  
 -0.215  
 -0.155  
 -0.135  
  0.400  
  1.380  
  1.320  
  0.030  
 -0.840  
 -0.945  
 -0.825  
 -0.560  
 -0.220  
 -0.125  
 -0.080  
 -0.060  
 -0.025  
  0.015  
  0.125  
  0.080  
 -0.100  
 -0.075  
  0.070  
  0.120  
  0.155  
  0.220  
  0.320  
  0.380  
  0.380  
  0.485  
  0.650  
  0.625  
  0.530  
  0.455  
  0.355  
  0.185  
  0.065  
  0.005  
 -0.065  
 -0.130  
 -0.125  
 -0.135  
 -0.135  
 -0.155  
 -0.130  
 -0.115  
 -0.105  
 -0.080  
 -0.100  
 -0.135  
 -0.075  
 -0.020  
 -0.050  
 -0.205  
 -0.150  
 -0.135  
 -0.210  
 -0.120  
 -0.115  
 -0.165  
 -0.030  
  0.050  
  0.105  
  0.100  
  0.070  
  0.010  
 -0.070  
 -0.150  
 -0.200  
 -0.265  
 -0.210  
 -0.240  
 -0.325  
 -0.325  
 -0.295  
 -0.290  
 -0.265  
 -0.235  
 -0.185  
 -0.145  
  0.075  
  0.880  
  1.455  
  0.620  
 -0.565  
 -1.000  
 -1.020  
 -0.790  
 -0.340  
 -0.170  
 -0.075  
 -0.065  
 -0.040  
  0.040  
 -0.010  
 -0.015  
  0.050  
  0.095  
  0.210  
  0.215  
  0.265  
  0.340  
  0.450  
  0.510  
  0.535  
  0.670  
  0.795  
  0.765  
  0.745  
  0.705  
  0.675  
  0.465  
  0.130  
 -0.035  
  0.005  
 -0.085  
 -0.115  
 -0.140  
 -0.200  
 -0.185  
 -0.130  
 -0.135  
 -0.100  
 -0.110  
 -0.090  
 -0.080  
 -0.085  
 -0.065  
 -0.085  
 -0.090  
 -0.070  
 -0.085  
 -0.090  
 -0.110  
 -0.060  
 -0.050  
 -0.015  
 -0.005  
  0.090  
  0.275  
  0.225  
  0.125  
  0.150  
  0.070  
  0.045  
  0.015  
  0.035  
 -0.090  
 -0.195  
 -0.140  
 -0.105  
 -0.155  
 -0.145  
 -0.165  
 -0.175  
 -0.160  
 -0.135  
 -0.080  
  0.560  
  1.430  
  1.025  
 -0.315  
 -1.000  
 -1.100  
 -0.840  
 -0.440  
 -0.145  
 -0.045  
 -0.070  
 -0.075  
  0.055  
  0.110  
  0.115  
  0.090  
  0.080  
  0.135  
  0.245  
  0.275  
  0.365  
  0.435  
  0.455  
  0.495  
  0.605  
  0.645  
  0.655  
  0.675  
  0.625  
  0.530  
  0.425  
  0.270  
  0.195  
  0.075  
  0.020  
 -0.035  
 -0.040  
 -0.055  
 -0.070  
 -0.105  
 -0.070  
 -0.035  
 -0.100  
 -0.095  
 -0.075  
 -0.140  
 -0.130  
 -0.135  
 -0.105  
 -0.150  
 -0.165  
 -0.125  
 -0.065  
 -0.115  
 -0.105  
  0.015  
  0.195  
  0.225  
  0.180  
  0.125  
  0.045  
 -0.010  
 -0.005  
 -0.055  
 -0.105  
 -0.070  
 -0.105  
 -0.145  
 -0.045  
  0.015  
  0.030  
  0.025  
 -0.065  
 -0.090  
 -0.030  
  0.310  
  1.375  
  1.730  
  0.640  
 -0.460  
 -0.845  
 -0.895  
 -0.665  
 -0.350  
 -0.125  
 -0.075  
 -0.060  
  0.025  
  0.100  
  0.065  
 -0.015  
  0.030  
  0.100  
  0.130  
  0.150  
  0.225  
  0.315  
  0.315  
  0.385  
  0.435  
  0.520  
  0.560  
  0.595  
  0.530  
  0.420  
  0.330  
  0.240  
  0.105  
  0.015  
 -0.075  
 -0.080  
 -0.115  
 -0.145  
 -0.165  
 -0.145  
 -0.125  
 -0.120  
 -0.100  
 -0.080  
 -0.125  
 -0.125  
 -0.125  
 -0.145  
 -0.140  
 -0.140  
 -0.155  
 -0.150  
 -0.140  
 -0.105  
 -0.035  
  0.050  
  0.065  
  0.100  
  0.025  
 -0.040  
 -0.090  
 -0.140  
 -0.220  
 -0.265  
 -0.260  
 -0.260  
 -0.260  
 -0.260  
 -0.280  
 -0.240  
 -0.235  
 -0.215  
 -0.225  
 -0.090  
  0.615  
  1.595  
  1.245  
 -0.110  
 -0.915  
 -1.040  
 -0.880  
 -0.510  
 -0.255  
 -0.125  
 -0.095  
 -0.055  
 -0.030  
 -0.015  
  0.010  
  0.055  
  0.080  
  0.115  
  0.130  
  0.205  
  0.275  
  0.350  
  0.425  
  0.500  
  0.535  
  0.580  
  0.625  
  0.615  
  0.555  
  0.450  
  0.315  
  0.215  
  0.080  
 -0.010  
 -0.070  
 -0.080  
 -0.115  
 -0.130  
 -0.130  
 -0.130  
 -0.160  
 -0.125  
 -0.120  
 -0.110  
 -0.125  
 -0.110  
 -0.110  
 -0.095  
 -0.105  
 -0.110  
 -0.125  
 -0.120  
 -0.150  
 -0.115  
 -0.040  
  0.055  
  0.090  
  0.115  
  0.085  
  0.030  
 -0.055  
 -0.095  
 -0.145  
 -0.185  
 -0.220  
 -0.215  
 -0.250  
 -0.230  
 -0.205  
 -0.210  
 -0.230  
 -0.200  
 -0.145  
 -0.065  
  0.160  
  1.070  
  1.620  
  0.665  
 -0.555  
 -1.010  
 -1.045  
 -0.720  
 -0.350  
 -0.150  
 -0.120  
 -0.070  
 -0.045  
 -0.030  
  0.000  
  0.055  
  0.065  
  0.165  
  0.200  
  0.170  
  0.220  
  0.315  
  0.400  
  0.500  
  0.560  
  0.670  
  0.695  
  0.655  
  0.560  
  0.575  
  0.510  
  0.325  
  0.225  
  0.035  
 -0.090  
 -0.025  
 -0.140  
 -0.175  
 -0.135  
 -0.170  
 -0.210  
 -0.125  
 -0.080  
 -0.140  
 -0.180  
 -0.130  
 -0.085  
 -0.095  
 -0.130  
 -0.120  
 -0.140  
 -0.120  
 -0.125  
 -0.130  
 -0.145  
 -0.140  
 -0.155  
 -0.120  
 -0.015  
  0.085  
  0.140  
  0.185  
  0.150  
  0.110  
  0.025  
 -0.100  
 -0.225  
 -0.235  
 -0.245  
 -0.220  
 -0.205  
 -0.215  
 -0.235  
 -0.215  
 -0.235  
 -0.200  
 -0.175  
 -0.115  
  0.135  
  1.025  
  1.515  
  0.570  
 -0.580  
 -1.015  
 -1.015  
 -0.675  
 -0.335  
 -0.145  
 -0.080  
 -0.065  
 -0.045  
  0.005  
  0.025  
  0.065  
  0.085  
  0.140  
  0.170  
  0.210  
  0.270  
  0.355  
  0.430  
  0.520  
  0.570  
  0.620  
  0.620  
  0.625  
  0.560  
  0.490  
  0.400  
  0.300  
  0.195  
  0.130  
  0.040  
 -0.030  
 -0.080  
 -0.035  
 -0.045  
 -0.065  
 -0.085  
 -0.095  
 -0.120  
 -0.075  
 -0.055  
 -0.050  
 -0.055  
 -0.050  
  0.025  
  0.050  
 -0.090  
 -0.150  
 -0.110  
 -0.125  
 -0.250  
 -0.200  
 -0.220  
 -0.225  
 -0.190  
 -0.050  
  0.060  
  0.080  
  0.095  
  0.040  
 -0.075  
 -0.100  
 -0.155  
 -0.190  
 -0.200  
 -0.225  
 -0.260  
 -0.265  
 -0.235  
 -0.195  
 -0.190  
 -0.200  
 -0.195  
 -0.085  
 -0.010  
  0.435  
  1.390  
  1.340  
  0.045  
 -0.785  
 -1.020  
 -0.900  
 -0.530  
 -0.220  
 -0.125  
 -0.085  
 -0.030  
 -0.005  
 -0.005  
  0.040  
  0.055  
  0.105  
  0.125  
  0.165  
  0.220  
  0.295  
  0.370  
  0.475  
  0.515  
  0.595  
  0.665  
  0.690  
  0.690  
  0.700  
  0.600  
  0.460  
  0.310  
  0.190  
  0.070  
 -0.005  
 -0.015  
 -0.040  
 -0.085  
 -0.045  
 -0.100  
 -0.105  
 -0.090  
 -0.080  
 -0.090  
 -0.100  
 -0.110  
 -0.095  
 -0.115  
 -0.105  
 -0.145  
 -0.150  
 -0.145  
 -0.150  
 -0.175  
 -0.185  
 -0.095  
  0.030  
  0.070  
  0.090  
  0.080  
  0.040  
 -0.025  
 -0.055  
 -0.145  
 -0.195  
 -0.215  
 -0.225  
 -0.235  
 -0.245  
 -0.240  
 -0.225  
 -0.240  
 -0.200  
 -0.185  
 -0.180  
 -0.035  
  0.850  
  1.620  
  1.000  
 -0.230  
 -0.865  
 -0.985  
 -0.795  
 -0.470  
 -0.225  
 -0.125  
 -0.090  
 -0.070  
 -0.020  
 -0.005  
  0.015  
  0.040  
  0.075  
  0.085  
  0.170  
  0.210  
  0.275  
  0.335  
  0.415  
  0.470  
  0.515  
  0.560  
  0.585  
  0.560  
  0.525  
  0.415  
  0.295  
  0.165  
  0.075  
 -0.010  
 -0.055  
 -0.090  
 -0.105  
 -0.120  
 -0.105  
 -0.110  
 -0.085  
 -0.110  
 -0.090  
 -0.080  
 -0.075  
 -0.075  
 -0.065  
 -0.095  
 -0.090  
 -0.080  
 -0.090  
 -0.120  
 -0.125  
 -0.140  
 -0.030  
  0.080  
  0.115  
  0.115  
  0.115  
  0.065  
 -0.015  
 -0.080  
 -0.130  
 -0.190  
 -0.210  
 -0.255  
 -0.230  
 -0.240  
 -0.235  
 -0.240  
 -0.215  
 -0.210  
 -0.170  
 -0.145  
  0.105  
  0.955  
  1.570  
  0.720  
 -0.480  
 -0.985  
 -1.005  
 -0.730  
 -0.365  
 -0.180  
 -0.105  
 -0.080  
 -0.040  
 -0.025  
  0.015  
  0.020  
  0.065  
  0.095  
  0.140  
  0.190  
  0.250  
  0.305  
  0.380  
  0.455  
  0.520  
  0.565  
  0.635  
  0.655  
  0.640  
  0.555  
  0.455  
  0.310  
  0.180  
  0.080  
  0.005  
 -0.055  
 -0.080  
 -0.115  
 -0.110  
 -0.115  
 -0.080  
 -0.105  
 -0.095  
 -0.100  
 -0.085  
 -0.090  
 -0.080  
 -0.095  
 -0.080  
 -0.080  
 -0.070  
 -0.095  
 -0.095  
 -0.120  
 -0.115  
 -0.100  
  0.030  
  0.110  
  0.135  
  0.120  
  0.110  
  0.045  
 -0.030  
 -0.095  
 -0.145  
 -0.195  
 -0.205  
 -0.230  
 -0.230  
 -0.250  
 -0.225  
 -0.215  
 -0.205  
 -0.195  
 -0.155  
 -0.080  
  0.255  
  1.165  
  1.435  
  0.305  
 -0.695  
 -1.050  
 -0.950  
 -0.600  
 -0.270  
 -0.145  
 -0.105  
 -0.050  
 -0.005  
 -0.010  
  0.020  
  0.030  
  0.090  
  0.125  
  0.165  
  0.210  
  0.275  
  0.335  
  0.430  
  0.495  
  0.560  
  0.615  
  0.670  
  0.685  
  0.660  
  0.565  
  0.470  
  0.295  
  0.185  
  0.085  
  0.015  
 -0.045  
 -0.080  
 -0.085  
 -0.075  
 -0.080  
 -0.080  
 -0.095  
 -0.075  
 -0.070  
 -0.060  
 -0.070  
 -0.060  
 -0.065  
 -0.055  
 -0.065  
 -0.055  
 -0.075  
 -0.080  
 -0.100  
 -0.090  
 -0.110  
 -0.110  
 -0.055  
  0.085  
  0.150  
  0.170  
  0.155  
  0.110  
  0.015  
 -0.045  
 -0.120  
 -0.150  
 -0.195  
 -0.200  
 -0.215  
 -0.190  
 -0.200  
 -0.200  
 -0.205  
 -0.185  
 -0.155  
 -0.105  
 -0.035  
  0.575  
  1.455  
  1.125  
 -0.165  
 -0.855  
 -1.015  
 -0.815  
 -0.430  
 -0.180  
 -0.100  
 -0.050  
 -0.025  
  0.010  
  0.015  
  0.055  
  0.070  
  0.110  
  0.130  
  0.190  
  0.245  
  0.320  
  0.360  
  0.445  
  0.525  
  0.595  
  0.635  
  0.685  
  0.675  
  0.645  
  0.545  
  0.435  
  0.280  
  0.165  
  0.050  
  0.005  
 -0.025  
 -0.055  
 -0.085  
 -0.085  
 -0.095  
 -0.090  
 -0.075  
 -0.055  
 -0.080  
 -0.065  
 -0.070  
 -0.050  
 -0.060  
 -0.065  
 -0.085  
 -0.080  
 -0.095  
 -0.090  
 -0.095  
 -0.105  
 -0.130  
 -0.065  
  0.020  
  0.105  
  0.115  
  0.140  
  0.115  
  0.045  
 -0.050  
 -0.085  
 -0.145  
 -0.175  
 -0.210  
 -0.205  
 -0.215  
 -0.210  
 -0.225  
 -0.225  
 -0.235  
 -0.200  
 -0.205  
 -0.150  
  0.335  
  1.370  
  1.430  
  0.260  
 -0.660  
 -0.945  
 -0.875  
 -0.580  
 -0.300  
 -0.135  
 -0.115  
 -0.060  
 -0.040  
 -0.010  
 -0.010  
  0.020  
  0.035  
  0.080  
  0.115  
  0.170  
  0.205  
  0.285  
  0.335  
  0.415  
  0.465  
  0.525  
  0.560  
  0.585  
  0.560  
  0.480  
  0.375  
  0.255  
  0.135  
  0.065  
 -0.025  
 -0.050  
 -0.090  
 -0.100  
 -0.095  
 -0.090  
 -0.095  
 -0.090  
 -0.090  
 -0.080  
 -0.075  
 -0.060  
 -0.070  
 -0.055  
 -0.075  
 -0.070  
 -0.095  
 -0.080  
 -0.115  
 -0.125  
 -0.145  
 -0.130  
 -0.105  
  0.015  
  0.085  
  0.115  
  0.130  
  0.115  
  0.010  
 -0.055  
 -0.120  
 -0.150  
 -0.205  
 -0.220  
 -0.225  
 -0.235  
 -0.225  
 -0.220  
 -0.230  
 -0.230  
 -0.220  
 -0.165  
 -0.120  
  0.330  
  1.350  
  1.455  
  0.230  
 -0.680  
 -0.990  
 -0.925  
 -0.595  
 -0.280  
 -0.150  
 -0.085  
 -0.075  
 -0.035  
 -0.030  
 -0.005  
  0.025  
  0.055  
  0.080  
  0.130  
  0.180  
  0.260  
  0.315  
  0.385  
  0.445  
  0.510  
  0.565  
  0.600  
  0.600  
  0.570  
  0.475  
  0.390  
  0.240  
  0.135  
  0.040  
 -0.015  
 -0.070  
 -0.080  
 -0.105  
 -0.100  
 -0.105  
 -0.080  
 -0.095  
 -0.060  
 -0.080  
 -0.070  
 -0.080  
 -0.055  
 -0.050  
 -0.065  
 -0.075  
 -0.075  
 -0.095  
 -0.085  
 -0.115  
 -0.120  
 -0.145  
 -0.130  
 -0.115  
  0.015  
  0.100  
  0.160  
  0.155  
  0.155  
  0.080  
 -0.015  
 -0.070  
 -0.120  
 -0.170  
 -0.170  
 -0.195  
 -0.195  
 -0.205  
 -0.210  
 -0.205  
 -0.190  
 -0.190  
 -0.150  
 -0.105  
  0.115  
  0.940  
  1.510  
  0.675  
 -0.490  
 -0.960  
 -0.955  
 -0.690  
 -0.320  
 -0.155  
 -0.075  
 -0.045  
 -0.015  
  0.005  
  0.030  
  0.045  
  0.090  
  0.125  
  0.165  
  0.205  
  0.265  
  0.325  
  0.415  
  0.470  
  0.550  
  0.600  
  0.655  
  0.685  
  0.685  
  0.610  
  0.495  
  0.355  
  0.230  
  0.125  
  0.045  
 -0.025  
 -0.050  
 -0.080  
 -0.075  
 -0.085  
 -0.080  
 -0.090  
 -0.075  
 -0.080  
 -0.065  
 -0.070  
 -0.070  
 -0.080  
 -0.075  
 -0.085  
 -0.090  
 -0.120  
 -0.105  
 -0.120  
 -0.130  
 -0.135  
 -0.135  
 -0.155  
 -0.155  
 -0.165  
 -0.120  
  0.000  
  0.105  
  0.105  
  0.135  
  0.105  
  0.025  
 -0.055  
 -0.115  
 -0.180  
 -0.200  
 -0.245  
 -0.240  
 -0.255  
 -0.250  
 -0.240  
 -0.220  
 -0.220  
 -0.205  
 -0.180  
 -0.115  
  0.195  
  1.145  
  1.410  
  0.325  
 -0.675  
 -1.000  
 -0.955  
 -0.610  
 -0.305  
 -0.165  
 -0.105  
 -0.035  
 -0.040  
 -0.015  
 -0.005  
  0.030  
  0.060  
  0.115  
  0.140  
  0.190  
  0.235  
  0.325  
  0.375  
  0.450  
  0.530  
  0.585  
  0.635  
  0.665  
  0.635  
  0.570  
  0.450  
  0.345  
  0.205  
  0.100  
  0.020  
 -0.025  
 -0.070  
 -0.070  
 -0.080  
 -0.070  
 -0.085  
 -0.080  
 -0.075  
 -0.055  
 -0.075  
 -0.050  
 -0.065  
 -0.050  
 -0.045  
 -0.045  
 -0.065  
 -0.055  
 -0.080  
 -0.075  
 -0.095  
 -0.105  
 -0.110  
 -0.130  
 -0.135  
 -0.115  
 -0.135  
 -0.105  
  0.010  
  0.130  
  0.145  
  0.170  
  0.135  
  0.050  
 -0.025  
 -0.080  
 -0.140  
 -0.160  
 -0.190  
 -0.195  
 -0.205  
 -0.200  
 -0.205  
 -0.195  
 -0.205  
 -0.165  
 -0.125  
 -0.105  
  0.205  
  1.155  
  1.430  
  0.395  
 -0.595  
 -0.965  
 -0.925  
 -0.590  
 -0.270  
 -0.115  
 -0.070  
 -0.025  
 -0.020  
  0.020  
  0.035  
  0.070  
  0.090  
  0.135  
  0.170  
  0.220  
  0.290  
  0.350  
  0.410  
  0.480  
  0.540  
  0.615  
  0.655  
  0.680  
  0.650  
  0.590  
  0.510  
  0.380  
  0.255  
  0.135  
  0.045  
  0.010  
 -0.015  
 -0.030  
 -0.065  
 -0.050  
 -0.045  
 -0.035  
 -0.055  
 -0.045  
 -0.050  
 -0.025  
 -0.025  
 -0.030  
 -0.045  
 -0.045  
 -0.055  
 -0.055  
 -0.055  
 -0.075  
 -0.090  
 -0.095  
 -0.120  
 -0.115  
 -0.135  
 -0.050  
  0.060  
  0.110  
  0.125  
  0.170  
  0.105  
  0.005  
 -0.060  
 -0.095  
 -0.170  
 -0.195  
 -0.220  
 -0.220  
 -0.225  
 -0.205  
 -0.230  
 -0.215  
 -0.220  
 -0.175  
 -0.160  
 -0.100  
  0.565  
  1.545  
  1.315  
  0.115  
 -0.675  
 -0.915  
 -0.830  
 -0.510  
 -0.225  
 -0.090  
 -0.065  
 -0.030  
 -0.025  
  0.035  
  0.040  
  0.080  
  0.100  
  0.130  
  0.170  
  0.225  
  0.280  
  0.345  
  0.410  
  0.475  
  0.535  
  0.590  
  0.610  
  0.615  
  0.565  
  0.505  
  0.410  
  0.295  
  0.175  
  0.085  
  0.020  
  0.010  
 -0.030  
 -0.035  
 -0.050  
 -0.035  
 -0.035  
 -0.015  
 -0.030  
 -0.020  
 -0.030  
 -0.020  
 -0.010  
 -0.015  
 -0.035  
 -0.030  
 -0.040  
 -0.040  
 -0.065  
 -0.075  
 -0.080  
 -0.090  
 -0.090  
 -0.075  
 -0.055  
  0.080  
  0.155  
  0.165  
  0.190  
  0.185  
  0.080  
  0.015  
 -0.060  
 -0.100  
 -0.125  
 -0.150  
 -0.175  
 -0.155  
 -0.165  
 -0.155  
 -0.150  
 -0.130  
 -0.110  
 -0.095  
 -0.045  
  0.485  
  1.490  
  1.530  
  0.295  
 -0.600  
 -0.905  
 -0.825  
 -0.475  
 -0.165  
 -0.005  
  0.040  
  0.030  
  0.050  
  0.030  
  0.080  
  0.125  
  0.165  
  0.165  
  0.200  
  0.255  
  0.335  
  0.410  
  0.485  
  0.550  
  0.615  
  0.655  
  0.685  
  0.665  
  0.625  
  0.550  
  0.445  
  0.305  
  0.215  
  0.095  
  0.020  
 -0.045  
 -0.080  
 -0.110  
 -0.105  
 -0.095  
 -0.075  
 -0.015  
 -0.020  
 -0.105  
 -0.105  
 -0.070  
 -0.070  
 -0.095  
 -0.095  
 -0.080  
 -0.060  
 -0.075  
 -0.120  
 -0.115  
 -0.085  
 -0.105  
 -0.110  
  0.045  
  0.160  
  0.170  
  0.215  
  0.215  
  0.120  
  0.000  
 -0.030  
 -0.075  
 -0.070  
 -0.125  
 -0.155  
 -0.150  
 -0.120  
 -0.145  
 -0.145  
 -0.110  
 -0.070  
 -0.070  
 -0.060  
  0.180  
  1.095  
  1.605  
  0.685  
 -0.450  
 -0.900  
 -0.920  
 -0.610  
 -0.270  
 -0.070  
 -0.025  
 -0.005  
  0.070  
  0.080  
  0.080  
  0.140  
  0.155  
  0.180  
  0.225  
  0.285  
  0.365  
  0.440  
  0.495  
  0.585  
  0.640  
  0.720  
  0.765  
  0.790  
  0.785  
  0.725  
  0.590  
  0.460  
  0.310  
  0.210  
  0.125  
  0.080  
  0.035  
  0.010  
 -0.010  
 -0.005  
  0.005  
  0.005  
 -0.010  
 -0.005  
 -0.010  
  0.010  
 -0.010  
 -0.015  
 -0.025  
 -0.040  
 -0.050  
 -0.030  
 -0.030  
 -0.045  
 -0.085  
 -0.020  
  0.105  
  0.165  
  0.150  
  0.165  
  0.160  
  0.070  
 -0.045  
 -0.055  
 -0.135  
 -0.175  
 -0.170  
 -0.225  
 -0.295  
 -0.265  
 -0.125  
 -0.120  
 -0.295  
 -0.295  
 -0.180  
 -0.155  
  0.200  
  1.225  
  1.435  
  0.335  
 -0.615  
 -0.925  
 -0.865  
 -0.505  
 -0.190  
 -0.050  
 -0.030  
  0.025  
  0.050  
  0.065  
  0.080  
  0.115  
  0.145  
  0.185  
  0.210  
  0.255  
  0.330  
  0.395  
  0.440  
  0.560  
  0.620  
  0.675  
  0.695  
  0.745  
  0.750  
  0.625  
  0.515  
  0.395  
  0.235  
  0.145  
  0.055  
 -0.005  
 -0.045  
 -0.045  
 -0.040  
 -0.055  
 -0.075  
 -0.065  
 -0.060  
 -0.070  
 -0.065  
 -0.065  
 -0.090  
 -0.095  
 -0.110  
 -0.105  
 -0.135  
 -0.160  
 -0.170  
 -0.160  
 -0.080  
  0.005  
  0.050  
  0.050  
  0.050  
 -0.010  
 -0.130  
 -0.165  
 -0.195  
 -0.225  
 -0.265  
 -0.260  
 -0.295  
 -0.285  
 -0.285  
 -0.280  
 -0.275  
 -0.235  
 -0.255  
 -0.215  
  0.355  
  1.385  
  1.360  
  0.135  
 -0.725  
 -1.000  
 -0.960  
 -0.655  
 -0.370  
 -0.230  
 -0.185  
 -0.150  
 -0.115  
 -0.085  
 -0.070  
 -0.050  
 -0.030  
  0.005  
  0.030  
  0.080  
  0.150  
  0.200  
  0.255  
  0.330  
  0.370  
  0.415  
  0.450  
  0.470  
  0.425  
  0.335  
  0.230  
  0.115  
 -0.010  
 -0.080  
 -0.150  
 -0.200  
 -0.215  
 -0.210  
 -0.215  
 -0.210  
 -0.205  
 -0.205  
 -0.210  
 -0.225  
 -0.215  
 -0.190  
 -0.220  
 -0.210  
 -0.230  
 -0.235  
 -0.225  
 -0.240  
 -0.230  
 -0.145  
 -0.055  
 -0.005  
 -0.015  
 -0.025  
 -0.090  
 -0.165  
 -0.205  
 -0.270  
 -0.330  
 -0.365  
 -0.385  
 -0.375  
 -0.385  
 -0.385  
 -0.380  
 -0.385  
 -0.375  
 -0.330  
 -0.275  
  0.105  
  1.105  
  1.405  
  0.265  
 -0.760  
 -1.150  
 -1.105  
 -0.790  
 -0.455  
 -0.290  
 -0.240  
 -0.220  
 -0.195  
 -0.170  
 -0.135  
 -0.110  
 -0.075  
 -0.035  
  0.015  
  0.055  
  0.130  
  0.190  
  0.260  
  0.325  
  0.405  
  0.455  
  0.500  
  0.505  
  0.475  
  0.400  
  0.255  
  0.130  
  0.010  
 -0.105  
 -0.175  
 -0.210  
 -0.220  
 -0.250  
 -0.255  
 -0.245  
 -0.240  
 -0.245  
 -0.235  
 -0.235  
 -0.235  
 -0.235  
 -0.210  
 -0.230  
 -0.235  
 -0.240  
 -0.235  
 -0.225  
 -0.235  
 -0.260  
 -0.215  
 -0.115  
 -0.020  
 -0.010  
 -0.010  
 -0.050  
 -0.120  
 -0.205  
 -0.240  
 -0.310  
 -0.345  
 -0.375  
 -0.375  
 -0.380  
 -0.370  
 -0.370  
 -0.350  
 -0.350  
 -0.335  
 -0.295  
 -0.200  
  0.365  
  1.360  
  1.215  
 -0.105  
 -0.965  
 -1.190  
 -1.030  
 -0.640  
 -0.365  
 -0.240  
 -0.225  
 -0.190  
 -0.175  
 -0.145  
 -0.120  
 -0.080  
 -0.065  
 -0.015  
  0.025  
  0.095  
  0.155  
  0.225  
  0.295  
  0.380  
  0.450  
  0.510  
  0.530  
  0.535  
  0.485  
  0.385  
  0.270  
  0.120  
 -0.015  
 -0.100  
 -0.175  
 -0.195  
 -0.215  
 -0.220  
 -0.235  
 -0.225  
 -0.225  
 -0.220  
 -0.230  
 -0.215  
 -0.215  
 -0.205  
 -0.205  
 -0.200  
 -0.210  
 -0.220  
 -0.220  
 -0.215  
 -0.235  
 -0.240  
 -0.260  
 -0.255  
 -0.190  
 -0.055  
  0.000  
  0.015  
  0.005  
 -0.045  
 -0.120  
 -0.180  
 -0.245  
 -0.295  
 -0.325  
 -0.330  
 -0.345  
 -0.345  
 -0.360  
 -0.345  
 -0.335  
 -0.325  
 -0.320  
 -0.270  
 -0.190  
  0.305  
  1.265  
  1.205  
 -0.110  
 -0.945  
 -1.160  
 -1.005  
 -0.615  
 -0.345  
 -0.240  
 -0.200  
 -0.160  
 -0.125  
 -0.110  
 -0.090  
 -0.075  
 -0.030  
  0.025  
  0.070  
  0.115  
  0.185  
  0.245  
  0.330  
  0.410  
  0.490  
  0.530  
  0.565  
  0.585  
  0.545  
  0.450  
  0.325  
  0.175  
  0.050  
 -0.045  
 -0.110  
 -0.155  
 -0.185  
 -0.200  
 -0.185  
 -0.185  
 -0.190  
 -0.180  
 -0.185  
 -0.185  
 -0.155  
 -0.155  
 -0.155  
 -0.160  
 -0.165  
 -0.165  
 -0.175  
 -0.185  
 -0.190  
 -0.195  
 -0.205  
 -0.210  
 -0.205  
 -0.225  
 -0.220  
 -0.185  
 -0.040  
  0.035  
  0.050  
  0.060  
  0.035  
 -0.055  
 -0.130  
 -0.190  
 -0.250  
 -0.275  
 -0.285  
 -0.300  
 -0.300  
 -0.310  
 -0.305  
 -0.295  
 -0.275  
 -0.275  
 -0.230  
 -0.190  
  0.120  
  1.030  
  1.355  
  0.280  
 -0.720  
 -1.070  
 -1.025  
 -0.675  
 -0.335  
 -0.195  
 -0.145  
 -0.115  
 -0.070  
 -0.060  
 -0.035  
 -0.005  
  0.025  
  0.065  
  0.105  
  0.150  
  0.205  
  0.270  
  0.360  
  0.435  
  0.490  
  0.540  
  0.595  
  0.625  
  0.610  
  0.520  
  0.410  
  0.275  
  0.145  
  0.040  
 -0.045  
 -0.105  
 -0.125  
 -0.140  
 -0.145  
 -0.145  
 -0.135  
 -0.145  
 -0.145  
 -0.120  
 -0.110  
 -0.110  
 -0.100  
 -0.115  
 -0.100  
 -0.090  
 -0.090  
 -0.125  
 -0.125  
 -0.140  
 -0.165  
 -0.165  
 -0.165  
 -0.175  
 -0.185  
 -0.115  
  0.015  
  0.070  
  0.095  
  0.110  
  0.065  
 -0.020  
 -0.080  
 -0.140  
 -0.205  
 -0.240  
 -0.255  
 -0.260  
 -0.270  
 -0.260  
 -0.265  
 -0.240  
 -0.245  
 -0.235  
 -0.215  
 -0.210  
  0.210  
  1.230  
  1.420  
  0.295  
 -0.645  
 -0.985  
 -0.945  
 -0.650  
 -0.330  
 -0.185  
 -0.135  
 -0.105  
 -0.075  
 -0.065  
 -0.035  
 -0.015  
  0.010  
  0.050  
  0.090  
  0.145  
  0.195  
  0.255  
  0.325  
  0.390  
  0.455  
  0.510  
  0.550  
  0.570  
  0.565  
  0.485  
  0.380  
  0.245  
  0.130  
  0.025  
 -0.050  
 -0.100  
 -0.125  
 -0.150  
 -0.135  
 -0.135  
 -0.120  
 -0.135  
 -0.150  
 -0.145  
 -0.135  
 -0.130  
 -0.135  
 -0.140  
 -0.155  
 -0.130  
 -0.155  
 -0.185  
 -0.190  
 -0.185  
 -0.195  
 -0.210  
 -0.180  
 -0.070  
  0.025  
  0.030  
  0.060  
  0.050  
 -0.030  
 -0.120  
 -0.180  
 -0.235  
 -0.255  
 -0.300  
 -0.305  
 -0.315  
 -0.315  
 -0.300  
 -0.295  
 -0.285  
 -0.275  
 -0.280  
 -0.250  
  0.100  
  1.130  
  1.540  
  0.505  
 -0.555  
 -0.975  
 -0.995  
 -0.750  
 -0.435  
 -0.235  
 -0.175  
 -0.140  
 -0.125  
 -0.110  
 -0.090  
 -0.050  
 -0.025  
  0.010  
  0.045  
  0.095  
  0.160  
  0.215  
  0.270  
  0.335  
  0.400  
  0.460  
  0.495  
  0.505  
  0.475  
  0.400  
  0.305  
  0.180  
  0.065  
 -0.025  
 -0.100  
 -0.145  
 -0.170  
 -0.170  
 -0.185  
 -0.180  
 -0.185  
 -0.175  
 -0.180  
 -0.165  
 -0.165  
 -0.155  
 -0.155  
 -0.145  
 -0.160  
 -0.165  
 -0.190  
 -0.185  
 -0.195  
 -0.200  
 -0.210  
 -0.220  
 -0.215  
 -0.130  
 -0.015  
  0.040  
  0.045  
  0.050  
 -0.005  
 -0.090  
 -0.155  
 -0.215  
 -0.265  
 -0.295  
 -0.310  
 -0.310  
 -0.310  
 -0.320  
 -0.310  
 -0.305  
 -0.295  
 -0.270  
 -0.215  
 -0.075  
  0.635  
  1.465  
  0.930  
 -0.375  
 -1.010  
 -1.125  
 -0.880  
 -0.485  
 -0.275  
 -0.195  
 -0.160  
 -0.110  
 -0.090  
 -0.080  
 -0.050  
 -0.025  
  0.015  
  0.060  
  0.115  
  0.175  
  0.230  
  0.300  
  0.385  
  0.460  
  0.515  
  0.580  
  0.600  
  0.595  
  0.530  
  0.420  
  0.295  
  0.160  
  0.040  
 -0.055  
 -0.115  
 -0.140  
 -0.155  
 -0.170  
 -0.175  
 -0.170  
 -0.165  
 -0.170  
 -0.175  
 -0.165  
 -0.140  
 -0.145  
 -0.150  
 -0.150  
 -0.150  
 -0.140  
 -0.160  
 -0.170  
 -0.180  
 -0.185  
 -0.190  
 -0.205  
 -0.200  
 -0.150  
 -0.030  
  0.060  
  0.075  
  0.080  
  0.015  
 -0.065  
 -0.125  
 -0.190  
 -0.225  
 -0.255  
 -0.285  
 -0.285  
 -0.290  
 -0.280  
 -0.285  
 -0.280  
 -0.275  
 -0.255  
 -0.200  
 -0.120  
  0.410  
  1.360  
  1.175  
 -0.120  
 -0.910  
 -1.105  
 -0.935  
 -0.545  
 -0.270  
 -0.165  
 -0.130  
 -0.105  
 -0.085  
 -0.055  
 -0.020  
  0.005  
  0.035  
  0.070  
  0.115  
  0.170  
  0.240  
  0.295  
  0.370  
  0.445  
  0.530  
  0.595  
  0.605  
  0.625  
  0.580  
  0.490  
  0.370  
  0.225  
  0.100  
 -0.005  
 -0.075  
 -0.115  
 -0.165  
 -0.165  
 -0.170  
 -0.175  
 -0.155  
 -0.155  
 -0.165  
 -0.160  
 -0.145  
 -0.135  
 -0.130  
 -0.135  
 -0.145  
 -0.155  
 -0.155  
 -0.165  
 -0.175  
 -0.185  
 -0.200  
 -0.215  
 -0.215  
 -0.215  
 -0.180  
 -0.050  
  0.035  
  0.065  
  0.085  
  0.035  
 -0.055  
 -0.130  
 -0.200  
 -0.240  
 -0.270  
 -0.300  
 -0.300  
 -0.305  
 -0.305  
 -0.290  
 -0.290  
 -0.285  
 -0.265  
 -0.230  
 -0.170  
  0.275  
  1.250  
  1.255  
  0.010  
 -0.835  
 -1.085  
 -0.975  
 -0.600  
 -0.315  
 -0.185  
 -0.130  
 -0.090  
 -0.080  
 -0.055  
 -0.025  
 -0.010  
  0.025  
  0.070  
  0.115  
  0.155  
  0.225  
  0.295  
  0.370  
  0.435  
  0.510  
  0.565  
  0.620  
  0.615  
  0.595  
  0.505  
  0.380  
  0.255  
  0.125  
  0.030  
 -0.050  
 -0.095  
 -0.125  
 -0.135  
 -0.135  
 -0.145  
 -0.135  
 -0.130  
 -0.125  
 -0.120  
 -0.120  
 -0.120  
 -0.125  
 -0.110  
 -0.105  
 -0.105  
 -0.115  
 -0.135  
 -0.130  
 -0.145  
 -0.155  
 -0.165  
 -0.165  
 -0.175  
 -0.140  
 -0.005  
  0.085  
  0.090  
  0.125  
  0.105  
  0.005  
 -0.075  
 -0.140  
 -0.190  
 -0.235  
 -0.240  
 -0.245  
 -0.240  
 -0.265  
 -0.245  
 -0.240  
 -0.250  
 -0.240  
 -0.200  
 -0.170  
  0.230  
  1.210  
  1.375  
  0.260  
 -0.665  
 -0.985  
 -0.940  
 -0.615  
 -0.315  
 -0.175  
 -0.115  
 -0.095  
 -0.065  
 -0.045  
 -0.025  
 -0.005  
  0.040  
  0.060  
  0.105  
  0.160  
  0.215  
  0.275  
  0.345  
  0.420  
  0.475  
  0.535  
  0.580  
  0.595  
  0.565  
  0.490  
  0.375  
  0.260  
  0.165  
  0.040  
 -0.055  
 -0.115  
 -0.130  
 -0.135  
 -0.145  
 -0.150  
 -0.160  
 -0.150  
 -0.130  
 -0.115  
 -0.125  
 -0.130  
 -0.135  
 -0.140  
 -0.120  
 -0.130  
 -0.145  
 -0.160  
 -0.170  
 -0.180  
 -0.190  
 -0.190  
 -0.100  
  0.005  
  0.055  
  0.080  
  0.060  
 -0.005  
 -0.085  
 -0.150  
 -0.205  
 -0.240  
 -0.265  
 -0.290  
 -0.300  
 -0.305  
 -0.305  
 -0.300  
 -0.300  
 -0.290  
 -0.260  
 -0.250  
 -0.030  
  0.895  
  1.535  
  0.765  
 -0.365  
 -0.925  
 -1.020  
 -0.830  
 -0.490  
 -0.270  
 -0.185  
 -0.150  
 -0.130  
 -0.115  
 -0.080  
 -0.045  
 -0.045  
 -0.010  
  0.025  
  0.075  
  0.115  
  0.155  
  0.230  
  0.300  
  0.350  
  0.420  
  0.465  
  0.470  
  0.455  
  0.395  
  0.295  
  0.185  
  0.080  
 -0.020  
 -0.100  
 -0.145  
 -0.175  
 -0.185  
 -0.180  
 -0.180  
 -0.195  
 -0.175  
 -0.165  
 -0.175  
 -0.170  
 -0.175  
 -0.180  
 -0.185  
 -0.190  
 -0.190  
 -0.205  
 -0.210  
 -0.205  
 -0.215  
 -0.225  
 -0.210  
 -0.120  
 -0.005  
  0.035  
  0.050  
  0.045  
 -0.050  
 -0.125  
 -0.170  
 -0.235  
 -0.275  
 -0.315  
 -0.325  
 -0.320  
 -0.325  
 -0.335  
 -0.330  
 -0.315  
 -0.300  
 -0.270  
 -0.215  
  0.020  
  0.895  
  1.405  
  0.525  
 -0.625  
 -1.090  
 -1.095  
 -0.785  
 -0.425  
 -0.260  
 -0.205  
 -0.165  
 -0.130  
 -0.115  
 -0.080  
 -0.075  
 -0.045  
  0.010  
  0.045  
  0.090  
  0.155  
  0.220  
  0.295  
  0.355  
  0.430  
  0.500  
  0.535  
  0.550  
  0.520  
  0.470  
  0.350  
  0.210  
  0.085  
 -0.035  
 -0.120  
 -0.160  
 -0.190  
 -0.215  
 -0.225  
 -0.230  
 -0.220  
 -0.230  
 -0.225  
 -0.215  
 -0.210  
 -0.205  
 -0.200  
 -0.195  
 -0.190  
 -0.205  
 -0.210  
 -0.210  
 -0.220  
 -0.230  
 -0.240  
 -0.255  
 -0.220  
 -0.100  
  0.000  
  0.010  
  0.025  
  0.000  
 -0.080  
 -0.165  
 -0.235  
 -0.290  
 -0.310  
 -0.340  
 -0.355  
 -0.350  
 -0.355  
 -0.355  
 -0.335  
 -0.335  
 -0.325  
 -0.280  
 -0.230  
  0.065  
  0.975  
  1.310  
  0.255  
 -0.765  
 -1.135  
 -1.080  
 -0.735  
 -0.400  
 -0.240  
 -0.200  
 -0.165  
 -0.120  
 -0.110  
 -0.090  
 -0.070  
 -0.025  
  0.020  
  0.045  
  0.105  
  0.160  
  0.220  
  0.305  
  0.380  
  0.450  
  0.495  
  0.545  
  0.570  
  0.550  
  0.465  
  0.345  
  0.205  
  0.080  
 -0.025  
 -0.105  
 -0.155  
 -0.185  
 -0.210  
 -0.200  
 -0.205  
 -0.205  
 -0.195  
 -0.195  
 -0.180  
 -0.175  
 -0.175  
 -0.180  
 -0.175  
 -0.165  
 -0.170  
 -0.180  
 -0.175  
 -0.190  
 -0.195  
 -0.205  
 -0.210  
 -0.215  
 -0.210  
 -0.115  
  0.010  
  0.070  
  0.080  
  0.070  
 -0.015  
 -0.105  
 -0.150  
 -0.210  
 -0.265  
 -0.295  
 -0.305  
 -0.305  
 -0.310  
 -0.295  
 -0.295  
 -0.290  
 -0.285  
 -0.250  
 -0.210  
 -0.115  
  0.555  
  1.390  
  0.930  
 -0.320  
 -0.960  
 -1.090  
 -0.880  
 -0.485  
 -0.255  
 -0.165  
 -0.145  
 -0.120  
 -0.095  
 -0.075  
 -0.060  
 -0.030  
 -0.005  
  0.035  
  0.100  
  0.150  
  0.215  
  0.280  
  0.345  
  0.420  
  0.485  
  0.545  
  0.575  
  0.570  
  0.530  
  0.430  
  0.290  
  0.160  
  0.040  
 -0.050  
 -0.110  
 -0.150  
 -0.175  
 -0.185  
 -0.185  
 -0.185  
 -0.175  
 -0.185  
 -0.185  
 -0.175  
 -0.170  
 -0.165  
 -0.170  
 -0.165  
 -0.165  
 -0.170  
 -0.175  
 -0.190  
 -0.200  
 -0.215  
 -0.215  
 -0.210  
 -0.195  
 -0.105  
  0.015  
  0.055  
  0.070  
  0.070  
 -0.025  
 -0.125  
 -0.185  
 -0.230  
 -0.260  
 -0.310  
 -0.315  
 -0.305  
 -0.315  
 -0.305  
 -0.305  
 -0.305  
 -0.305  
 -0.265  
 -0.220  
 -0.030  
  0.805  
  1.340  
  0.500  
 -0.575  
 -1.025  
 -1.075  
 -0.795  
 -0.445  
 -0.265  
 -0.195  
 -0.165  
 -0.140  
 -0.115  
 -0.095  
 -0.070  
 -0.040  
 -0.005  
  0.035  
  0.080  
  0.135  
  0.210  
  0.285  
  0.350  
  0.410  
  0.475  
  0.525  
  0.545  
  0.545  
  0.490  
  0.375  
  0.245  
  0.130  
  0.005  
 -0.100  
 -0.150  
 -0.170  
 -0.185  
 -0.200  
 -0.210  
 -0.200  
 -0.210  
 -0.175  
 -0.185  
 -0.185  
 -0.185  
 -0.190  
 -0.185  
 -0.165  
 -0.170  
 -0.185  
 -0.190  
 -0.200  
 -0.205  
 -0.210  
 -0.215  
 -0.170  
 -0.065  
  0.015  
  0.030  
  0.050  
  0.005  
 -0.080  
 -0.140  
 -0.205  
 -0.260  
 -0.295  
 -0.310  
 -0.310  
 -0.300  
 -0.310  
 -0.325  
 -0.315  
 -0.300  
 -0.305  
 -0.290  
 -0.235  
  0.375  
  1.365  
  1.220  
  0.030  
 -0.775  
 -1.040  
 -0.960  
 -0.675  
 -0.370  
 -0.220  
 -0.185  
 -0.165  
 -0.135  
 -0.115  
 -0.095  
 -0.080  
 -0.055  
  0.000  
  0.045  
  0.075  
  0.135  
  0.200  
  0.255  
  0.330  
  0.395  
  0.435  
  0.465  
  0.460  
  0.430  
  0.360  
  0.260  
  0.135  
  0.015  
 -0.065  
 -0.110  
 -0.150  
 -0.180  
 -0.180  
 -0.190  
 -0.190  
 -0.175  
 -0.175  
 -0.155  
 -0.155  
 -0.140  
 -0.140  
 -0.145  
 -0.145  
 -0.160  
 -0.165  
 -0.175  
 -0.170  
 -0.200  
 -0.200  
 -0.170  
 -0.070  
  0.030  
  0.060  
  0.070  
  0.060  
 -0.025  
 -0.090  
 -0.160  
 -0.205  
 -0.245  
 -0.265  
 -0.275  
 -0.270  
 -0.275  
 -0.280  
 -0.275  
 -0.265  
 -0.245  
 -0.220  
 -0.185  
  0.225  
  1.230  
  1.475  
  0.335  
 -0.635  
 -0.985  
 -0.960  
 -0.650  
 -0.330  
 -0.170  
 -0.130  
 -0.095  
 -0.050  
 -0.015  
  0.000  
  0.025  
  0.055  
  0.095  
  0.135  
  0.190  
  0.240  
  0.305  
  0.375  
  0.455  
  0.530  
  0.580  
  0.615  
  0.620  
  0.595  
  0.515  
  0.405  
  0.275  
  0.155  
  0.055  
 -0.010  
 -0.065  
 -0.080  
 -0.090  
 -0.100  
 -0.080  
 -0.090  
 -0.075  
 -0.070  
 -0.065  
 -0.070  
 -0.070  
 -0.065  
 -0.045  
 -0.050  
 -0.060  
 -0.060  
 -0.065  
 -0.080  
 -0.095  
 -0.085  
 -0.030  
  0.085  
  0.150  
  0.145  
  0.160  
  0.120  
  0.035  
 -0.020  
 -0.085  
 -0.125  
 -0.170  
 -0.170  
 -0.170  
 -0.185  
 -0.175  
 -0.185  
 -0.170  
 -0.170  
 -0.150  
 -0.105  
 -0.005  
  0.590  
  1.505  
  1.220  
 -0.095  
 -0.825  
 -1.000  
 -0.805  
 -0.400  
 -0.165  
 -0.075  
 -0.030  
  0.010  
  0.050  
  0.055  
  0.080  
  0.100  
  0.135  
  0.175  
  0.230  
  0.275  
  0.340  
  0.415  
  0.505  
  0.585  
  0.645  
  0.700  
  0.735  
  0.750  
  0.705  
  0.595  
  0.455  
  0.320  
  0.195  
  0.100  
  0.040  
  0.005  
 -0.030  
 -0.060  
 -0.045  
 -0.030  
 -0.045  
 -0.045  
 -0.035  
 -0.030  
 -0.020  
 -0.025  
 -0.015  
 -0.020  
 -0.025  
 -0.030  
 -0.030  
 -0.040  
 -0.055  
 -0.065  
 -0.070  
 -0.055  
  0.055  
  0.155  
  0.185  
  0.195  
  0.195  
  0.110  
  0.020  
 -0.040  
 -0.090  
 -0.120  
 -0.155  
 -0.175  
 -0.185  
 -0.175  
 -0.175  
 -0.170  
 -0.170  
 -0.165  
 -0.115  
 -0.055  
  0.145  
  0.965  
  1.510  
  0.665  
 -0.470  
 -0.920  
 -0.950  
 -0.645  
 -0.290  
 -0.115  
 -0.050  
 -0.005  
  0.025  
  0.030  
  0.055  
  0.095  
  0.120  
  0.140  
  0.190  
  0.240  
  0.300  
  0.375  
  0.435  
  0.515  
  0.590  
  0.640  
  0.705  
  0.725  
  0.700  
  0.630  
  0.515  
  0.380  
  0.255  
  0.135  
  0.045  
 -0.005  
 -0.045  
 -0.050  
 -0.065  
 -0.070  
 -0.075  
 -0.075  
 -0.070  
 -0.065  
 -0.060  
 -0.055  
 -0.055  
 -0.050  
 -0.055  
 -0.055  
 -0.075  
 -0.080  
 -0.095  
 -0.090  
 -0.110  
 -0.120  
 -0.125  
 -0.135  
 -0.090  
  0.030  
  0.125  
  0.145  
  0.155  
  0.130  
  0.045  
 -0.035  
 -0.095  
 -0.145  
 -0.175  
 -0.195  
 -0.215  
 -0.220  
 -0.225  
 -0.230  
 -0.215  
 -0.210  
 -0.210  
 -0.175  
 -0.110  
  0.115  
  0.985  
  1.435  
  0.495  
 -0.580  
 -0.990  
 -1.000  
 -0.680  
 -0.340  
 -0.170  
 -0.110  
 -0.070  
 -0.035  
 -0.015  
 -0.005  
  0.030  
  0.050  
  0.095  
  0.120  
  0.165  
  0.230  
  0.305  
  0.375  
  0.460  
  0.520  
  0.580  
  0.625  
  0.655  
  0.645  
  0.565  
  0.455  
  0.320  
  0.185  
  0.080  
 -0.010  
 -0.065  
 -0.105  
 -0.125  
 -0.125  
 -0.125  
 -0.125  
 -0.130  
 -0.135  
 -0.125  
 -0.115  
 -0.120  
 -0.120  
 -0.115  
 -0.105  
 -0.105  
 -0.140  
 -0.145  
 -0.150  
 -0.170  
 -0.185  
 -0.190  
 -0.195  
 -0.175  
 -0.090  
  0.015  
  0.065  
  0.080  
  0.090  
  0.005  
 -0.090  
 -0.140  
 -0.215  
 -0.265  
 -0.290  
 -0.290  
 -0.280  
 -0.280  
 -0.280  
 -0.300  
 -0.300  
 -0.275  
 -0.265  
 -0.250  
 -0.145  
  0.535  
  1.375  
  0.965  
 -0.195  
 -0.880  
 -1.065  
 -0.910  
 -0.560  
 -0.315  
 -0.225  
 -0.205  
 -0.170  
 -0.130  
 -0.110  
 -0.100  
 -0.065  
 -0.035  
  0.015  
  0.050  
  0.090  
  0.145  
  0.205  
  0.285  
  0.360  
  0.425  
  0.460  
  0.490  
  0.490  
  0.450  
  0.370  
  0.245  
  0.115  
 -0.010  
 -0.090  
 -0.145  
 -0.185  
 -0.215  
 -0.220  
 -0.220  
 -0.215  
 -0.225  
 -0.235  
 -0.220  
 -0.220  
 -0.210  
 -0.205  
 -0.215  
 -0.215  
 -0.220  
 -0.225  
 -0.240  
 -0.255  
 -0.265  
 -0.270  
 -0.240  
 -0.140  
 -0.055  
 -0.050  
 -0.035  
 -0.050  
 -0.120  
 -0.195  
 -0.260  
 -0.305  
 -0.340  
 -0.370  
 -0.365  
 -0.375  
 -0.370  
 -0.380  
 -0.360  
 -0.360  
 -0.350  
 -0.350  
 -0.340  
  0.050  
  1.080  
  1.425  
  0.385  
 -0.645  
 -1.040  
 -1.055  
 -0.815  
 -0.510  
 -0.325  
 -0.275  
 -0.220  
 -0.170  
 -0.160  
 -0.140  
 -0.125  
 -0.105  
 -0.080  
 -0.030  
  0.020  
  0.060  
  0.115  
  0.190  
  0.270  
  0.325  
  0.385  
  0.405  
  0.410  
  0.395  
  0.320  
  0.210  
  0.090  
 -0.030  
 -0.115  
 -0.165  
 -0.215  
 -0.245  
 -0.265  
 -0.275  
 -0.265  
 -0.265  
 -0.265  
 -0.270  
 -0.255  
 -0.240  
 -0.230  
 -0.245  
 -0.245  
 -0.255  
 -0.250  
 -0.240  
 -0.265  
 -0.285  
 -0.290  
 -0.295  
 -0.285  
 -0.245  
 -0.125  
 -0.050  
 -0.050  
 -0.025  
 -0.065  
 -0.165  
 -0.235  
 -0.290  
 -0.340  
 -0.370  
 -0.385  
 -0.390  
 -0.395  
 -0.390  
 -0.380  
 -0.385  
 -0.365  
 -0.355  
 -0.325  
 -0.235  
  0.280  
  1.250  
  1.205  
 -0.095  
 -0.945  
 -1.180  
 -1.065  
 -0.680  
 -0.395  
 -0.270  
 -0.225  
 -0.195  
 -0.175  
 -0.150  
 -0.125  
 -0.105  
 -0.070  
 -0.035  
  0.030  
  0.080  
  0.140  
  0.225  
  0.295  
  0.375  
  0.440  
  0.490  
  0.540  
  0.550  
  0.505  
  0.405  
  0.275  
  0.135  
  0.010  
 -0.095  
 -0.165  
 -0.215  
 -0.230  
 -0.240  
 -0.255  
 -0.240  
 -0.240  
 -0.245  
 -0.230  
 -0.225  
 -0.225  
 -0.215  
 -0.215  
 -0.205  
 -0.200  
 -0.220  
 -0.225  
 -0.225  
 -0.230  
 -0.235  
 -0.245  
 -0.255  
 -0.270  
 -0.215  
 -0.100  
 -0.010  
  0.000  
  0.020  
 -0.025  
 -0.110  
 -0.165  
 -0.230  
 -0.285  
 -0.310  
 -0.330  
 -0.340  
 -0.345  
 -0.345  
 -0.350  
 -0.335  
 -0.310  
 -0.315  
 -0.265  
 -0.220  
  0.115  
  1.070  
  1.320  
  0.205  
 -0.795  
 -1.130  
 -1.040  
 -0.705  
 -0.380  
 -0.245  
 -0.195  
 -0.165  
 -0.120  
 -0.110  
 -0.090  
 -0.055  
 -0.025  
  0.025  
  0.070  
  0.100  
  0.175  
  0.245  
  0.325  
  0.415  
  0.480  
  0.545  
  0.580  
  0.595  
  0.580  
  0.495  
  0.370  
  0.225  
  0.095  
 -0.010  
 -0.080  
 -0.140  
 -0.170  
 -0.170  
 -0.185  
 -0.180  
 -0.180  
 -0.185  
 -0.175  
 -0.170  
 -0.165  
 -0.165  
 -0.170  
 -0.165  
 -0.155  
 -0.155  
 -0.145  
 -0.165  
 -0.175  
 -0.180  
 -0.185  
 -0.205  
 -0.210  
 -0.215  
 -0.220  
 -0.230  
 -0.190  
 -0.075  
  0.035  
  0.050  
  0.075  
  0.050  
 -0.025  
 -0.105  
 -0.165  
 -0.210  
 -0.240  
 -0.270  
 -0.280  
 -0.290  
 -0.275  
 -0.290  
 -0.285  
 -0.275  
 -0.275  
 -0.240  
 -0.190  
 -0.030  
  0.750  
  1.425  
  0.750  
 -0.445  
 -0.990  
 -1.060  
 -0.805  
 -0.430  
 -0.220  
 -0.145  
 -0.115  
 -0.080  
 -0.065  
 -0.055  
 -0.025  
  0.015  
  0.050  
  0.090  
  0.130  
  0.190  
  0.255  
  0.340  
  0.410  
  0.475  
  0.550  
  0.610  
  0.645  
  0.650  
  0.575  
  0.475  
  0.355  
  0.220  
  0.100  
  0.005  
 -0.050  
 -0.095  
 -0.125  
 -0.125  
 -0.130  
 -0.130  
 -0.135  
 -0.130  
 -0.125  
 -0.115  
 -0.115  
 -0.105  
 -0.105  
 -0.095  
 -0.105  
 -0.115  
 -0.130  
 -0.140  
 -0.140  
 -0.150  
 -0.165  
 -0.165  
 -0.185  
 -0.175  
 -0.175  
 -0.190  
 -0.185  
 -0.115  
  0.005  
  0.070  
  0.095  
  0.110  
  0.080  
 -0.015  
 -0.100  
 -0.165  
 -0.205  
 -0.220  
 -0.255  
 -0.265  
 -0.265  
 -0.265  
 -0.260  
 -0.240  
 -0.245  
 -0.235  
 -0.195  
 -0.150  
  0.150  
  1.085  
  1.390  
  0.365  
 -0.635  
 -1.015  
 -0.995  
 -0.675  
 -0.330  
 -0.180  
 -0.125  
 -0.100  
 -0.080  
 -0.050  
 -0.020  
  0.000  
  0.020  
  0.045  
  0.080  
  0.145  
  0.205  
  0.265  
  0.335  
  0.405  
  0.475  
  0.555  
  0.590  
  0.615  
  0.590  
  0.525  
  0.425  
  0.290  
  0.160  
  0.045  
 -0.030  
 -0.075  
 -0.130  
 -0.165  
 -0.165  
 -0.165  
 -0.160  
 -0.165  
 -0.155  
 -0.145  
 -0.155  
 -0.140  
 -0.130  
 -0.135  
 -0.140  
 -0.145  
 -0.150  
 -0.155  
 -0.165  
 -0.180  
 -0.200  
 -0.205  
 -0.215  
 -0.215  
 -0.205  
 -0.090  
  0.005  
  0.035  
  0.060  
  0.050  
 -0.035  
 -0.115  
 -0.195  
 -0.245  
 -0.275  
 -0.305  
 -0.315  
 -0.315  
 -0.320  
 -0.310  
 -0.325  
 -0.325  
 -0.300  
 -0.290  
 -0.285  
 -0.025  
  0.945  
  1.470  
  0.605  
 -0.440  
 -0.945  
 -1.025  
 -0.815  
 -0.490  
 -0.280  
 -0.205  
 -0.185  
 -0.165  
 -0.130  
 -0.110  
 -0.100  
 -0.065  
 -0.035  
 -0.005  
  0.040  
  0.095  
  0.160  
  0.215  
  0.285  
  0.355  
  0.410  
  0.455  
  0.465  
  0.440  
  0.380  
  0.305  
  0.200  
  0.065  
 -0.040  
 -0.125  
 -0.175  
 -0.205  
 -0.225  
 -0.215  
 -0.225  
 -0.225  
 -0.205  
 -0.190  
 -0.190  
 -0.200  
 -0.195  
 -0.180  
 -0.185  
 -0.195  
 -0.205  
 -0.215  
 -0.215  
 -0.220  
 -0.230  
 -0.250  
 -0.255  
 -0.255  
 -0.175  
 -0.070  
 -0.015  
 -0.005  
  0.015  
 -0.030  
 -0.110  
 -0.175  
 -0.240  
 -0.295  
 -0.325  
 -0.330  
 -0.320  
 -0.330  
 -0.335  
 -0.330  
 -0.310  
 -0.290  
 -0.275  
 -0.255  
 -0.165  
  0.525  
  1.495  
  1.230  
 -0.045  
 -0.845  
 -1.065  
 -0.925  
 -0.585  
 -0.320  
 -0.215  
 -0.165  
 -0.120  
 -0.090  
 -0.075  
 -0.060  
 -0.030  
  0.005  
  0.050  
  0.095  
  0.135  
  0.195  
  0.265  
  0.345  
  0.420  
  0.480  
  0.525  
  0.560  
  0.550  
  0.510  
  0.410  
  0.295  
  0.165  
  0.050  
 -0.035  
 -0.105  
 -0.130  
 -0.150  
 -0.165  
 -0.145  
 -0.150  
 -0.150  
 -0.145  
 -0.140  
 -0.135  
 -0.110  
 -0.120  
 -0.120  
 -0.125  
 -0.110  
 -0.110  
 -0.115  
 -0.125  
 -0.140  
 -0.150  
 -0.150  
 -0.155  
 -0.105  
 -0.005  
  0.080  
  0.095  
  0.110  
  0.060  
 -0.010  
 -0.080  
 -0.135  
 -0.185  
 -0.215  
 -0.240  
 -0.240  
 -0.250  
 -0.245  
 -0.240  
 -0.240  
 -0.230  
 -0.215  
 -0.170  
 -0.065  
  0.425  
  1.415  
  1.340  
  0.045  
 -0.815  
 -1.045  
 -0.915  
 -0.515  
 -0.250  
 -0.130  
 -0.075  
 -0.050  
 -0.035  
  0.005  
  0.030  
  0.070  
  0.080  
  0.130  
  0.170  
  0.225  
  0.295  
  0.375  
  0.435  
  0.530  
  0.590  
  0.660  
  0.695  
  0.705  
  0.650  
  0.570  
  0.435  
  0.300  
  0.155  
  0.065  
 -0.020  
 -0.060  
 -0.090  
 -0.100  
 -0.115  
 -0.110  
 -0.110  
 -0.105  
 -0.115  
 -0.105  
 -0.110  
 -0.105  
 -0.100  
 -0.090  
 -0.090  
 -0.085  
 -0.105  
 -0.110  
 -0.115  
 -0.120  
 -0.140  
 -0.140  
 -0.155  
 -0.160  
 -0.100  
  0.015  
  0.080  
  0.085  
  0.100  
  0.050  
 -0.050  
 -0.105  
 -0.165  
 -0.210  
 -0.255  
 -0.270  
 -0.280  
 -0.275  
 -0.295  
 -0.280  
 -0.275  
 -0.265  
 -0.265  
 -0.215  
 -0.150  
  0.285  
  1.235  
  1.315  
  0.090  
 -0.805  
 -1.105  
 -0.975  
 -0.595  
 -0.300  
 -0.190  
 -0.125  
 -0.105  
 -0.080  
 -0.070  
 -0.040  
 -0.025  
  0.015  
  0.035  
  0.105  
  0.135  
  0.210  
  0.270  
  0.360  
  0.430  
  0.505  
  0.560  
  0.630  
  0.625  
  0.600  
  0.505  
  0.390  
  0.240  
  0.125  
  0.005  
 -0.070  
 -0.130  
 -0.155  
 -0.160  
 -0.165  
 -0.170  
 -0.170  
 -0.180  
 -0.150  
 -0.165  
 -0.145  
 -0.155  
 -0.150  
 -0.155  
 -0.145  
 -0.155  
 -0.155  
 -0.175  
 -0.165  
 -0.180  
 -0.175  
 -0.200  
 -0.200  
 -0.215  
 -0.205  
 -0.215  
 -0.210  
 -0.145  
 -0.005  
  0.040  
  0.080  
  0.080  
  0.010  
 -0.085  
 -0.140  
 -0.210  
 -0.240  
 -0.290  
 -0.295  
 -0.305  
 -0.290  
 -0.300  
 -0.280  
 -0.290  
 -0.275  
 -0.265  
 -0.210  
 -0.165  
  0.320  
  1.290  
  1.275  
  0.030  
 -0.815  
 -1.075  
 -0.945  
 -0.580  
 -0.285  
 -0.170  
 -0.125  
 -0.105  
 -0.070  
 -0.055  
 -0.025  
 -0.005  
  0.035  
  0.065  
  0.115  
  0.165  
  0.230  
  0.290  
  0.370  
  0.435  
  0.525  
  0.580  
  0.625  
  0.630  
  0.615  
  0.520  
  0.430  
  0.280  
  0.150  
  0.050  
 -0.030  
 -0.075  
 -0.100  
 -0.120  
 -0.125  
 -0.145  
 -0.115  
 -0.125  
 -0.115  
 -0.110  
 -0.105  
 -0.095  
 -0.095  
 -0.095  
 -0.090  
 -0.105  
 -0.095  
 -0.115  
 -0.105  
 -0.140  
 -0.140  
 -0.150  
 -0.155  
 -0.160  
 -0.115  
 -0.095  
 -0.065  
 -0.070  
 -0.045  
 -0.025  
  0.100  
  0.210  
  0.235  
  0.250  
  0.235  
  0.130  
  0.065  
 -0.025  
 -0.060  
 -0.105  
 -0.135  
 -0.155  
 -0.165  
 -0.165  
 -0.165  
 -0.165  
 -0.140  
 -0.165  
 -0.115  
 -0.090  
  0.135  
  0.970  
  1.520  
  0.660  
 -0.430  
 -0.925  
 -0.965  
 -0.685  
 -0.330  
 -0.160  
 -0.075  
 -0.055  
 -0.015  
 -0.005  
  0.025  
  0.040  
  0.065  
  0.080  
  0.145  
  0.190  
  0.245  
  0.300  
  0.385  
  0.435  
  0.525  
  0.575  
  0.645  
  0.665  
  0.665  
  0.600  
