6000.0
100.0
  0.095  
  0.080  
  0.045  
  0.040  
  0.090  
  0.090  
  0.105  
  0.100  
  0.090  
  0.050  
  0.060  
  0.030  
  0.040  
  0.020  
  0.025  
 -0.030  
 -0.195  
 -0.240  
  0.495  
  1.740  
  2.665  
  2.170  
  0.880  
  0.095  
 -0.030  
 -0.100  
 -0.130  
 -0.135  
 -0.130  
 -0.200  
 -0.215  
 -0.265  
 -0.280  
 -0.315  
 -0.300  
 -0.320  
 -0.330  
 -0.430  
 -0.500  
 -0.620  
 -0.705  
 -0.780  
 -0.790  
 -0.815  
 -0.740  
 -0.660  
 -0.495  
 -0.350  
 -0.190  
 -0.130  
 -0.065  
 -0.060  
 -0.020  
 -0.040  
 -0.015  
 -0.040  
 -0.055  
 -0.080  
 -0.055  
 -0.075  
 -0.050  
 -0.080  
 -0.060  
 -0.080  
 -0.060  
 -0.075  
 -0.060  
 -0.080  
 -0.060  
 -0.070  
 -0.030  
 -0.035  
  0.005  
 -0.020  
  0.010  
 -0.035  
 -0.015  
 -0.030  
 -0.015  
 -0.040  
 -0.005  
 -0.020  
  0.005  
 -0.020  
  0.005  
 -0.015  
  0.050  
 -0.010  
 -0.015  
  0.005  
  0.085  
  0.040  
  0.080  
  0.025  
  0.030  
 -0.020  
  0.000  
 -0.035  
 -0.015  
 -0.040  
 -0.035  
 -0.215  
 -0.240  
  0.090  
  1.050  
  2.250  
  2.540  
  1.400  
  0.305  
 -0.075  
 -0.080  
 -0.165  
 -0.150  
 -0.155  
 -0.140  
 -0.240  
 -0.275  
 -0.335  
 -0.320  
 -0.340  
 -0.290  
 -0.320  
 -0.350  
 -0.440  
 -0.515  
 -0.640  
 -0.685  
 -0.775  
 -0.750  
 -0.755  
 -0.650  
 -0.520  
 -0.320  
 -0.220  
 -0.095  
 -0.095  
 -0.035  
 -0.050  
 -0.005  
 -0.020  
  0.045  
  0.020  
  0.050  
  0.000  
 -0.005  
 -0.080  
 -0.060  
 -0.080  
 -0.055  
 -0.100  
 -0.080  
 -0.110  
 -0.035  
 -0.100  
 -0.115  
 -0.145  
 -0.115  
 -0.120  
 -0.055  
 -0.100  
 -0.060  
 -0.080  
 -0.030  
 -0.045  
 -0.015  
 -0.060  
 -0.040  
 -0.050  
  0.020  
  0.065  
  0.080  
 -0.015  
  0.040  
  0.045  
  0.080  
  0.060  
  0.110  
  0.070  
  0.080  
  0.010  
 -0.010  
 -0.060  
 -0.040  
 -0.075  
 -0.190  
 -0.235  
  0.325  
  1.380  
  2.345  
  2.040  
  0.865  
 -0.025  
 -0.180  
 -0.240  
 -0.240  
 -0.240  
 -0.215  
 -0.320  
 -0.390  
 -0.475  
 -0.435  
 -0.440  
 -0.370  
 -0.385  
 -0.335  
 -0.400  
 -0.420  
 -0.505  
 -0.505  
 -0.580  
 -0.560  
 -0.580  
 -0.510  
 -0.440  
 -0.250  
 -0.150  
 -0.050  
 -0.055  
 -0.020  
 -0.060  
 -0.015  
 -0.040  
  0.020  
 -0.015  
  0.020  
 -0.025  
 -0.005  
 -0.040  
 -0.035  
 -0.080  
 -0.080  
 -0.105  
 -0.030  
 -0.060  
 -0.030  
 -0.050  
 -0.030  
 -0.070  
 -0.040  
 -0.040  
  0.030  
  0.015  
  0.080  
  0.015  
 -0.005  
 -0.040  
  0.005  
 -0.030  
  0.010  
  0.015  
  0.090  
  0.010  
  0.055  
  0.045  
  0.065  
  0.025  
  0.080  
  0.015  
  0.025  
 -0.010  
  0.015  
 -0.035  
 -0.010  
 -0.055  
 -0.160  
 -0.210  
  0.280  
  1.170  
  2.225  
  2.320  
  1.365  
  0.345  
  0.080  
  0.000  
  0.010  
  0.000  
  0.055  
 -0.040  
 -0.090  
 -0.165  
 -0.100  
 -0.140  
 -0.080  
 -0.115  
 -0.110  
 -0.190  
 -0.175  
 -0.260  
 -0.255  
 -0.315  
 -0.290  
 -0.300  
 -0.175  
 -0.120  
 -0.005  
  0.060  
  0.155  
  0.120  
  0.145  
  0.090  
  0.100  
  0.060  
  0.085  
  0.050  
  0.090  
  0.055  
  0.090  
  0.040  
  0.065  
  0.045  
  0.065  
  0.015  
  0.050  
  0.010  
  0.080  
  0.040  
  0.080  
  0.040  
  0.080  
  0.040  
  0.100  
  0.060  
  0.095  
  0.060  
  0.100  
  0.050  
  0.065  
  0.025  
  0.080  
  0.085  
  0.125  
  0.045  
  0.125  
  0.115  
  0.120  
  0.080  
  0.090  
  0.020  
  0.040  
 -0.015  
 -0.005  
 -0.050  
 -0.020  
 -0.055  
 -0.140  
 -0.180  
  0.415  
  1.400  
  2.285  
  2.025  
  1.015  
  0.160  
  0.010  
 -0.040  
 -0.030  
 -0.060  
 -0.060  
 -0.135  
 -0.130  
 -0.190  
 -0.155  
 -0.190  
 -0.155  
 -0.215  
 -0.190  
 -0.230  
 -0.200  
 -0.260  
 -0.240  
 -0.290  
 -0.235  
 -0.270  
 -0.175  
 -0.130  
 -0.010  
  0.020  
  0.090  
  0.060  
  0.065  
  0.000  
  0.010  
 -0.060  
 -0.040  
 -0.080  
 -0.020  
 -0.060  
 -0.010  
 -0.050  
 -0.005  
 -0.050  
 -0.035  
 -0.095  
 -0.070  
 -0.095  
 -0.040  
 -0.040  
  0.030  
  0.010  
  0.045  
 -0.025  
  0.030  
 -0.025  
  0.020  
 -0.010  
  0.020  
  0.005  
  0.055  
 -0.010  
  0.050  
  0.030  
  0.015  
 -0.030  
  0.055  
  0.030  
  0.090  
  0.040  
  0.040  
 -0.040  
 -0.035  
 -0.110  
 -0.075  
 -0.110  
 -0.030  
 -0.165  
 -0.220  
  0.060  
  0.960  
  1.980  
  2.310  
  1.435  
  0.450  
  0.020  
  0.005  
 -0.080  
 -0.080  
 -0.145  
 -0.155  
 -0.235  
 -0.240  
 -0.300  
 -0.255  
 -0.275  
 -0.240  
 -0.250  
 -0.240  
 -0.355  
 -0.400  
 -0.540  
 -0.540  
 -0.570  
 -0.490  
 -0.460  
 -0.305  
 -0.200  
 -0.030  
  0.025  
  0.080  
  0.020  
  0.020  
 -0.035  
 -0.005  
 -0.030  
  0.010  
 -0.025  
 -0.035  
 -0.110  
 -0.090  
 -0.130  
 -0.075  
 -0.060  
 -0.030  
 -0.080  
 -0.040  
 -0.095  
 -0.030  
 -0.075  
 -0.040  
 -0.065  
 -0.040  
 -0.070  
 -0.030  
 -0.065  
 -0.030  
 -0.075  
 -0.055  
 -0.100  
 -0.075  
 -0.080  
 -0.020  
 -0.055  
 -0.005  
  0.020  
  0.065  
 -0.005  
  0.020  
 -0.025  
 -0.040  
 -0.080  
 -0.040  
 -0.070  
 -0.040  
 -0.080  
 -0.095  
 -0.270  
 -0.175  
  0.530  
  1.700  
  2.320  
  1.840  
  0.680  
  0.080  
 -0.065  
 -0.075  
 -0.110  
 -0.035  
 -0.065  
 -0.105  
 -0.210  
 -0.200  
 -0.240  
 -0.210  
 -0.220  
 -0.175  
 -0.230  
 -0.220  
 -0.315  
 -0.340  
 -0.435  
 -0.435  
 -0.485  
 -0.415  
 -0.350  
 -0.140  
 -0.070  
 -0.015  
  0.000  
  0.100  
  0.130  
  0.190  
  0.140  
  0.145  
  0.080  
  0.120  
  0.090  
  0.135  
  0.080  
  0.080  
  0.040  
  0.080  
  0.040  
  0.065  
  0.040  
  0.060  
  0.020  
  0.040  
 -0.005  
  0.050  
  0.030  
  0.050  
  0.020  
  0.050  
 -0.005  
  0.020  
 -0.020  
  0.020  
 -0.020  
  0.040  
  0.030  
  0.040  
 -0.020  
  0.060  
  0.060  
  0.080  
  0.040  
  0.065  
  0.005  
  0.010  
 -0.010  
  0.020  
 -0.020  
  0.020  
 -0.040  
 -0.175  
 -0.270  
  0.430  
  1.540  
  2.445  
  2.040  
  0.870  
  0.080  
 -0.040  
 -0.120  
 -0.100  
 -0.110  
 -0.080  
 -0.170  
 -0.195  
 -0.255  
 -0.240  
 -0.275  
 -0.225  
 -0.265  
 -0.240  
 -0.320  
 -0.360  
 -0.455  
 -0.485  
 -0.550  
 -0.550  
 -0.560  
 -0.490  
 -0.415  
 -0.240  
 -0.145  
 -0.030  
 -0.010  
  0.045  
  0.020  
  0.060  
  0.035  
  0.080  
  0.040  
  0.050  
  0.010  
  0.015  
 -0.030  
 -0.020  
 -0.040  
  0.000  
 -0.035  
 -0.015  
 -0.055  
  0.000  
 -0.045  
 -0.060  
 -0.040  
  0.000  
 -0.040  
 -0.020  
 -0.055  
  0.080  
  0.110  
  0.155  
  0.100  
  0.120  
  0.100  
  0.155  
  0.080  
  0.020  
  0.020  
  0.135  
  0.120  
  0.130  
  0.070  
  0.045  
  0.040  
  0.090  
  0.080  
  0.100  
  0.070  
  0.095  
 -0.040  
 -0.120  
  0.160  
  1.185  
  2.375  
  2.685  
  1.690  
  0.550  
  0.100  
  0.040  
 -0.095  
 -0.095  
 -0.120  
 -0.130  
 -0.215  
 -0.260  
 -0.320  
 -0.315  
 -0.400  
 -0.420  
 -0.475  
 -0.475  
 -0.560  
 -0.570  
 -0.655  
 -0.680  
 -0.740  
 -0.710  
 -0.715  
 -0.600  
 -0.475  
 -0.255  
 -0.120  
 -0.030  
 -0.015  
  0.040  
  0.020  
  0.070  
  0.045  
  0.080  
  0.050  
  0.080  
  0.010  
  0.020  
 -0.020  
 -0.005  
 -0.020  
  0.020  
 -0.015  
  0.020  
 -0.020  
  0.030  
 -0.030  
  0.000  
 -0.030  
  0.000  
 -0.025  
  0.010  
 -0.035  
 -0.020  
 -0.055  
 -0.025  
 -0.050  
  0.020  
  0.025  
  0.040  
 -0.010  
  0.110  
  0.100  
  0.100  
  0.080  
  0.090  
  0.040  
  0.060  
  0.005  
 -0.005  
 -0.035  
  0.010  
 -0.065  
 -0.210  
 -0.295  
  0.350  
  1.490  
  2.450  
  2.065  
  0.880  
  0.065  
 -0.075  
 -0.140  
 -0.130  
 -0.145  
 -0.100  
 -0.210  
 -0.270  
 -0.350  
 -0.340  
 -0.370  
 -0.315  
 -0.325  
 -0.310  
 -0.410  
 -0.470  
 -0.625  
 -0.655  
 -0.715  
 -0.675  
 -0.660  
 -0.535  
 -0.440  
 -0.260  
 -0.145  
 -0.030  
 -0.035  
  0.010  
  0.005  
  0.065  
  0.065  
  0.125  
  0.110  
  0.130  
  0.080  
  0.050  
  0.020  
  0.040  
  0.010  
  0.030  
 -0.015  
  0.025  
 -0.005  
  0.025  
  0.015  
  0.050  
  0.015  
  0.030  
  0.000  
  0.020  
 -0.005  
  0.040  
  0.010  
  0.020  
 -0.010  
  0.030  
  0.045  
  0.100  
  0.030  
  0.085  
  0.085  
  0.100  
  0.080  
  0.120  
  0.060  
  0.080  
  0.030  
  0.030  
 -0.035  
 -0.005  
 -0.035  
 -0.120  
 -0.295  
 -0.050  
  0.790  
  2.095  
  2.565  
  1.780  
  0.520  
  0.030  
 -0.060  
 -0.070  
 -0.080  
 -0.015  
 -0.060  
 -0.080  
 -0.180  
 -0.200  
 -0.255  
 -0.225  
 -0.235  
 -0.210  
 -0.300  
 -0.350  
 -0.460  
 -0.510  
 -0.600  
 -0.610  
 -0.655  
 -0.630  
 -0.590  
 -0.430  
 -0.320  
 -0.200  
 -0.135  
 -0.040  
 -0.055  
  0.010  
 -0.010  
  0.030  
 -0.005  
  0.000  
 -0.035  
 -0.035  
 -0.080  
 -0.040  
 -0.075  
 -0.070  
 -0.100  
 -0.065  
 -0.100  
 -0.080  
 -0.115  
 -0.100  
 -0.120  
 -0.080  
 -0.075  
 -0.020  
 -0.035  
  0.005  
 -0.020  
  0.000  
 -0.035  
 -0.010  
 -0.040  
 -0.005  
  0.000  
  0.040  
  0.040  
  0.045  
 -0.040  
  0.030  
  0.050  
  0.065  
  0.040  
  0.065  
  0.010  
  0.010  
 -0.025  
 -0.015  
 -0.045  
 -0.035  
 -0.065  
 -0.215  
 -0.295  
  0.170  
  1.140  
  2.265  
  2.345  
  1.265  
  0.200  
 -0.060  
 -0.130  
 -0.140  
 -0.135  
 -0.100  
 -0.210  
 -0.270  
 -0.340  
 -0.335  
 -0.355  
 -0.320  
 -0.320  
 -0.305  
 -0.360  
 -0.410  
 -0.520  
 -0.575  
 -0.645  
 -0.640  
 -0.675  
 -0.600  
 -0.540  
 -0.385  
 -0.270  
 -0.130  
 -0.080  
 -0.035  
 -0.040  
 -0.035  
 -0.060  
 -0.015  
 -0.040  
 -0.055  
 -0.080  
 -0.080  
 -0.080  
 -0.040  
 -0.080  
 -0.075  
 -0.110  
 -0.080  
 -0.080  
 -0.060  
 -0.075  
 -0.035  
 -0.040  
 -0.030  
 -0.055  
 -0.010  
 -0.020  
 -0.005  
 -0.050  
 -0.055  
 -0.070  
 -0.035  
 -0.095  
 -0.070  
 -0.100  
 -0.100  
 -0.145  
 -0.120  
 -0.110  
 -0.080  
 -0.135  
 -0.050  
 -0.040  
 -0.040  
 -0.100  
 -0.080  
 -0.145  
 -0.140  
 -0.155  
 -0.110  
 -0.100  
 -0.050  
 -0.055  
 -0.165  
 -0.240  
  0.190  
  1.080  
  2.160  
  2.340  
  1.390  
  0.325  
 -0.025  
 -0.060  
 -0.040  
 -0.040  
 -0.015  
 -0.070  
 -0.100  
 -0.120  
 -0.090  
 -0.090  
 -0.040  
 -0.060  
 -0.055  
 -0.080  
 -0.100  
 -0.190  
 -0.220  
 -0.305  
 -0.310  
 -0.335  
 -0.260  
 -0.190  
 -0.035  
  0.050  
  0.155  
  0.180  
  0.210  
  0.185  
  0.190  
  0.150  
  0.185  
  0.145  
  0.155  
  0.120  
  0.125  
  0.105  
  0.120  
  0.085  
  0.100  
  0.080  
  0.090  
  0.080  
  0.120  
  0.080  
  0.110  
  0.100  
  0.125  
  0.120  
  0.150  
  0.130  
  0.155  
  0.125  
  0.125  
  0.085  
  0.105  
  0.090  
  0.120  
  0.085  
  0.110  
  0.090  
  0.120  
  0.075  
  0.120  
  0.110  
  0.160  
  0.140  
  0.120  
  0.150  
  0.230  
  0.180  
  0.190  
  0.160  
  0.150  
  0.100  
  0.100  
  0.065  
  0.090  
  0.070  
  0.100  
 -0.095  
 -0.120  
  0.440  
  1.545  
  2.460  
  2.380  
  1.240  
  0.320  
  0.050  
  0.060  
  0.005  
  0.020  
 -0.030  
 -0.075  
 -0.170  
 -0.195  
 -0.220  
 -0.165  
 -0.155  
 -0.140  
 -0.180  
 -0.220  
 -0.315  
 -0.355  
 -0.400  
 -0.420  
 -0.455  
 -0.435  
 -0.430  
 -0.325  
 -0.200  
 -0.040  
  0.045  
  0.125  
  0.110  
  0.140  
  0.110  
  0.140  
  0.125  
  0.135  
  0.100  
  0.110  
  0.080  
  0.080  
  0.060  
  0.080  
  0.050  
  0.090  
  0.070  
  0.105  
  0.085  
  0.090  
  0.065  
  0.080  
  0.050  
  0.100  
  0.100  
  0.120  
  0.105  
  0.120  
  0.080  
  0.090  
  0.060  
  0.080  
  0.065  
  0.100  
  0.100  
  0.120  
  0.100  
  0.115  
  0.090  
  0.100  
  0.080  
  0.100  
  0.085  
  0.130  
  0.130  
  0.100  
  0.080  
  0.155  
  0.155  
  0.150  
  0.120  
  0.120  
  0.080  
  0.080  
  0.040  
  0.040  
  0.010  
  0.025  
 -0.035  
 -0.180  
 -0.105  
  0.785  
  1.985  
  2.620  
  1.980  
  0.745  
  0.080  
 -0.030  
 -0.080  
 -0.070  
 -0.080  
 -0.105  
 -0.180  
 -0.210  
 -0.270  
 -0.270  
 -0.270  
 -0.235  
 -0.270  
 -0.300  
 -0.380  
 -0.420  
 -0.515  
 -0.560  
 -0.630  
 -0.645  
 -0.675  
 -0.600  
 -0.505  
 -0.340  
 -0.200  
 -0.075  
 -0.020  
  0.020  
  0.005  
  0.020  
  0.020  
  0.040  
  0.015  
  0.020  
 -0.015  
 -0.020  
 -0.035  
 -0.025  
 -0.030  
 -0.005  
 -0.040  
 -0.005  
 -0.020  
 -0.010  
 -0.030  
 -0.005  
 -0.020  
 -0.010  
 -0.005  
  0.020  
  0.010  
  0.025  
  0.000  
  0.010  
 -0.005  
  0.000  
  0.005  
  0.020  
  0.000  
  0.020  
  0.020  
  0.015  
 -0.005  
  0.020  
  0.010  
  0.025  
  0.010  
  0.020  
  0.005  
  0.020  
  0.005  
  0.020  
  0.040  
  0.050  
 -0.015  
  0.020  
  0.050  
  0.080  
  0.050  
  0.080  
  0.030  
  0.020  
 -0.010  
 -0.010  
 -0.030  
 -0.030  
 -0.045  
 -0.080  
 -0.260  
 -0.175  
  0.635  
  1.905  
  2.570  
  1.945  
  0.670  
  0.025  
 -0.100  
 -0.130  
 -0.170  
 -0.140  
 -0.180  
 -0.225  
 -0.295  
 -0.315  
 -0.350  
 -0.320  
 -0.315  
 -0.320  
 -0.380  
 -0.440  
 -0.540  
 -0.595  
 -0.700  
 -0.740  
 -0.780  
 -0.775  
 -0.735  
 -0.620  
 -0.490  
 -0.315  
 -0.180  
 -0.080  
 -0.070  
 -0.050  
 -0.035  
 -0.020  
 -0.025  
 -0.030  
 -0.050  
 -0.075  
 -0.100  
 -0.100  
 -0.080  
 -0.100  
 -0.100  
 -0.080  
 -0.080  
 -0.075  
 -0.095  
 -0.095  
 -0.115  
 -0.095  
 -0.080  
 -0.070  
 -0.075  
 -0.055  
 -0.090  
 -0.080  
 -0.095  
 -0.080  
 -0.080  
 -0.080  
 -0.080  
 -0.070  
 -0.080  
 -0.070  
 -0.080  
 -0.075  
 -0.090  
 -0.080  
 -0.080  
 -0.070  
 -0.075  
 -0.060  
 -0.080  
 -0.070  
 -0.080  
 -0.070  
 -0.060  
 -0.040  
 -0.070  
 -0.120  
 -0.080  
 -0.030  
 -0.050  
 -0.050  
 -0.070  
 -0.080  
 -0.100  
 -0.100  
 -0.120  
 -0.130  
 -0.140  
 -0.150  
 -0.320  
 -0.320  
  0.240  
  1.320  
  2.360  
  2.165  
  0.965  
  0.060  
 -0.155  
 -0.170  
 -0.200  
 -0.185  
 -0.195  
 -0.240  
 -0.340  
 -0.400  
 -0.420  
 -0.410  
 -0.375  
 -0.350  
 -0.370  
 -0.430  
 -0.520  
 -0.595  
 -0.670  
 -0.740  
 -0.770  
 -0.765  
 -0.720  
 -0.635  
 -0.505  
 -0.345  
 -0.200  
 -0.120  
 -0.100  
 -0.070  
 -0.075  
 -0.075  
 -0.080  
 -0.095  
 -0.110  
 -0.130  
 -0.115  
 -0.100  
 -0.080  
 -0.115  
 -0.120  
 -0.130  
 -0.120  
 -0.130  
 -0.100  
 -0.080  
 -0.080  
 -0.080  
 -0.080  
 -0.075  
 -0.060  
 -0.065  
 -0.055  
 -0.060  
 -0.080  
 -0.095  
 -0.075  
 -0.080  
 -0.075  
 -0.055  
 -0.060  
 -0.060  
 -0.050  
 -0.055  
 -0.050  
 -0.050  
 -0.040  
 -0.020  
 -0.015  
 -0.030  
  0.005  
  0.010  
  0.040  
  0.000  
  0.010  
  0.055  
  0.080  
  0.060  
  0.080  
  0.050  
  0.030  
  0.020  
  0.005  
 -0.030  
 -0.035  
 -0.040  
 -0.110  
 -0.235  
 -0.080  
  0.705  
  1.940  
  2.560  
  1.880  
  0.660  
  0.030  
 -0.075  
 -0.080  
 -0.100  
 -0.080  
 -0.130  
 -0.185  
 -0.240  
 -0.285  
 -0.280  
 -0.255  
 -0.240  
 -0.240  
 -0.275  
 -0.320  
 -0.400  
 -0.480  
 -0.560  
 -0.600  
 -0.645  
 -0.630  
 -0.590  
 -0.460  
 -0.320  
 -0.170  
 -0.070  
  0.000  
  0.005  
  0.030  
  0.010  
  0.030  
  0.020  
  0.030  
  0.015  
 -0.005  
 -0.030  
  0.010  
  0.010  
 -0.005  
 -0.040  
 -0.030  
 -0.040  
 -0.010  
 -0.015  
  0.005  
 -0.020  
 -0.005  
 -0.015  
  0.020  
  0.020  
  0.040  
  0.020  
  0.020  
 -0.010  
  0.010  
  0.010  
  0.030  
  0.010  
  0.040  
  0.020  
  0.040  
  0.020  
  0.040  
  0.015  
  0.025  
  0.010  
  0.050  
  0.025  
  0.055  
  0.040  
  0.065  
  0.040  
  0.085  
  0.065  
  0.060  
  0.045  
  0.110  
  0.085  
  0.105  
  0.070  
  0.080  
  0.025  
  0.030  
  0.000  
  0.025  
 -0.020  
  0.010  
 -0.100  
 -0.220  
 -0.105  
  0.800  
  2.030  
  2.625  
  1.865  
  0.645  
  0.005  
 -0.035  
 -0.120  
 -0.080  
 -0.120  
 -0.130  
 -0.210  
 -0.240  
 -0.320  
 -0.280  
 -0.300  
 -0.260  
 -0.305  
 -0.320  
 -0.400  
 -0.470  
 -0.580  
 -0.610  
 -0.700  
 -0.700  
 -0.735  
 -0.650  
 -0.580  
 -0.390  
 -0.260  
 -0.115  
 -0.070  
 -0.005  
 -0.020  
  0.025  
 -0.005  
  0.020  
 -0.020  
  0.000  
 -0.035  
 -0.020  
 -0.040  
 -0.020  
 -0.060  
 -0.030  
 -0.060  
 -0.010  
 -0.035  
 -0.005  
 -0.035  
 -0.010  
 -0.040  
 -0.010  
 -0.030  
  0.020  
 -0.005  
  0.020  
 -0.020  
  0.005  
 -0.040  
  0.020  
 -0.010  
  0.030  
 -0.005  
  0.045  
  0.005  
  0.040  
  0.000  
  0.030  
 -0.010  
  0.025  
 -0.010  
  0.050  
  0.005  
  0.045  
  0.005  
  0.040  
  0.010  
  0.080  
 -0.005  
 -0.010  
  0.010  
  0.095  
  0.025  
  0.080  
  0.030  
  0.040  
 -0.020  
  0.020  
 -0.035  
 -0.005  
 -0.045  
 -0.020  
 -0.240  
 -0.295  
  0.120  
  1.205  
  2.320  
  2.495  
  1.360  
  0.290  
 -0.080  
 -0.075  
 -0.165  
 -0.140  
 -0.180  
 -0.180  
 -0.290  
 -0.290  
 -0.365  
 -0.320  
 -0.340  
 -0.290  
 -0.360  
 -0.380  
 -0.500  
 -0.550  
 -0.690  
 -0.710  
 -0.805  
 -0.760  
 -0.805  
 -0.680  
 -0.620  
 -0.415  
 -0.320  
 -0.160  
 -0.140  
 -0.060  
 -0.090  
 -0.030  
 -0.075  
 -0.035  
 -0.080  
 -0.055  
 -0.130  
 -0.080  
 -0.130  
 -0.070  
 -0.120  
 -0.115  
 -0.165  
 -0.105  
 -0.155  
 -0.100  
 -0.165  
 -0.115  
 -0.165  
 -0.070  
 -0.110  
 -0.060  
 -0.110  
 -0.060  
 -0.120  
 -0.095  
 -0.155  
 -0.105  
 -0.165  
 -0.110  
 -0.165  
 -0.110  
 -0.185  
 -0.150  
 -0.200  
 -0.145  
 -0.180  
 -0.115  
 -0.160  
 -0.080  
 -0.135  
  0.130  
  0.190  
  0.140  
  0.030  
  0.020  
 -0.035  
  0.060  
 -0.020  
  0.030  
 -0.040  
 -0.010  
 -0.100  
 -0.040  
 -0.115  
 -0.055  
 -0.125  
 -0.060  
 -0.275  
 -0.260  
 -0.070  
  0.810  
  2.020  
  2.600  
  1.600  
  0.430  
 -0.115  
 -0.115  
 -0.220  
 -0.165  
 -0.200  
 -0.120  
 -0.270  
 -0.290  
 -0.390  
 -0.320  
 -0.360  
 -0.255  
 -0.350  
 -0.340  
 -0.490  
 -0.495  
 -0.625  
 -0.635  
 -0.780  
 -0.720  
 -0.775  
 -0.660  
 -0.620  
 -0.400  
 -0.330  
 -0.145  
 -0.150  
 -0.060  
 -0.130  
 -0.060  
 -0.135  
 -0.060  
 -0.150  
 -0.100  
 -0.180  
 -0.080  
 -0.145  
 -0.075  
 -0.165  
 -0.100  
 -0.170  
 -0.095  
 -0.140  
 -0.040  
 -0.130  
 -0.035  
 -0.120  
 -0.030  
 -0.090  
  0.005  
 -0.055  
  0.020  
 -0.075  
 -0.010  
 -0.100  
 -0.005  
 -0.055  
  0.040  
 -0.015  
  0.045  
 -0.075  
  0.020  
 -0.030  
  0.050  
 -0.045  
 -0.020  
 -0.160  
 -0.100  
 -0.140  
 -0.030  
 -0.150  
 -0.080  
 -0.200  
 -0.100  
 -0.075  
  0.080  
 -0.050  
 -0.075  
 -0.240  
 -0.175  
 -0.165  
 -0.015  
 -0.140  
 -0.130  
 -0.280  
 -0.230  
 -0.400  
 -0.260  
  0.320  
  1.610  
  2.325  
  2.010  
  0.785  
  0.080  
 -0.185  
 -0.240  
 -0.430  
 -0.355  
 -0.400  
 -0.280  
 -0.455  
 -0.370  
 -0.420  
 -0.350  
 -0.435  
 -0.400  
 -0.550  
 -0.515  
 -0.650  
 -0.615  
 -0.780  
 -0.760  
 -0.880  
 -0.755  
 -0.775  
 -0.575  
 -0.535  
 -0.305  
 -0.240  
 -0.070  
 -0.180  
 -0.090  
 -0.215  
 -0.155  
 -0.230  
 -0.120  
 -0.220  
 -0.120  
 -0.200  
 -0.030  
 -0.080  
  0.025  
 -0.070  
 -0.035  
 -0.100  
  0.030  
 -0.020  
  0.130  
  0.045  
  0.180  
  0.100  
  0.210  
  0.125  
  0.200  
  0.085  
  0.190  
  0.095  
  0.200  
  0.045  
  0.080  
 -0.050  
  0.085  
  0.010  
  0.110  
 -0.070  
 -0.010  
 -0.095  
  0.080  
  0.045  
  0.155  
  0.020  
  0.060  
 -0.030  
  0.135  
  0.045  
  0.140  
  0.100  
  0.220  
  0.050  
  0.125  
 -0.005  
  0.060  
 -0.070  
  0.080  
 -0.015  
  0.095  
 -0.035  
  0.060  
 -0.270  
 -0.250  
  0.165  
  1.415  
  2.395  
  2.330  
  1.040  
  0.220  
 -0.140  
 -0.040  
 -0.165  
 -0.025  
 -0.105  
 -0.035  
 -0.195  
 -0.105  
 -0.240  
 -0.165  
 -0.310  
 -0.295  
 -0.400  
 -0.305  
 -0.515  
 -0.425  
 -0.570  
 -0.535  
 -0.690  
 -0.595  
 -0.635  
 -0.375  
 -0.335  
 -0.080  
 -0.125  
  0.035  
 -0.075  
  0.055  
 -0.040  
  0.070  
 -0.025  
  0.135  
 -0.025  
  0.080  
 -0.035  
  0.070  
 -0.045  
  0.100  
 -0.055  
  0.020  
 -0.105  
  0.050  
 -0.060  
  0.055  
 -0.070  
  0.060  
 -0.050  
  0.065  
 -0.040  
  0.095  
 -0.050  
  0.070  
 -0.040  
  0.085  
 -0.060  
  0.080  
 -0.065  
  0.040  
 -0.050  
  0.090  
 -0.035  
  0.080  
 -0.050  
  0.080  
 -0.040  
  0.065  
 -0.040  
  0.105  
 -0.020  
  0.080  
  0.000  
  0.165  
  0.020  
  0.155  
  0.040  
  0.165  
  0.025  
  0.150  
  0.005  
  0.130  
 -0.010  
  0.100  
 -0.180  
 -0.165  
 -0.020  
  1.025  
  2.150  
  2.760  
  1.720  
  0.600  
 -0.020  
  0.040  
 -0.080  
  0.080  
 -0.075  
  0.005  
 -0.200  
 -0.165  
 -0.340  
 -0.215  
 -0.335  
 -0.185  
 -0.360  
 -0.280  
 -0.485  
 -0.420  
 -0.630  
 -0.580  
 -0.775  
 -0.660  
 -0.770  
 -0.560  
 -0.585  
 -0.325  
 -0.300  
 -0.040  
 -0.130  
  0.030  
 -0.100  
  0.060  
 -0.050  
  0.060  
 -0.095  
  0.040  
 -0.120  
  0.025  
 -0.075  
  0.085  
 -0.035  
  0.080  
 -0.080  
  0.045  
 -0.115  
  0.030  
 -0.120  
 -0.020  
 -0.140  
  0.030  
 -0.095  
  0.055  
 -0.095  
  0.060  
 -0.100  
  0.040  
 -0.110  
  0.025  
 -0.115  
  0.020  
 -0.100  
  0.045  
 -0.110  
  0.030  
 -0.135  
  0.000  
 -0.130  
  0.015  
 -0.075  
  0.080  
 -0.075  
  0.050  
 -0.055  
  0.105  
 -0.070  
  0.080  
 -0.050  
  0.080  
 -0.080  
  0.080  
 -0.100  
  0.030  
 -0.140  
  0.010  
 -0.290  
 -0.190  
  0.100  
  1.195  
  2.160  
  2.380  
  1.160  
  0.290  
 -0.165  
 -0.055  
 -0.240  
 -0.075  
 -0.240  
 -0.150  
 -0.365  
 -0.255  
 -0.390  
 -0.215  
 -0.350  
 -0.210  
 -0.390  
 -0.315  
 -0.495  
 -0.415  
 -0.610  
 -0.495  
 -0.660  
 -0.520  
 -0.620  
 -0.400  
 -0.400  
 -0.115  
 -0.150  
  0.065  
 -0.050  
  0.090  
 -0.055  
  0.100  
 -0.050  
  0.080  
 -0.060  
  0.080  
 -0.080  
  0.085  
 -0.065  
  0.070  
 -0.105  
  0.055  
 -0.095  
  0.045  
 -0.130  
  0.020  
 -0.120  
  0.055  
 -0.090  
  0.040  
 -0.100  
  0.045  
 -0.095  
  0.050  
 -0.100  
  0.050  
 -0.110  
  0.060  
 -0.080  
  0.055  
 -0.105  
  0.040  
 -0.120  
  0.045  
 -0.100  
  0.055  
 -0.120  
  0.040  
 -0.095  
  0.080  
 -0.120  
  0.065  
 -0.030  
  0.120  
 -0.040  
  0.105  
 -0.060  
  0.060  
 -0.110  
  0.020  
 -0.140  
  0.000  
 -0.135  
 -0.095  
 -0.380  
 -0.040  
  0.650  
  2.030  
  2.420  
  1.815  
  0.440  
  0.045  
 -0.160  
 -0.065  
 -0.185  
 -0.040  
 -0.280  
 -0.200  
 -0.400  
 -0.260  
 -0.370  
 -0.190  
 -0.340  
 -0.240  
 -0.440  
 -0.360  
 -0.560  
 -0.475  
 -0.670  
 -0.550  
 -0.715  
 -0.540  
 -0.640  
 -0.390  
 -0.400  
 -0.100  
 -0.160  
  0.025  
 -0.105  
  0.060  
 -0.080  
  0.050  
 -0.110  
  0.045  
 -0.110  
  0.045  
 -0.105  
  0.045  
 -0.100  
  0.050  
 -0.110  
  0.025  
 -0.105  
  0.045  
 -0.130  
  0.020  
 -0.120  
  0.020  
 -0.120  
  0.050  
 -0.065  
  0.080  
 -0.080  
  0.060  
 -0.100  
  0.045  
 -0.100  
  0.050  
 -0.080  
  0.080  
 -0.095  
  0.060  
 -0.095  
  0.050  
 -0.120  
  0.040  
 -0.115  
  0.060  
 -0.080  
  0.085  
 -0.040  
  0.090  
 -0.080  
  0.110  
 -0.015  
  0.130  
 -0.025  
  0.105  
 -0.070  
  0.060  
 -0.080  
  0.040  
 -0.130  
  0.040  
 -0.105  
 -0.165  
 -0.410  
  0.240  
  1.170  
  2.440  
  2.320  
  1.320  
  0.155  
  0.010  
 -0.170  
 -0.050  
 -0.205  
 -0.080  
 -0.320  
 -0.240  
 -0.435  
 -0.255  
 -0.390  
 -0.240  
 -0.420  
 -0.300  
 -0.505  
 -0.420  
 -0.660  
 -0.560  
 -0.775  
 -0.655  
 -0.805  
 -0.625  
 -0.715  
 -0.440  
 -0.435  
 -0.140  
 -0.200  
 -0.010  
 -0.150  
  0.020  
 -0.120  
  0.030  
 -0.120  
  0.040  
 -0.130  
  0.020  
 -0.140  
  0.010  
 -0.130  
  0.015  
 -0.145  
  0.020  
 -0.155  
 -0.020  
 -0.175  
 -0.020  
 -0.185  
 -0.015  
 -0.160  
  0.015  
 -0.140  
  0.035  
 -0.120  
  0.020  
 -0.135  
 -0.010  
 -0.165  
  0.005  
 -0.135  
  0.040  
 -0.130  
  0.020  
 -0.135  
  0.020  
 -0.150  
  0.010  
 -0.150  
  0.020  
 -0.140  
  0.025  
 -0.110  
  0.080  
 -0.075  
  0.025  
 -0.080  
  0.100  
 -0.060  
  0.080  
 -0.080  
  0.065  
 -0.135  
  0.010  
 -0.140  
  0.020  
 -0.160  
 -0.020  
 -0.265  
 -0.215  
 -0.220  
  0.645  
  1.755  
  2.585  
  1.685  
  0.600  
 -0.110  
 -0.025  
 -0.200  
 -0.055  
 -0.230  
 -0.130  
 -0.380  
 -0.255  
 -0.400  
 -0.230  
 -0.360  
 -0.200  
 -0.380  
 -0.250  
 -0.470  
 -0.395  
 -0.620  
 -0.520  
 -0.710  
 -0.555  
 -0.680  
 -0.470  
 -0.520  
 -0.235  
 -0.255  
 -0.005  
 -0.105  
  0.090  
 -0.060  
  0.090  
 -0.055  
  0.090  
 -0.080  
  0.080  
 -0.080  
  0.080  
 -0.080  
  0.095  
 -0.080  
  0.055  
 -0.090  
  0.080  
 -0.080  
  0.100  
 -0.075  
  0.080  
 -0.060  
  0.100  
 -0.060  
  0.135  
 -0.030  
  0.125  
 -0.040  
  0.110  
 -0.050  
  0.120  
 -0.040  
  0.130  
 -0.035  
  0.120  
 -0.030  
  0.120  
 -0.055  
  0.130  
 -0.005  
  0.140  
 -0.040  
  0.110  
 -0.060  
  0.110  
 -0.010  
  0.185  
  0.005  
  0.110  
 -0.015  
  0.190  
  0.005  
  0.165  
 -0.005  
  0.140  
 -0.020  
  0.110  
 -0.070  
  0.085  
 -0.080  
  0.080  
 -0.240  
 -0.155  
  0.060  
  1.200  
  2.180  
  2.580  
  1.400  
  0.450  
 -0.080  
  0.060  
 -0.120  
  0.040  
 -0.165  
 -0.100  
 -0.310  
 -0.190  
 -0.320  
 -0.130  
 -0.300  
 -0.170  
 -0.360  
 -0.240  
 -0.460  
 -0.375  
 -0.590  
 -0.500  
 -0.660  
 -0.505  
 -0.670  
 -0.440  
 -0.470  
 -0.170  
 -0.190  
  0.040  
 -0.080  
  0.090  
 -0.060  
  0.105  
 -0.075  
  0.080  
 -0.070  
  0.080  
 -0.080  
  0.080  
 -0.070  
  0.095  
 -0.095  
  0.045  
 -0.130  
  0.045  
 -0.105  
  0.060  
 -0.115  
  0.045  
 -0.110  
  0.065  
 -0.080  
  0.090  
 -0.070  
  0.105  
 -0.065  
  0.090  
 -0.070  
  0.070  
 -0.075  
  0.100  
 -0.070  
  0.100  
 -0.060  
  0.090  
 -0.070  
  0.080  
 -0.070  
  0.105  
 -0.070  
  0.095  
 -0.060  
  0.105  
 -0.065  
  0.100  
 -0.055  
  0.135  
 -0.060  
  0.065  
 -0.020  
  0.185  
 -0.010  
  0.150  
 -0.020  
  0.105  
 -0.070  
  0.085  
 -0.095  
  0.060  
 -0.110  
  0.060  
 -0.240  
 -0.195  
 -0.020  
  1.100  
  2.125  
  2.600  
  1.445  
  0.460  
 -0.095  
  0.020  
 -0.175  
 -0.010  
 -0.195  
 -0.105  
 -0.345  
 -0.235  
 -0.390  
 -0.200  
 -0.340  
 -0.200  
 -0.400  
 -0.300  
 -0.530  
 -0.450  
 -0.675  
 -0.560  
 -0.765  
 -0.610  
 -0.760  
 -0.540  
 -0.595  
 -0.280  
 -0.300  
 -0.035  
 -0.150  
  0.030  
 -0.140  
  0.040  
 -0.140  
  0.015  
 -0.135  
  0.010  
 -0.140  
  0.000  
 -0.150  
  0.005  
 -0.170  
 -0.030  
 -0.190  
 -0.020  
 -0.175  
 -0.015  
 -0.190  
 -0.020  
 -0.170  
  0.015  
 -0.155  
  0.030  
 -0.120  
  0.030  
 -0.150  
 -0.005  
 -0.165  
  0.005  
 -0.145  
  0.020  
 -0.150  
  0.040  
 -0.120  
  0.015  
 -0.140  
  0.030  
 -0.150  
  0.015  
 -0.145  
  0.025  
 -0.140  
  0.025  
 -0.145  
  0.020  
 -0.145  
  0.025  
 -0.120  
  0.055  
 -0.160  
  0.025  
 -0.100  
  0.065  
 -0.100  
  0.050  
 -0.130  
  0.025  
 -0.160  
 -0.005  
 -0.195  
 -0.020  
 -0.170  
 -0.115  
 -0.420  
 -0.110  
  0.455  
  1.865  
  2.385  
  1.825  
  0.420  
  0.040  
 -0.185  
 -0.050  
 -0.240  
 -0.080  
 -0.315  
 -0.240  
 -0.450  
 -0.275  
 -0.420  
 -0.230  
 -0.390  
 -0.240  
 -0.455  
 -0.335  
 -0.580  
 -0.490  
 -0.710  
 -0.580  
 -0.760  
 -0.580  
 -0.695  
 -0.425  
 -0.455  
 -0.140  
 -0.210  
  0.015  
 -0.120  
  0.055  
 -0.115  
  0.060  
 -0.135  
  0.030  
 -0.140  
  0.050  
 -0.120  
  0.050  
 -0.105  
  0.045  
 -0.155  
  0.020  
 -0.135  
  0.035  
 -0.150  
  0.040  
 -0.130  
  0.050  
 -0.110  
  0.060  
 -0.100  
  0.080  
 -0.090  
  0.065  
 -0.110  
  0.060  
 -0.100  
  0.080  
 -0.100  
  0.080  
 -0.080  
  0.090  
 -0.080  
  0.080  
 -0.080  
  0.090  
 -0.100  
  0.080  
 -0.080  
  0.080  
 -0.080  
  0.100  
 -0.070  
  0.110  
 -0.035  
  0.120  
 -0.110  
  0.125  
  0.005  
  0.165  
 -0.015  
  0.135  
 -0.060  
  0.080  
 -0.100  
  0.040  
 -0.120  
  0.040  
 -0.130  
 -0.150  
 -0.385  
  0.320  
  1.240  
  2.440  
  2.145  
  1.165  
  0.060  
  0.025  
 -0.165  
 -0.035  
 -0.210  
 -0.090  
 -0.325  
 -0.200  
 -0.390  
 -0.220  
 -0.380  
 -0.215  
 -0.400  
 -0.255  
 -0.480  
 -0.370  
 -0.615  
 -0.510  
 -0.720  
 -0.575  
 -0.760  
 -0.555  
 -0.660  
 -0.360  
 -0.375  
 -0.080  
 -0.185  
  0.030  
 -0.130  
  0.040  
 -0.150  
  0.025  
 -0.150  
  0.020  
 -0.140  
  0.015  
 -0.150  
  0.040  
 -0.140  
  0.000  
 -0.185  
 -0.020  
 -0.180  
 -0.010  
 -0.185  
 -0.015  
 -0.175  
  0.000  
 -0.165  
  0.030  
 -0.150  
  0.040  
 -0.140  
  0.010  
 -0.165  
  0.000  
 -0.175  
  0.025  
 -0.155  
  0.015  
 -0.155  
  0.005  
 -0.165  
 -0.005  
 -0.150  
  0.025  
 -0.150  
  0.020  
 -0.165  
  0.020  
 -0.165  
  0.020  
 -0.155  
  0.040  
 -0.110  
  0.030  
 -0.190  
  0.040  
 -0.100  
  0.040  
 -0.135  
  0.030  
 -0.150  
 -0.010  
 -0.190  
 -0.040  
 -0.230  
 -0.070  
 -0.240  
 -0.220  
 -0.485  
  0.020  
  0.800  
  2.140  
  2.250  
  1.410  
  0.105  
 -0.075  
 -0.270  
 -0.150  
 -0.320  
 -0.170  
 -0.420  
 -0.310  
 -0.510  
 -0.355  
 -0.500  
 -0.320  
 -0.540  
 -0.380  
 -0.600  
 -0.485  
 -0.740  
 -0.640  
 -0.850  
 -0.700  
 -0.870  
 -0.690  
 -0.805  
 -0.515  
 -0.540  
 -0.220  
 -0.300  
 -0.075  
 -0.220  
 -0.060  
 -0.220  
 -0.060  
 -0.230  
 -0.075  
 -0.240  
 -0.070  
 -0.255  
 -0.080  
 -0.240  
 -0.095  
 -0.290  
 -0.110  
 -0.270  
 -0.080  
 -0.280  
 -0.120  
 -0.280  
 -0.080  
 -0.240  
 -0.060  
 -0.235  
 -0.060  
 -0.225  
 -0.060  
 -0.235  
 -0.070  
 -0.215  
 -0.030  
 -0.220  
 -0.050  
 -0.210  
 -0.045  
 -0.210  
 -0.030  
 -0.215  
 -0.030  
 -0.215  
 -0.035  
 -0.185  
 -0.005  
 -0.195  
 -0.015  
 -0.145  
  0.040  
 -0.165  
  0.015  
 -0.120  
  0.065  
 -0.130  
  0.055  
 -0.120  
  0.005  
 -0.180  
 -0.020  
 -0.200  
 -0.030  
 -0.200  
 -0.130  
 -0.400  
 -0.075  
  0.510  
  1.910  
  2.345  
  1.755  
  0.400  
  0.040  
 -0.185  
 -0.040  
 -0.240  
 -0.090  
 -0.320  
 -0.215  
 -0.400  
 -0.220  
 -0.390  
 -0.230  
 -0.415  
 -0.255  
 -0.460  
 -0.330  
 -0.560  
 -0.450  
 -0.670  
 -0.545  
 -0.720  
 -0.515  
 -0.635  
 -0.360  
 -0.400  
 -0.100  
 -0.180  
  0.040  
 -0.120  
  0.060  
 -0.120  
  0.030  
 -0.135  
  0.040  
 -0.150  
  0.040  
 -0.155  
  0.040  
 -0.120  
  0.025  
 -0.180  
 -0.005  
 -0.180  
 -0.005  
 -0.180  
  0.000  
 -0.175  
 -0.005  
 -0.170  
  0.010  
 -0.160  
  0.025  
 -0.140  
  0.050  
 -0.165  
  0.010  
 -0.165  
  0.010  
 -0.140  
  0.040  
 -0.140  
  0.040  
 -0.135  
  0.040  
 -0.135  
  0.030  
 -0.140  
  0.050  
 -0.135  
  0.045  
 -0.120  
  0.040  
 -0.135  
  0.065  
 -0.105  
  0.040  
 -0.115  
  0.100  
 -0.070  
  0.100  
 -0.080  
  0.070  
 -0.140  
  0.040  
 -0.155  
  0.005  
 -0.155  
  0.030  
 -0.240  
 -0.210  
 -0.240  
  0.665  
  1.720  
  2.540  
  1.720  
  0.640  
 -0.110  
 -0.010  
 -0.195  
 -0.030  
 -0.225  
 -0.120  
 -0.360  
 -0.230  
 -0.415  
 -0.225  
 -0.380  
 -0.215  
 -0.435  
 -0.300  
 -0.520  
 -0.410  
 -0.645  
 -0.510  
 -0.730  
 -0.600  
 -0.745  
 -0.530  
 -0.600  
 -0.295  
 -0.330  
 -0.055  
 -0.175  
  0.040  
 -0.120  
  0.040  
 -0.135  
  0.025  
 -0.135  
  0.045  
 -0.120  
  0.055  
 -0.120  
  0.040  
 -0.135  
  0.025  
 -0.170  
  0.010  
 -0.150  
  0.010  
 -0.180  
 -0.025  
 -0.190  
  0.000  
 -0.165  
  0.025  
 -0.150  
  0.005  
 -0.170  
 -0.010  
 -0.180  
  0.010  
 -0.165  
  0.020  
 -0.165  
  0.000  
 -0.170  
  0.010  
 -0.175  
  0.000  
 -0.170  
  0.000  
 -0.175  
 -0.010  
 -0.190  
  0.005  
 -0.175  
  0.000  
 -0.150  
  0.050  
 -0.160  
  0.000  
 -0.130  
  0.080  
 -0.115  
  0.080  
 -0.100  
  0.025  
 -0.190  
  0.025  
 -0.185  
 -0.030  
 -0.210  
 -0.020  
 -0.340  
 -0.250  
 -0.110  
  0.940  
  1.940  
  2.430  
  1.265  
  0.360  
 -0.165  
 -0.020  
 -0.240  
 -0.060  
 -0.240  
 -0.165  
 -0.410  
 -0.240  
 -0.400  
 -0.225  
 -0.380  
 -0.200  
 -0.380  
 -0.240  
 -0.485  
 -0.370  
 -0.590  
 -0.485  
 -0.680  
 -0.505  
 -0.650  
 -0.400  
 -0.480  
 -0.180  
 -0.220  
  0.040  
 -0.080  
  0.095  
 -0.060  
  0.100  
 -0.080  
  0.080  
 -0.095  
  0.080  
 -0.130  
  0.080  
 -0.070  
  0.090  
 -0.110  
  0.050  
 -0.120  
  0.080  
 -0.120  
  0.045  
 -0.100  
  0.085  
 -0.095  
  0.110  
 -0.080  
  0.080  
 -0.095  
  0.090  
 -0.070  
  0.100  
 -0.095  
  0.095  
 -0.090  
  0.100  
 -0.075  
  0.100  
 -0.080  
  0.095  
 -0.075  
  0.095  
 -0.100  
  0.105  
 -0.075  
  0.085  
 -0.070  
  0.110  
 -0.070  
  0.135  
 -0.020  
  0.130  
 -0.065  
  0.145  
  0.000  
  0.150  
 -0.030  
  0.145  
 -0.060  
  0.105  
 -0.095  
  0.065  
 -0.110  
  0.080  
 -0.145  
 -0.120  
 -0.305  
  0.470  
  1.400  
  2.485  
  1.970  
  0.960  
  0.005  
  0.045  
 -0.145  
 -0.020  
 -0.200  
 -0.060  
 -0.335  
 -0.185  
 -0.370  
 -0.180  
 -0.350  
 -0.195  
 -0.395  
 -0.265  
 -0.470  
 -0.350  
 -0.560  
 -0.435  
 -0.655  
 -0.520  
 -0.690  
 -0.485  
 -0.585  
 -0.255  
 -0.270  
 -0.010  
 -0.130  
  0.100  
 -0.075  
  0.095  
 -0.080  
  0.085  
 -0.100  
  0.080  
 -0.080  
  0.100  
 -0.080  
  0.120  
 -0.055  
  0.070  
 -0.120  
  0.080  
 -0.110  
  0.060  
 -0.095  
  0.070  
 -0.115  
  0.080  
 -0.110  
  0.080  
 -0.080  
  0.120  
 -0.060  
  0.100  
 -0.080  
  0.085  
 -0.080  
  0.090  
 -0.080  
  0.100  
 -0.075  
  0.110  
 -0.070  
  0.110  
 -0.065  
  0.100  
 -0.080  
  0.100  
 -0.060  
  0.120  
 -0.060  
  0.120  
 -0.050  
  0.155  
 -0.030  
  0.105  
 -0.020  
  0.185  
 -0.010  
  0.170  
 -0.020  
  0.140  
 -0.065  
  0.110  
 -0.100  
  0.080  
 -0.115  
  0.065  
 -0.230  
 -0.165  
 -0.165  
  0.800  
  1.880  
  2.580  
  1.595  
  0.590  
 -0.070  
  0.030  
 -0.175  
 -0.010  
 -0.220  
 -0.115  
 -0.350  
 -0.200  
 -0.370  
 -0.180  
 -0.340  
 -0.195  
 -0.415  
 -0.280  
 -0.500  
 -0.380  
 -0.635  
 -0.495  
 -0.695  
 -0.550  
 -0.720  
 -0.495  
 -0.570  
 -0.260  
 -0.300  
 -0.015  
 -0.120  
  0.080  
 -0.080  
  0.095  
 -0.100  
  0.080  
 -0.080  
  0.080  
 -0.095  
  0.105  
 -0.075  
  0.120  
 -0.080  
  0.045  
 -0.120  
  0.050  
 -0.120  
  0.080  
 -0.120  
  0.060  
 -0.100  
  0.080  
 -0.095  
  0.085  
 -0.065  
  0.100  
 -0.080  
  0.085  
 -0.095  
  0.100  
 -0.075  
  0.100  
 -0.070  
  0.095  
 -0.105  
  0.080  
 -0.095  
  0.100  
 -0.080  
  0.090  
 -0.090  
  0.085  
 -0.065  
  0.110  
 -0.080  
  0.085  
 -0.080  
  0.130  
 -0.040  
  0.080  
 -0.060  
  0.160  
 -0.020  
  0.125  
 -0.050  
  0.110  
 -0.100  
  0.080  
 -0.120  
  0.025  
 -0.165  
  0.020  
 -0.240  
 -0.210  
 -0.295  
  0.600  
  1.650  
  2.500  
  1.680  
  0.650  
 -0.120  
 -0.030  
 -0.235  
 -0.095  
 -0.295  
 -0.165  
 -0.400  
 -0.290  
 -0.465  
 -0.295  
 -0.460  
 -0.275  
 -0.485  
 -0.350  
 -0.560  
 -0.475  
 -0.710  
 -0.595  
 -0.810  
 -0.650  
 -0.820  
 -0.615  
 -0.680  
 -0.370  
 -0.400  
 -0.100  
 -0.215  
 -0.040  
 -0.180  
 -0.005  
 -0.200  
 -0.010  
 -0.185  
 -0.035  
 -0.200  
 -0.030  
 -0.195  
  0.005  
 -0.195  
 -0.050  
 -0.220  
 -0.025  
 -0.215  
 -0.025  
 -0.200  
 -0.040  
 -0.195  
 -0.010  
 -0.190  
 -0.020  
 -0.185  
 -0.005  
 -0.170  
 -0.005  
 -0.185  
 -0.015  
 -0.170  
  0.030  
 -0.170  
  0.010  
 -0.145  
  0.025  
 -0.150  
  0.020  
 -0.150  
  0.035  
 -0.135  
  0.040  
 -0.130  
  0.065  
 -0.130  
  0.060  
 -0.080  
  0.045  
 -0.095  
  0.145  
 -0.050  
  0.120  
 -0.040  
  0.110  
 -0.095  
  0.060  
 -0.130  
  0.045  
 -0.135  
  0.045  
 -0.240  
 -0.165  
 -0.110  
  0.880  
  1.920  
  2.545  
  1.560  
  0.600  
 -0.040  
  0.080  
 -0.155  
  0.000  
 -0.175  
 -0.070  
 -0.310  
 -0.135  
 -0.280  
 -0.100  
 -0.300  
 -0.145  
 -0.330  
 -0.165  
 -0.375  
 -0.280  
 -0.505  
 -0.380  
 -0.580  
 -0.440  
 -0.580  
 -0.320  
 -0.400  
 -0.080  
 -0.120  
  0.130  
 -0.010  
  0.170  
 -0.010  
  0.160  
 -0.020  
  0.135  
 -0.035  
  0.155  
 -0.035  
  0.145  
 -0.020  
  0.165  
 -0.020  
  0.130  
 -0.040  
  0.135  
 -0.040  
  0.130  
 -0.035  
  0.140  
 -0.035  
  0.140  
 -0.040  
  0.150  
 -0.005  
  0.175  
  0.000  
  0.180  
 -0.010  
  0.140  
 -0.020  
  0.160  
  0.000  
  0.150  
 -0.015  
  0.165  
 -0.030  
  0.135  
 -0.030  
  0.145  
 -0.015  
  0.155  
 -0.015  
  0.155  
  0.000  
  0.210  
  0.030  
  0.155  
  0.040  
  0.250  
  0.045  
  0.215  
  0.040  
  0.185  
 -0.005  
  0.140  
 -0.030  
  0.120  
 -0.060  
  0.130  
 -0.165  
 -0.120  
 -0.040  
  1.000  
  2.010  
  2.615  
  1.590  
  0.615  
 -0.015  
  0.120  
 -0.080  
  0.080  
 -0.155  
 -0.040  
 -0.275  
 -0.140  
 -0.290  
 -0.110  
 -0.260  
 -0.140  
 -0.335  
 -0.200  
 -0.410  
 -0.300  
 -0.530  
 -0.400  
 -0.595  
 -0.440  
 -0.590  
 -0.375  
 -0.460  
 -0.135  
 -0.165  
  0.080  
 -0.030  
  0.170  
  0.015  
  0.180  
  0.000  
  0.150  
 -0.020  
  0.155  
 -0.005  
  0.170  
  0.005  
  0.180  
  0.000  
  0.150  
 -0.030  
  0.150  
 -0.005  
  0.150  
 -0.010  
  0.150  
 -0.025  
  0.155  
  0.000  
  0.200  
  0.040  
  0.200  
  0.020  
  0.180  
 -0.010  
  0.180  
  0.000  
  0.180  
  0.040  
  0.195  
  0.005  
  0.180  
  0.010  
  0.165  
  0.020  
  0.200  
  0.020  
  0.200  
  0.040  
  0.200  
  0.030  
  0.220  
  0.080  
  0.230  
  0.040  
  0.230  
  0.120  
  0.245  
  0.060  
  0.240  
  0.040  
  0.185  
  0.015  
  0.170  
 -0.025  
  0.175  
 -0.005  
 -0.020  
 -0.270  
  0.360  
  1.255  
  2.510  
  2.280  
  1.340  
  0.240  
  0.150  
 -0.040  
  0.080  
 -0.105  
  0.040  
 -0.200  
 -0.100  
 -0.290  
 -0.080  
 -0.240  
 -0.075  
 -0.275  
 -0.140  
 -0.360  
 -0.240  
 -0.490  
 -0.385  
 -0.580  
 -0.435  
 -0.615  
 -0.430  
 -0.520  
 -0.240  
 -0.290  
  0.020  
 -0.040  
  0.200  
  0.040  
  0.180  
  0.025  
  0.180  
  0.020  
  0.185  
  0.030  
  0.185  
  0.010  
  0.190  
  0.030  
  0.190  
 -0.010  
  0.185  
 -0.005  
  0.150  
 -0.005  
  0.160  
 -0.005  
  0.180  
  0.030  
  0.200  
  0.020  
  0.205  
  0.035  
  0.180  
  0.020  
  0.190  
  0.020  
  0.190  
  0.030  
  0.180  
  0.020  
  0.200  
  0.040  
  0.190  
  0.000  
  0.190  
  0.040  
  0.200  
  0.010  
  0.200  
  0.025  
  0.185  
  0.040  
  0.220  
  0.040  
  0.185  
  0.040  
  0.240  
  0.080  
  0.240  
  0.050  
  0.200  
 -0.010  
  0.155  
 -0.010  
  0.125  
 -0.055  
  0.140  
 -0.080  
 -0.070  
 -0.230  
  0.560  
  1.540  
  2.580  
  1.990  
  0.980  
  0.080  
  0.110  
 -0.090  
  0.050  
 -0.125  
 -0.025  
 -0.280  
 -0.135  
 -0.315  
 -0.155  
 -0.300  
 -0.120  
 -0.300  
 -0.180  
 -0.400  
 -0.295  
 -0.550  
 -0.435  
 -0.630  
 -0.485  
 -0.650  
 -0.440  
 -0.535  
 -0.235  
 -0.255  
  0.025  
 -0.075  
  0.125  
 -0.035  
  0.130  
 -0.055  
  0.135  
 -0.060  
  0.135  
 -0.040  
  0.120  
 -0.055  
  0.130  
 -0.050  
  0.105  
 -0.095  
  0.100  
 -0.080  
  0.100  
 -0.075  
  0.110  
 -0.065  
  0.130  
 -0.060  
  0.130  
 -0.035  
  0.140  
 -0.030  
  0.140  
 -0.040  
  0.140  
 -0.040  
  0.125  
 -0.040  
  0.170  
 -0.020  
  0.155  
 -0.030  
  0.120  
 -0.035  
  0.145  
 -0.040  
  0.130  
 -0.040  
  0.170  
 -0.010  
  0.180  
  0.040  
  0.160  
  0.010  
  0.225  
  0.080  
  0.240  
  0.080  
  0.205  
 -0.030  
  0.160  
 -0.015  
  0.155  
 -0.025  
  0.160  
 -0.095  
 -0.060  
 -0.110  
  0.790  
  1.810  
  2.640  
  1.865  
  0.880  
  0.055  
  0.125  
 -0.055  
  0.080  
 -0.120  
  0.000  
 -0.220  
 -0.080  
 -0.240  
 -0.040  
 -0.220  
 -0.060  
 -0.260  
 -0.130  
 -0.330  
 -0.200  
 -0.430  
 -0.300  
 -0.530  
 -0.385  
 -0.540  
 -0.325  
 -0.390  
 -0.095  
 -0.130  
  0.140  
  0.010  
  0.190  
  0.020  
  0.200  
  0.010  
  0.160  
 -0.005  
  0.190  
  0.005  
  0.165  
 -0.005  
  0.190  
  0.020  
  0.155  
 -0.030  
  0.145  
 -0.035  
  0.140  
 -0.015  
  0.145  
 -0.020  
  0.150  
 -0.015  
  0.175  
  0.020  
  0.190  
  0.030  
  0.165  
 -0.020  
  0.160  
 -0.020  
  0.170  
  0.005  
  0.180  
  0.005  
  0.165  
 -0.025  
  0.150  
 -0.015  
  0.145  
 -0.035  
  0.155  
 -0.020  
  0.155  
  0.000  
  0.190  
  0.040  
  0.220  
  0.020  
  0.215  
  0.055  
  0.205  
  0.040  
  0.190  
 -0.010  
  0.140  
 -0.055  
  0.120  
 -0.060  
  0.105  
 -0.060  
 -0.080  
 -0.315  
  0.350  
  1.240  
  2.480  
  2.240  
  1.305  
  0.180  
  0.105  
 -0.095  
  0.030  
 -0.145  
 -0.015  
 -0.260  
 -0.140  
 -0.320  
 -0.150  
 -0.300  
 -0.120  
 -0.315  
 -0.185  
 -0.400  
 -0.295  
 -0.520  
 -0.400  
 -0.600  
 -0.485  
 -0.645  
 -0.455  
 -0.560  
 -0.270  
 -0.320  
 -0.015  
 -0.095  
  0.135  
 -0.025  
  0.150  
 -0.030  
  0.120  
 -0.040  
  0.140  
 -0.020  
  0.145  
 -0.030  
  0.155  
 -0.005  
  0.160  
 -0.035  
  0.145  
 -0.035  
  0.150  
 -0.010  
  0.155  
 -0.010  
  0.175  
 -0.015  
  0.160  
  0.005  
  0.190  
  0.025  
  0.200  
  0.025  
  0.170  
 -0.015  
  0.160  
 -0.015  
  0.180  
  0.010  
  0.180  
 -0.010  
  0.170  
 -0.010  
  0.155  
 -0.005  
  0.155  
  0.005  
  0.200  
  0.010  
  0.200  
  0.040  
  0.215  
  0.040  
  0.155  
  0.030  
  0.240  
  0.060  
  0.225  
  0.060  
  0.205  
  0.000  
  0.180  
 -0.005  
  0.170  
 -0.035  
  0.150  
 -0.155  
 -0.110  
  0.005  
  1.100  
  2.130  
  2.660  
  1.540  
  0.580  
 -0.030  
  0.105  
 -0.110  
  0.080  
 -0.130  
 -0.020  
 -0.240  
 -0.115  
 -0.290  
 -0.080  
 -0.275  
 -0.120  
 -0.310  
 -0.180  
 -0.415  
 -0.330  
 -0.560  
 -0.475  
 -0.700  
 -0.540  
 -0.680  
 -0.455  
 -0.535  
 -0.230  
 -0.250  
  0.030  
 -0.100  
  0.130  
 -0.035  
  0.140  
 -0.035  
  0.125  
 -0.050  
  0.120  
 -0.035  
  0.140  
 -0.040  
  0.155  
 -0.040  
  0.120  
 -0.080  
  0.105  
 -0.060  
  0.110  
 -0.075  
  0.100  
 -0.080  
  0.140  
 -0.030  
  0.150  
 -0.030  
  0.145  
 -0.035  
  0.125  
 -0.065  
  0.130  
 -0.035  
  0.145  
 -0.040  
  0.135  
 -0.030  
  0.145  
 -0.055  
  0.130  
 -0.050  
  0.130  
 -0.050  
  0.120  
 -0.030  
  0.140  
 -0.040  
  0.150  
  0.005  
  0.125  
 -0.095  
  0.120  
 -0.020  
  0.150  
 -0.055  
  0.120  
 -0.095  
  0.060  
 -0.115  
  0.060  
 -0.145  
  0.020  
 -0.170  
 -0.140  
 -0.380  
  0.280  
  1.160  
  2.425  
  2.160  
  1.220  
  0.120  
  0.080  
 -0.130  
 -0.010  
 -0.180  
 -0.010  
 -0.255  
 -0.155  
 -0.370  
 -0.170  
 -0.320  
 -0.135  
 -0.310  
 -0.165  
 -0.385  
 -0.280  
 -0.520  
 -0.390  
 -0.615  
 -0.470  
 -0.650  
 -0.440  
 -0.535  
 -0.210  
 -0.270  
  0.040  
 -0.060  
  0.140  
 -0.040  
  0.170  
 -0.015  
  0.145  
 -0.020  
  0.135  
 -0.075  
  0.100  
 -0.060  
  0.140  
 -0.060  
  0.090  
 -0.090  
  0.090  
 -0.105  
  0.080  
 -0.080  
  0.120  
 -0.055  
  0.125  
 -0.040  
  0.145  
 -0.040  
  0.145  
 -0.015  
  0.185  
  0.040  
  0.210  
 -0.005  
  0.180  
 -0.005  
  0.170  
 -0.030  
  0.145  
 -0.040  
  0.125  
 -0.055  
  0.145  
 -0.045  
  0.145  
 -0.035  
  0.140  
 -0.020  
  0.190  
  0.040  
  0.185  
  0.010  
  0.240  
  0.090  
  0.260  
  0.080  
  0.240  
  0.025  
  0.205  
 -0.010  
  0.160  
 -0.030  
  0.170  
 -0.050  
 -0.040  
 -0.200  
  0.630  
  1.640  
  2.635  
  2.040  
  1.050  
  0.100  
  0.135  
 -0.060  
  0.110  
 -0.100  
  0.020  
 -0.240  
 -0.110  
 -0.270  
 -0.080  
 -0.250  
 -0.080  
 -0.310  
 -0.140  
 -0.360  
 -0.240  
 -0.485  
 -0.370  
 -0.585  
 -0.425  
 -0.610  
 -0.385  
 -0.470  
 -0.160  
 -0.190  
  0.105  
 -0.020  
  0.200  
  0.025  
  0.190  
  0.015  
  0.190  
  0.025  
  0.190  
  0.005  
  0.200  
  0.005  
  0.180  
 -0.015  
  0.170  
 -0.040  
  0.110  
 -0.055  
  0.130  
 -0.055  
  0.130  
 -0.080  
  0.120  
 -0.040  
  0.150  
 -0.020  
  0.180  
  0.010  
  0.175  
 -0.015  
  0.140  
 -0.065  
  0.120  
 -0.040  
  0.140  
 -0.035  
  0.170  
 -0.020  
  0.150  
 -0.035  
  0.155  
 -0.005  
  0.170  
  0.000  
  0.175  
 -0.030  
  0.170  
  0.015  
  0.215  
 -0.010  
  0.140  
  0.020  
  0.250  
  0.045  
  0.210  
  0.030  
  0.200  
 -0.015  
  0.180  
 -0.050  
  0.115  
 -0.070  
  0.110  
 -0.260  
 -0.110  
  0.270  
  1.545  
  2.365  
  2.420  
  1.090  
  0.360  
 -0.080  
  0.065  
 -0.110  
  0.125  
 -0.110  
 -0.035  
 -0.315  
 -0.180  
 -0.340  
 -0.130  
 -0.305  
 -0.110  
 -0.340  
 -0.215  
 -0.460  
 -0.320  
 -0.600  
 -0.490  
 -0.710  
 -0.515  
 -0.650  
 -0.415  
 -0.475  
 -0.130  
 -0.220  
  0.050  
 -0.070  
  0.135  
 -0.060  
  0.145  
 -0.060  
  0.105  
 -0.040  
  0.135  
 -0.080  
  0.100  
 -0.100  
  0.110  
 -0.100  
  0.045  
 -0.140  
  0.090  
 -0.095  
  0.090  
 -0.115  
  0.090  
 -0.095  
  0.125  
 -0.080  
  0.090  
 -0.100  
  0.090  
 -0.120  
  0.080  
 -0.120  
  0.080  
 -0.100  
  0.120  
 -0.060  
  0.130  
 -0.070  
  0.110  
 -0.100  
  0.090  
 -0.100  
  0.085  
 -0.100  
  0.095  
 -0.080  
  0.130  
 -0.095  
  0.120  
 -0.015  
  0.185  
 -0.030  
  0.175  
 -0.050  
  0.120  
 -0.070  
  0.090  
 -0.110  
  0.110  
 -0.060  
  0.050  
 -0.260  
  0.040  
  0.580  
  1.920  
  2.360  
  1.960  
  0.620  
  0.190  
 -0.120  
  0.065  
 -0.140  
  0.080  
 -0.185  
 -0.075  
 -0.300  
 -0.090  
 -0.260  
 -0.060  
 -0.275  
 -0.100  
 -0.320  
 -0.150  
 -0.380  
 -0.240  
 -0.515  
 -0.355  
 -0.560  
 -0.375  
 -0.515  
 -0.225  
 -0.310  
  0.010  
 -0.080  
  0.185  
 -0.005  
  0.190  
 -0.015  
  0.150  
 -0.050  
  0.160  
 -0.040  
  0.150  
 -0.075  
  0.120  
 -0.075  
  0.140  
 -0.065  
  0.120  
 -0.080  
  0.110  
 -0.080  
  0.115  
 -0.080  
  0.105  
 -0.075  
  0.110  
 -0.090  
  0.130  
 -0.055  
  0.145  
 -0.065  
  0.105  
 -0.100  
  0.100  
 -0.100  
  0.125  
 -0.095  
  0.120  
 -0.070  
  0.125  
 -0.080  
  0.105  
 -0.080  
  0.140  
 -0.080  
  0.135  
 -0.030  
  0.180  
 -0.060  
  0.190  
  0.025  
  0.205  
  0.005  
  0.185  
 -0.060  
  0.120  
 -0.080  
  0.085  
 -0.120  
  0.090  
 -0.115  
 -0.070  
 -0.370  
  0.280  
  1.090  
  2.330  
  2.245  
  1.400  
  0.165  
  0.080  
 -0.170  
 -0.010  
 -0.180  
  0.025  
 -0.240  
 -0.140  
 -0.400  
 -0.200  
 -0.385  
 -0.135  
 -0.340  
 -0.180  
 -0.430  
 -0.265  
 -0.550  
 -0.415  
 -0.665  
 -0.485  
 -0.710  
 -0.485  
 -0.635  
 -0.315  
 -0.360  
 -0.040  
 -0.145  
  0.110  
 -0.080  
  0.105  
 -0.110  
  0.095  
 -0.120  
  0.080  
 -0.135  
  0.065  
 -0.150  
  0.060  
 -0.130  
  0.055  
 -0.150  
  0.080  
 -0.135  
  0.070  
 -0.140  
  0.065  
 -0.140  
  0.080  
 -0.140  
  0.065  
 -0.130  
  0.085  
 -0.110  
  0.095  
 -0.120  
  0.095  
 -0.120  
  0.065  
 -0.140  
  0.080  
 -0.130  
  0.080  
 -0.135  
  0.085  
 -0.110  
  0.095  
 -0.140  
  0.080  
 -0.120  
  0.080  
 -0.120  
  0.110  
 -0.100  
  0.100  
 -0.095  
  0.140  
 -0.060  
  0.135  
 -0.080  
  0.110  
 -0.140  
  0.050  
 -0.170  
  0.055  
 -0.170  
  0.040  
 -0.240  
 -0.190  
 -0.295  
  0.700  
  1.685  
  2.505  
  1.665  
  0.685  
 -0.120  
 -0.020  
 -0.280  
 -0.070  
 -0.255  
 -0.070  
 -0.360  
 -0.215  
 -0.460  
 -0.260  
 -0.450  
 -0.220  
 -0.440  
 -0.280  
 -0.555  
 -0.410  
 -0.700  
 -0.560  
 -0.835  
 -0.635  
 -0.840  
 -0.600  
 -0.720  
 -0.360  
 -0.420  
 -0.080  
 -0.240  
  0.015  
 -0.175  
  0.030  
 -0.180  
  0.040  
 -0.165  
  0.020  
 -0.190  
  0.020  
 -0.220  
  0.000  
 -0.190  
  0.040  
 -0.180  
  0.020  
 -0.185  
  0.020  
 -0.210  
  0.005  
 -0.200  
  0.025  
 -0.180  
  0.045  
 -0.165  
  0.060  
 -0.165  
  0.045  
 -0.190  
  0.035  
 -0.190  
  0.045  
 -0.175  
  0.050  
 -0.170  
  0.040  
 -0.170  
  0.080  
 -0.170  
  0.040  
 -0.155  
  0.080  
 -0.150  
  0.060  
 -0.130  
  0.140  
 -0.130  
  0.045  
 -0.110  
  0.150  
 -0.100  
  0.120  
 -0.095  
  0.105  
 -0.130  
  0.080  
 -0.165  
  0.055  
 -0.170  
  0.045  
 -0.360  
 -0.220  
  0.040  
  1.300  
  2.140  
  2.340  
  1.015  
  0.285  
 -0.200  
 -0.010  
 -0.280  
 -0.050  
 -0.240  
 -0.080  
 -0.390  
 -0.235  
 -0.455  
 -0.210  
 -0.400  
 -0.200  
 -0.460  
 -0.280  
 -0.575  
 -0.440  
 -0.735  
 -0.560  
 -0.830  
 -0.610  
 -0.820  
 -0.540  
 -0.630  
 -0.265  
 -0.345  
 -0.015  
 -0.170  
  0.080  
 -0.115  
  0.100  
 -0.135  
  0.095  
 -0.120  
  0.085  
 -0.150  
  0.080  
 -0.120  
  0.105  
 -0.130  
  0.100  
 -0.150  
  0.060  
 -0.150  
  0.080  
 -0.140  
  0.080  
 -0.135  
  0.110  
 -0.105  
  0.125  
 -0.080  
  0.140  
 -0.100  
  0.110  
 -0.120  
  0.120  
 -0.090  
  0.125  
 -0.100  
  0.130  
 -0.080  
  0.140  
 -0.095  
  0.110  
 -0.115  
  0.145  
 -0.080  
  0.145  
 -0.060  
  0.190  
 -0.040  
  0.140  
 -0.040  
  0.240  
 -0.005  
  0.185  
 -0.035  
  0.175  
 -0.075  
  0.145  
 -0.100  
  0.125  
 -0.110  
  0.120  
 -0.260  
 -0.100  
  0.005  
  1.080  
  2.030  
  2.565  
  1.400  
  0.520  
 -0.100  
  0.085  
 -0.165  
  0.080  
 -0.160  
  0.025  
 -0.260  
 -0.100  
 -0.340  
 -0.095  
 -0.290  
 -0.055  
 -0.315  
 -0.130  
 -0.390  
 -0.230  
 -0.520  
 -0.350  
 -0.620  
 -0.430  
 -0.620  
 -0.320  
 -0.455  
 -0.100  
 -0.170  
  0.140  
 -0.020  
  0.240  
  0.010  
  0.240  
 -0.015  
  0.200  
 -0.005  
  0.225  
 -0.005  
  0.200  
 -0.005  
  0.240  
 -0.005  
  0.200  
 -0.040  
  0.210  
 -0.015  
  0.220  
 -0.030  
  0.180  
 -0.010  
  0.220  
  0.005  
  0.250  
  0.030  
  0.270  
  0.030  
  0.225  
  0.005  
  0.225  
  0.020  
  0.245  
  0.040  
  0.260  
  0.020  
  0.240  
  0.025  
  0.240  
  0.030  
  0.270  
  0.050  
  0.250  
  0.045  
  0.260  
  0.070  
  0.325  
  0.050  
  0.290  
  0.110  
  0.330  
  0.110  
  0.315  
  0.080  
  0.260  
  0.040  
  0.260  
  0.020  
  0.240  
  0.025  
  0.200  
 -0.190  
  0.060  
  0.540  
  1.940  
  2.480  
  2.220  
  0.825  
  0.320  
 -0.015  
  0.155  
 -0.100  
  0.150  
 -0.120  
  0.020  
 -0.240  
 -0.040  
 -0.240  
 -0.030  
 -0.235  
 -0.050  
 -0.300  
 -0.130  
 -0.400  
 -0.280  
 -0.560  
 -0.390  
 -0.630  
 -0.400  
 -0.600  
 -0.310  
 -0.380  
 -0.020  
 -0.135  
  0.180  
  0.000  
  0.255  
  0.060  
  0.240  
  0.015  
  0.220  
 -0.005  
  0.225  
  0.005  
  0.220  
  0.010  
  0.220  
 -0.010  
  0.200  
 -0.020  
  0.200  
 -0.005  
  0.220  
 -0.020  
  0.180  
 -0.030  
  0.205  
  0.010  
  0.225  
  0.015  
  0.250  
  0.020  
  0.210  
 -0.005  
  0.210  
 -0.005  
  0.225  
  0.020  
  0.225  
 -0.005  
  0.205  
 -0.010  
  0.205  
  0.000  
  0.210  
 -0.005  
  0.210  
  0.005  
  0.220  
  0.020  
  0.260  
  0.045  
  0.185  
 -0.005  
  0.265  
  0.040  
  0.245  
  0.030  
  0.220  
 -0.020  
  0.190  
 -0.050  
  0.150  
 -0.045  
  0.155  
 -0.195  
 -0.105  
 -0.040  
  1.065  
  2.040  
  2.640  
  1.590  
  0.645  
 -0.030  
  0.120  
 -0.150  
  0.070  
 -0.145  
  0.010  
 -0.280  
 -0.120  
 -0.330  
 -0.130  
 -0.320  
 -0.110  
 -0.340  
 -0.185  
 -0.465  
 -0.340  
 -0.635  
 -0.475  
 -0.720  
 -0.535  
 -0.740  
 -0.485  
 -0.580  
 -0.235  
 -0.290  
  0.020  
 -0.090  
  0.140  
 -0.055  
  0.155  
 -0.050  
  0.140  
 -0.055  
  0.155  
 -0.070  
  0.125  
 -0.070  
  0.140  
 -0.060  
  0.125  
 -0.090  
  0.105  
 -0.080  
  0.120  
 -0.080  
  0.110  
 -0.090  
  0.120  
 -0.070  
  0.140  
 -0.060  
  0.145  
 -0.050  
  0.135  
 -0.070  
  0.140  
 -0.070  
  0.140  
 -0.055  
  0.150  
 -0.050  
  0.140  
 -0.070  
  0.125  
 -0.070  
  0.135  
 -0.055  
  0.155  
 -0.040  
  0.145  
 -0.040  
  0.155  
 -0.040  
  0.180  
 -0.090  
  0.145  
 -0.010  
  0.190  
 -0.010  
  0.185  
 -0.040  
  0.130  
 -0.080  
  0.105  
 -0.110  
  0.085  
 -0.135  
 -0.025  
 -0.315  
 -0.030  
  0.525  
  1.970  
  2.395  
  1.905  
  0.525  
  0.120  
 -0.155  
  0.020  
 -0.210  
 -0.010  
 -0.260  
 -0.155  
 -0.395  
 -0.200  
 -0.410  
 -0.200  
 -0.350  
 -0.175  
 -0.430  
 -0.305  
 -0.580  
 -0.465  
 -0.720  
 -0.590  
 -0.785  
 -0.600  
 -0.760  
 -0.470  
 -0.515  
 -0.190  
 -0.235  
  0.025  
 -0.120  
  0.100  
 -0.100  
  0.080  
 -0.110  
  0.100  
 -0.100  
  0.085  
 -0.120  
  0.085  
 -0.095  
  0.090  
 -0.110  
  0.085  
 -0.125  
  0.050  
 -0.130  
  0.080  
 -0.100  
  0.100  
 -0.100  
  0.100  
 -0.080  
  0.110  
 -0.075  
  0.120  
 -0.080  
  0.100  
 -0.095  
  0.120  
 -0.065  
  0.105  
 -0.070  
  0.130  
 -0.060  
  0.120  
 -0.080  
  0.130  
 -0.040  
  0.145  
 -0.050  
  0.155  
 -0.040  
  0.165  
 -0.005  
  0.185  
 -0.050  
  0.155  
  0.040  
  0.240  
  0.040  
  0.200  
 -0.005  
  0.175  
 -0.025  
  0.145  
 -0.040  
  0.145  
 -0.040  
  0.060  
 -0.235  
  0.050  
  0.580  
  2.000  
  2.480  
  2.000  
  0.650  
  0.220  
 -0.075  
  0.085  
 -0.115  
  0.100  
 -0.150  
 -0.035  
 -0.240  
 -0.065  
 -0.240  
 -0.040  
 -0.220  
 -0.020  
 -0.240  
 -0.110  
 -0.340  
 -0.235  
 -0.485  
 -0.335  
 -0.535  
 -0.340  
 -0.485  
 -0.230  
 -0.260  
  0.065  
 -0.005  
  0.240  
  0.090  
  0.270  
  0.080  
  0.270  
  0.080  
  0.260  
  0.100  
  0.265  
  0.060  
  0.255  
  0.090  
  0.270  
  0.065  
  0.245  
  0.065  
  0.265  
  0.080  
  0.260  
  0.100  
  0.260  
  0.080  
  0.255  
  0.085  
  0.280  
  0.090  
  0.260  
  0.095  
  0.280  
  0.080  
  0.250  
  0.085  
  0.265  
  0.100  
  0.270  
  0.105  
  0.270  
  0.085  
  0.280  
  0.105  
  0.270  
  0.100  
  0.290  
  0.120  
  0.320  
  0.150  
  0.295  
  0.145  
  0.350  
  0.175  
  0.325  
  0.140  
  0.290  
  0.090  
  0.250  
  0.080  
  0.265  
  0.080  
  0.260  
  0.020  
  0.050  
 -0.030  
  0.905  
  1.930  
  2.760  
  2.015  
  0.980  
  0.145  
  0.220  
  0.005  
  0.170  
  0.005  
  0.120  
 -0.130  
  0.010  
 -0.190  
  0.000  
 -0.165  
 -0.005  
 -0.195  
 -0.050  
 -0.270  
 -0.165  
 -0.425  
 -0.320  
 -0.530  
 -0.380  
 -0.550  
 -0.330  
 -0.430  
 -0.130  
 -0.165  
  0.120  
  0.020  
  0.240  
  0.080  
  0.240  
  0.085  
  0.250  
  0.080  
  0.240  
  0.065  
  0.225  
  0.045  
  0.210  
  0.050  
  0.210  
  0.030  
  0.225  
  0.055  
  0.215  
  0.040  
  0.200  
  0.025  
  0.205  
  0.060  
  0.230  
  0.080  
  0.220  
  0.055  
  0.225  
  0.045  
  0.220  
  0.040  
  0.205  
  0.055  
  0.205  
  0.040  
  0.200  
  0.045  
  0.200  
  0.000  
  0.190  
  0.040  
  0.190  
  0.040  
  0.205  
  0.050  
  0.225  
  0.005  
  0.205  
  0.100  
  0.225  
  0.060  
  0.220  
  0.020  
  0.160  
 -0.015  
  0.140  
 -0.040  
  0.120  
 -0.035  
 -0.040  
 -0.295  
  0.230  
  1.040  
  2.360  
  2.380  
  1.510  
  0.285  
  0.110  
 -0.080  
  0.020  
 -0.115  
  0.045  
 -0.185  
 -0.115  
 -0.320  
 -0.140  
 -0.310  
 -0.135  
 -0.310  
 -0.175  
 -0.375  
 -0.260  
 -0.495  
 -0.395  
 -0.620  
 -0.510  
 -0.670  
 -0.490  
 -0.600  
 -0.340  
 -0.355  
 -0.050  
 -0.120  
  0.100  
 -0.040  
  0.105  
 -0.060  
  0.105  
 -0.050  
  0.120  
 -0.055  
  0.080  
 -0.090  
  0.080  
 -0.060  
  0.080  
 -0.120  
  0.040  
 -0.120  
  0.040  
 -0.110  
  0.050  
 -0.100  
  0.080  
 -0.090  
  0.060  
 -0.120  
  0.040  
 -0.120  
  0.040  
 -0.150  
 -0.015  
 -0.160  
  0.005  
 -0.155  
 -0.010  
 -0.200  
 -0.060  
 -0.230  
 -0.080  
 -0.215  
 -0.030  
 -0.165  
  0.005  
 -0.130  
  0.030  
 -0.205  
 -0.010  
 -0.095  
  0.060  
 -0.095  
  0.095  
 -0.070  
  0.090  
 -0.070  
  0.065  
 -0.070  
  0.090  
 -0.070  
  0.005  
 -0.215  
  0.180  
  0.840  
  2.230  
  2.605  
  1.980  
  0.700  
  0.350  
  0.110  
  0.205  
  0.040  
  0.190  
 -0.010  
  0.060  
 -0.140  
  0.080  
 -0.060  
  0.080  
 -0.075  
  0.045  
 -0.110  
 -0.005  
 -0.215  
 -0.080  
 -0.335  
 -0.240  
 -0.355  
 -0.140  
 -0.350  
 -0.120  
 -0.130  
  0.050  
  0.025  
  0.240  
  0.025  
  0.245  
  0.040  
  0.165  
 -0.010  
  0.205  
  0.050  
  0.180  
  0.040  
  0.165  
 -0.090  
 -0.145  
 -0.485  
 -0.335  
 -0.305  
  0.110  
  0.260  
  0.720  
  0.440  
  0.040  
 -0.400  
 -0.065  
  0.085  
  0.360  
  0.140  
  0.225  
  0.085  
  0.250  
  0.080  
  0.010  
 -0.400  
 -0.235  
 -0.275  
  0.105  
  0.030  
  0.180  
 -0.070  
  0.030  
 -0.165  
 -0.060  
 -0.200  
 -0.030  
 -0.200  
  0.020  
 -0.060  
  0.050  
 -0.140  
  0.135  
 -0.010  
  0.125  
  0.080  
  0.205  
 -0.015  
 -0.030  
 -0.315  
 -0.080  
 -0.135  
  0.450  
  0.730  
  0.730  
  0.175  
  0.600  
  1.690  
  3.110  
  2.890  
  1.800  
  0.470  
  0.225  
 -0.130  
 -0.330  
 -0.750  
 -0.610  
 -0.600  
 -0.280  
 -0.380  
 -0.180  
 -0.375  
 -0.255  
 -0.470  
 -0.340  
 -0.545  
 -0.440  
 -0.760  
 -0.670  
 -0.855  
 -0.775  
 -0.960  
 -0.720  
 -0.840  
 -0.680  
 -0.850  
 -0.635  
 -0.680  
 -0.345  
 -0.400  
 -0.200  
 -0.335  
 -0.100  
 -0.240  
 -0.150  
 -0.390  
 -0.300  
 -0.440  
 -0.225  
 -0.350  
 -0.155  
 -0.320  
 -0.190  
 -0.360  
 -0.210  
 -0.365  
 -0.180  
 -0.345  
 -0.220  
 -0.350  
 -0.145  
 -0.240  
 -0.020  
 -0.120  
  0.060  
 -0.080  
  0.095  
  0.025  
  0.250  
  0.105  
  0.255  
  0.080  
  0.205  
  0.080  
  0.200  
  0.050  
  0.220  
  0.045  
  0.190  
  0.040  
  0.120  
  0.005  
  0.210  
  0.020  
  0.125  
 -0.075  
  0.055  
 -0.080  
  0.080  
 -0.035  
  0.130  
 -0.040  
  0.060  
 -0.240  
 -0.200  
 -0.120  
  0.860  
  1.900  
  2.520  
  1.540  
  0.525  
 -0.165  
 -0.120  
 -0.320  
 -0.180  
 -0.270  
 -0.095  
 -0.300  
 -0.215  
 -0.400  
 -0.235  
 -0.320  
 -0.125  
 -0.255  
 -0.140  
 -0.355  
 -0.290  
 -0.485  
 -0.390  
 -0.555  
 -0.400  
 -0.560  
 -0.390  
 -0.475  
 -0.200  
 -0.220  
  0.035  
 -0.060  
  0.120  
 -0.015  
  0.120  
 -0.020  
  0.140  
 -0.010  
  0.125  
 -0.040  
  0.105  
 -0.030  
  0.120  
 -0.055  
  0.090  
 -0.055  
  0.100  
 -0.050  
  0.120  
 -0.025  
  0.120  
 -0.070  
  0.020  
 -0.220  
 -0.115  
 -0.125  
  0.155  
  0.045  
  0.170  
 -0.060  
 -0.030  
 -0.260  
 -0.060  
 -0.120  
  0.050  
  0.005  
  0.200  
  0.055  
  0.165  
  0.040  
  0.140  
 -0.065  
  0.165  
  0.125  
  0.300  
  0.180  
  0.310  
  0.105  
  0.210  
  0.010  
  0.100  
 -0.080  
  0.045  
 -0.120  
 -0.145  
 -0.320  
  0.405  
  1.360  
  2.500  
  2.210  
  1.170  
  0.105  
  0.020  
 -0.130  
 -0.025  
 -0.150  
 -0.060  
 -0.275  
 -0.215  
 -0.390  
 -0.260  
 -0.400  
 -0.295  
 -0.460  
 -0.355  
 -0.560  
 -0.500  
 -0.740  
 -0.675  
 -0.855  
 -0.735  
 -0.870  
 -0.690  
 -0.735  
 -0.485  
 -0.480  
 -0.170  
 -0.195  
 -0.010  
 -0.120  
  0.050  
 -0.070  
  0.095  
 -0.050  
  0.080  
 -0.100  
  0.020  
 -0.130  
  0.040  
 -0.100  
  0.010  
 -0.180  
 -0.050  
 -0.175  
 -0.020  
 -0.150  
 -0.030  
 -0.170  
 -0.035  
 -0.150  
  0.010  
 -0.090  
  0.085  
 -0.070  
  0.060  
 -0.115  
  0.025  
 -0.140  
 -0.010  
 -0.135  
 -0.005  
 -0.130  
  0.055  
 -0.050  
  0.065  
 -0.120  
  0.065  
 -0.030  
  0.105  
 -0.020  
  0.115  
 -0.060  
  0.050  
 -0.105  
  0.020  
 -0.120  
  0.010  
 -0.145  
 -0.210  
 -0.455  
  0.155  
  1.060  
  2.285  
  2.205  
  1.245  
  0.095  
 -0.080  
 -0.255  
 -0.195  
 -0.335  
 -0.165  
 -0.325  
 -0.235  
 -0.415  
 -0.290  
 -0.400  
 -0.240  
 -0.370  
 -0.250  
 -0.440  
 -0.390  
 -0.620  
 -0.560  
 -0.765  
 -0.650  
 -0.810  
 -0.655  
 -0.720  
 -0.460  
 -0.455  
 -0.185  
 -0.220  
 -0.040  
 -0.170  
 -0.015  
 -0.120  
  0.030  
 -0.100  
  0.025  
 -0.120  
 -0.005  
 -0.140  
  0.020  
 -0.095  
  0.025  
 -0.120  
  0.015  
 -0.100  
  0.040  
 -0.080  
  0.050  
 -0.080  
  0.060  
 -0.075  
  0.090  
 -0.030  
  0.100  
 -0.050  
  0.080  
 -0.070  
  0.065  
 -0.060  
  0.080  
 -0.055  
  0.080  
 -0.040  
  0.080  
 -0.080  
  0.080  
 -0.035  
  0.060  
 -0.020  
  0.105  
 -0.070  
  0.080  
 -0.060  
  0.060  
 -0.100  
  0.040  
 -0.095  
 -0.150  
 -0.380  
  0.210  
  1.125  
  2.430  
  2.360  
  1.385  
  0.240  
  0.080  
 -0.095  
 -0.005  
 -0.105  
  0.050  
 -0.145  
 -0.100  
 -0.300  
 -0.190  
 -0.300  
 -0.145  
 -0.290  
 -0.195  
 -0.395  
 -0.340  
 -0.530  
 -0.485  
 -0.680  
 -0.610  
 -0.760  
 -0.635  
 -0.675  
 -0.400  
 -0.375  
 -0.080  
 -0.120  
  0.045  
 -0.065  
  0.065  
 -0.060  
  0.095  
 -0.030  
  0.080  
 -0.055  
  0.080  
 -0.055  
  0.080  
 -0.040  
  0.080  
 -0.060  
  0.080  
 -0.040  
  0.100  
 -0.015  
  0.125  
 -0.010  
  0.120  
 -0.010  
  0.140  
  0.030  
  0.165  
  0.040  
  0.145  
  0.020  
  0.145  
  0.010  
  0.155  
  0.080  
  0.220  
  0.050  
  0.200  
  0.090  
  0.185  
  0.090  
  0.210  
  0.045  
  0.160  
  0.025  
  0.130  
 -0.035  
  0.080  
 -0.030  
 -0.075  
 -0.330  
  0.080  
