6000.0
100.0
 -0.110  
 -0.100  
 -0.110  
 -0.100  
 -0.095  
 -0.085  
 -0.100  
 -0.085  
 -0.100  
 -0.085  
 -0.095  
 -0.075  
 -0.090  
 -0.075  
 -0.095  
 -0.025  
 -0.030  
  0.035  
  0.025  
  0.080  
 -0.010  
  0.000  
 -0.100  
 -0.045  
 -0.110  
 -0.080  
 -0.160  
 -0.085  
 -0.165  
 -0.085  
 -0.155  
 -0.080  
 -0.255  
 -0.040  
  0.165  
  0.940  
  1.150  
  0.730  
  0.305  
  0.070  
  0.035  
 -0.135  
 -0.045  
 -0.130  
 -0.055  
 -0.135  
 -0.070  
 -0.140  
 -0.090  
 -0.140  
 -0.100  
 -0.150  
 -0.105  
 -0.135  
 -0.090  
 -0.120  
 -0.080  
 -0.100  
 -0.070  
 -0.075  
 -0.020  
 -0.010  
  0.035  
  0.065  
  0.115  
  0.140  
  0.195  
  0.195  
  0.200  
  0.140  
  0.110  
  0.145  
  0.150  
  0.165  
  0.130  
  0.170  
  0.125  
  0.145  
  0.160  
  0.135  
  0.165  
  0.135  
  0.180  
  0.095  
  0.170  
  0.130  
  0.145  
  0.110  
  0.125  
  0.080  
  0.105  
  0.070  
  0.085  
  0.045  
  0.070  
  0.040  
  0.075  
  0.010  
  0.000  
 -0.085  
 -0.085  
 -0.155  
 -0.145  
 -0.195  
 -0.180  
 -0.205  
 -0.200  
 -0.210  
 -0.205  
 -0.205  
 -0.230  
 -0.180  
 -0.220  
 -0.190  
 -0.240  
 -0.200  
 -0.240  
 -0.200  
 -0.245  
 -0.195  
 -0.235  
 -0.195  
 -0.230  
 -0.190  
 -0.215  
 -0.185  
 -0.195  
 -0.175  
 -0.175  
 -0.155  
 -0.145  
 -0.140  
 -0.135  
 -0.125  
 -0.090  
 -0.055  
 -0.025  
  0.010  
  0.065  
  0.015  
  0.040  
 -0.050  
 -0.025  
 -0.055  
 -0.035  
 -0.075  
 -0.045  
 -0.065  
 -0.025  
 -0.050  
 -0.005  
 -0.030  
 -0.090  
  0.010  
  0.315  
  0.960  
  1.200  
  0.740  
  0.365  
  0.155  
  0.055  
  0.005  
  0.000  
 -0.035  
 -0.025  
 -0.050  
 -0.050  
 -0.060  
 -0.060  
 -0.060  
 -0.050  
 -0.040  
 -0.035  
 -0.010  
 -0.005  
  0.020  
  0.030  
  0.070  
  0.080  
  0.130  
  0.135  
  0.195  
  0.180  
  0.245  
  0.250  
  0.300  
  0.275  
  0.305  
  0.255  
  0.230  
  0.145  
  0.110  
  0.050  
  0.035  
  0.010  
  0.020  
  0.005  
  0.025  
  0.015  
  0.030  
  0.020  
  0.040  
  0.035  
  0.040  
  0.030  
  0.020  
  0.015  
  0.005  
  0.005  
 -0.005  
 -0.010  
 -0.015  
 -0.015  
 -0.025  
 -0.010  
 -0.025  
 -0.020  
 -0.010  
  0.000  
  0.005  
  0.005  
  0.000  
 -0.005  
 -0.015  
 -0.010  
 -0.020  
 -0.015  
 -0.030  
 -0.030  
 -0.025  
 -0.045  
 -0.045  
 -0.050  
 -0.055  
 -0.065  
 -0.060  
 -0.070  
 -0.065  
 -0.075  
 -0.075  
 -0.080  
 -0.085  
 -0.090  
 -0.065  
 -0.030  
 -0.025  
  0.010  
  0.040  
 -0.015  
 -0.010  
 -0.095  
 -0.075  
 -0.085  
 -0.085  
 -0.110  
 -0.100  
 -0.100  
 -0.085  
 -0.100  
 -0.085  
 -0.090  
 -0.170  
 -0.025  
  0.255  
  0.905  
  1.065  
  0.655  
  0.305  
  0.130  
  0.020  
 -0.015  
 -0.035  
 -0.065  
 -0.055  
 -0.075  
 -0.065  
 -0.085  
 -0.075  
 -0.090  
 -0.080  
 -0.090  
 -0.075  
 -0.085  
 -0.065  
 -0.080  
 -0.050  
 -0.055  
 -0.015  
 -0.015  
  0.020  
  0.040  
  0.090  
  0.105  
  0.150  
  0.180  
  0.215  
  0.210  
  0.200  
  0.150  
  0.100  
  0.045  
  0.020  
 -0.010  
 -0.015  
 -0.025  
 -0.020  
 -0.030  
 -0.025  
 -0.015  
 -0.020  
 -0.005  
 -0.020  
 -0.015  
 -0.015  
 -0.010  
 -0.010  
 -0.005  
 -0.005  
 -0.010  
 -0.020  
 -0.015  
 -0.020  
 -0.020  
 -0.025  
 -0.030  
 -0.020  
 -0.025  
 -0.020  
 -0.015  
 -0.020  
 -0.020  
 -0.010  
 -0.020  
 -0.015  
 -0.030  
 -0.030  
 -0.025  
 -0.025  
 -0.025  
 -0.025  
 -0.015  
 -0.015  
 -0.025  
 -0.030  
 -0.025  
 -0.030  
 -0.040  
 -0.035  
 -0.035  
 -0.040  
 -0.040  
 -0.035  
 -0.035  
 -0.030  
 -0.030  
 -0.030  
 -0.040  
 -0.035  
 -0.055  
 -0.045  
 -0.055  
 -0.045  
 -0.050  
 -0.050  
 -0.055  
 -0.055  
 -0.055  
 -0.045  
 -0.045  
 -0.045  
 -0.045  
 -0.050  
 -0.045  
 -0.045  
 -0.045  
 -0.035  
 -0.040  
 -0.045  
 -0.045  
 -0.040  
 -0.010  
  0.000  
  0.035  
  0.055  
  0.010  
  0.005  
 -0.055  
 -0.035  
 -0.050  
 -0.035  
 -0.075  
 -0.065  
 -0.085  
 -0.080  
 -0.095  
 -0.085  
 -0.110  
 -0.185  
 -0.060  
  0.175  
  0.865  
  1.120  
  0.655  
  0.250  
  0.040  
 -0.065  
 -0.100  
 -0.110  
 -0.140  
 -0.140  
 -0.135  
 -0.145  
 -0.140  
 -0.140  
 -0.140  
 -0.135  
 -0.140  
 -0.130  
 -0.115  
 -0.115  
 -0.105  
 -0.090  
 -0.075  
 -0.060  
 -0.035  
  0.000  
  0.030  
  0.070  
  0.110  
  0.145  
  0.185  
  0.215  
  0.230  
  0.215  
  0.170  
  0.115  
  0.070  
  0.030  
  0.000  
 -0.020  
 -0.030  
 -0.040  
 -0.040  
 -0.040  
 -0.040  
 -0.030  
 -0.040  
 -0.025  
 -0.030  
 -0.020  
 -0.030  
 -0.025  
 -0.020  
 -0.010  
 -0.020  
 -0.010  
 -0.015  
 -0.010  
 -0.020  
 -0.005  
 -0.010  
  0.005  
  0.000  
  0.005  
  0.000  
  0.005  
 -0.010  
 -0.005  
 -0.015  
 -0.010  
 -0.020  
 -0.020  
 -0.020  
 -0.020  
 -0.020  
 -0.015  
 -0.010  
 -0.010  
 -0.015  
 -0.015  
 -0.015  
 -0.015  
 -0.015  
 -0.025  
 -0.025  
 -0.025  
 -0.025  
 -0.025  
 -0.030  
 -0.030  
 -0.020  
 -0.030  
 -0.030  
 -0.035  
 -0.030  
 -0.030  
 -0.030  
 -0.030  
 -0.040  
 -0.030  
 -0.045  
 -0.040  
 -0.045  
 -0.035  
 -0.040  
 -0.040  
 -0.045  
 -0.035  
 -0.045  
 -0.040  
 -0.045  
 -0.035  
 -0.045  
 -0.040  
 -0.055  
 -0.040  
 -0.045  
 -0.045  
 -0.055  
 -0.045  
 -0.055  
 -0.055  
 -0.055  
 -0.055  
 -0.070  
 -0.070  
 -0.080  
 -0.075  
 -0.080  
 -0.085  
 -0.095  
 -0.100  
 -0.105  
 -0.100  
 -0.110  
 -0.120  
 -0.125  
 -0.160  
 -0.185  
 -0.170  
 -0.135  
 -0.195  
 -0.170  
 -0.160  
 -0.125  
 -0.130  
 -0.125  
 -0.125  
 -0.115  
 -0.110  
 -0.110  
 -0.120  
 -0.190  
 -0.020  
  0.435  
  1.095  
  1.010  
  0.555  
  0.255  
  0.060  
  0.005  
 -0.020  
 -0.035  
 -0.045  
 -0.055  
 -0.050  
 -0.060  
 -0.055  
 -0.075  
 -0.065  
 -0.070  
 -0.065  
 -0.055  
 -0.060  
 -0.050  
 -0.050  
 -0.035  
 -0.015  
  0.000  
  0.015  
  0.040  
  0.075  
  0.110  
  0.150  
  0.195  
  0.235  
  0.270  
  0.275  
  0.275  
  0.230  
  0.170  
  0.130  
  0.085  
  0.050  
  0.030  
  0.010  
  0.010  
  0.000  
 -0.005  
 -0.010  
 -0.015  
 -0.015  
 -0.015  
 -0.015  
 -0.015  
 -0.015  
 -0.010  
 -0.005  
 -0.005  
  0.000  
 -0.010  
 -0.015  
 -0.005  
 -0.005  
 -0.020  
 -0.015  
 -0.020  
 -0.015  
 -0.025  
 -0.020  
 -0.030  
 -0.020  
 -0.020  
 -0.035  
 -0.025  
 -0.020  
 -0.030  
 -0.020  
 -0.030  
 -0.030  
 -0.035  
 -0.035  
 -0.040  
 -0.030  
 -0.045  
 -0.045  
 -0.060  
 -0.050  
 -0.060  
 -0.065  
 -0.060  
 -0.070  
 -0.080  
 -0.080  
 -0.075  
 -0.090  
 -0.085  
 -0.090  
 -0.110  
 -0.085  
 -0.075  
 -0.140  
 -0.095  
 -0.110  
 -0.155  
 -0.145  
 -0.130  
 -0.095  
 -0.125  
 -0.100  
 -0.100  
 -0.105  
 -0.095  
 -0.095  
 -0.100  
 -0.135  
 -0.155  
 -0.010  
  0.530  
  1.095  
  0.865  
  0.485  
  0.245  
  0.075  
  0.000  
 -0.030  
 -0.035  
 -0.030  
 -0.020  
 -0.030  
 -0.035  
 -0.040  
 -0.040  
 -0.035  
 -0.035  
 -0.030  
 -0.030  
 -0.020  
 -0.020  
 -0.015  
 -0.005  
  0.000  
  0.015  
  0.030  
  0.055  
  0.090  
  0.125  
  0.145  
  0.175  
  0.205  
  0.225  
  0.215  
  0.190  
  0.150  
  0.090  
  0.055  
  0.020  
  0.000  
 -0.010  
 -0.020  
 -0.020  
 -0.030  
 -0.025  
 -0.020  
 -0.025  
 -0.020  
 -0.020  
 -0.020  
 -0.025  
 -0.020  
 -0.025  
 -0.020  
 -0.025  
 -0.020  
 -0.035  
 -0.030  
 -0.040  
 -0.040  
 -0.045  
 -0.040  
 -0.045  
 -0.055  
 -0.050  
 -0.050  
 -0.065  
 -0.050  
 -0.065  
 -0.065  
 -0.060  
 -0.060  
 -0.060  
 -0.070  
 -0.070  
 -0.065  
 -0.075  
 -0.075  
 -0.080  
 -0.080  
 -0.080  
 -0.085  
 -0.085  
 -0.090  
 -0.090  
 -0.095  
 -0.105  
 -0.105  
 -0.105  
 -0.085  
 -0.040  
 -0.030  
 -0.075  
 -0.025  
 -0.085  
 -0.105  
 -0.135  
 -0.095  
 -0.105  
 -0.120  
 -0.120  
 -0.115  
 -0.120  
 -0.110  
 -0.110  
 -0.110  
 -0.140  
 -0.160  
 -0.020  
  0.500  
  1.105  
  0.920  
  0.490  
  0.235  
  0.040  
 -0.010  
 -0.040  
 -0.055  
 -0.065  
 -0.075  
 -0.080  
 -0.070  
 -0.080  
 -0.075  
 -0.080  
 -0.070  
 -0.070  
 -0.065  
 -0.060  
 -0.050  
 -0.045  
 -0.030  
 -0.020  
  0.000  
  0.020  
  0.050  
  0.085  
  0.120  
  0.155  
  0.195  
  0.225  
  0.245  
  0.240  
  0.210  
  0.150  
  0.110  
  0.050  
  0.025  
  0.005  
 -0.010  
 -0.015  
 -0.030  
 -0.025  
 -0.020  
 -0.025  
 -0.015  
 -0.020  
 -0.020  
 -0.025  
 -0.020  
 -0.020  
 -0.015  
 -0.025  
 -0.025  
 -0.025  
 -0.020  
 -0.030  
 -0.030  
 -0.030  
 -0.030  
 -0.035  
 -0.025  
 -0.040  
 -0.040  
 -0.045  
 -0.045  
 -0.045  
 -0.055  
 -0.055  
 -0.055  
 -0.065  
 -0.065  
 -0.065  
 -0.060  
 -0.060  
 -0.050  
 -0.060  
 -0.060  
 -0.060  
 -0.065  
 -0.080  
 -0.075  
 -0.090  
 -0.090  
 -0.095  
 -0.090  
 -0.090  
 -0.090  
 -0.090  
 -0.085  
 -0.090  
 -0.090  
 -0.100  
 -0.085  
 -0.105  
 -0.085  
 -0.065  
 -0.020  
 -0.020  
 -0.060  
 -0.025  
 -0.075  
 -0.100  
 -0.110  
 -0.095  
 -0.110  
 -0.125  
 -0.110  
 -0.120  
 -0.115  
 -0.120  
 -0.110  
 -0.125  
 -0.165  
 -0.140  
  0.000  
  0.620  
  1.165  
  0.840  
  0.375  
  0.150  
 -0.005  
 -0.055  
 -0.060  
 -0.080  
 -0.085  
 -0.090  
 -0.085  
 -0.085  
 -0.080  
 -0.090  
 -0.075  
 -0.070  
 -0.060  
 -0.065  
 -0.055  
 -0.045  
 -0.035  
 -0.020  
 -0.005  
  0.000  
  0.040  
  0.065  
  0.095  
  0.135  
  0.170  
  0.200  
  0.230  
  0.250  
  0.240  
  0.200  
  0.150  
  0.095  
  0.065  
  0.025  
  0.010  
 -0.005  
 -0.005  
 -0.015  
 -0.020  
 -0.025  
 -0.020  
 -0.020  
 -0.010  
 -0.020  
 -0.015  
 -0.010  
 -0.015  
 -0.015  
 -0.010  
 -0.015  
 -0.015  
 -0.015  
 -0.020  
 -0.015  
 -0.020  
 -0.025  
 -0.020  
 -0.025  
 -0.025  
 -0.025  
 -0.025  
 -0.035  
 -0.025  
 -0.030  
 -0.030  
 -0.035  
 -0.040  
 -0.045  
 -0.045  
 -0.050  
 -0.045  
 -0.055  
 -0.050  
 -0.060  
 -0.055  
 -0.065  
 -0.060  
 -0.070  
 -0.065  
 -0.070  
 -0.065  
 -0.080  
 -0.080  
 -0.085  
 -0.080  
 -0.085  
 -0.085  
 -0.095  
 -0.085  
 -0.095  
 -0.085  
 -0.065  
 -0.030  
  0.000  
 -0.065  
 -0.015  
 -0.065  
 -0.095  
 -0.120  
 -0.080  
 -0.090  
 -0.105  
 -0.095  
 -0.100  
 -0.100  
 -0.100  
 -0.100  
 -0.095  
 -0.100  
 -0.185  
 -0.045  
  0.250  
  0.965  
  1.120  
  0.695  
  0.290  
  0.095  
  0.000  
 -0.025  
 -0.050  
 -0.055  
 -0.060  
 -0.065  
 -0.065  
 -0.060  
 -0.060  
 -0.065  
 -0.050  
 -0.055  
 -0.050  
 -0.050  
 -0.040  
 -0.030  
 -0.020  
 -0.010  
  0.000  
  0.020  
  0.045  
  0.080  
  0.110  
  0.140  
  0.175  
  0.200  
  0.230  
  0.235  
  0.205  
  0.165  
  0.110  
  0.060  
  0.020  
  0.000  
 -0.010  
 -0.010  
 -0.025  
 -0.025  
 -0.025  
 -0.020  
 -0.025  
 -0.020  
 -0.025  
 -0.025  
 -0.020  
 -0.010  
 -0.015  
 -0.010  
 -0.010  
 -0.015  
 -0.010  
 -0.010  
 -0.015  
 -0.015  
 -0.020  
 -0.015  
 -0.020  
 -0.015  
 -0.020  
 -0.015  
 -0.020  
 -0.015  
 -0.010  
 -0.015  
 -0.025  
 -0.020  
 -0.030  
 -0.020  
 -0.030  
 -0.030  
 -0.035  
 -0.035  
 -0.045  
 -0.040  
 -0.045  
 -0.040  
 -0.050  
 -0.050  
 -0.055  
 -0.050  
 -0.065  
 -0.060  
 -0.075  
 -0.075  
 -0.080  
 -0.085  
 -0.090  
 -0.085  
 -0.095  
 -0.090  
 -0.095  
 -0.075  
 -0.040  
 -0.020  
 -0.030  
 -0.035  
 -0.040  
 -0.070  
 -0.105  
 -0.090  
 -0.085  
 -0.095  
 -0.110  
 -0.100  
 -0.105  
 -0.095  
 -0.100  
 -0.085  
 -0.100  
 -0.150  
 -0.100  
  0.050  
  0.725  
  1.215  
  0.860  
  0.390  
  0.170  
  0.020  
 -0.020  
 -0.035  
 -0.055  
 -0.055  
 -0.070  
 -0.060  
 -0.060  
 -0.050  
 -0.050  
 -0.050  
 -0.055  
 -0.035  
 -0.040  
 -0.035  
 -0.030  
 -0.020  
 -0.015  
  0.000  
  0.020  
  0.035  
  0.065  
  0.105  
  0.135  
  0.165  
  0.215  
  0.245  
  0.255  
  0.240  
  0.200  
  0.170  
  0.110  
  0.080  
  0.045  
  0.035  
  0.005  
  0.015  
  0.000  
  0.005  
  0.000  
  0.000  
  0.000  
  0.005  
  0.000  
  0.005  
 -0.010  
 -0.005  
 -0.005  
 -0.015  
 -0.025  
 -0.030  
 -0.030  
 -0.030  
 -0.040  
 -0.055  
 -0.045  
 -0.050  
 -0.050  
 -0.055  
 -0.060  
 -0.055  
 -0.065  
 -0.065  
 -0.055  
 -0.060  
 -0.070  
 -0.065  
 -0.070  
 -0.070  
 -0.070  
 -0.065  
 -0.080  
 -0.065  
 -0.080  
 -0.075  
 -0.085  
 -0.080  
 -0.080  
 -0.085  
 -0.095  
 -0.075  
 -0.055  
 -0.025  
  0.000  
 -0.055  
  0.000  
 -0.065  
 -0.080  
 -0.100  
 -0.070  
 -0.080  
 -0.090  
 -0.085  
 -0.090  
 -0.085  
 -0.080  
 -0.075  
 -0.075  
 -0.085  
 -0.160  
  0.010  
  0.420  
  1.050  
  0.970  
  0.570  
  0.280  
  0.100  
  0.005  
 -0.025  
 -0.040  
 -0.050  
 -0.050  
 -0.060  
 -0.060  
 -0.055  
 -0.055  
 -0.060  
 -0.055  
 -0.050  
 -0.045  
 -0.045  
 -0.035  
 -0.030  
 -0.025  
 -0.010  
  0.000  
  0.020  
  0.045  
  0.075  
  0.100  
  0.145  
  0.165  
  0.195  
  0.215  
  0.210  
  0.180  
  0.135  
  0.085  
  0.055  
  0.015  
 -0.005  
 -0.015  
 -0.015  
 -0.020  
 -0.015  
 -0.020  
 -0.025  
 -0.020  
 -0.025  
 -0.025  
 -0.030  
 -0.030  
 -0.020  
 -0.030  
 -0.030  
 -0.030  
 -0.030  
 -0.040  
 -0.035  
 -0.040  
 -0.040  
 -0.050  
 -0.045  
 -0.045  
 -0.050  
 -0.050  
 -0.045  
 -0.060  
 -0.045  
 -0.055  
 -0.050  
 -0.060  
 -0.050  
 -0.050  
 -0.060  
 -0.060  
 -0.055  
 -0.060  
 -0.060  
 -0.060  
 -0.055  
 -0.075  
 -0.065  
 -0.080  
 -0.080  
 -0.085  
 -0.085  
 -0.095  
 -0.095  
 -0.100  
 -0.100  
 -0.080  
 -0.045  
 -0.020  
 -0.070  
 -0.035  
 -0.085  
 -0.110  
 -0.135  
 -0.095  
 -0.115  
 -0.135  
 -0.130  
 -0.130  
 -0.120  
 -0.115  
 -0.120  
 -0.120  
 -0.145  
 -0.175  
 -0.035  
  0.480  
  1.100  
  0.895  
  0.465  
  0.205  
  0.020  
 -0.030  
 -0.050  
 -0.070  
 -0.075  
 -0.085  
 -0.080  
 -0.085  
 -0.085  
 -0.085  
 -0.075  
 -0.080  
 -0.065  
 -0.065  
 -0.060  
 -0.050  
 -0.040  
 -0.025  
 -0.020  
  0.000  
  0.025  
  0.050  
  0.085  
  0.130  
  0.155  
  0.175  
  0.225  
  0.240  
  0.235  
  0.200  
  0.150  
  0.100  
  0.050  
  0.025  
  0.005  
 -0.005  
 -0.005  
 -0.020  
 -0.015  
 -0.010  
 -0.005  
 -0.005  
 -0.010  
 -0.010  
  0.000  
 -0.015  
  0.000  
  0.000  
 -0.005  
 -0.005  
 -0.010  
  0.000  
 -0.005  
  0.000  
 -0.010  
 -0.015  
 -0.010  
 -0.015  
 -0.015  
 -0.015  
 -0.010  
 -0.015  
 -0.010  
 -0.015  
 -0.010  
 -0.020  
 -0.020  
 -0.025  
 -0.020  
 -0.025  
 -0.025  
 -0.035  
 -0.040  
 -0.040  
 -0.040  
 -0.045  
 -0.035  
 -0.050  
 -0.050  
 -0.060  
 -0.050  
 -0.060  
 -0.065  
 -0.070  
 -0.070  
 -0.075  
 -0.075  
 -0.080  
 -0.080  
 -0.080  
 -0.080  
 -0.085  
 -0.080  
 -0.095  
 -0.095  
 -0.095  
 -0.090  
 -0.100  
 -0.100  
 -0.085  
 -0.040  
 -0.015  
 -0.065  
 -0.020  
 -0.065  
 -0.105  
 -0.130  
 -0.095  
 -0.100  
 -0.120  
 -0.120  
 -0.115  
 -0.110  
 -0.110  
 -0.105  
 -0.100  
 -0.130  
 -0.175  
 -0.035  
  0.455  
  1.120  
  0.990  
  0.530  
  0.250  
  0.055  
  0.000  
 -0.015  
 -0.045  
 -0.050  
 -0.050  
 -0.050  
 -0.045  
 -0.040  
 -0.035  
 -0.025  
 -0.025  
 -0.025  
 -0.020  
 -0.020  
 -0.010  
  0.000  
  0.000  
  0.010  
  0.025  
  0.050  
  0.065  
  0.105  
  0.130  
  0.170  
  0.200  
  0.240  
  0.275  
  0.285  
  0.255  
  0.205  
  0.140  
  0.085  
  0.045  
  0.015  
 -0.005  
 -0.015  
 -0.020  
 -0.035  
 -0.035  
 -0.035  
 -0.035  
 -0.040  
 -0.035  
 -0.035  
 -0.035  
 -0.030  
 -0.030  
 -0.025  
 -0.030  
 -0.015  
 -0.020  
 -0.015  
 -0.015  
 -0.015  
 -0.015  
 -0.010  
 -0.010  
 -0.005  
 -0.005  
 -0.005  
  0.005  
 -0.005  
  0.000  
  0.000  
  0.000  
  0.000  
 -0.005  
 -0.005  
 -0.020  
 -0.015  
 -0.025  
 -0.025  
 -0.040  
 -0.040  
 -0.040  
 -0.045  
 -0.050  
 -0.045  
 -0.055  
 -0.045  
 -0.060  
 -0.050  
 -0.065  
 -0.060  
 -0.070  
 -0.070  
 -0.075  
 -0.075  
 -0.085  
 -0.070  
 -0.080  
 -0.085  
 -0.095  
 -0.095  
 -0.110  
 -0.105  
 -0.110  
 -0.100  
 -0.095  
 -0.040  
 -0.025  
 -0.080  
 -0.025  
 -0.070  
 -0.105  
 -0.130  
 -0.100  
 -0.105  
 -0.120  
 -0.120  
 -0.120  
 -0.105  
 -0.125  
 -0.105  
 -0.105  
 -0.160  
 -0.145  
  0.000  
  0.620  
  1.185  
  0.885  
  0.405  
  0.175  
  0.015  
 -0.035  
 -0.055  
 -0.075  
 -0.075  
 -0.090  
 -0.075  
 -0.075  
 -0.080  
 -0.075  
 -0.065  
 -0.065  
 -0.055  
 -0.050  
 -0.040  
 -0.030  
 -0.030  
 -0.015  
  0.000  
  0.015  
  0.045  
  0.065  
  0.105  
  0.150  
  0.180  
  0.215  
  0.255  
  0.275  
  0.270  
  0.240  
  0.175  
  0.130  
  0.085  
  0.050  
  0.020  
  0.010  
  0.010  
  0.000  
  0.000  
  0.000  
 -0.005  
 -0.005  
  0.000  
  0.000  
 -0.005  
 -0.010  
  0.000  
  0.000  
 -0.005  
 -0.005  
  0.000  
 -0.010  
 -0.010  
 -0.005  
 -0.010  
 -0.010  
  0.000  
 -0.005  
  0.000  
  0.000  
  0.000  
  0.000  
  0.000  
 -0.005  
 -0.010  
  0.000  
 -0.005  
 -0.020  
 -0.015  
 -0.025  
 -0.030  
 -0.035  
 -0.030  
 -0.045  
 -0.050  
 -0.060  
 -0.065  
 -0.070  
 -0.070  
 -0.075  
 -0.075  
 -0.090  
 -0.095  
 -0.100  
 -0.100  
 -0.100  
 -0.100  
 -0.115  
 -0.090  
 -0.055  
 -0.040  
 -0.050  
 -0.045  
 -0.060  
 -0.090  
 -0.130  
 -0.100  
 -0.110  
 -0.115  
 -0.120  
 -0.115  
 -0.120  
 -0.105  
 -0.110  
 -0.105  
 -0.115  
 -0.190  
 -0.040  
  0.345  
  0.970  
  1.010  
  0.590  
  0.270  
  0.085  
 -0.010  
 -0.045  
 -0.055  
 -0.070  
 -0.070  
 -0.075  
 -0.070  
 -0.080  
 -0.070  
 -0.080  
 -0.060  
 -0.070  
 -0.060  
 -0.040  
 -0.045  
 -0.035  
 -0.025  
 -0.010  
  0.005  
  0.020  
  0.045  
  0.075  
  0.115  
  0.145  
  0.175  
  0.195  
  0.240  
  0.230  
  0.215  
  0.170  
  0.130  
  0.075  
  0.045  
  0.025  
  0.015  
  0.000  
 -0.005  
 -0.005  
  0.000  
  0.000  
  0.000  
  0.000  
 -0.005  
 -0.005  
 -0.010  
  0.030  
  0.035  
  0.010  
  0.005  
  0.010  
  0.000  
 -0.005  
 -0.005  
 -0.005  
 -0.010  
 -0.020  
 -0.010  
 -0.025  
 -0.035  
 -0.030  
 -0.035  
 -0.040  
 -0.035  
 -0.035  
 -0.040  
 -0.050  
 -0.045  
 -0.060  
 -0.050  
 -0.060  
 -0.065  
 -0.070  
 -0.065  
 -0.070  
 -0.075  
 -0.085  
 -0.080  
 -0.060  
 -0.015  
 -0.005  
 -0.050  
 -0.010  
 -0.055  
 -0.085  
 -0.110  
 -0.085  
 -0.090  
 -0.115  
 -0.105  
 -0.115  
 -0.110  
 -0.115  
 -0.105  
 -0.105  
 -0.145  
 -0.155  
  0.005  
  0.545  
  1.065  
  0.790  
  0.425  
  0.215  
  0.040  
 -0.020  
 -0.050  
 -0.060  
 -0.070  
 -0.080  
 -0.085  
 -0.080  
 -0.070  
 -0.080  
 -0.075  
 -0.065  
 -0.065  
 -0.060  
 -0.060  
 -0.050  
 -0.045  
 -0.030  
 -0.025  
 -0.005  
  0.020  
  0.035  
  0.070  
  0.105  
  0.140  
  0.170  
  0.200  
  0.215  
  0.215  
  0.175  
  0.135  
  0.095  
  0.050  
  0.015  
  0.005  
 -0.005  
 -0.005  
 -0.015  
 -0.010  
 -0.015  
 -0.015  
 -0.015  
 -0.015  
 -0.015  
 -0.010  
 -0.020  
 -0.025  
 -0.020  
 -0.015  
 -0.020  
 -0.020  
 -0.025  
 -0.030  
 -0.035  
 -0.035  
 -0.040  
 -0.035  
 -0.040  
 -0.045  
 -0.040  
 -0.045  
 -0.040  
 -0.045  
 -0.050  
 -0.050  
 -0.050  
 -0.050  
 -0.055  
 -0.060  
 -0.065  
 -0.065  
 -0.065  
 -0.075  
 -0.070  
 -0.070  
 -0.080  
 -0.080  
 -0.085  
 -0.090  
 -0.090  
 -0.085  
 -0.090  
 -0.100  
 -0.085  
 -0.040  
 -0.015  
 -0.050  
 -0.030  
 -0.060  
 -0.105  
 -0.125  
 -0.100  
 -0.105  
 -0.125  
 -0.135  
 -0.120  
 -0.120  
 -0.115  
 -0.115  
 -0.115  
 -0.135  
 -0.185  
 -0.040  
  0.370  
  1.030  
  0.970  
  0.535  
  0.235  
  0.040  
 -0.015  
 -0.055  
 -0.060  
 -0.075  
 -0.075  
 -0.090  
 -0.080  
 -0.080  
 -0.085  
 -0.085  
 -0.075  
 -0.070  
 -0.065  
 -0.055  
 -0.055  
 -0.040  
 -0.025  
 -0.015  
  0.000  
  0.025  
  0.050  
  0.085  
  0.125  
  0.170  
  0.210  
  0.240  
  0.255  
  0.255  
  0.220  
  0.165  
  0.110  
  0.065  
  0.025  
  0.005  
  0.000  
 -0.015  
 -0.020  
 -0.020  
 -0.015  
 -0.020  
 -0.015  
  0.000  
 -0.010  
 -0.005  
 -0.015  
 -0.015  
 -0.005  
 -0.010  
 -0.010  
 -0.005  
 -0.005  
 -0.010  
 -0.010  
 -0.010  
 -0.020  
 -0.010  
 -0.015  
 -0.015  
 -0.010  
 -0.010  
 -0.010  
 -0.015  
 -0.020  
 -0.015  
 -0.015  
 -0.015  
 -0.010  
 -0.015  
 -0.015  
 -0.020  
 -0.020  
 -0.025  
 -0.025  
 -0.030  
 -0.015  
 -0.025  
 -0.030  
 -0.030  
 -0.030  
 -0.040  
 -0.040  
 -0.040  
 -0.040  
 -0.050  
 -0.050  
 -0.055  
 -0.060  
 -0.065  
 -0.070  
 -0.070  
 -0.070  
 -0.080  
 -0.075  
 -0.085  
 -0.085  
 -0.080  
 -0.090  
 -0.095  
 -0.090  
 -0.105  
 -0.075  
 -0.045  
 -0.025  
 -0.050  
 -0.035  
 -0.050  
 -0.100  
 -0.130  
 -0.110  
 -0.095  
 -0.120  
 -0.125  
 -0.115  
 -0.125  
 -0.110  
 -0.115  
 -0.110  
 -0.120  
 -0.190  
 -0.055  
  0.290  
  0.985  
  1.070  
  0.610  
  0.260  
  0.050  
 -0.010  
 -0.040  
 -0.065  
 -0.075  
 -0.070  
 -0.080  
 -0.080  
 -0.085  
 -0.075  
 -0.080  
 -0.075  
 -0.070  
 -0.065  
 -0.060  
 -0.045  
 -0.045  
 -0.035  
 -0.020  
  0.000  
  0.010  
  0.045  
  0.070  
  0.110  
  0.145  
  0.180  
  0.205  
  0.235  
  0.240  
  0.205  
  0.165  
  0.110  
  0.065  
  0.035  
  0.010  
 -0.005  
 -0.010  
 -0.015  
 -0.020  
 -0.020  
 -0.020  
 -0.020  
 -0.015  
 -0.010  
 -0.005  
 -0.015  
 -0.005  
  0.000  
  0.000  
  0.000  
  0.000  
  0.000  
  0.000  
 -0.005  
 -0.010  
 -0.005  
 -0.010  
 -0.010  
 -0.015  
 -0.005  
 -0.015  
 -0.015  
 -0.010  
 -0.020  
 -0.015  
 -0.020  
 -0.015  
 -0.015  
 -0.025  
 -0.025  
 -0.035  
 -0.020  
 -0.025  
 -0.030  
 -0.025  
 -0.030  
 -0.035  
 -0.040  
 -0.045  
 -0.045  
 -0.040  
 -0.050  
 -0.055  
 -0.055  
 -0.055  
 -0.065  
 -0.065  
 -0.070  
 -0.075  
 -0.075  
 -0.085  
 -0.090  
 -0.090  
 -0.080  
 -0.035  
 -0.010  
 -0.045  
 -0.020  
 -0.040  
 -0.085  
 -0.105  
 -0.080  
 -0.075  
 -0.100  
 -0.105  
 -0.090  
 -0.100  
 -0.095  
 -0.090  
 -0.085  
 -0.090  
 -0.140  
 -0.120  
  0.010  
  0.655  
  1.195  
  0.880  
  0.405  
  0.185  
  0.010  
 -0.025  
 -0.050  
 -0.065  
 -0.080  
 -0.080  
 -0.080  
 -0.080  
 -0.070  
 -0.075  
 -0.065  
 -0.070  
 -0.055  
 -0.060  
 -0.040  
 -0.035  
 -0.020  
 -0.005  
  0.005  
  0.030  
  0.060  
  0.100  
  0.135  
  0.175  
  0.215  
  0.245  
  0.280  
  0.305  
  0.290  
  0.250  
  0.200  
  0.160  
  0.135  
  0.110  
  0.100  
  0.085  
  0.085  
  0.085  
  0.085  
  0.075  
  0.090  
  0.085  
  0.085  
  0.085  
  0.090  
  0.080  
  0.080  
  0.060  
  0.070  
  0.060  
  0.055  
  0.050  
  0.050  
  0.045  
  0.030  
  0.020  
  0.015  
  0.015  
  0.000  
 -0.005  
  0.000  
 -0.005  
 -0.005  
 -0.015  
 -0.025  
 -0.025  
 -0.040  
 -0.045  
 -0.055  
 -0.060  
 -0.055  
 -0.070  
 -0.075  
 -0.080  
 -0.080  
 -0.095  
 -0.085  
 -0.090  
 -0.080  
 -0.095  
 -0.090  
 -0.095  
 -0.085  
 -0.080  
 -0.080  
 -0.075  
 -0.020  
 -0.010  
 -0.015  
 -0.020  
 -0.015  
 -0.070  
 -0.080  
 -0.075  
 -0.060  
 -0.080  
 -0.075  
 -0.085  
 -0.070  
 -0.080  
 -0.070  
 -0.075  
 -0.070  
 -0.080  
 -0.170  
 -0.025  
  0.310  
  0.955  
  1.025  
  0.585  
  0.265  
  0.085  
 -0.020  
 -0.065  
 -0.065  
 -0.085  
 -0.085  
 -0.110  
 -0.095  
 -0.110  
 -0.105  
 -0.120  
 -0.115  
 -0.135  
 -0.125  
 -0.130  
 -0.120  
 -0.125  
 -0.105  
 -0.095  
 -0.065  
 -0.045  
 -0.020  
  0.015  
  0.065  
  0.100  
  0.135  
  0.170  
  0.195  
  0.200  
  0.185  
  0.145  
  0.105  
  0.085  
  0.045  
  0.045  
  0.030  
  0.025  
  0.020  
  0.020  
  0.025  
  0.025  
  0.020  
  0.035  
  0.045  
  0.080  
  0.145  
  0.130  
  0.095  
  0.035  
  0.025  
  0.015  
  0.000  
 -0.045  
 -0.030  
 -0.045  
  0.000  
  0.000  
  0.020  
 -0.045  
 -0.055  
 -0.100  
 -0.085  
 -0.110  
 -0.120  
 -0.150  
 -0.140  
 -0.140  
 -0.115  
 -0.120  
 -0.110  
 -0.120  
 -0.105  
 -0.105  
 -0.095  
 -0.090  
 -0.080  
 -0.100  
 -0.095  
 -0.110  
 -0.110  
 -0.130  
 -0.130  
 -0.165  
 -0.165  
 -0.195  
 -0.200  
 -0.210  
 -0.210  
 -0.200  
 -0.200  
 -0.155  
 -0.120  
 -0.095  
 -0.155  
 -0.105  
 -0.165  
 -0.180  
 -0.210  
 -0.180  
 -0.210  
 -0.220  
 -0.225  
 -0.185  
 -0.185  
 -0.180  
 -0.165  
 -0.150  
 -0.150  
 -0.220  
 -0.120  
  0.075  
  0.760  
  1.065  
  0.655  
  0.260  
  0.060  
 -0.015  
 -0.040  
  0.040  
  0.000  
  0.050  
 -0.010  
  0.020  
 -0.015  
  0.050  
  0.005  
  0.040  
  0.010  
  0.035  
  0.030  
  0.015  
  0.025  
 -0.005  
  0.020  
  0.000  
  0.045  
  0.025  
  0.085  
  0.055  
  0.115  
  0.100  
  0.150  
  0.135  
  0.165  
  0.080  
  0.075  
  0.000  
  0.000  
 -0.060  
 -0.045  
 -0.085  
 -0.075  
 -0.095  
 -0.065  
 -0.085  
 -0.060  
 -0.065  
 -0.035  
 -0.030  
 -0.015  
  0.000  
  0.015  
  0.025  
  0.030  
  0.060  
  0.050  
  0.080  
  0.070  
  0.095  
  0.080  
  0.095  
  0.065  
  0.075  
  0.040  
  0.055  
  0.025  
  0.030  
  0.015  
  0.020  
  0.020  
  0.025  
  0.040  
  0.060  
  0.055  
  0.030  
  0.035  
  0.030  
  0.035  
  0.015  
  0.030  
  0.010  
  0.030  
  0.010  
  0.040  
  0.010  
  0.035  
  0.005  
  0.015  
 -0.010  
 -0.005  
 -0.020  
 -0.030  
 -0.030  
 -0.040  
 -0.030  
 -0.045  
 -0.040  
 -0.050  
 -0.040  
 -0.055  
 -0.045  
 -0.060  
 -0.045  
 -0.065  
 -0.050  
 -0.060  
 -0.050  
 -0.065  
 -0.050  
 -0.060  
 -0.055  
 -0.065  
 -0.055  
 -0.065  
 -0.065  
 -0.070  
 -0.070  
 -0.080  
 -0.075  
 -0.070  
 -0.070  
 -0.080  
 -0.075  
 -0.070  
 -0.070  
 -0.080  
 -0.080  
 -0.090  
 -0.075  
 -0.085  
 -0.075  
 -0.090  
 -0.080  
 -0.095  
 -0.085  
 -0.100  
 -0.080  
 -0.095  
 -0.070  
 -0.055  
 -0.070  
 -0.065  
 -0.045  
 -0.065  
 -0.100  
 -0.090  
 -0.080  
 -0.050  
 -0.070  
 -0.050  
 -0.080  
 -0.035  
 -0.075  
 -0.030  
 -0.085  
 -0.140  
 -0.060  
  0.235  
  0.875  
  1.200  
  0.680  
  0.325  
  0.090  
  0.020  
 -0.050  
 -0.035  
 -0.085  
 -0.065  
 -0.090  
 -0.075  
 -0.095  
 -0.085  
 -0.095  
 -0.085  
 -0.085  
 -0.075  
 -0.070  
 -0.065  
 -0.050  
 -0.060  
 -0.030  
 -0.030  
  0.000  
  0.015  
  0.055  
  0.080  
  0.140  
  0.155  
  0.210  
  0.205  
  0.245  
  0.210  
  0.200  
  0.135  
  0.090  
  0.035  
  0.010  
 -0.025  
 -0.030  
 -0.035  
 -0.040  
 -0.045  
 -0.035  
 -0.040  
 -0.035  
 -0.035  
 -0.030  
 -0.030  
 -0.020  
 -0.020  
 -0.020  
 -0.015  
 -0.015  
 -0.020  
 -0.010  
 -0.015  
 -0.010  
  0.000  
 -0.025  
 -0.030  
 -0.050  
 -0.055  
 -0.070  
 -0.080  
 -0.105  
 -0.110  
 -0.120  
 -0.110  
 -0.120  
 -0.110  
 -0.125  
 -0.120  
 -0.140  
 -0.125  
 -0.135  
 -0.115  
 -0.100  
 -0.085  
 -0.070  
 -0.045  
 -0.030  
 -0.015  
 -0.005  
  0.000  
  0.010  
  0.010  
  0.015  
  0.010  
  0.020  
  0.010  
  0.030  
  0.015  
  0.035  
  0.030  
  0.045  
  0.040  
  0.050  
  0.045  
  0.055  
  0.040  
  0.055  
  0.050  
  0.050  
  0.045  
  0.040  
  0.040  
  0.025  
  0.030  
  0.015  
  0.020  
  0.000  
  0.005  
 -0.015  
 -0.005  
 -0.030  
 -0.015  
 -0.040  
 -0.020  
 -0.040  
 -0.010  
 -0.045  
 -0.055  
 -0.085  
 -0.095  
 -0.055  
 -0.085  
 -0.105  
 -0.080  
 -0.045  
 -0.055  
 -0.060  
 -0.075  
 -0.065  
 -0.085  
 -0.065  
 -0.090  
 -0.110  
 -0.130  
  0.065  
  0.650  
  1.255  
  0.890  
  0.485  
  0.205  
  0.095  
 -0.020  
  0.040  
 -0.065  
  0.020  
 -0.085  
  0.020  
 -0.080  
  0.040  
 -0.075  
  0.060  
 -0.080  
 -0.040  
 -0.185  
 -0.090  
 -0.140  
 -0.095  
 -0.090  
 -0.075  
 -0.030  
 -0.040  
  0.050  
  0.025  
  0.125  
  0.100  
  0.210  
  0.170  
  0.275  
  0.200  
  0.260  
  0.140  
  0.165  
  0.055  
  0.105  
  0.000  
  0.040  
 -0.030  
  0.015  
 -0.035  
  0.005  
 -0.035  
 -0.005  
 -0.040  
 -0.010  
 -0.030  
 -0.005  
 -0.030  
 -0.020  
 -0.020  
 -0.020  
 -0.020  
 -0.025  
 -0.015  
 -0.025  
 -0.010  
 -0.030  
 -0.005  
 -0.025  
  0.000  
 -0.030  
  0.000  
 -0.035  
  0.000  
 -0.040  
 -0.005  
 -0.035  
 -0.005  
 -0.030  
 -0.010  
 -0.035  
 -0.020  
 -0.045  
 -0.015  
 -0.040  
 -0.025  
 -0.040  
 -0.030  
 -0.045  
 -0.030  
 -0.045  
 -0.040  
 -0.030  
 -0.045  
 -0.040  
 -0.045  
 -0.045  
 -0.065  
 -0.055  
 -0.060  
 -0.050  
 -0.060  
 -0.055  
 -0.065  
 -0.045  
 -0.065  
 -0.040  
 -0.060  
 -0.035  
 -0.005  
  0.020  
  0.035  
  0.060  
  0.030  
  0.025  
 -0.040  
 -0.025  
 -0.045  
 -0.005  
 -0.070  
 -0.020  
 -0.070  
  0.000  
 -0.055  
  0.010  
 -0.065  
 -0.065  
  0.000  
  0.510  
  1.065  
  1.145  
  0.625  
  0.410  
  0.110  
  0.140  
  0.000  
  0.110  
 -0.030  
  0.100  
 -0.045  
  0.120  
 -0.035  
  0.140  
 -0.030  
  0.160  
  0.000  
  0.190  
  0.050  
 -0.255  
  0.055  
 -0.055  
  0.110  
  0.005  
  0.165  
  0.070  
  0.215  
  0.135  
  0.255  
  0.200  
  0.285  
  0.215  
  0.275  
  0.165  
  0.160  
  0.055  
  0.035  
 -0.040  
 -0.070  
 -0.120  
 -0.135  
 -0.160  
 -0.190  
 -0.180  
 -0.190  
 -0.180  
 -0.185  
 -0.165  
 -0.180  
 -0.165  
 -0.155  
 -0.085  
 -0.210  
 -0.270  
 -0.345  
 -0.305  
 -0.320  
 -0.340  
 -0.325  
 -0.340  
 -0.350  
 -0.405  
 -0.385  
 -0.415  
 -0.375  
 -0.410  
 -0.350  
 -0.370  
 -0.325  
 -0.360  
 -0.295  
 -0.350  
 -0.300  
 -0.335  
 -0.265  
 -0.305  
 -0.205  
 -0.240  
 -0.160  
 -0.195  
 -0.110  
 -0.140  
 -0.075  
 -0.115  
 -0.045  
 -0.100  
 -0.020  
 -0.080  
  0.010  
  0.010  
  0.065  
  0.080  
  0.170  
  0.100  
  0.135  
  0.060  
  0.095  
  0.080  
  0.095  
  0.075  
  0.085  
  0.080  
  0.085  
  0.095  
  0.085  
  0.085  
 -0.025  
  0.150  
  0.415  
  1.075  
  1.145  
  0.775  
  0.375  
  0.240  
  0.065  
  0.070  
  0.000  
  0.025  
 -0.010  
  0.015  
 -0.030  
  0.000  
 -0.035  
  0.005  
 -0.030  
  0.010  
 -0.015  
  0.010  
  0.000  
  0.015  
  0.010  
  0.030  
  0.040  
  0.075  
  0.095  
  0.120  
  0.150  
  0.175  
  0.220  
  0.235  
  0.280  
  0.265  
  0.265  
  0.205  
  0.175  
  0.100  
  0.090  
  0.035  
  0.050  
  0.010  
  0.035  
  0.005  
  0.030  
  0.015  
  0.025  
  0.010  
  0.020  
  0.005  
  0.015  
  0.020  
  0.010  
  0.015  
  0.020  
  0.010  
  0.005  
  0.015  
  0.000  
  0.005  
  0.000  
  0.010  
  0.000  
  0.000  
 -0.005  
  0.000  
 -0.010  
 -0.005  
 -0.020  
 -0.015  
 -0.025  
 -0.015  
 -0.035  
 -0.030  
 -0.045  
 -0.035  
 -0.055  
 -0.055  
 -0.070  
 -0.060  
 -0.065  
 -0.070  
 -0.075  
 -0.065  
 -0.075  
 -0.080  
 -0.075  
 -0.085  
 -0.075  
 -0.080  
 -0.080  
 -0.090  
 -0.085  
 -0.090  
 -0.085  
 -0.095  
 -0.095  
 -0.095  
 -0.060  
 -0.030  
 -0.020  
  0.015  
  0.030  
 -0.030  
 -0.055  
 -0.110  
 -0.105  
 -0.100  
 -0.130  
 -0.125  
 -0.140  
 -0.130  
 -0.130  
 -0.120  
 -0.130  
 -0.135  
 -0.195  
 -0.045  
  0.415  
  1.065  
  0.925  
  0.480  
  0.200  
  0.020  
 -0.045  
 -0.065  
 -0.080  
 -0.085  
 -0.100  
 -0.085  
 -0.095  
 -0.090  
 -0.090  
 -0.080  
 -0.075  
 -0.080  
 -0.065  
 -0.065  
 -0.050  
 -0.045  
 -0.025  
 -0.030  
  0.000  
  0.000  
  0.050  
  0.065  
  0.115  
  0.135  
  0.190  
  0.200  
  0.240  
  0.230  
  0.225  
  0.155  
  0.125  
  0.055  
  0.035  
  0.000  
 -0.010  
 -0.030  
 -0.025  
 -0.035  
 -0.035  
 -0.035  
 -0.030  
 -0.030  
 -0.025  
 -0.030  
 -0.035  
 -0.025  
 -0.030  
 -0.020  
 -0.035  
 -0.015  
 -0.030  
 -0.010  
 -0.020  
 -0.005  
 -0.025  
  0.000  
 -0.015  
  0.000  
 -0.010  
  0.010  
 -0.010  
  0.005  
  0.000  
  0.010  
  0.000  
  0.015  
  0.000  
  0.015  
  0.005  
  0.015  
  0.005  
  0.015  
  0.010  
  0.005  
  0.010  
  0.000  
  0.000  
  0.000  
 -0.005  
 -0.015  
 -0.005  
 -0.020  
 -0.025  
 -0.030  
 -0.025  
 -0.040  
 -0.040  
 -0.050  
 -0.040  
 -0.055  
 -0.050  
 -0.060  
 -0.065  
 -0.070  
 -0.070  
 -0.075  
 -0.070  
 -0.080  
 -0.085  
 -0.085  
 -0.085  
 -0.085  
 -0.090  
 -0.085  
 -0.090  
 -0.080  
 -0.090  
 -0.085  
 -0.095  
 -0.085  
 -0.085  
 -0.080  
 -0.090  
 -0.085  
 -0.090  
 -0.085  
 -0.090  
 -0.085  
 -0.090  
 -0.080  
 -0.035  
 -0.025  
  0.005  
  0.025  
  0.005  
 -0.010  
 -0.065  
 -0.085  
 -0.075  
 -0.085  
 -0.100  
 -0.105  
 -0.105  
 -0.110  
 -0.100  
 -0.105  
 -0.115  
 -0.200  
 -0.040  
  0.400  
  1.065  
  1.025  
  0.565  
  0.235  
  0.035  
 -0.020  
 -0.060  
 -0.070  
 -0.085  
 -0.085  
 -0.095  
 -0.085  
 -0.095  
 -0.075  
 -0.090  
 -0.070  
 -0.070  
 -0.065  
 -0.075  
 -0.045  
 -0.055  
 -0.020  
 -0.040  
  0.000  
  0.000  
  0.040  
  0.050  
  0.110  
  0.125  
  0.170  
  0.200  
  0.240  
  0.240  
  0.225  
  0.185  
  0.130  
  0.085  
  0.040  
  0.015  
  0.000  
 -0.010  
 -0.025  
 -0.015  
 -0.020  
 -0.010  
 -0.030  
 -0.010  
 -0.025  
 -0.015  
 -0.020  
 -0.010  
 -0.025  
 -0.010  
 -0.030  
 -0.010  
 -0.025  
 -0.015  
 -0.030  
 -0.015  
 -0.040  
 -0.025  
 -0.040  
 -0.030  
 -0.035  
 -0.035  
 -0.030  
 -0.035  
 -0.035  
 -0.035  
 -0.035  
 -0.045  
 -0.035  
 -0.045  
 -0.040  
 -0.045  
 -0.040  
 -0.050  
 -0.040  
 -0.050  
 -0.035  
 -0.045  
 -0.035  
 -0.045  
 -0.040  
 -0.035  
 -0.035  
 -0.040  
 -0.035  
 -0.040  
 -0.040  
 -0.035  
 -0.035  
 -0.035  
 -0.030  
 -0.045  
 -0.035  
 -0.035  
 -0.040  
 -0.050  
 -0.045  
 -0.050  
 -0.050  
 -0.055  
 -0.055  
 -0.065  
 -0.065  
 -0.070  
 -0.075  
 -0.080  
 -0.085  
 -0.090  
 -0.085  
 -0.100  
 -0.085  
 -0.065  
 -0.040  
 -0.025  
  0.020  
  0.030  
 -0.020  
 -0.045  
 -0.090  
 -0.080  
 -0.075  
 -0.115  
 -0.105  
 -0.120  
 -0.100  
 -0.115  
 -0.100  
 -0.105  
 -0.160  
 -0.115  
  0.040  
  0.710  
  1.220  
  0.845  
  0.380  
  0.170  
  0.020  
 -0.020  
 -0.040  
 -0.060  
 -0.060  
 -0.060  
 -0.065  
 -0.060  
 -0.065  
 -0.060  
 -0.060  
 -0.045  
 -0.040  
 -0.025  
 -0.020  
 -0.015  
 -0.015  
  0.005  
  0.005  
  0.030  
  0.045  
  0.080  
  0.110  
  0.160  
  0.185  
  0.220  
  0.255  
  0.280  
  0.270  
  0.250  
  0.195  
  0.135  
  0.095  
  0.050  
  0.035  
  0.015  
  0.000  
 -0.005  
  0.000  
  0.000  
  0.000  
 -0.015  
  0.005  
 -0.005  
  0.005  
 -0.010  
  0.005  
 -0.010  
  0.000  
  0.000  
  0.005  
  0.000  
  0.010  
 -0.010  
  0.000  
  0.000  
  0.000  
 -0.005  
  0.000  
  0.000  
  0.005  
  0.000  
  0.000  
  0.000  
  0.005  
  0.000  
  0.000  
  0.000  
  0.000  
  0.000  
  0.000  
  0.000  
 -0.010  
 -0.010  
 -0.005  
 -0.010  
 -0.010  
 -0.010  
 -0.020  
 -0.020  
 -0.025  
 -0.020  
 -0.040  
 -0.035  
 -0.030  
 -0.035  
 -0.040  
 -0.040  
 -0.040  
 -0.040  
 -0.045  
 -0.045  
 -0.050  
 -0.055  
 -0.050  
 -0.055  
 -0.045  
 -0.050  
 -0.055  
 -0.060  
 -0.050  
 -0.025  
  0.000  
  0.015  
  0.050  
  0.075  
  0.010  
  0.000  
 -0.055  
 -0.055  
 -0.035  
 -0.075  
 -0.070  
 -0.070  
 -0.070  
 -0.080  
 -0.070  
 -0.080  
 -0.120  
 -0.110  
  0.035  
  0.640  
  1.180  
  0.855  
  0.445  
  0.235  
  0.070  
  0.000  
 -0.015  
 -0.030  
 -0.035  
 -0.045  
 -0.040  
 -0.050  
 -0.040  
 -0.040  
 -0.030  
 -0.035  
 -0.020  
 -0.020  
 -0.010  
 -0.005  
  0.000  
  0.005  
  0.030  
  0.040  
  0.070  
  0.100  
  0.135  
  0.155  
  0.200  
  0.215  
  0.260  
  0.265  
  0.285  
  0.245  
  0.205  
  0.140  
  0.115  
  0.065  
  0.045  
  0.025  
  0.025  
  0.015  
  0.025  
  0.015  
  0.025  
  0.015  
  0.020  
  0.015  
  0.035  
  0.010  
  0.040  
  0.025  
  0.040  
  0.035  
  0.050  
  0.030  
  0.055  
  0.035  
  0.045  
  0.025  
  0.040  
  0.010  
  0.045  
  0.035  
  0.070  
  0.055  
  0.085  
  0.055  
  0.095  
  0.075  
  0.095  
  0.055  
  0.095  
  0.040  
  0.060  
  0.010  
  0.025  
 -0.030  
  0.000  
 -0.040  
 -0.015  
 -0.055  
 -0.040  
 -0.085  
 -0.070  
 -0.115  
 -0.115  
 -0.145  
 -0.145  
 -0.180  
 -0.185  
 -0.210  
 -0.225  
 -0.250  
 -0.260  
 -0.280  
 -0.310  
 -0.325  
 -0.350  
 -0.365  
 -0.385  
 -0.385  
 -0.360  
 -0.255  
 -0.170  
 -0.200  
 -0.160  
 -0.230  
 -0.135  
 -0.335  
 -0.265  
 -0.440  
 -0.250  
 -0.425  
 -0.220  
 -0.620  
 -0.545  
 -0.885  
 -0.840  
 -1.070  
 -1.050  
 -1.025  
 -0.670  
  0.090  
  0.540  
  0.250  
 -0.165  
 -0.130  
 -0.355  
 -0.130  
 -0.235  
 -0.105  
 -0.235  
 -0.020  
 -0.055  
  0.185  
  0.025  
  0.170  
  0.100  
  0.320  
  0.195  
  0.260  
  0.170  
  0.210  
  0.230  
  0.230  
  0.265  
  0.225  
  0.285  
  0.230  
  0.310  
  0.225  
  0.305  
  0.210  
  0.300  
  0.170  
  0.255  
  0.080  
  0.130  
 -0.060  
  0.015  
 -0.150  
 -0.025  
 -0.150  
 -0.015  
 -0.110  
 -0.005  
 -0.070  
 -0.045  
 -0.070  
 -0.120  
  0.000  
  0.135  
  0.295  
  0.135  
  0.305  
  0.195  
  0.305  
  0.195  
  0.280  
  0.170  
  0.225  
  0.135  
  0.195  
  0.130  
  0.170  
  0.090  
  0.125  
  0.070  
  0.130  
  0.115  
  0.230  
  0.145  
  0.180  
  0.110  
  0.150  
  0.105  
  0.130  
  0.100  
  0.090  
  0.110  
  0.070  
  0.130  
  0.045  
  0.040  
 -0.070  
 -0.045  
 -0.140  
 -0.110  
 -0.175  
 -0.125  
 -0.165  
 -0.125  
 -0.170  
 -0.135  
 -0.155  
 -0.155  
 -0.155  
 -0.165  
 -0.155  
 -0.165  
 -0.105  
 -0.165  
 -0.145  
 -0.210  
 -0.170  
 -0.180  
 -0.110  
 -0.120  
 -0.035  
 -0.065  
 -0.120  
 -0.170  
 -0.220  
 -0.165  
 -0.160  
 -0.130  
 -0.115  
 -0.055  
 -0.015  
  0.045  
  0.115  
  0.090  
  0.000  
  0.090  
  0.305  
  0.985  
  1.345  
  0.930  
  0.475  
  0.260  
  0.145  
  0.100  
  0.070  
  0.030  
 -0.005  
 -0.040  
 -0.065  
 -0.075  
 -0.085  
 -0.075  
 -0.075  
 -0.055  
 -0.040  
 -0.015  
  0.020  
  0.055  
  0.090  
  0.050  
  0.080  
  0.080  
  0.120  
  0.125  
  0.155  
  0.155  
  0.170  
  0.185  
  0.200  
  0.230  
  0.205  
  0.195  
  0.110  
  0.090  
  0.025  
  0.030  
 -0.010  
  0.010  
 -0.015  
  0.000  
 -0.015  
  0.005  
  0.000  
  0.005  
  0.005  
  0.010  
  0.015  
  0.005  
  0.020  
  0.005  
  0.035  
  0.015  
  0.055  
  0.020  
  0.080  
  0.020  
  0.110  
  0.040  
  0.165  
  0.060  
  0.145  
  0.010  
  0.130  
 -0.015  
  0.130  
 -0.030  
  0.130  
 -0.045  
  0.135  
 -0.045  
  0.140  
 -0.055  
  0.150  
 -0.055  
  0.160  
 -0.070  
  0.160  
 -0.080  
  0.160  
 -0.090  
 -0.240  
 -0.220  
 -0.280  
 -0.185  
 -0.270  
 -0.150  
 -0.245  
 -0.125  
 -0.200  
 -0.115  
 -0.165  
 -0.105  
 -0.140  
 -0.095  
 -0.120  
 -0.085  
 -0.100  
 -0.080  
 -0.100  
 -0.095  
 -0.130  
 -0.140  
 -0.150  
 -0.170  
 -0.110  
 -0.125  
 -0.075  
 -0.045  
  0.015  
 -0.060  
 -0.030  
 -0.125  
 -0.105  
 -0.110  
 -0.110  
 -0.125  
 -0.115  
 -0.100  
 -0.095  
 -0.070  
 -0.080  
 -0.105  
 -0.165  
 -0.010  
  0.510  
  1.155  
  0.985  
  0.550  
  0.235  
  0.080  
 -0.010  
  0.010  
 -0.050  
  0.005  
 -0.040  
  0.010  
 -0.035  
  0.025  
 -0.035  
  0.005  
 -0.040  
  0.005  
 -0.035  
 -0.020  
 -0.045  
 -0.030  
 -0.035  
 -0.025  
 -0.025  
  0.015  
  0.015  
  0.060  
  0.070  
  0.160  
  0.150  
  0.225  
  0.190  
  0.250  
  0.175  
  0.180  
  0.070  
  0.065  
 -0.020  
  0.000  
 -0.055  
 -0.015  
 -0.060  
 -0.005  
 -0.045  
  0.000  
 -0.040  
  0.010  
 -0.010  
  0.030  
 -0.015  
  0.010  
 -0.015  
 -0.020  
  0.000  
 -0.020  
  0.000  
 -0.020  
  0.000  
 -0.020  
 -0.005  
 -0.025  
 -0.005  
 -0.010  
 -0.015  
  0.000  
 -0.015  
  0.015  
 -0.025  
  0.015  
 -0.030  
  0.040  
 -0.035  
  0.040  
 -0.050  
  0.060  
 -0.060  
  0.075  
 -0.070  
  0.100  
 -0.080  
  0.130  
 -0.080  
  0.160  
 -0.070  
  0.135  
 -0.080  
  0.150  
 -0.105  
  0.195  
 -0.105  
  0.260  
 -0.110  
  0.265  
 -0.160  
  0.200  
  0.365  
  0.015  
  0.280  
 -0.035  
  0.215  
 -0.070  
  0.160  
 -0.090  
  0.115  
 -0.070  
  0.135  
 -0.045  
  0.160  
 -0.005  
  0.095  
 -0.075  
  0.015  
 -0.095  
  0.030  
 -0.105  
  0.005  
 -0.085  
  0.000  
 -0.070  
  0.000  
 -0.060  
 -0.085  
 -0.105  
  0.055  
  0.675  
  1.190  
  0.780  
  0.290  
  0.015  
 -0.135  
 -0.255  
 -0.275  
 -0.375  
 -0.370  
 -0.505  
 -0.490  
 -0.635  
 -0.605  
 -0.745  
 -0.710  
 -0.895  
 -0.825  
 -0.990  
 -0.985  
 -1.185  
 -1.030  
 -1.100  
 -0.970  
 -0.915  
 -0.785  
 -0.830  
 -0.780  
 -0.760  
 -0.510  
 -0.360  
 -0.275  
 -0.150  
 -0.105  
 -0.035  
 -0.040  
 -0.025  
 -0.075  
 -0.080  
 -0.125  
 -0.155  
 -0.185  
 -0.200  
 -0.050  
  0.010  
  0.165  
  0.300  
  0.380  
  0.485  
  0.625  
  0.660  
  0.680  
  0.680  
  0.655  
  0.695  
  0.675  
  0.720  
  0.670  
  0.620  
  0.560  
  0.510  
  0.515  
  0.400  
  0.445  
  0.340  
  0.395  
  0.230  
  0.260  
  0.080  
  0.125  
 -0.020  
  0.015  
 -0.115  
 -0.070  
 -0.195  
 -0.165  
 -0.245  
 -0.225  
 -0.275  
 -0.280  
 -0.295  
 -0.305  
 -0.215  
 -0.225  
 -0.135  
 -0.285  
  0.015  
  0.035  
  0.235  
  0.165  
  0.310  
  0.155  
  0.285  
  0.120  
  0.240  
  0.050  
  0.200  
  0.035  
  0.185  
  0.045  
  0.220  
  0.065  
  0.260  
  0.205  
  0.400  
  0.405  
  0.275  
  0.340  
  0.290  
  0.315  
  0.235  
  0.315  
  0.265  
  0.380  
  0.225  
  0.300  
  0.135  
  0.105  
  0.115  
  0.595  
  1.090  
  1.110  
  0.615  
  0.335  
  0.085  
  0.030  
 -0.065  
 -0.045  
 -0.120  
 -0.100  
 -0.155  
 -0.160  
 -0.210  
 -0.230  
 -0.240  
 -0.225  
 -0.215  
 -0.195  
 -0.180  
 -0.180  
 -0.125  
 -0.165  
 -0.090  
 -0.130  
 -0.020  
 -0.075  
  0.035  
 -0.035  
  0.075  
  0.000  
  0.090  
  0.035  
  0.110  
  0.020  
  0.040  
 -0.045  
 -0.055  
 -0.105  
 -0.095  
 -0.110  
 -0.090  
 -0.100  
 -0.060  
 -0.050  
 -0.060  
 -0.040  
 -0.045  
 -0.035  
 -0.040  
 -0.035  
 -0.040  
 -0.020  
 -0.025  
  0.010  
 -0.015  
  0.010  
 -0.015  
  0.035  
  0.000  
  0.040  
 -0.005  
  0.035  
 -0.015  
  0.035  
 -0.035  
  0.020  
 -0.035  
  0.005  
 -0.040  
  0.000  
 -0.060  
 -0.035  
 -0.070  
 -0.060  
 -0.080  
 -0.075  
 -0.085  
 -0.070  
 -0.075  
 -0.060  
 -0.060  
 -0.060  
 -0.040  
 -0.060  
 -0.040  
 -0.075  
 -0.050  
 -0.080  
 -0.065  
 -0.110  
 -0.055  
 -0.075  
 -0.040  
 -0.040  
  0.030  
 -0.065  
 -0.010  
 -0.135  
 -0.065  
 -0.100  
 -0.070  
 -0.115  
 -0.075  
 -0.100  
 -0.060  
 -0.070  
 -0.050  
 -0.055  
 -0.120  
  0.030  
  0.325  
  0.975  
  1.095  
  0.700  
  0.305  
  0.135  
  0.010  
 -0.020  
 -0.060  
 -0.070  
 -0.085  
 -0.085  
 -0.090  
 -0.095  
 -0.100  
 -0.095  
 -0.090  
 -0.095  
 -0.090  
 -0.095  
 -0.080  
 -0.100  
 -0.075  
 -0.080  
 -0.045  
 -0.050  
 -0.010  
 -0.005  
  0.045  
  0.050  
  0.100  
  0.110  
  0.160  
  0.155  
  0.165  
  0.115  
  0.080  
  0.025  
 -0.005  
 -0.025  
 -0.035  
 -0.040  
 -0.060  
 -0.050  
 -0.065  
 -0.065  
 -0.075  
 -0.070  
 -0.080  
 -0.065  
 -0.065  
 -0.055  
 -0.060  
 -0.050  
 -0.075  
 -0.070  
 -0.095  
 -0.080  
 -0.115  
 -0.105  
 -0.135  
 -0.125  
 -0.150  
 -0.145  
 -0.170  
 -0.145  
 -0.175  
 -0.150  
 -0.165  
 -0.125  
 -0.115  
 -0.070  
 -0.055  
 -0.020  
 -0.010  
  0.000  
 -0.015  
 -0.015  
 -0.030  
 -0.035  
 -0.055  
 -0.055  
 -0.075  
 -0.090  
 -0.105  
 -0.115  
 -0.125  
 -0.120  
 -0.125  
 -0.120  
 -0.115  
 -0.110  
 -0.105  
 -0.095  
 -0.085  
 -0.085  
 -0.070  
 -0.070  
 -0.045  
 -0.045  
 -0.030  
 -0.020  
 -0.005  
 -0.010  
  0.010  
  0.015  
  0.035  
  0.045  
  0.105  
  0.100  
  0.170  
  0.195  
  0.150  
  0.125  
  0.055  
  0.055  
  0.065  
  0.040  
  0.035  
  0.010  
  0.020  
  0.000  
  0.015  
  0.000  
 -0.005  
 -0.095  
  0.075  
  0.455  
  1.155  
  1.095  
  0.665  
  0.305  
  0.120  
  0.025  
  0.010  
 -0.035  
 -0.035  
 -0.060  
 -0.060  
 -0.085  
 -0.085  
 -0.105  
 -0.115  
 -0.130  
 -0.130  
 -0.160  
 -0.155  
 -0.160  
 -0.155  
 -0.150  
 -0.135  
 -0.130  
 -0.110  
 -0.080  
 -0.060  
 -0.010  
  0.020  
  0.065  
  0.095  
  0.140  
  0.135  
  0.150  
  0.095  
  0.070  
  0.005  
 -0.005  
 -0.050  
 -0.025  
 -0.060  
 -0.020  
 -0.050  
 -0.005  
 -0.025  
  0.020  
 -0.005  
  0.040  
  0.010  
  0.050  
  0.025  
  0.075  
  0.045  
  0.095  
  0.070  
  0.105  
  0.090  
  0.120  
  0.105  
  0.130  
  0.125  
  0.135  
  0.135  
  0.135  
  0.140  
  0.135  
  0.150  
  0.125  
  0.150  
  0.120  
  0.150  
  0.115  
  0.135  
  0.100  
  0.130  
  0.090  
  0.115  
  0.070  
  0.100  
  0.050  
  0.080  
  0.030  
  0.060  
  0.010  
  0.040  
  0.000  
  0.015  
 -0.030  
  0.000  
 -0.040  
 -0.020  
 -0.060  
 -0.045  
 -0.085  
 -0.070  
 -0.095  
 -0.095  
 -0.115  
 -0.115  
 -0.130  
 -0.140  
 -0.150  
 -0.150  
 -0.165  
 -0.175  
 -0.180  
 -0.180  
 -0.185  
 -0.200  
 -0.185  
 -0.205  
 -0.190  
 -0.210  
 -0.195  
 -0.215  
 -0.195  
 -0.170  
 -0.135  
 -0.120  
 -0.065  
 -0.065  
 -0.095  
 -0.135  
 -0.150  
 -0.150  
 -0.125  
 -0.160  
 -0.130  
 -0.145  
 -0.120  
 -0.120  
 -0.090  
 -0.095  
 -0.155  
 -0.050  
  0.165  
  0.860  
  1.270  
  0.840  
  0.390  
  0.195  
  0.080  
  0.050  
  0.030  
  0.000  
  0.015  
  0.005  
  0.005  
  0.000  
  0.005  
  0.000  
  0.005  
 -0.005  
  0.010  
  0.000  
  0.015  
  0.000  
  0.020  
  0.025  
  0.040  
  0.045  
  0.060  
  0.090  
  0.125  
  0.155  
  0.185  
  0.220  
  0.245  
  0.265  
  0.260  
  0.225  
  0.170  
  0.115  
  0.070  
  0.035  
  0.010  
  0.000  
 -0.010  
  0.000  
 -0.015  
  0.000  
 -0.005  
  0.015  
  0.000  
  0.020  
  0.010  
  0.030  
  0.015  
  0.040  
  0.020  
  0.050  
  0.030  
  0.055  
  0.040  
  0.050  
  0.045  
  0.065  
  0.045  
  0.065  
  0.050  
  0.075  
  0.050  
  0.065  
  0.050  
  0.065  
  0.050  
  0.060  
  0.060  
  0.060  
  0.045  
  0.045  
  0.040  
  0.040  
  0.020  
  0.020  
  0.010  
  0.005  
  0.000  
 -0.005  
 -0.010  
 -0.015  
 -0.010  
 -0.020  
 -0.025  
 -0.030  
 -0.030  
 -0.030  
 -0.030  
 -0.035  
 -0.035  
 -0.045  
 -0.040  
 -0.045  
 -0.045  
 -0.055  
 -0.045  
 -0.055  
 -0.055  
 -0.040  
 -0.005  
 -0.010  
  0.030  
  0.070  
  0.010  
  0.005  
 -0.075  
 -0.060  
 -0.060  
 -0.085  
 -0.100  
 -0.100  
 -0.105  
 -0.105  
 -0.110  
 -0.110  
 -0.110  
 -0.215  
 -0.070  
  0.230  
  0.890  
  1.040  
  0.630  
  0.260  
  0.085  
 -0.015  
 -0.040  
 -0.055  
 -0.060  
 -0.060  
 -0.070  
 -0.055  
 -0.070  
 -0.060  
 -0.070  
 -0.065  
 -0.075  
 -0.065  
 -0.075  
 -0.070  
 -0.085  
 -0.070  
 -0.090  
 -0.045  
 -0.060  
 -0.020  
 -0.025  
  0.030  
  0.055  
  0.140  
  0.175  
  0.250  
  0.240  
  0.275  
  0.205  
  0.190  
  0.100  
  0.105  
  0.050  
  0.080  
  0.055  
  0.095  
  0.065  
  0.110  
  0.095  
  0.135  
  0.125  
  0.165  
  0.160  
  0.175  
  0.160  
  0.160  
  0.140  
  0.135  
  0.125  
  0.115  
  0.100  
  0.075  
  0.080  
  0.045  
  0.065  
  0.030  
  0.055  
  0.015  
  0.040  
  0.020  
  0.030  
  0.030  
  0.015  
  0.040  
  0.020  
  0.060  
  0.050  
  0.115  
  0.060  
  0.095  
  0.020  
  0.075  
  0.000  
  0.035  
 -0.040  
 -0.005  
 -0.055  
 -0.055  
 -0.150  
 -0.145  
 -0.200  
 -0.175  
 -0.215  
 -0.210  
 -0.270  
 -0.270  
 -0.315  
 -0.380  
 -0.405  
 -0.425  
 -0.510  
 -0.545  
 -0.600  
 -0.585  
 -0.540  
 -0.535  
 -0.520  
 -0.515  
 -0.465  
 -0.450  
 -0.385  
 -0.375  
 -0.355  
 -0.430  
 -0.225  
  0.175  
  0.780  
  0.675  
  0.360  
  0.070  
 -0.040  
 -0.145  
 -0.120  
 -0.140  
 -0.105  
 -0.115  
 -0.080  
 -0.085  
 -0.060  
 -0.080  
 -0.055  
 -0.075  
 -0.045  
 -0.065  
 -0.040  
 -0.050  
 -0.040  
 -0.055  
 -0.055  
 -0.040  
 -0.030  
 -0.035  
  0.000  
  0.010  
  0.035  
  0.065  
  0.095  
  0.130  
  0.135  
  0.125  
  0.105  
  0.090  
  0.060  
  0.060  
  0.035  
  0.025  
  0.000  
  0.005  
 -0.010  
  0.000  
 -0.005  
 -0.020  
 -0.020  
 -0.040  
 -0.030  
 -0.040  
 -0.035  
 -0.040  
 -0.030  
 -0.025  
  0.000  
  0.000  
  0.025  
  0.025  
  0.035  
  0.040  
  0.045  
  0.050  
  0.050  
  0.055  
  0.055  
  0.065  
  0.055  
  0.040  
  0.025  
  0.015  
  0.000  
 -0.005  
 -0.025  
 -0.030  
 -0.055  
 -0.050  
 -0.070  
 -0.065  
 -0.060  
 -0.065  
 -0.060  
 -0.050  
 -0.055  
 -0.040  
 -0.045  
 -0.020  
 -0.035  
 -0.035  
 -0.035  
 -0.045  
 -0.045  
 -0.055  
 -0.050  
 -0.015  
 -0.015  
  0.020  
  0.050  
 -0.005  
 -0.015  
 -0.095  
 -0.085  
 -0.120  
 -0.110  
 -0.160  
 -0.150  
 -0.165  
 -0.140  
 -0.165  
 -0.135  
 -0.160  
 -0.225  
 -0.105  
  0.145  
  0.840  
  0.980  
  0.590  
  0.190  
  0.015  
 -0.105  
 -0.140  
 -0.170  
 -0.175  
 -0.190  
 -0.185  
 -0.185  
 -0.195  
 -0.195  
 -0.180  
 -0.190  
 -0.190  
 -0.170  
 -0.120  
 -0.130  
 -0.120  
 -0.145  
 -0.130  
 -0.075  
 -0.045  
 -0.045  
  0.025  
  0.070  
  0.110  
  0.130  
  0.190  
  0.230  
  0.290  
  0.260  
  0.215  
  0.170  
  0.125  
  0.080  
  0.070  
  0.035  
  0.035  
  0.035  
  0.035  
 -0.005  
 -0.010  
  0.000  
  0.010  
  0.030  
  0.030  
  0.035  
  0.055  
  0.090  
  0.055  
  0.055  
  0.045  
  0.040  
  0.035  
  0.015  
  0.005  
  0.000  
  0.000  
  0.000  
 -0.005  
 -0.015  
 -0.005  
 -0.005  
 -0.005  
 -0.025  
 -0.015  
 -0.025  
 -0.030  
 -0.010  
  0.010  
  0.035  
 -0.035  
 -0.020  
 -0.025  
 -0.015  
 -0.040  
 -0.015  
  0.000  
 -0.040  
  0.000  
 -0.020  
  0.000  
  0.010  
  0.025  
 -0.015  
  0.000  
 -0.020  
 -0.030  
 -0.040  
 -0.040  
 -0.025  
 -0.020  
 -0.020  
  0.000  
  0.000  
 -0.005  
 -0.025  
 -0.045  
 -0.040  
 -0.035  
 -0.050  
 -0.055  
 -0.060  
 -0.050  
 -0.045  
 -0.050  
 -0.035  
 -0.020  
 -0.025  
 -0.030  
  0.075  
  0.015  
  0.030  
  0.045  
  0.005  
 -0.005  
 -0.080  
 -0.065  
 -0.075  
 -0.110  
 -0.130  
 -0.145  
 -0.150  
 -0.140  
 -0.145  
 -0.125  
 -0.150  
 -0.165  
 -0.005  
  0.560  
  1.115  
  0.855  
  0.455  
  0.200  
  0.030  
 -0.035  
 -0.070  
 -0.080  
 -0.095  
 -0.095  
 -0.110  
 -0.130  
 -0.115  
 -0.120  
 -0.120  
 -0.125  
 -0.115  
 -0.105  
 -0.090  
 -0.085  
 -0.065  
 -0.055  
 -0.040  
  0.005  
  0.035  
  0.075  
  0.115  
  0.160  
  0.195  
  0.225  
  0.265  
  0.285  
  0.315  
  0.285  
  0.250  
  0.205  
  0.190  
  0.160  
  0.105  
  0.085  
  0.065  
  0.060  
  0.045  
  0.055  
  0.060  
  0.055  
  0.055  
  0.065  
  0.070  
  0.065  
  0.055  
  0.055  
  0.035  
  0.020  
  0.005  
  0.005  
  0.000  
 -0.015  
 -0.045  
 -0.030  
 -0.050  
 -0.010  
 -0.040  
 -0.035  
 -0.055  
 -0.045  
 -0.070  
 -0.065  
 -0.075  
 -0.080  
 -0.100  
 -0.105  
 -0.115  
 -0.115  
 -0.120  
 -0.120  
 -0.140  
 -0.165  
 -0.170  
 -0.115  
 -0.085  
 -0.085  
 -0.030  
  0.005  
 -0.015  
 -0.030  
 -0.100  
 -0.100  
 -0.130  
 -0.110  
 -0.140  
 -0.150  
 -0.180  
 -0.190  
 -0.195  
 -0.180  
 -0.195  
 -0.295  
 -0.170  
  0.065  
  0.700  
  0.930  
  0.535  
  0.170  
  0.065  
 -0.075  
 -0.095  
 -0.120  
 -0.085  
 -0.055  
 -0.060  
 -0.040  
 -0.030  
 -0.015  
 -0.040  
 -0.005  
  0.025  
 -0.030  
  0.000  
  0.005  
  0.000  
  0.010  
  0.010  
  0.035  
  0.035  
  0.060  
  0.085  
  0.090  
  0.140  
  0.195  
  0.230  
  0.290  
  0.285  
  0.280  
  0.200  
  0.185  
  0.120  
  0.105  
  0.045  
  0.035  
  0.030  
  0.045  
  0.025  
  0.040  
  0.025  
  0.000  
  0.005  
  0.000  
  0.020  
  0.005  
  0.020  
  0.035  
  0.040  
  0.035  
  0.070  
  0.030  
  0.030  
  0.010  
  0.000  
 -0.015  
 -0.035  
 -0.010  
 -0.010  
  0.010  
  0.030  
 -0.015  
 -0.005  
 -0.015  
 -0.015  
 -0.035  
 -0.005  
 -0.015  
  0.020  
  0.025  
  0.045  
  0.025  
  0.020  
  0.010  
 -0.010  
 -0.030  
 -0.035  
 -0.060  
 -0.040  
 -0.045  
 -0.015  
 -0.025  
  0.000  
  0.000  
  0.005  
  0.005  
  0.000  
  0.005  
 -0.035  
 -0.005  
  0.000  
  0.005  
 -0.075  
 -0.095  
 -0.195  
 -0.160  
 -0.220  
 -0.255  
 -0.285  
 -0.265  
 -0.260  
 -0.230  
 -0.235  
 -0.200  
 -0.215  
 -0.215  
 -0.050  
  0.470  
  1.075  
  0.835  
  0.405  
  0.180  
 -0.015  
 -0.055  
 -0.080  
 -0.065  
 -0.050  
 -0.065  
 -0.055  
 -0.055  
 -0.060  
 -0.040  
 -0.055  
 -0.050  
 -0.075  
 -0.070  
 -0.085  
 -0.065  
 -0.060  
 -0.050  
 -0.030  
 -0.015  
  0.010  
  0.040  
  0.085  
  0.135  
  0.180  
  0.205  
  0.275  
  0.290  
  0.305  
  0.310  
  0.280  
  0.240  
  0.195  
  0.195  
  0.140  
  0.160  
  0.150  
  0.170  
  0.135  
  0.155  
  0.080  
  0.080  
  0.045  
  0.040  
  0.030  
  0.045  
  0.020  
  0.030  
  0.020  
  0.035  
  0.000  
 -0.040  
 -0.045  
 -0.065  
 -0.095  
 -0.090  
 -0.115  
 -0.115  
 -0.090  
 -0.105  
 -0.085  
 -0.085  
 -0.080  
 -0.075  
 -0.060  
 -0.080  
 -0.070  
 -0.060  
 -0.055  
 -0.050  
 -0.055  
 -0.060  
 -0.030  
 -0.020  
 -0.010  
 -0.025  
 -0.015  
 -0.045  
 -0.025  
 -0.030  
 -0.060  
 -0.050  
 -0.070  
 -0.070  
 -0.095  
 -0.100  
 -0.110  
 -0.140  
 -0.145  
 -0.145  
 -0.150  
 -0.150  
 -0.170  
 -0.155  
 -0.145  
 -0.150  
 -0.140  
 -0.120  
 -0.130  
 -0.135  
 -0.115  
 -0.120  
 -0.105  
 -0.110  
 -0.075  
 -0.100  
 -0.090  
 -0.090  
 -0.085  
 -0.080  
 -0.065  
 -0.065  
 -0.060  
 -0.020  
  0.000  
  0.030  
  0.045  
  0.050  
  0.005  
 -0.035  
 -0.050  
 -0.025  
  0.000  
 -0.030  
  0.000  
  0.005  
  0.040  
  0.040  
  0.045  
  0.000  
 -0.015  
  0.145  
  0.720  
  1.190  
  0.830  
  0.475  
  0.290  
  0.105  
  0.065  
  0.010  
  0.000  
 -0.010  
 -0.015  
 -0.025  
 -0.040  
 -0.050  
 -0.060  
 -0.055  
 -0.075  
 -0.075  
 -0.075  
 -0.075  
 -0.060  
 -0.055  
 -0.045  
 -0.030  
 -0.015  
 -0.010  
  0.000  
  0.010  
  0.040  
  0.060  
  0.080  
  0.105  
  0.125  
  0.135  
  0.125  
  0.085  
  0.045  
  0.010  
 -0.020  
 -0.040  
 -0.050  
 -0.070  
 -0.055  
 -0.060  
 -0.050  
 -0.050  
 -0.050  
 -0.040  
 -0.035  
 -0.035  
 -0.025  
 -0.020  
 -0.025  
 -0.020  
 -0.025  
 -0.015  
 -0.025  
 -0.030  
 -0.020  
 -0.025  
 -0.020  
 -0.015  
  0.000  
  0.000  
  0.000  
  0.010  
  0.005  
  0.005  
  0.005  
  0.005  
  0.025  
  0.025  
  0.025  
  0.040  
  0.030  
  0.050  
  0.055  
  0.055  
  0.065  
  0.075  
  0.080  
  0.085  
  0.095  
  0.085  
  0.095  
  0.085  
  0.075  
  0.060  
  0.055  
  0.040  
  0.045  
  0.085  
  0.070  
  0.120  
  0.120  
  0.085  
  0.045  
 -0.030  
 -0.030  
 -0.045  
 -0.060  
 -0.100  
 -0.100  
 -0.130  
 -0.130  
 -0.160  
 -0.165  
 -0.180  
 -0.255  
 -0.110  
  0.220  
  0.850  
  0.795  
  0.385  
  0.115  
 -0.080  
 -0.155  
 -0.200  
 -0.220  
 -0.265  
 -0.275  
 -0.285  
 -0.285  
 -0.300  
 -0.275  
 -0.280  
 -0.265  
 -0.260  
 -0.250  
 -0.235  
 -0.230  
 -0.215  
 -0.195  
 -0.185  
 -0.145  
 -0.115  
 -0.090  
 -0.055  
 -0.015  
  0.000  
  0.025  
  0.060  
  0.115  
  0.110  
  0.090  
  0.030  
 -0.025  
 -0.065  
 -0.100  
 -0.120  
 -0.125  
 -0.130  
 -0.120  
 -0.100  
 -0.105  
 -0.115  
 -0.100  
 -0.115  
 -0.130  
 -0.110  
 -0.125  
 -0.130  
 -0.140  
 -0.135  
 -0.125  
 -0.135  
 -0.125  
 -0.140  
 -0.115  
 -0.125  
 -0.090  
 -0.085  
 -0.050  
 -0.035  
 -0.005  
  0.000  
  0.015  
  0.020  
  0.065  
  0.060  
  0.085  
  0.095  
  0.120  
  0.130  
  0.145  
  0.140  
  0.165  
  0.210  
  0.175  
  0.165  
  0.185  
  0.190  
  0.175  
  0.160  
  0.170  
  0.135  
  0.180  
  0.190  
  0.190  
  0.200  
  0.185  
  0.200  
  0.195  
  0.190  
  0.190  
  0.185  
  0.160  
  0.160  
  0.120  
  0.110  
  0.100  
  0.105  
  0.050  
  0.060  
  0.065  
  0.055  
  0.025  
  0.015  
  0.015  
  0.020  
  0.005  
  0.010  
  0.000  
  0.000  
 -0.025  
 -0.015  
 -0.015  
 -0.015  
 -0.035  
 -0.040  
 -0.045  
 -0.045  
 -0.055  
 -0.085  
 -0.065  
 -0.075  
 -0.095  
 -0.095  
 -0.095  
 -0.080  
 -0.065  
 -0.120  
 -0.120  
 -0.065  
 -0.150  
 -0.135  
 -0.135  
 -0.085  
 -0.090  
 -0.095  
 -0.095  
 -0.085  
 -0.080  
 -0.075  
 -0.090  
 -0.150  
 -0.030  
  0.210  
  0.860  
  1.095  
  0.650  
  0.300  
  0.125  
  0.025  
 -0.010  
 -0.025  
 -0.040  
 -0.035  
 -0.060  
 -0.045  
 -0.055  
 -0.045  
 -0.065  
 -0.055  
 -0.060  
 -0.055  
 -0.040  
 -0.040  
 -0.035  
  0.000  
  0.015  
  0.040  
  0.045  
  0.080  
  0.140  
  0.165  
  0.210  
  0.245  
  0.270  
  0.300  
  0.320  
  0.305  
  0.265  
  0.215  
  0.150  
  0.105  
  0.015  
 -0.020  
 -0.005  
 -0.040  
 -0.075  
 -0.090  
 -0.060  
 -0.085  
 -0.125  
 -0.100  
 -0.105  
 -0.110  
 -0.115  
 -0.140  
 -0.125  
 -0.130  
 -0.120  
 -0.135  
 -0.165  
 -0.160  
 -0.170  
 -0.190  
 -0.185  
 -0.225  
 -0.220  
 -0.210  
 -0.205  
 -0.215  
 -0.205  
 -0.205  
 -0.200  
 -0.200  
 -0.200  
 -0.205  
 -0.225  
 -0.205  
 -0.155  
 -0.215  
 -0.230  
 -0.185  
 -0.255  
 -0.255  
 -0.245  
 -0.210  
 -0.205  
 -0.220  
 -0.200  
 -0.205  
 -0.195  
 -0.195  
 -0.200  
 -0.200  
 -0.245  
 -0.170  
  0.000  
  0.650  
  1.030  
  0.640  
  0.265  
  0.115  
 -0.030  
 -0.070  
 -0.070  
 -0.100  
 -0.095  
 -0.085  
 -0.080  
 -0.085  
 -0.070  
 -0.065  
 -0.050  
 -0.045  
 -0.025  
 -0.010  
  0.000  
  0.025  
  0.045  
  0.065  
  0.085  
  0.115  
  0.165  
  0.200  
  0.235  
  0.275  
  0.300  
  0.340  
  0.365  
  0.365  
  0.350  
  0.295  
  0.240  
  0.190  
  0.145  
  0.105  
  0.080  
  0.070  
  0.045  
  0.035  
  0.025  
  0.020  
  0.020  
  0.015  
  0.015  
  0.010  
  0.010  
  0.000  
  0.000  
  0.000  
 -0.015  
  0.000  
 -0.015  
 -0.020  
 -0.030  
 -0.020  
 -0.035  
 -0.030  
 -0.050  
 -0.060  
 -0.065  
 -0.060  
 -0.070  
  0.080  
  0.090  
 -0.175  
 -0.155  
 -0.115  
 -0.125  
 -0.105  
 -0.110  
 -0.090  
 -0.050  
 -0.015  
 -0.040  
 -0.060  
 -0.055  
 -0.095  
 -0.115  
 -0.120  
 -0.100  
 -0.105  
 -0.115  
 -0.110  
 -0.110  
 -0.105  
 -0.125  
 -0.110  
 -0.110  
 -0.170  
 -0.085  
  0.080  
  0.760  
  1.110  
  0.735  
  0.355  
  0.160  
  0.005  
 -0.110  
  0.005  
 -0.115  
 -0.065  
 -0.060  
 -0.030  
  0.050  
 -0.100  
 -0.080  
 -0.050  
 -0.030  
 -0.025  
 -0.025  
 -0.010  
  0.000  
  0.010  
  0.005  
  0.065  
  0.010  
  0.040  
  0.075  
  0.105  
  0.155  
  0.180  
  0.205  
  0.245  
  0.340  
  0.190  
  0.155  
  0.120  
  0.070  
  0.025  
 -0.005  
 -0.020  
 -0.045  
 -0.060  
 -0.070  
 -0.065  
 -0.080  
 -0.085  
 -0.070  
 -0.070  
 -0.095  
 -0.130  
 -0.110  
 -0.085  
 -0.140  
 -0.110  
 -0.085  
 -0.155  
 -0.155  
 -0.115  
 -0.215  
 -0.190  
 -0.190  
 -0.190  
 -0.170  
 -0.220  
 -0.235  
 -0.175  
 -0.220  
 -0.245  
 -0.215  
 -0.115  
 -0.245  
 -0.345  
 -0.225  
 -0.255  
 -0.300  
 -0.045  
 -0.245  
 -0.225  
 -0.195  
 -0.030  
 -0.285  
 -0.165  
 -0.130  
 -0.175  
 -0.010  
 -0.025  
 -0.130  
 -0.240  
 -0.150  
  0.000  
  0.060  
 -0.015  
  0.020  
  0.145  
  0.125  
 -0.045  
  0.210  
  0.095  
  0.230  
  0.455  
  1.035  
  1.210  
  0.820  
  0.370  
  0.380  
 -0.105  
  0.090  
  0.105  
 -0.095  
 -0.030  
 -0.200  
 -0.225  
 -0.165  
 -0.150  
 -0.220  
 -0.210  
 -0.195  
 -0.045  
 -0.220  
 -0.085  
 -0.225  
 -0.290  
 -0.060  
 -0.035  
 -0.080  
 -0.070  
  0.110  
 -0.070  
  0.220  
  0.185  
  0.220  
  0.260  
  0.295  
  0.220  
  0.220  
  0.105  
  0.155  
  0.010  
  0.065  
 -0.055  
  0.090  
 -0.025  
  0.050  
  0.005  
  0.025  
 -0.030  
  0.245  
  0.155  
  0.140  
 -0.235  
  0.090  
  0.040  
  0.045  
  0.080  
  0.030  
  0.175  
  0.005  
  0.145  
  0.105  
  0.260  
  0.160  
  0.250  
  0.185  
  0.290  
  0.255  
  0.335  
  0.215  
  0.230  
  0.170  
  0.170  
  0.075  
  0.050  
 -0.005  
 -0.040  
 -0.085  
 -0.035  
 -0.070  
 -0.045  
 -0.080  
 -0.065  
 -0.100  
 -0.130  
 -0.120  
 -0.090  
 -0.080  
 -0.130  
 -0.085  
 -0.065  
 -0.060  
 -0.025  
 -0.110  
 -0.060  
 -0.200  
 -0.090  
  0.210  
  0.890  
  1.050  
  0.590  
  0.230  
  0.055  
 -0.020  
 -0.075  
 -0.070  
 -0.065  
 -0.065  
 -0.040  
 -0.015  
 -0.010  
  0.010  
  0.035  
  0.040  
  0.040  
  0.085  
  0.050  
  0.040  
  0.045  
  0.065  
  0.050  
  0.055  
  0.080  
  0.085  
  0.115  
  0.145  
  0.180  
  0.205  
  0.245  
  0.275  
  0.330  
  0.190  
  0.250  
  0.215  
  0.055  
  0.050  
  0.090  
  0.185  
 -0.155  
 -0.070  
 -0.010  
 -0.015  
 -0.010  
 -0.020  
  0.000  
 -0.035  
 -0.025  
 -0.040  
 -0.030  
 -0.060  
 -0.040  
 -0.070  
 -0.065  
 -0.095  
 -0.070  
 -0.100  
 -0.060  
 -0.135  
 -0.055  
 -0.100  
 -0.105  
 -0.130  
 -0.075  
 -0.130  
 -0.065  
 -0.045  
 -0.175  
 -0.130  
 -0.105  
 -0.135  
 -0.105  
 -0.125  
 -0.105  
 -0.005  
 -0.095  
  0.000  
 -0.045  
 -0.035  
 -0.055  
 -0.070  
 -0.080  
 -0.090  
 -0.115  
 -0.125  
 -0.110  
 -0.145  
 -0.105  
 -0.085  
 -0.040  
 -0.095  
 -0.155  
 -0.140  
  0.045  
  0.855  
