6000.0
100.0
  0.225   
  0.270   
  0.315   
  0.315   
  0.335   
  0.280   
  0.205   
  0.145   
  0.080   
  0.045   
  0.020   
  0.000   
 -0.025   
 -0.030   
 -0.040   
 -0.045   
 -0.045   
 -0.045   
 -0.050   
 -0.040   
 -0.020   
 -0.025   
 -0.020   
 -0.010   
 -0.025   
 -0.020   
 -0.010   
 -0.015   
 -0.010   
 -0.005   
 -0.020   
 -0.015   
 -0.025   
 -0.020   
 -0.020   
 -0.020   
 -0.030   
 -0.025   
 -0.030   
 -0.025   
 -0.020   
 -0.035   
 -0.020   
 -0.015   
 -0.020   
 -0.025   
 -0.025   
 -0.020   
 -0.020   
 -0.015   
 -0.030   
 -0.025   
 -0.035   
 -0.030   
 -0.015   
  0.000   
  0.015   
  0.055   
  0.085   
  0.085   
  0.075   
  0.115   
  0.105   
  0.055   
  0.020   
 -0.015   
 -0.055   
 -0.055   
 -0.095   
 -0.105   
 -0.115   
 -0.100   
 -0.110   
 -0.105   
 -0.115   
 -0.060   
 -0.020   
 -0.015   
  0.600   
  0.320   
 -0.290   
 -0.505   
 -0.465   
 -0.170   
 -0.105   
 -0.100   
 -0.110   
 -0.085   
 -0.095   
 -0.090   
 -0.085   
 -0.090   
 -0.080   
 -0.065   
 -0.075   
 -0.055   
 -0.045   
 -0.025   
 -0.010   
  0.010   
  0.045   
  0.085   
  0.135   
  0.190   
  0.230   
  0.285   
  0.330   
  0.340   
  0.320   
  0.280   
  0.230   
  0.140   
  0.090   
  0.030   
  0.010   
 -0.010   
 -0.030   
 -0.035   
 -0.050   
 -0.030   
 -0.035   
 -0.060   
 -0.025   
 -0.025   
 -0.045   
 -0.055   
 -0.020   
 -0.020   
 -0.035   
 -0.025   
 -0.005   
 -0.015   
 -0.030   
 -0.005   
 -0.020   
 -0.015   
 -0.020   
 -0.010   
 -0.035   
 -0.010   
 -0.030   
 -0.010   
  0.000   
 -0.020   
 -0.030   
 -0.005   
 -0.025   
 -0.015   
 -0.035   
 -0.015   
 -0.025   
 -0.005   
 -0.055   
  0.000   
 -0.025   
  0.015   
  0.020   
  0.085   
  0.055   
  0.080   
  0.080   
  0.150   
  0.070   
  0.030   
 -0.005   
 -0.010   
 -0.075   
 -0.070   
 -0.100   
 -0.090   
 -0.120   
 -0.070   
 -0.135   
 -0.090   
 -0.120   
 -0.070   
 -0.105   
  0.090   
  1.080   
  0.020   
 -0.225   
 -0.425   
 -0.345   
 -0.115   
 -0.120   
 -0.095   
 -0.115   
 -0.075   
 -0.125   
 -0.075   
 -0.100   
 -0.060   
 -0.100   
 -0.050   
 -0.070   
 -0.045   
 -0.060   
 -0.010   
 -0.025   
  0.005   
  0.050   
  0.125   
  0.135   
  0.195   
  0.245   
  0.290   
  0.315   
  0.335   
  0.310   
  0.280   
  0.205   
  0.135   
  0.065   
  0.035   
  0.010   
 -0.015   
 -0.030   
 -0.030   
 -0.035   
 -0.045   
 -0.030   
 -0.030   
 -0.025   
 -0.015   
 -0.010   
 -0.015   
 -0.010   
  0.000   
  0.000   
  0.000   
 -0.005   
 -0.005   
  0.000   
  0.000   
 -0.010   
 -0.015   
 -0.010   
 -0.015   
 -0.010   
 -0.020   
 -0.015   
 -0.020   
  0.000   
 -0.010   
 -0.015   
 -0.020   
 -0.005   
 -0.020   
 -0.010   
 -0.010   
  0.000   
 -0.020   
  0.000   
  0.010   
  0.070   
  0.080   
  0.085   
  0.055   
  0.130   
  0.085   
  0.055   
  0.010   
 -0.015   
 -0.045   
 -0.075   
 -0.110   
 -0.100   
 -0.125   
 -0.100   
 -0.125   
 -0.105   
 -0.125   
 -0.080   
 -0.060   
  0.010   
  0.760   
  0.245   
 -0.255   
 -0.490   
 -0.440   
 -0.190   
 -0.150   
 -0.125   
 -0.135   
 -0.115   
 -0.120   
 -0.090   
 -0.115   
 -0.100   
 -0.100   
 -0.090   
 -0.095   
 -0.080   
 -0.075   
 -0.050   
 -0.050   
 -0.010   
  0.020   
  0.065   
  0.100   
  0.155   
  0.200   
  0.250   
  0.285   
  0.305   
  0.285   
  0.245   
  0.175   
  0.110   
  0.060   
  0.025   
  0.000   
 -0.025   
 -0.045   
 -0.045   
 -0.045   
 -0.040   
 -0.035   
 -0.035   
 -0.030   
 -0.025   
 -0.025   
 -0.010   
  0.000   
  0.000   
  0.000   
  0.005   
  0.005   
  0.005   
  0.000   
  0.000   
  0.005   
  0.000   
  0.005   
  0.000   
  0.000   
  0.000   
  0.000   
  0.000   
 -0.005   
 -0.010   
 -0.010   
 -0.010   
  0.000   
 -0.010   
 -0.005   
 -0.005   
 -0.010   
 -0.010   
  0.000   
  0.000   
 -0.010   
  0.000   
  0.000   
  0.040   
  0.070   
  0.085   
  0.090   
  0.090   
  0.140   
  0.145   
  0.075   
  0.055   
  0.000   
 -0.015   
 -0.060   
 -0.070   
 -0.085   
 -0.090   
 -0.100   
 -0.100   
 -0.105   
 -0.080   
 -0.070   
 -0.035   
 -0.020   
  0.495   
  0.590   
 -0.220   
 -0.450   
 -0.450   
 -0.215   
 -0.095   
 -0.115   
 -0.110   
 -0.100   
 -0.095   
 -0.085   
 -0.080   
 -0.090   
 -0.070   
 -0.080   
 -0.065   
 -0.065   
 -0.035   
 -0.035   
 -0.010   
  0.010   
  0.020   
  0.095   
  0.120   
  0.170   
  0.240   
  0.280   
  0.325   
  0.330   
  0.340   
  0.290   
  0.230   
  0.150   
  0.095   
  0.045   
  0.005   
 -0.005   
 -0.025   
 -0.010   
 -0.030   
 -0.020   
 -0.030   
 -0.025   
 -0.040   
 -0.025   
 -0.015   
 -0.020   
 -0.005   
 -0.005   
  0.000   
 -0.015   
  0.005   
  0.000   
  0.000   
  0.000   
 -0.015   
  0.005   
 -0.010   
 -0.015   
  0.000   
 -0.005   
 -0.035   
 -0.010   
 -0.025   
 -0.025   
 -0.010   
 -0.030   
 -0.025   
 -0.025   
 -0.005   
 -0.020   
 -0.040   
 -0.010   
 -0.045   
 -0.010   
 -0.030   
  0.015   
  0.010   
  0.075   
  0.050   
  0.070   
  0.095   
  0.145   
  0.070   
  0.060   
 -0.005   
  0.000   
 -0.070   
 -0.060   
 -0.095   
 -0.065   
 -0.120   
 -0.075   
 -0.115   
 -0.070   
 -0.105   
 -0.055   
 -0.070   
  0.110   
  1.070   
  0.115   
 -0.220   
 -0.430   
 -0.355   
 -0.135   
 -0.130   
 -0.085   
 -0.105   
 -0.075   
 -0.110   
 -0.080   
 -0.100   
 -0.075   
 -0.095   
 -0.070   
 -0.085   
 -0.050   
 -0.075   
 -0.025   
 -0.020   
  0.020   
  0.025   
  0.090   
  0.125   
  0.185   
  0.220   
  0.265   
  0.305   
  0.320   
  0.285   
  0.250   
  0.180   
  0.120   
  0.065   
  0.020   
 -0.015   
 -0.030   
 -0.040   
 -0.045   
 -0.045   
 -0.050   
 -0.055   
 -0.050   
 -0.040   
 -0.040   
 -0.035   
 -0.030   
 -0.025   
 -0.010   
 -0.020   
 -0.015   
 -0.005   
 -0.025   
 -0.015   
 -0.020   
 -0.025   
 -0.025   
 -0.015   
 -0.020   
 -0.030   
 -0.015   
 -0.025   
 -0.035   
 -0.040   
 -0.020   
 -0.040   
 -0.030   
 -0.030   
 -0.025   
 -0.045   
 -0.020   
 -0.045   
 -0.030   
 -0.040   
 -0.020   
 -0.035   
  0.010   
  0.015   
  0.060   
  0.065   
  0.095   
  0.060   
  0.140   
  0.065   
  0.050   
 -0.005   
 -0.020   
 -0.060   
 -0.070   
 -0.120   
 -0.075   
 -0.125   
 -0.090   
 -0.135   
 -0.095   
 -0.135   
 -0.055   
 -0.055   
  0.125   
  1.005   
 -0.030   
 -0.325   
 -0.515   
 -0.385   
 -0.125   
 -0.145   
 -0.105   
 -0.140   
 -0.100   
 -0.120   
 -0.085   
 -0.125   
 -0.080   
 -0.110   
 -0.070   
 -0.085   
 -0.055   
 -0.065   
 -0.035   
 -0.035   
  0.010   
  0.025   
  0.085   
  0.120   
  0.180   
  0.215   
  0.275   
  0.300   
  0.320   
  0.285   
  0.240   
  0.165   
  0.110   
  0.045   
  0.005   
 -0.015   
 -0.030   
 -0.045   
 -0.050   
 -0.060   
 -0.060   
 -0.045   
 -0.050   
 -0.040   
 -0.040   
 -0.040   
 -0.030   
 -0.030   
 -0.020   
 -0.025   
 -0.020   
 -0.020   
 -0.015   
 -0.020   
 -0.025   
 -0.025   
 -0.030   
 -0.025   
 -0.030   
 -0.025   
 -0.040   
 -0.030   
 -0.030   
 -0.035   
 -0.025   
 -0.025   
 -0.025   
 -0.010   
 -0.035   
 -0.015   
 -0.030   
 -0.015   
 -0.030   
 -0.010   
 -0.025   
 -0.015   
 -0.030   
  0.020   
  0.015   
  0.080   
  0.080   
  0.100   
  0.080   
  0.155   
  0.080   
  0.070   
  0.005   
  0.000   
 -0.050   
 -0.060   
 -0.090   
 -0.045   
 -0.100   
 -0.070   
 -0.110   
 -0.070   
 -0.125   
 -0.020   
 -0.025   
  0.125   
  0.985   
 -0.070   
 -0.325   
 -0.505   
 -0.365   
 -0.090   
 -0.095   
 -0.075   
 -0.105   
 -0.060   
 -0.105   
 -0.070   
 -0.075   
 -0.060   
 -0.075   
 -0.045   
 -0.060   
 -0.025   
 -0.035   
  0.005   
  0.000   
  0.045   
  0.050   
  0.125   
  0.160   
  0.225   
  0.265   
  0.315   
  0.345   
  0.360   
  0.320   
  0.270   
  0.200   
  0.160   
  0.090   
  0.055   
  0.015   
  0.000   
 -0.020   
 -0.015   
 -0.035   
 -0.020   
 -0.015   
 -0.050   
 -0.010   
 -0.010   
 -0.005   
 -0.020   
 -0.010   
  0.000   
  0.000   
 -0.005   
 -0.010   
  0.005   
 -0.015   
 -0.010   
 -0.015   
 -0.010   
  0.000   
 -0.030   
 -0.030   
 -0.015   
 -0.035   
  0.000   
 -0.045   
 -0.020   
 -0.035   
 -0.015   
 -0.030   
 -0.020   
 -0.030   
 -0.025   
 -0.035   
 -0.025   
 -0.020   
  0.015   
  0.010   
  0.065   
  0.060   
  0.085   
  0.095   
  0.135   
  0.055   
  0.035   
 -0.040   
  0.000   
 -0.090   
 -0.075   
 -0.120   
 -0.070   
 -0.125   
 -0.095   
 -0.130   
 -0.090   
 -0.130   
 -0.060   
 -0.065   
  0.180   
  1.120   
 -0.025   
 -0.275   
 -0.465   
 -0.360   
 -0.125   
 -0.140   
 -0.090   
 -0.120   
 -0.085   
 -0.120   
 -0.080   
 -0.105   
 -0.070   
 -0.100   
 -0.050   
 -0.080   
 -0.050   
 -0.055   
 -0.020   
 -0.030   
  0.015   
  0.040   
  0.095   
  0.125   
  0.190   
  0.220   
  0.280   
  0.295   
  0.320   
  0.290   
  0.235   
  0.165   
  0.120   
  0.050   
  0.020   
 -0.020   
 -0.025   
 -0.040   
 -0.040   
 -0.040   
 -0.045   
 -0.035   
 -0.030   
 -0.025   
 -0.030   
 -0.020   
 -0.020   
 -0.010   
 -0.010   
 -0.005   
 -0.005   
 -0.010   
 -0.010   
 -0.005   
 -0.005   
  0.000   
 -0.010   
 -0.010   
 -0.010   
 -0.015   
 -0.015   
 -0.005   
 -0.020   
 -0.015   
 -0.015   
 -0.015   
 -0.015   
 -0.015   
 -0.015   
 -0.010   
 -0.010   
 -0.005   
 -0.020   
 -0.015   
 -0.020   
  0.000   
  0.015   
  0.060   
  0.085   
  0.090   
  0.075   
  0.140   
  0.115   
  0.070   
  0.030   
 -0.005   
 -0.010   
 -0.065   
 -0.090   
 -0.085   
 -0.090   
 -0.090   
 -0.110   
 -0.095   
 -0.105   
 -0.055   
 -0.030   
  0.005   
  0.655   
  0.410   
 -0.245   
 -0.480   
 -0.440   
 -0.165   
 -0.105   
 -0.105   
 -0.105   
 -0.090   
 -0.095   
 -0.085   
 -0.085   
 -0.075   
 -0.080   
 -0.075   
 -0.075   
 -0.060   
 -0.045   
 -0.025   
 -0.010   
  0.000   
  0.035   
  0.085   
  0.130   
  0.175   
  0.230   
  0.280   
  0.305   
  0.325   
  0.305   
  0.275   
  0.210   
  0.135   
  0.085   
  0.035   
  0.010   
  0.000   
 -0.015   
 -0.020   
 -0.015   
 -0.015   
 -0.025   
 -0.025   
 -0.025   
 -0.025   
 -0.025   
 -0.005   
  0.000   
  0.000   
  0.000   
  0.000   
  0.000   
  0.000   
  0.000   
 -0.005   
  0.000   
 -0.005   
 -0.005   
 -0.015   
 -0.025   
 -0.015   
 -0.020   
 -0.025   
 -0.020   
 -0.030   
 -0.020   
 -0.025   
 -0.020   
 -0.030   
 -0.030   
 -0.020   
 -0.025   
 -0.015   
 -0.030   
 -0.025   
 -0.030   
 -0.015   
  0.015   
  0.045   
  0.070   
  0.065   
  0.065   
  0.125   
  0.110   
  0.050   
  0.025   
 -0.020   
 -0.035   
 -0.085   
 -0.100   
 -0.110   
 -0.105   
 -0.110   
 -0.095   
 -0.105   
 -0.095   
 -0.080   
 -0.060   
 -0.035   
  0.505   
  0.615   
 -0.190   
 -0.410   
 -0.450   
 -0.235   
 -0.080   
 -0.120   
 -0.110   
 -0.105   
 -0.090   
 -0.095   
 -0.080   
 -0.085   
 -0.090   
 -0.075   
 -0.060   
 -0.060   
 -0.050   
 -0.030   
 -0.025   
  0.000   
  0.035   
  0.060   
  0.130   
  0.170   
  0.225   
  0.270   
  0.305   
  0.330   
  0.310   
  0.265   
  0.220   
  0.140   
  0.095   
  0.035   
  0.010   
 -0.010   
 -0.030   
 -0.030   
 -0.035   
 -0.045   
 -0.040   
 -0.035   
 -0.030   
 -0.030   
 -0.025   
 -0.015   
 -0.030   
 -0.020   
 -0.010   
  0.005   
 -0.015   
 -0.005   
 -0.020   
 -0.015   
  0.000   
 -0.015   
 -0.015   
 -0.010   
 -0.020   
 -0.010   
 -0.015   
 -0.010   
 -0.020   
 -0.005   
 -0.010   
  0.000   
 -0.020   
 -0.010   
 -0.025   
 -0.015   
 -0.025   
  0.025   
  0.015   
  0.080   
  0.060   
  0.085   
  0.105   
  0.125   
  0.045   
  0.055   
 -0.025   
  0.000   
 -0.095   
 -0.070   
 -0.115   
 -0.070   
 -0.125   
 -0.090   
 -0.130   
 -0.080   
 -0.120   
 -0.070   
 -0.080   
  0.180   
  1.065   
 -0.110   
 -0.310   
 -0.475   
 -0.335   
 -0.110   
 -0.150   
 -0.100   
 -0.140   
 -0.085   
 -0.130   
 -0.080   
 -0.110   
 -0.080   
 -0.095   
 -0.055   
 -0.090   
 -0.050   
 -0.060   
 -0.025   
 -0.025   
  0.015   
  0.035   
  0.105   
  0.130   
  0.190   
  0.225   
  0.280   
  0.305   
  0.310   
  0.280   
  0.235   
  0.155   
  0.100   
  0.045   
  0.015   
 -0.005   
 -0.025   
 -0.035   
 -0.040   
 -0.040   
 -0.045   
 -0.035   
 -0.025   
 -0.025   
 -0.020   
 -0.010   
  0.000   
  0.000   
  0.005   
  0.005   
  0.000   
  0.000   
  0.000   
  0.000   
 -0.005   
 -0.010   
 -0.010   
 -0.010   
 -0.010   
 -0.015   
 -0.020   
 -0.015   
 -0.025   
 -0.020   
 -0.030   
 -0.015   
 -0.025   
 -0.015   
 -0.030   
 -0.010   
 -0.030   
 -0.010   
 -0.030   
  0.005   
  0.010   
  0.085   
  0.075   
  0.100   
  0.070   
  0.150   
  0.085   
  0.060   
  0.000   
  0.000   
 -0.035   
 -0.060   
 -0.115   
 -0.075   
 -0.120   
 -0.080   
 -0.120   
 -0.085   
 -0.115   
 -0.030   
 -0.035   
  0.095   
  0.910   
 -0.085   
 -0.355   
 -0.520   
 -0.380   
 -0.110   
 -0.130   
 -0.095   
 -0.125   
 -0.090   
 -0.120   
 -0.085   
 -0.105   
 -0.070   
 -0.080   
 -0.055   
 -0.075   
 -0.045   
 -0.055   
 -0.020   
 -0.020   
  0.025   
  0.045   
  0.105   
  0.140   
  0.200   
  0.245   
  0.295   
  0.320   
  0.335   
  0.305   
  0.265   
  0.190   
  0.125   
  0.070   
  0.025   
 -0.005   
 -0.015   
 -0.025   
 -0.040   
 -0.040   
 -0.035   
 -0.035   
 -0.035   
 -0.040   
 -0.030   
 -0.025   
 -0.025   
 -0.010   
  0.000   
  0.000   
 -0.005   
 -0.005   
  0.000   
  0.000   
  0.000   
 -0.015   
 -0.010   
 -0.015   
 -0.010   
 -0.020   
 -0.025   
 -0.025   
 -0.025   
 -0.030   
 -0.020   
 -0.035   
 -0.015   
 -0.035   
 -0.020   
 -0.035   
 -0.020   
 -0.040   
 -0.020   
 -0.025   
  0.005   
  0.015   
  0.075   
  0.060   
  0.090   
  0.075   
  0.140   
  0.045   
  0.040   
 -0.025   
 -0.015   
 -0.075   
 -0.080   
 -0.120   
 -0.080   
 -0.125   
 -0.085   
 -0.135   
 -0.085   
 -0.110   
 -0.040   
 -0.075   
  0.175   
  0.995   
 -0.145   
 -0.305   
 -0.465   
 -0.335   
 -0.100   
 -0.135   
 -0.095   
 -0.135   
 -0.085   
 -0.115   
 -0.090   
 -0.105   
 -0.080   
 -0.095   
 -0.080   
 -0.080   
 -0.050   
 -0.055   
 -0.015   
 -0.005   
  0.045   
  0.045   
  0.115   
  0.155   
  0.205   
  0.255   
  0.285   
  0.330   
  0.335   
  0.295   
  0.245   
  0.160   
  0.110   
  0.060   
  0.035   
 -0.010   
  0.000   
 -0.030   
 -0.035   
 -0.035   
 -0.035   
 -0.040   
 -0.010   
 -0.025   
 -0.030   
 -0.020   
 -0.015   
  0.000   
  0.000   
 -0.005   
 -0.010   
 -0.015   
  0.000   
  0.000   
  0.000   
 -0.015   
 -0.010   
 -0.005   
 -0.015   
 -0.015   
 -0.010   
 -0.020   
 -0.015   
 -0.015   
 -0.020   
 -0.030   
 -0.015   
 -0.035   
 -0.020   
 -0.040   
 -0.020   
 -0.040   
  0.000   
  0.000   
  0.075   
  0.045   
  0.070   
  0.050   
  0.130   
  0.040   
  0.015   
 -0.035   
 -0.030   
 -0.075   
 -0.085   
 -0.140   
 -0.100   
 -0.135   
 -0.105   
 -0.140   
 -0.095   
 -0.140   
 -0.070   
 -0.075   
  0.095   
  1.010   
 -0.005   
 -0.265   
 -0.470   
 -0.370   
 -0.130   
 -0.140   
 -0.100   
 -0.125   
 -0.090   
 -0.120   
 -0.085   
 -0.110   
 -0.070   
 -0.105   
 -0.065   
 -0.080   
 -0.050   
 -0.070   
 -0.020   
 -0.020   
  0.015   
  0.040   
  0.095   
  0.125   
  0.190   
  0.225   
  0.270   
  0.295   
  0.310   
  0.275   
  0.245   
  0.175   
  0.110   
  0.055   
  0.015   
  0.000   
 -0.015   
 -0.035   
 -0.035   
 -0.035   
 -0.035   
 -0.035   
 -0.030   
 -0.020   
 -0.020   
 -0.010   
  0.000   
 -0.010   
 -0.005   
  0.000   
  0.000   
  0.000   
  0.000   
  0.000   
  0.000   
 -0.015   
 -0.010   
 -0.015   
 -0.025   
 -0.015   
 -0.020   
 -0.015   
 -0.015   
 -0.015   
 -0.025   
 -0.020   
 -0.015   
 -0.015   
 -0.015   
 -0.010   
 -0.010   
 -0.020   
 -0.020   
 -0.010   
 -0.020   
  0.000   
  0.020   
  0.060   
  0.090   
  0.095   
  0.070   
  0.125   
  0.120   
  0.060   
  0.020   
  0.000   
 -0.025   
 -0.050   
 -0.080   
 -0.075   
 -0.080   
 -0.070   
 -0.085   
 -0.080   
 -0.090   
 -0.040   
 -0.010   
 -0.005   
  0.605   
  0.400   
 -0.260   
 -0.485   
 -0.435   
 -0.165   
 -0.100   
 -0.100   
 -0.095   
 -0.085   
 -0.085   
 -0.075   
 -0.085   
 -0.075   
 -0.075   
 -0.065   
 -0.065   
 -0.045   
 -0.040   
 -0.030   
 -0.010   
  0.020   
  0.055   
  0.095   
  0.145   
  0.190   
  0.230   
  0.280   
  0.310   
  0.340   
  0.325   
  0.275   
  0.215   
  0.145   
  0.100   
  0.050   
  0.015   
  0.000   
 -0.005   
 -0.020   
 -0.025   
 -0.025   
 -0.020   
 -0.015   
 -0.015   
 -0.010   
 -0.010   
 -0.010   
  0.000   
  0.000   
  0.005   
  0.005   
  0.000   
  0.000   
 -0.005   
  0.000   
  0.005   
 -0.005   
 -0.005   
 -0.005   
 -0.010   
 -0.005   
 -0.010   
 -0.010   
 -0.015   
 -0.015   
 -0.015   
 -0.030   
 -0.025   
 -0.030   
 -0.025   
 -0.030   
 -0.015   
 -0.040   
 -0.015   
 -0.040   
 -0.020   
 -0.030   
  0.025   
  0.010   
  0.065   
  0.055   
  0.075   
  0.075   
  0.135   
  0.040   
  0.035   
 -0.015   
 -0.020   
 -0.080   
 -0.070   
 -0.125   
 -0.090   
 -0.135   
 -0.085   
 -0.140   
 -0.080   
 -0.125   
 -0.065   
 -0.095   
  0.130   
  1.005   
 -0.105   
 -0.265   
 -0.460   
 -0.345   
 -0.110   
 -0.120   
 -0.095   
 -0.130   
 -0.085   
 -0.125   
 -0.080   
 -0.090   
 -0.070   
 -0.105   
 -0.050   
 -0.075   
 -0.035   
 -0.050   
 -0.015   
 -0.015   
  0.030   
  0.050   
  0.115   
  0.140   
  0.205   
  0.250   
  0.295   
  0.320   
  0.335   
  0.290   
  0.260   
  0.180   
  0.140   
  0.075   
  0.025   
  0.000   
  0.000   
 -0.025   
 -0.020   
 -0.025   
 -0.045   
 -0.035   
 -0.015   
 -0.030   
 -0.020   
  0.000   
 -0.015   
 -0.015   
 -0.005   
  0.000   
 -0.010   
 -0.005   
  0.000   
  0.000   
  0.000   
 -0.015   
 -0.005   
 -0.015   
 -0.020   
 -0.020   
 -0.020   
 -0.025   
 -0.025   
 -0.020   
 -0.010   
 -0.020   
 -0.015   
 -0.025   
 -0.020   
 -0.025   
 -0.020   
 -0.020   
 -0.015   
 -0.030   
 -0.020   
 -0.035   
  0.005   
  0.010   
  0.070   
  0.060   
  0.090   
  0.070   
  0.145   
  0.080   
  0.045   
 -0.010   
 -0.010   
 -0.050   
 -0.070   
 -0.110   
 -0.075   
 -0.110   
 -0.075   
 -0.120   
 -0.090   
 -0.125   
 -0.040   
 -0.055   
  0.055   
  0.900   
  0.090   
 -0.220   
 -0.460   
 -0.380   
 -0.125   
 -0.115   
 -0.085   
 -0.110   
 -0.080   
 -0.100   
 -0.070   
 -0.090   
 -0.070   
 -0.080   
 -0.050   
 -0.060   
 -0.035   
 -0.045   
 -0.010   
 -0.005   
  0.030   
  0.050   
  0.105   
  0.145   
  0.205   
  0.235   
  0.285   
  0.310   
  0.335   
  0.310   
  0.270   
  0.205   
  0.150   
  0.085   
  0.055   
  0.020   
  0.005   
 -0.010   
 -0.015   
 -0.015   
 -0.020   
 -0.025   
 -0.020   
 -0.010   
  0.000   
  0.000   
  0.005   
  0.005   
  0.010   
  0.015   
  0.015   
  0.020   
  0.015   
  0.020   
  0.015   
  0.020   
  0.005   
  0.005   
  0.000   
  0.005   
  0.000   
  0.005   
  0.000   
  0.000   
 -0.005   
  0.000   
 -0.005   
 -0.020   
 -0.015   
 -0.020   
 -0.030   
 -0.020   
 -0.020   
 -0.020   
 -0.030   
 -0.020   
 -0.040   
 -0.020   
 -0.030   
  0.015   
  0.015   
  0.075   
  0.065   
  0.095   
  0.070   
  0.145   
  0.070   
  0.045   
 -0.005   
 -0.020   
 -0.060   
 -0.070   
 -0.105   
 -0.070   
 -0.120   
 -0.090   
 -0.125   
 -0.090   
 -0.115   
 -0.030   
 -0.045   
  0.230   
  0.910   
 -0.240   
 -0.425   
 -0.505   
 -0.295   
 -0.085   
 -0.135   
 -0.085   
 -0.115   
 -0.080   
 -0.105   
 -0.070   
 -0.095   
 -0.065   
 -0.085   
 -0.055   
 -0.070   
 -0.040   
 -0.055   
 -0.010   
 -0.005   
  0.025   
  0.050   
  0.125   
  0.155   
  0.205   
  0.235   
  0.300   
  0.310   
  0.320   
  0.280   
  0.235   
  0.165   
  0.110   
  0.045   
  0.015   
  0.000   
 -0.025   
 -0.040   
 -0.040   
 -0.045   
 -0.045   
 -0.040   
 -0.045   
 -0.035   
 -0.035   
 -0.035   
 -0.035   
 -0.020   
 -0.010   
 -0.020   
 -0.015   
 -0.005   
 -0.020   
 -0.010   
 -0.020   
 -0.030   
 -0.030   
 -0.015   
 -0.015   
 -0.015   
 -0.025   
 -0.030   
 -0.030   
 -0.030   
 -0.020   
 -0.020   
 -0.030   
 -0.025   
 -0.030   
 -0.025   
 -0.025   
 -0.035   
 -0.025   
 -0.020   
 -0.035   
 -0.020   
 -0.020   
  0.000   
  0.005   
  0.045   
  0.065   
  0.075   
  0.060   
  0.135   
  0.085   
  0.045   
  0.000   
 -0.015   
 -0.040   
 -0.085   
 -0.105   
 -0.100   
 -0.110   
 -0.090   
 -0.105   
 -0.110   
 -0.105   
 -0.080   
 -0.085   
 -0.025   
  0.640   
  0.445   
 -0.140   
 -0.375   
 -0.390   
 -0.225   
 -0.105   
 -0.110   
 -0.115   
 -0.105   
 -0.120   
 -0.090   
 -0.100   
 -0.090   
 -0.080   
 -0.065   
 -0.075   
 -0.075   
 -0.065   
 -0.030   
 -0.025   
  0.000   
  0.025   
  0.075   
  0.110   
  0.170   
  0.205   
  0.260   
  0.290   
  0.310   
  0.305   
  0.265   
  0.215   
  0.150   
  0.085   
  0.040   
  0.010   
 -0.005   
 -0.020   
 -0.035   
 -0.040   
 -0.045   
 -0.040   
 -0.040   
 -0.035   
 -0.030   
 -0.025   
 -0.020   
 -0.015   
 -0.015   
 -0.015   
 -0.005   
 -0.010   
 -0.005   
 -0.015   
 -0.015   
 -0.010   
 -0.010   
 -0.010   
 -0.015   
 -0.020   
 -0.015   
 -0.015   
 -0.015   
 -0.020   
 -0.010   
 -0.020   
 -0.005   
 -0.025   
 -0.005   
 -0.025   
 -0.015   
 -0.025   
 -0.010   
 -0.025   
 -0.015   
 -0.025   
  0.015   
  0.015   
  0.085   
  0.065   
  0.100   
  0.070   
  0.155   
  0.075   
  0.060   
 -0.005   
 -0.005   
 -0.045   
 -0.065   
 -0.115   
 -0.070   
 -0.110   
 -0.075   
 -0.125   
 -0.075   
 -0.120   
 -0.045   
 -0.050   
  0.110   
  0.950   
 -0.105   
 -0.315   
 -0.500   
 -0.365   
 -0.105   
 -0.140   
 -0.095   
 -0.135   
 -0.085   
 -0.120   
 -0.085   
 -0.110   
 -0.075   
 -0.095   
 -0.065   
 -0.085   
 -0.045   
 -0.060   
 -0.020   
 -0.025   
  0.020   
  0.040   
  0.100   
  0.130   
  0.195   
  0.225   
  0.275   
  0.300   
  0.315   
  0.285   
  0.245   
  0.170   
  0.120   
  0.065   
  0.025   
  0.000   
 -0.015   
 -0.025   
 -0.035   
 -0.040   
 -0.035   
 -0.035   
 -0.030   
 -0.025   
 -0.020   
 -0.020   
 -0.015   
 -0.015   
 -0.020   
 -0.010   
  0.000   
  0.000   
 -0.010   
 -0.010   
 -0.015   
 -0.010   
 -0.015   
 -0.015   
 -0.020   
 -0.015   
 -0.015   
 -0.025   
 -0.025   
 -0.015   
 -0.025   
 -0.005   
 -0.025   
 -0.025   
 -0.030   
 -0.015   
 -0.030   
 -0.020   
 -0.035   
 -0.015   
 -0.035   
 -0.010   
 -0.035   
  0.015   
  0.020   
  0.080   
  0.065   
  0.100   
  0.080   
  0.140   
  0.075   
  0.060   
  0.000   
 -0.020   
 -0.060   
 -0.060   
 -0.115   
 -0.065   
 -0.100   
 -0.085   
 -0.115   
 -0.075   
 -0.125   
 -0.030   
 -0.045   
  0.180   
  0.950   
 -0.175   
 -0.335   
 -0.490   
 -0.325   
 -0.085   
 -0.130   
 -0.085   
 -0.120   
 -0.075   
 -0.115   
 -0.070   
 -0.100   
 -0.070   
 -0.085   
 -0.040   
 -0.075   
 -0.035   
 -0.035   
 -0.015   
 -0.005   
  0.040   
  0.065   
  0.125   
  0.170   
  0.220   
  0.265   
  0.310   
  0.325   
  0.335   
  0.305   
  0.260   
  0.190   
  0.130   
  0.070   
  0.040   
  0.010   
  0.005   
 -0.025   
 -0.020   
 -0.030   
 -0.030   
 -0.015   
 -0.025   
 -0.020   
 -0.025   
 -0.015   
  0.000   
 -0.005   
  0.005   
 -0.010   
  0.010   
  0.010   
  0.000   
  0.005   
  0.000   
  0.005   
  0.000   
  0.010   
 -0.015   
 -0.020   
 -0.020   
 -0.015   
 -0.005   
 -0.020   
 -0.015   
 -0.030   
 -0.015   
 -0.015   
 -0.010   
 -0.035   
 -0.015   
 -0.040   
 -0.030   
 -0.035   
 -0.025   
 -0.040   
  0.015   
  0.000   
  0.060   
  0.050   
  0.075   
  0.080   
  0.130   
  0.055   
  0.030   
 -0.020   
  0.000   
 -0.090   
 -0.075   
 -0.125   
 -0.080   
 -0.125   
 -0.090   
 -0.140   
 -0.090   
 -0.135   
 -0.070   
 -0.100   
  0.120   
  1.070   
 -0.005   
 -0.235   
 -0.445   
 -0.355   
 -0.120   
 -0.130   
 -0.090   
 -0.125   
 -0.090   
 -0.115   
 -0.080   
 -0.115   
 -0.070   
 -0.105   
 -0.060   
 -0.075   
 -0.040   
 -0.060   
 -0.020   
 -0.010   
  0.030   
  0.045   
  0.100   
  0.125   
  0.180   
  0.220   
  0.270   
  0.285   
  0.305   
  0.285   
  0.250   
  0.185   
  0.125   
  0.060   
  0.030   
 -0.005   
 -0.010   
 -0.030   
 -0.025   
 -0.030   
 -0.030   
 -0.035   
 -0.020   
 -0.020   
 -0.020   
 -0.010   
 -0.015   
 -0.010   
 -0.005   
  0.000   
  0.000   
 -0.010   
 -0.005   
 -0.010   
 -0.010   
 -0.010   
 -0.025   
 -0.025   
 -0.025   
 -0.020   
 -0.025   
 -0.020   
 -0.025   
 -0.025   
 -0.025   
 -0.025   
 -0.025   
 -0.030   
 -0.035   
 -0.030   
 -0.035   
 -0.035   
 -0.020   
 -0.025   
 -0.025   
 -0.025   
  0.015   
  0.045   
  0.070   
  0.085   
  0.070   
  0.130   
  0.105   
  0.050   
  0.025   
 -0.020   
 -0.025   
 -0.070   
 -0.085   
 -0.095   
 -0.100   
 -0.100   
 -0.105   
 -0.095   
 -0.095   
 -0.060   
 -0.030   
 -0.025   
  0.550   
  0.495   
 -0.230   
 -0.460   
 -0.445   
 -0.190   
 -0.105   
 -0.110   
 -0.095   
 -0.095   
 -0.095   
 -0.090   
 -0.085   
 -0.085   
 -0.075   
 -0.070   
 -0.065   
 -0.055   
 -0.040   
 -0.030   
 -0.005   
  0.005   
  0.035   
  0.075   
  0.125   
  0.175   
  0.220   
  0.260   
  0.290   
  0.315   
  0.320   
  0.280   
  0.215   
  0.150   
  0.100   
  0.050   
  0.025   
  0.000   
 -0.010   
 -0.020   
 -0.025   
 -0.025   
 -0.025   
 -0.030   
 -0.015   
 -0.010   
 -0.005   
 -0.005   
  0.000   
  0.000   
  0.005   
  0.010   
  0.005   
  0.010   
  0.005   
  0.005   
  0.000   
  0.000   
  0.000   
  0.000   
  0.000   
  0.000   
 -0.005   
 -0.005   
 -0.005   
  0.010   
 -0.005   
 -0.005   
 -0.010   
  0.000   
 -0.005   
  0.000   
 -0.010   
 -0.005   
 -0.025   
 -0.010   
 -0.015   
  0.005   
  0.000   
  0.035   
  0.045   
  0.085   
  0.090   
  0.100   
  0.125   
  0.160   
  0.090   
  0.060   
  0.000   
 -0.010   
 -0.055   
 -0.070   
 -0.090   
 -0.085   
 -0.100   
 -0.075   
 -0.110   
 -0.070   
 -0.085   
 -0.025   
 -0.075   
  0.290   
  0.830   
 -0.210   
 -0.385   
 -0.465   
 -0.290   
 -0.090   
 -0.135   
 -0.100   
 -0.125   
 -0.100   
 -0.120   
 -0.080   
 -0.095   
 -0.080   
 -0.105   
 -0.060   
 -0.090   
 -0.060   
 -0.045   
 -0.030   
 -0.015   
  0.030   
  0.060   
  0.105   
  0.145   
  0.225   
  0.250   
  0.300   
  0.320   
  0.340   
  0.290   
  0.240   
  0.170   
  0.110   
  0.070   
  0.025   
  0.005   
 -0.010   
 -0.020   
 -0.020   
 -0.030   
 -0.020   
 -0.040   
 -0.025   
 -0.025   
 -0.020   
 -0.010   
 -0.025   
 -0.005   
 -0.005   
  0.000   
 -0.010   
  0.005   
 -0.010   
 -0.005   
  0.000   
 -0.010   
 -0.010   
  0.000   
 -0.015   
 -0.020   
 -0.015   
 -0.020   
 -0.020   
 -0.010   
 -0.015   
 -0.035   
 -0.025   
 -0.005   
 -0.030   
 -0.020   
 -0.030   
 -0.025   
 -0.035   
 -0.030   
  0.000   
  0.000   
  0.040   
  0.065   
  0.055   
  0.065   
  0.120   
  0.115   
  0.045   
  0.030   
 -0.030   
  0.000   
 -0.090   
 -0.095   
 -0.115   
 -0.090   
 -0.110   
 -0.085   
 -0.115   
 -0.090   
 -0.100   
 -0.100   
 -0.090   
  0.405   
  0.825   
 -0.120   
 -0.325   
 -0.430   
 -0.270   
 -0.075   
 -0.115   
 -0.100   
 -0.110   
 -0.095   
 -0.110   
 -0.095   
 -0.090   
 -0.065   
 -0.095   
 -0.075   
 -0.070   
 -0.050   
 -0.050   
 -0.020   
  0.000   
  0.045   
  0.065   
  0.115   
  0.160   
  0.220   
  0.255   
  0.295   
  0.315   
  0.310   
  0.285   
  0.220   
  0.160   
  0.110   
  0.055   
  0.025   
  0.005   
 -0.005   
 -0.030   
 -0.030   
 -0.040   
 -0.020   
 -0.020   
 -0.025   
 -0.010   
  0.000   
  0.000   
  0.000   
  0.000   
  0.005   
  0.010   
  0.005   
  0.005   
  0.000   
  0.000   
  0.000   
  0.000   
 -0.010   
 -0.010   
 -0.010   
 -0.010   
 -0.015   
 -0.015   
 -0.015   
 -0.030   
 -0.020   
 -0.030   
 -0.020   
 -0.025   
 -0.020   
 -0.025   
 -0.010   
 -0.025   
 -0.020   
 -0.030   
 -0.015   
 -0.035   
  0.020   
  0.010   
  0.070   
  0.070   
  0.095   
  0.080   
  0.145   
  0.070   
  0.055   
 -0.010   
 -0.015   
 -0.060   
 -0.070   
 -0.115   
 -0.080   
 -0.125   
 -0.080   
 -0.120   
 -0.075   
 -0.115   
 -0.040   
 -0.045   
  0.110   
  0.980   
 -0.020   
 -0.265   
 -0.480   
 -0.365   
 -0.110   
 -0.130   
 -0.095   
 -0.125   
 -0.070   
 -0.115   
 -0.070   
 -0.090   
 -0.070   
 -0.095   
 -0.055   
 -0.075   
 -0.050   
 -0.065   
 -0.025   
 -0.025   
  0.015   
  0.040   
  0.105   
  0.140   
  0.205   
  0.235   
  0.285   
  0.310   
  0.330   
  0.300   
  0.250   
  0.185   
  0.125   
  0.075   
  0.040   
  0.000   
 -0.015   
 -0.015   
 -0.015   
 -0.040   
 -0.040   
 -0.035   
 -0.025   
 -0.030   
 -0.020   
 -0.015   
 -0.020   
 -0.015   
 -0.005   
  0.000   
  0.000   
 -0.005   
 -0.010   
 -0.010   
 -0.005   
 -0.005   
 -0.010   
 -0.005   
 -0.015   
 -0.025   
 -0.025   
 -0.020   
 -0.020   
 -0.020   
 -0.010   
 -0.025   
 -0.030   
 -0.025   
 -0.020   
 -0.030   
 -0.025   
 -0.035   
 -0.035   
 -0.035   
 -0.030   
 -0.025   
 -0.025   
 -0.025   
 -0.005   
  0.010   
  0.040   
  0.070   
  0.075   
  0.055   
  0.140   
  0.100   
  0.055   
  0.010   
 -0.015   
 -0.035   
 -0.080   
 -0.110   
 -0.100   
 -0.095   
 -0.100   
 -0.110   
 -0.095   
 -0.095   
 -0.055   
 -0.035   
 -0.030   
  0.615   
  0.420   
 -0.205   
 -0.445   
 -0.440   
 -0.190   
 -0.115   
 -0.120   
 -0.115   
 -0.100   
 -0.110   
 -0.105   
 -0.100   
 -0.100   
 -0.090   
 -0.075   
 -0.075   
 -0.070   
 -0.050   
 -0.040   
 -0.030   
  0.010   
  0.030   
  0.080   
  0.125   
  0.180   
  0.230   
  0.265   
  0.295   
  0.320   
  0.310   
  0.275   
  0.215   
  0.145   
  0.080   
  0.040   
  0.005   
 -0.005   
 -0.025   
 -0.030   
 -0.035   
 -0.040   
 -0.040   
 -0.050   
 -0.030   
 -0.025   
 -0.020   
 -0.025   
 -0.010   
 -0.010   
 -0.005   
  0.000   
 -0.010   
 -0.010   
 -0.005   
 -0.010   
  0.000   
 -0.005   
 -0.010   
 -0.010   
 -0.020   
 -0.025   
 -0.020   
 -0.025   
 -0.025   
 -0.015   
 -0.015   
 -0.015   
 -0.020   
 -0.020   
 -0.025   
 -0.015   
 -0.030   
 -0.015   
 -0.020   
 -0.015   
 -0.025   
 -0.020   
 -0.035   
 -0.020   
 -0.035   
  0.015   
  0.020   
  0.085   
  0.060   
  0.085   
  0.090   
  0.130   
  0.050   
  0.045   
 -0.025   
 -0.005   
 -0.065   
 -0.075   
 -0.120   
 -0.075   
 -0.120   
 -0.085   
 -0.125   
 -0.085   
 -0.110   
 -0.065   
 -0.070   
  0.235   
  0.960   
 -0.170   
 -0.350   
 -0.490   
 -0.305   
 -0.095   
 -0.135   
 -0.090   
 -0.120   
 -0.080   
 -0.095   
 -0.070   
 -0.095   
 -0.055   
 -0.095   
 -0.060   
 -0.075   
 -0.045   
 -0.050   
  0.000   
 -0.005   
  0.025   
  0.050   
  0.110   
  0.145   
  0.205   
  0.235   
  0.280   
  0.300   
  0.330   
  0.290   
  0.245   
  0.175   
  0.110   
  0.055   
  0.030   
  0.000   
 -0.025   
 -0.030   
 -0.045   
 -0.050   
 -0.030   
 -0.035   
 -0.040   
 -0.030   
 -0.025   
 -0.035   
 -0.030   
 -0.025   
 -0.020   
 -0.015   
 -0.025   
 -0.020   
 -0.025   
 -0.025   
 -0.025   
 -0.030   
 -0.030   
 -0.035   
 -0.040   
 -0.050   
 -0.035   
 -0.035   
 -0.040   
 -0.050   
 -0.050   
 -0.045   
 -0.040   
 -0.045   
 -0.040   
 -0.045   
 -0.040   
 -0.035   
 -0.045   
 -0.045   
 -0.035   
 -0.040   
 -0.045   
 -0.020   
  0.000   
  0.030   
  0.065   
  0.070   
  0.060   
  0.125   
  0.100   
  0.040   
  0.020   
 -0.025   
 -0.035   
 -0.090   
 -0.100   
 -0.110   
 -0.110   
 -0.120   
 -0.105   
 -0.120   
 -0.110   
 -0.080   
 -0.070   
 -0.060   
  0.480   
  0.615   
 -0.170   
 -0.400   
 -0.450   
 -0.245   
 -0.100   
 -0.125   
 -0.105   
 -0.110   
 -0.100   
 -0.105   
 -0.090   
 -0.105   
 -0.080   
 -0.085   
 -0.085   
 -0.080   
 -0.060   
 -0.055   
 -0.025   
 -0.005   
  0.030   
  0.070   
  0.100   
  0.160   
  0.215   
  0.245   
  0.300   
  0.325   
  0.315   
  0.285   
  0.220   
  0.150   
  0.100   
  0.050   
  0.010   
 -0.005   
 -0.040   
 -0.030   
 -0.025   
 -0.040   
 -0.040   
 -0.040   
 -0.030   
 -0.035   
 -0.020   
 -0.025   
 -0.015   
 -0.020   
 -0.010   
 -0.005   
 -0.015   
 -0.005   
 -0.010   
 -0.005   
 -0.010   
 -0.030   
 -0.020   
 -0.015   
 -0.015   
 -0.010   
 -0.025   
 -0.025   
 -0.025   
 -0.010   
 -0.015   
 -0.015   
 -0.030   
 -0.030   
 -0.040   
 -0.015   
 -0.035   
 -0.015   
 -0.040   
 -0.015   
 -0.020   
  0.005   
  0.025   
  0.070   
  0.060   
  0.070   
  0.110   
  0.110   
  0.040   
  0.025   
 -0.025   
 -0.025   
 -0.090   
 -0.095   
 -0.110   
 -0.090   
 -0.110   
 -0.090   
 -0.130   
 -0.100   
 -0.095   
 -0.055   
 -0.070   
  0.345   
  0.850   
 -0.145   
 -0.350   
 -0.455   
 -0.280   
 -0.095   
 -0.125   
 -0.105   
 -0.120   
 -0.085   
 -0.100   
 -0.070   
 -0.090   
 -0.070   
 -0.080   
 -0.050   
 -0.060   
 -0.025   
 -0.035   
  0.000   
  0.015   
  0.060   
  0.065   
  0.125   
  0.165   
  0.220   
  0.265   
  0.310   
  0.335   
  0.335   
  0.300   
  0.230   
  0.170   
  0.110   
  0.050   
  0.020   
  0.010   
 -0.010   
 -0.020   
 -0.025   
 -0.035   
 -0.030   
 -0.025   
 -0.030   
 -0.020   
 -0.015   
 -0.015   
 -0.015   
  0.000   
 -0.005   
 -0.010   
 -0.005   
 -0.005   
 -0.005   
 -0.005   
 -0.005   
 -0.010   
 -0.005   
 -0.020   
 -0.010   
 -0.015   
 -0.010   
 -0.025   
 -0.015   
 -0.020   
 -0.015   
 -0.035   
 -0.010   
 -0.035   
 -0.025   
 -0.035   
 -0.010   
 -0.020   
 -0.010   
 -0.030   
  0.005   
  0.005   
  0.070   
  0.055   
  0.090   
  0.075   
  0.150   
  0.070   
  0.060   
  0.000   
 -0.020   
 -0.050   
 -0.080   
 -0.125   
 -0.090   
 -0.130   
 -0.090   
 -0.130   
 -0.085   
 -0.120   
 -0.055   
 -0.065   
  0.070   
  0.940   
  0.035   
 -0.245   
 -0.485   
 -0.380   
 -0.125   
 -0.130   
 -0.090   
 -0.115   
 -0.080   
 -0.105   
 -0.085   
 -0.105   
 -0.070   
 -0.095   
 -0.055   
 -0.080   
 -0.040   
 -0.055   
 -0.030   
 -0.010   
  0.030   
  0.045   
  0.100   
  0.135   
  0.205   
  0.235   
  0.295   
  0.310   
  0.340   
  0.305   
  0.270   
  0.210   
  0.140   
  0.090   
  0.050   
  0.015   
 -0.005   
 -0.015   
 -0.025   
 -0.030   
 -0.010   
 -0.025   
 -0.030   
 -0.005   
 -0.015   
  0.000   
  0.000   
  0.000   
 -0.005   
  0.005   
  0.000   
 -0.005   
  0.010   
  0.000   
  0.000   
 -0.005   
  0.000   
 -0.015   
  0.000   
 -0.015   
 -0.025   
 -0.025   
 -0.025   
 -0.020   
 -0.010   
 -0.025   
 -0.015   
 -0.030   
 -0.015   
 -0.025   
 -0.010   
 -0.035   
 -0.020   
 -0.020   
  0.000   
  0.000   
  0.055   
  0.070   
  0.080   
  0.075   
  0.145   
  0.075   
  0.055   
 -0.005   
 -0.025   
 -0.055   
 -0.070   
 -0.105   
 -0.080   
 -0.125   
 -0.095   
 -0.125   
 -0.095   
 -0.135   
 -0.045   
 -0.070   
  0.035   
  0.890   
  0.155   
 -0.215   
 -0.460   
 -0.385   
 -0.155   
 -0.125   
 -0.095   
 -0.125   
 -0.085   
 -0.105   
 -0.075   
 -0.105   
 -0.080   
 -0.095   
 -0.050   
 -0.075   
 -0.045   
 -0.045   
 -0.010   
 -0.010   
  0.015   
  0.040   
  0.100   
  0.140   
  0.200   
  0.225   
  0.290   
  0.315   
  0.340   
  0.320   
  0.275   
  0.215   
  0.140   
  0.085   
  0.045   
  0.015   
  0.000   
 -0.005   
 -0.020   
 -0.020   
 -0.025   
 -0.030   
 -0.020   
 -0.020   
 -0.005   
 -0.005   
 -0.005   
 -0.005   
 -0.005   
  0.010   
  0.000   
  0.000   
  0.000   
  0.000   
  0.000   
  0.000   
  0.000   
 -0.010   
 -0.005   
 -0.015   
 -0.020   
 -0.020   
 -0.015   
 -0.020   
 -0.025   
 -0.015   
 -0.020   
 -0.005   
 -0.030   
 -0.010   
 -0.030   
 -0.015   
 -0.025   
  0.000   
  0.015   
  0.060   
  0.060   
  0.085   
  0.065   
  0.140   
  0.080   
  0.070   
  0.005   
 -0.010   
 -0.045   
 -0.085   
 -0.105   
 -0.075   
 -0.120   
 -0.085   
 -0.120   
 -0.090   
 -0.115   
 -0.040   
 -0.055   
  0.030   
  0.850   
  0.180   
 -0.220   
 -0.465   
 -0.395   
 -0.170   
 -0.140   
 -0.100   
 -0.135   
 -0.095   
 -0.120   
 -0.080   
 -0.100   
 -0.080   
 -0.105   
 -0.075   
 -0.085   
 -0.055   
 -0.055   
 -0.025   
 -0.020   
  0.005   
  0.035   
  0.100   
  0.135   
  0.195   
  0.220   
  0.265   
  0.305   
  0.345   
  0.325   
  0.270   
  0.205   
  0.140   
  0.070   
  0.025   
  0.005   
 -0.005   
 -0.030   
 -0.030   
 -0.035   
 -0.030   
 -0.040   
 -0.040   
 -0.025   
 -0.030   
 -0.025   
 -0.025   
 -0.020   
 -0.010   
  0.000   
 -0.005   
 -0.005   
  0.000   
  0.000   
 -0.020   
 -0.015   
 -0.005   
 -0.020   
 -0.010   
 -0.015   
 -0.015   
 -0.020   
 -0.020   
 -0.030   
 -0.010   
 -0.020   
 -0.015   
 -0.040   
 -0.025   
 -0.020   
 -0.015   
 -0.035   
 -0.025   
 -0.040   
 -0.025   
 -0.040   
  0.010   
  0.020   
  0.065   
  0.055   
  0.095   
  0.090   
  0.145   
  0.055   
  0.045   
 -0.015   
  0.000   
 -0.065   
 -0.075   
 -0.125   
 -0.085   
 -0.130   
 -0.075   
 -0.115   
 -0.075   
 -0.120   
 -0.040   
 -0.040   
  0.195   
  1.045   
 -0.105   
 -0.315   
 -0.495   
 -0.340   
 -0.095   
 -0.130   
 -0.080   
 -0.125   
 -0.080   
 -0.105   
 -0.065   
 -0.100   
 -0.050   
 -0.090   
 -0.050   
 -0.065   
 -0.030   
 -0.060   
 -0.005   
 -0.015   
  0.020   
  0.055   
  0.105   
  0.140   
  0.210   
  0.250   
  0.310   
  0.325   
  0.340   
  0.310   
  0.255   
  0.190   
  0.130   
  0.085   
  0.035   
  0.005   
  0.000   
 -0.030   
 -0.030   
 -0.015   
 -0.030   
 -0.030   
 -0.025   
 -0.030   
 -0.020   
 -0.015   
 -0.030   
  0.000   
 -0.010   
 -0.010   
  0.000   
  0.000   
  0.000   
 -0.005   
 -0.020   
 -0.015   
 -0.005   
 -0.015   
 -0.020   
 -0.015   
 -0.010   
 -0.015   
 -0.030   
 -0.020   
 -0.020   
 -0.020   
 -0.030   
 -0.025   
 -0.025   
 -0.020   
 -0.035   
 -0.020   
 -0.025   
 -0.025   
 -0.035   
  0.000   
  0.035   
  0.075   
  0.055   
  0.075   
  0.120   
  0.110   
  0.050   
  0.030   
 -0.025   
 -0.015   
 -0.090   
 -0.080   
 -0.115   
 -0.090   
 -0.120   
 -0.090   
 -0.110   
 -0.090   
 -0.090   
 -0.060   
 -0.060   
  0.415   
  0.870   
 -0.160   
 -0.375   
 -0.470   
 -0.285   
 -0.090   
 -0.115   
 -0.105   
 -0.115   
 -0.100   
 -0.115   
 -0.080   
 -0.095   
 -0.080   
 -0.100   
 -0.065   
 -0.070   
 -0.045   
 -0.050   
 -0.015   
 -0.010   
  0.030   
  0.045   
  0.120   
  0.155   
  0.210   
  0.240   
  0.290   
  0.315   
  0.315   
  0.290   
  0.235   
  0.165   
  0.105   
  0.055   
  0.020   
 -0.010   
 -0.015   
 -0.035   
 -0.035   
 -0.045   
 -0.035   
 -0.045   
 -0.040   
 -0.030   
 -0.035   
 -0.020   
 -0.015   
 -0.020   
 -0.010   
 -0.005   
 -0.005   
  0.000   
 -0.015   
 -0.020   
 -0.020   
 -0.020   
 -0.015   
 -0.015   
 -0.005   
 -0.010   
 -0.030   
 -0.015   
 -0.020   
 -0.030   
 -0.020   
 -0.025   
 -0.025   
 -0.035   
 -0.030   
 -0.030   
 -0.025   
 -0.035   
 -0.025   
 -0.030   
 -0.020   
 -0.015   
 -0.020   
 -0.035   
 -0.020   
  0.000   
  0.045   
  0.055   
  0.070   
  0.060   
  0.130   
  0.090   
  0.050   
  0.000   
 -0.020   
 -0.025   
 -0.075   
 -0.105   
 -0.080   
 -0.105   
 -0.090   
 -0.105   
 -0.090   
 -0.090   
 -0.050   
 -0.045   
  0.015   
  0.730   
  0.380   
 -0.190   
 -0.450   
 -0.420   
 -0.185   
 -0.130   
 -0.110   
 -0.110   
 -0.100   
 -0.115   
 -0.090   
 -0.100   
 -0.090   
 -0.100   
 -0.075   
 -0.080   
 -0.055   
 -0.050   
 -0.025   
 -0.025   
  0.000   
  0.035   
  0.075   
  0.120   
  0.180   
  0.225   
  0.270   
  0.305   
  0.330   
  0.310   
  0.270   
  0.220   
  0.145   
  0.090   
  0.040   
  0.005   
  0.000   
 -0.015   
 -0.035   
 -0.035   
 -0.050   
 -0.050   
 -0.035   
 -0.030   
 -0.030   
 -0.035   
 -0.025   
 -0.005   
 -0.005   
 -0.005   
 -0.005   
  0.000   
 -0.005   
 -0.005   
 -0.010   
 -0.010   
 -0.025   
 -0.015   
 -0.020   
 -0.010   
 -0.025   
 -0.035   
 -0.010   
 -0.025   
 -0.020   
 -0.030   
 -0.015   
 -0.040   
 -0.030   
 -0.040   
 -0.025   
 -0.035   
 -0.020   
 -0.040   
 -0.030   
 -0.040   
 -0.025   
 -0.045   
  0.010   
  0.000   
  0.065   
  0.050   
  0.080   
  0.070   
  0.140   
  0.055   
  0.035   
 -0.020   
 -0.015   
 -0.070   
 -0.070   
 -0.130   
 -0.090   
 -0.120   
 -0.085   
 -0.130   
 -0.085   
 -0.130   
 -0.045   
 -0.045   
  0.180   
  1.020   
 -0.135   
 -0.335   
 -0.495   
 -0.340   
 -0.090   
 -0.135   
 -0.105   
 -0.125   
 -0.080   
 -0.105   
 -0.070   
 -0.095   
 -0.060   
 -0.090   
 -0.055   
 -0.075   
 -0.030   
 -0.050   
 -0.010   
 -0.015   
  0.035   
  0.055   
  0.110   
  0.135   
  0.200   
  0.230   
  0.280   
  0.310   
  0.325   
  0.290   
  0.245   
  0.175   
  0.125   
  0.060   
  0.030   
  0.000   
 -0.025   
 -0.030   
 -0.040   
 -0.045   
 -0.035   
 -0.035   
 -0.030   
 -0.035   
 -0.025   
 -0.020   
 -0.020   
 -0.005   
 -0.005   
 -0.010   
 -0.010   
  0.000   
 -0.010   
  0.000   
 -0.005   
 -0.010   
 -0.020   
 -0.020   
 -0.015   
 -0.015   
 -0.025   
 -0.030   
 -0.025   
 -0.020   
 -0.020   
 -0.025   
 -0.020   
 -0.030   
 -0.015   
 -0.030   
 -0.020   
 -0.025   
 -0.020   
 -0.040   
 -0.015   
 -0.030   
  0.000   
  0.010   
  0.075   
  0.080   
  0.110   
  0.070   
  0.165   
  0.085   
  0.055   
  0.000   
 -0.005   
 -0.040   
 -0.065   
 -0.110   
 -0.065   
 -0.115   
 -0.090   
 -0.115   
 -0.080   
 -0.115   
 -0.045   
 -0.035   
  0.090   
  0.915   
 -0.010   
 -0.300   
 -0.515   
 -0.395   
 -0.120   
 -0.130   
 -0.095   
 -0.125   
 -0.090   
 -0.105   
 -0.075   
 -0.115   
 -0.080   
 -0.095   
 -0.055   
 -0.080   
 -0.045   
 -0.050   
 -0.020   
 -0.015   
  0.025   
  0.040   
  0.105   
  0.145   
  0.205   
  0.225   
  0.275   
  0.320   
  0.345   
  0.330   
  0.280   
  0.200   
  0.130   
  0.065   
  0.040   
  0.005   
 -0.010   
 -0.025   
 -0.035   
 -0.045   
 -0.040   
 -0.030   
 -0.030   
 -0.025   
 -0.030   
 -0.040   
 -0.025   
 -0.005   
 -0.015   
 -0.020   
  0.000   
 -0.010   
 -0.020   
 -0.020   
 -0.015   
 -0.025   
 -0.015   
 -0.015   
 -0.035   
 -0.015   
 -0.025   
 -0.025   
 -0.025   
 -0.015   
 -0.040   
 -0.030   
 -0.040   
 -0.020   
 -0.030   
 -0.025   
 -0.035   
 -0.035   
 -0.035   
  0.000   
  0.000   
  0.060   
  0.070   
  0.085   
  0.060   
  0.145   
  0.080   
  0.050   
  0.000   
 -0.020   
 -0.045   
 -0.075   
 -0.120   
 -0.090   
 -0.105   
 -0.085   
 -0.130   
 -0.080   
 -0.110   
 -0.045   
 -0.065   
  0.035   
  0.850   
  0.185   
 -0.170   
 -0.425   
 -0.390   
 -0.160   
 -0.125   
 -0.115   
 -0.130   
 -0.085   
 -0.110   
 -0.100   
 -0.110   
 -0.085   
 -0.100   
 -0.070   
 -0.090   
 -0.065   
 -0.075   
 -0.040   
 -0.025   
  0.015   
  0.030   
  0.090   
  0.125   
  0.190   
  0.235   
  0.270   
  0.300   
  0.345   
  0.320   
  0.280   
  0.205   
  0.130   
  0.080   
  0.040   
  0.005   
 -0.020   
 -0.025   
 -0.030   
 -0.035   
 -0.035   
 -0.040   
 -0.030   
 -0.025   
 -0.025   
 -0.025   
 -0.010   
 -0.015   
 -0.015   
 -0.015   
 -0.010   
  0.000   
 -0.015   
 -0.005   
 -0.010   
 -0.015   
 -0.015   
 -0.030   
 -0.035   
 -0.020   
 -0.030   
 -0.025   
 -0.025   
 -0.030   
 -0.040   
 -0.050   
 -0.045   
 -0.045   
 -0.045   
 -0.030   
 -0.035   
 -0.005   
  0.015   
  0.035   
  0.055   
  0.045   
  0.125   
  0.085   
  0.035   
  0.015   
 -0.040   
 -0.040   
 -0.105   
 -0.115   
 -0.110   
 -0.115   
 -0.120   
 -0.120   
 -0.115   
 -0.110   
 -0.095   
 -0.080   
 -0.040   
  0.575   
  0.630   
 -0.165   
 -0.390   
 -0.435   
 -0.250   
 -0.100   
 -0.120   
 -0.115   
 -0.110   
 -0.115   
 -0.100   
 -0.080   
 -0.090   
 -0.085   
 -0.095   
 -0.085   
 -0.065   
 -0.060   
 -0.035   
 -0.020   
  0.000   
  0.025   
  0.065   
  0.115   
  0.155   
  0.225   
  0.255   
  0.305   
  0.330   
  0.330   
  0.295   
  0.230   
  0.160   
  0.095   
  0.045   
  0.000   
 -0.015   
 -0.015   
 -0.035   
 -0.040   
 -0.040   
 -0.045   
 -0.045   
 -0.045   
 -0.035   
 -0.030   
 -0.025   
 -0.015   
 -0.025   
 -0.015   
  0.000   
 -0.010   
 -0.030   
 -0.015   
 -0.015   
 -0.025   
 -0.020   
 -0.020   
 -0.035   
 -0.025   
 -0.040   
 -0.025   
 -0.035   
 -0.030   
 -0.040   
 -0.035   
 -0.050   
 -0.050   
 -0.030   
 -0.015   
 -0.005   
  0.040   
  0.055   
  0.065   
  0.050   
  0.135   
  0.095   
  0.060   
  0.000   
 -0.015   
 -0.050   
 -0.090   
 -0.100   
 -0.095   
 -0.120   
 -0.100   
 -0.125   
 -0.100   
 -0.120   
 -0.065   
 -0.050   
  0.020   
  0.775   
  0.290   
 -0.230   
 -0.480   
 -0.420   
 -0.165   
 -0.125   
 -0.100   
 -0.105   
 -0.105   
 -0.120   
 -0.085   
 -0.105   
 -0.090   
 -0.095   
 -0.075   
 -0.070   
 -0.060   
 -0.060   
 -0.035   
 -0.030   
  0.005   
  0.035   
  0.090   
  0.125   
  0.175   
  0.225   
  0.280   
  0.320   
  0.335   
  0.320   
  0.285   
  0.220   
  0.145   
  0.085   
  0.050   
  0.010   
 -0.010   
 -0.025   
 -0.035   
 -0.040   
 -0.040   
 -0.025   
 -0.035   
 -0.035   
 -0.020   
 -0.015   
 -0.025   
 -0.015   
 -0.005   
 -0.005   
  0.000   
  0.000   
  0.000   
  0.000   
  0.000   
 -0.015   
 -0.010   
 -0.020   
 -0.015   
 -0.010   
 -0.015   
 -0.030   
 -0.010   
 -0.025   
 -0.025   
 -0.035   
 -0.020   
 -0.030   
 -0.015   
 -0.020   
  0.000   
  0.010   
  0.065   
  0.080   
  0.105   
  0.075   
  0.140   
  0.100   
  0.060   
  0.015   
 -0.015   
 -0.040   
 -0.070   
 -0.110   
 -0.085   
 -0.120   
 -0.100   
 -0.115   
 -0.085   
 -0.105   
 -0.045   
 -0.035   
  0.025   
  0.775   
  0.195   
 -0.270   
 -0.485   
 -0.420   
 -0.150   
 -0.120   
 -0.095   
 -0.115   
 -0.090   
 -0.095   
 -0.080   
 -0.105   
 -0.080   
 -0.095   
 -0.070   
 -0.065   
 -0.055   
 -0.055   
 -0.030   
 -0.015   
  0.010   
  0.035   
  0.085   
  0.130   
  0.195   
  0.240   
  0.290   
  0.315   
  0.350   
  0.330   
  0.285   
  0.220   
  0.150   
  0.095   
  0.055   
  0.000   
 -0.005   
 -0.020   
 -0.025   
 -0.030   
 -0.035   
 -0.035   
 -0.040   
 -0.040   
 -0.040   
 -0.020   
 -0.015   
 -0.010   
 -0.010   
  0.000   
  0.005   
  0.000   
 -0.005   
 -0.005   
 -0.010   
 -0.005   
 -0.005   
 -0.010   
 -0.010   
 -0.015   
 -0.015   
 -0.015   
 -0.015   
 -0.015   
 -0.015   
 -0.015   
 -0.010   
 -0.015   
 -0.005   
 -0.020   
 -0.015   
 -0.020   
 -0.010   
  0.020   
  0.070   
  0.090   
  0.100   
  0.080   
  0.150   
  0.100   
  0.065   
  0.030   
  0.000   
 -0.015   
 -0.060   
 -0.095   
 -0.085   
 -0.100   
 -0.090   
 -0.095   
 -0.080   
 -0.110   
 -0.050   
 -0.025   
  0.000   
  0.630   
  0.320   
 -0.270   
 -0.500   
 -0.445   
 -0.175   
 -0.115   
 -0.105   
 -0.115   
 -0.100   
 -0.085   
 -0.090   
 -0.090   
 -0.080   
 -0.090   
 -0.065   
 -0.065   
 -0.060   
 -0.050   
 -0.030   
 -0.020   
  0.005   
  0.050   
  0.085   
  0.130   
  0.190   
  0.230   
  0.280   
  0.325   
  0.350   
  0.330   
  0.295   
  0.230   
  0.155   
  0.090   
  0.050   
  0.020   
 -0.005   
 -0.020   
 -0.030   
 -0.025   
 -0.025   
 -0.035   
 -0.050   
 -0.035   
 -0.025   
 -0.025   
 -0.030   
 -0.020   
 -0.015   
 -0.015   
 -0.005   
 -0.005   
  0.000   
 -0.030   
 -0.020   
 -0.005   
 -0.015   
 -0.010   
 -0.005   
 -0.015   
 -0.025   
 -0.015   
 -0.030   
 -0.015   
 -0.020   
 -0.010   
 -0.025   
 -0.020   
 -0.040   
 -0.010   
 -0.035   
 -0.025   
 -0.045   
  0.025   
  0.015   
  0.060   
  0.050   
  0.085   
  0.100   
  0.140   
  0.035   
  0.055   
 -0.015   
 -0.030   
 -0.095   
 -0.080   
 -0.115   
 -0.090   
 -0.125   
 -0.085   
 -0.125   
 -0.090   
 -0.115   
 -0.055   
 -0.090   
  0.175   
  1.055   
 -0.095   
 -0.300   
 -0.470   
 -0.335   
 -0.095   
 -0.140   
 -0.090   
 -0.125   
 -0.080   
 -0.110   
 -0.065   
 -0.105   
 -0.070   
 -0.095   
 -0.060   
 -0.080   
 -0.050   
 -0.050   
 -0.010   
 -0.010   
  0.030   
  0.040   
  0.115   
  0.140   
  0.215   
  0.255   
  0.300   
  0.320   
  0.350   
  0.310   
  0.255   
  0.195   
  0.120   
  0.060   
  0.025   
  0.005   
 -0.010   
 -0.035   
 -0.035   
 -0.040   
 -0.045   
 -0.040   
 -0.035   
 -0.040   
 -0.025   
 -0.025   
 -0.035   
 -0.010   
 -0.010   
 -0.020   
  0.000   
 -0.020   
 -0.015   
 -0.010   
 -0.030   
 -0.035   
 -0.030   
 -0.030   
 -0.035   
 -0.050   
 -0.040   
 -0.040   
 -0.020   
 -0.035   
 -0.035   
 -0.040   
 -0.025   
 -0.030   
 -0.045   
 -0.020   
  0.010   
  0.020   
  0.065   
  0.060   
  0.055   
  0.125   
  0.105   
  0.050   
  0.025   
 -0.040   
 -0.020   
 -0.105   
 -0.075   
 -0.125   
 -0.090   
 -0.110   
 -0.090   
 -0.110   
 -0.100   
 -0.095   
 -0.075   
 -0.055   
  0.460   
  0.845   
 -0.185   
 -0.400   
 -0.455   
 -0.270   
 -0.105   
 -0.125   
 -0.100   
 -0.110   
 -0.090   
 -0.110   
 -0.085   
 -0.095   
 -0.075   
 -0.085   
 -0.070   
 -0.080   
 -0.055   
 -0.045   
 -0.030   
 -0.005   
  0.035   
  0.050   
  0.120   
  0.150   
  0.215   
  0.255   
  0.300   
  0.325   
  0.325   
  0.285   
  0.220   
  0.170   
  0.100   
  0.050   
  0.005   
 -0.015   
 -0.030   
 -0.030   
 -0.040   
 -0.040   
 -0.045   
 -0.050   
 -0.025   
 -0.045   
 -0.030   
 -0.025   
 -0.015   
 -0.020   
 -0.010   
 -0.010   
 -0.010   
  0.000   
 -0.010   
 -0.015   
 -0.025   
 -0.015   
 -0.020   
 -0.020   
 -0.025   
 -0.020   
 -0.035   
 -0.030   
 -0.040   
 -0.025   
 -0.025   
 -0.020   
 -0.025   
 -0.025   
 -0.015   
  0.005   
  0.035   
  0.070   
  0.065   
  0.070   
  0.125   
  0.110   
  0.055   
  0.030   
 -0.020   
 -0.020   
 -0.075   
 -0.085   
 -0.105   
 -0.090   
 -0.105   
 -0.085   
 -0.110   
 -0.105   
 -0.080   
 -0.040   
 -0.040   
  0.460   
  0.675   
 -0.230   
 -0.455   
 -0.480   
 -0.255   
 -0.120   
 -0.130   
 -0.105   
 -0.115   
 -0.090   
 -0.100   
 -0.090   
 -0.095   
 -0.085   
 -0.090   
 -0.070   
 -0.070   
 -0.055   
 -0.045   
 -0.015   
  0.005   
  0.040   
  0.070   
  0.115   
  0.170   
  0.230   
  0.270   
  0.325   
  0.340   
  0.340   
  0.300   
  0.230   
  0.160   
  0.095   
  0.035   
  0.005   
 -0.015   
 -0.030   
 -0.040   
 -0.045   
 -0.045   
 -0.045   
 -0.040   
 -0.035   
 -0.025   
 -0.025   
 -0.010   
 -0.015   
 -0.015   
 -0.015   
  0.000   
  0.000   
  0.000   
 -0.005   
 -0.010   
 -0.010   
 -0.005   
 -0.010   
 -0.025   
 -0.020   
 -0.025   
 -0.015   
 -0.030   
 -0.015   
 -0.035   
 -0.025   
 -0.035   
 -0.030   
 -0.045   
 -0.020   
 -0.035   
 -0.020   
 -0.030   
  0.005   
  0.010   
  0.070   
  0.060   
  0.085   
  0.065   
  0.145   
  0.065   
  0.040   
 -0.020   
 -0.015   
 -0.065   
 -0.080   
 -0.125   
 -0.080   
 -0.120   
 -0.085   
 -0.130   
 -0.090   
 -0.120   
 -0.020   
 -0.025   
  0.135   
  0.935   
 -0.185   
 -0.395   
 -0.520   
 -0.335   
 -0.095   
 -0.130   
 -0.085   
 -0.110   
 -0.075   
 -0.110   
 -0.065   
 -0.100   
 -0.070   
 -0.095   
 -0.065   
 -0.065   
 -0.035   
 -0.045   
 -0.015   
 -0.015   
  0.030   
  0.045   
  0.110   
  0.155   
  0.210   
  0.255   
  0.310   
  0.325   
  0.345   
  0.310   
  0.275   
  0.195   
  0.140   
  0.075   
  0.040   
  0.005   
  0.000   
 -0.010   
 -0.010   
 -0.020   
 -0.025   
 -0.020   
 -0.025   
 -0.025   
 -0.010   
 -0.010   
 -0.015   
 -0.010   
 -0.010   
 -0.010   
  0.005   
  0.000   
 -0.010   
 -0.005   
 -0.005   
  0.000   
 -0.005   
  0.000   
  0.000   
 -0.005   
 -0.010   
  0.000   
 -0.005   
  0.000   
 -0.010   
 -0.005   
 -0.015   
 -0.015   
 -0.010   
 -0.010   
 -0.020   
 -0.010   
 -0.025   
 -0.015   
 -0.020   
 -0.015   
 -0.015   
  0.025   
  0.045   
  0.065   
  0.070   
  0.080   
  0.120   
  0.115   
  0.050   
  0.040   
 -0.030   
  0.000   
 -0.085   
 -0.085   
 -0.090   
 -0.085   
 -0.105   
 -0.095   
 -0.105   
 -0.075   
 -0.080   
 -0.040   
 -0.065   
  0.395   
  0.810   
 -0.160   
 -0.355   
 -0.455   
 -0.270   
 -0.085   
 -0.115   
 -0.100   
 -0.100   
 -0.090   
 -0.105   
 -0.085   
 -0.100   
 -0.070   
 -0.095   
 -0.080   
 -0.090   
 -0.055   
 -0.055   
 -0.020   
 -0.025   
  0.020   
  0.055   
  0.115   
  0.145   
  0.195   
  0.235   
  0.285   
  0.315   
  0.325   
  0.280   
  0.215   
  0.155   
  0.095   
  0.055   
  0.010   
 -0.015   
 -0.050   
 -0.055   
 -0.045   
 -0.040   
 -0.040   
 -0.050   
 -0.040   
 -0.045   
 -0.045   
 -0.025   
 -0.025   
 -0.030   
 -0.015   
 -0.015   
 -0.025   
 -0.020   
 -0.015   
 -0.015   
 -0.045   
 -0.020   
 -0.030   
 -0.025   
 -0.045   
 -0.025   
 -0.040   
 -0.040   
 -0.040   
 -0.040   
 -0.040   
 -0.030   
 -0.045   
 -0.035   
 -0.060   
 -0.035   
 -0.025   
  0.005   
  0.005   
  0.045   
  0.050   
  0.080   
  0.100   
  0.125   
  0.050   
  0.045   
 -0.035   
 -0.015   
 -0.105   
 -0.075   
 -0.120   
 -0.095   
 -0.125   
 -0.090   
 -0.140   
 -0.095   
 -0.120   
 -0.070   
 -0.080   
  0.225   
  1.115   
 -0.100   
 -0.335   
 -0.475   
 -0.350   
 -0.100   
 -0.145   
 -0.105   
 -0.140   
 -0.090   
 -0.125   
 -0.075   
 -0.125   
 -0.085   
 -0.095   
 -0.070   
 -0.085   
 -0.055   
 -0.070   
 -0.020   
 -0.030   
  0.015   
  0.055   
  0.100   
  0.130   
  0.205   
  0.230   
  0.295   
  0.320   
  0.325   
  0.300   
  0.245   
  0.175   
  0.105   
  0.050   
  0.015   
 -0.020   
 -0.025   
 -0.040   
 -0.050   
 -0.050   
 -0.055   
 -0.045   
 -0.045   
 -0.040   
 -0.050   
 -0.040   
 -0.020   
 -0.015   
 -0.020   
 -0.010   
 -0.010   
 -0.025   
 -0.020   
 -0.025   
 -0.025   
 -0.030   
 -0.035   
 -0.025   
 -0.030   
 -0.030   
 -0.030   
 -0.025   
 -0.025   
 -0.015   
 -0.035   
 -0.030   
 -0.040   
 -0.035   
 -0.040   
 -0.030   
 -0.030   
  0.010   
  0.030   
  0.070   
  0.065   
  0.060   
  0.120   
  0.110   
  0.040   
  0.035   
 -0.040   
 -0.020   
 -0.100   
 -0.095   
 -0.110   
 -0.100   
 -0.125   
 -0.100   
 -0.120   
 -0.095   
 -0.105   
 -0.055   
 -0.050   
  0.415   
  0.800   
 -0.215   
 -0.435   
 -0.490   
 -0.270   
 -0.110   
 -0.130   
 -0.110   
 -0.125   
 -0.110   
 -0.125   
 -0.100   
 -0.110   
 -0.095   
 -0.105   
 -0.080   
 -0.090   
 -0.065   
 -0.055   
 -0.035   
 -0.025   
  0.010   
  0.045   
  0.095   
  0.150   
  0.215   
  0.250   
  0.300   
  0.320   
  0.330   
  0.280   
  0.215   
  0.140   
  0.085   
  0.030   
 -0.010   
 -0.020   
 -0.030   
 -0.040   
 -0.045   
 -0.055   
 -0.055   
 -0.050   
 -0.050   
 -0.055   
 -0.045   
 -0.040   
 -0.035   
 -0.025   
 -0.030   
 -0.020   
 -0.015   
 -0.015   
 -0.020   
 -0.030   
 -0.025   
 -0.025   
 -0.025   
 -0.035   
 -0.035   
 -0.035   
 -0.025   
 -0.035   
 -0.035   
 -0.035   
 -0.035   
 -0.035   
 -0.030   
 -0.040   
 -0.030   
 -0.035   
 -0.030   
 -0.030   
 -0.025   
 -0.035   
 -0.005   
  0.000   
  0.060   
  0.060   
  0.085   
  0.060   
  0.140   
  0.080   
  0.045   
  0.000   
 -0.020   
 -0.040   
 -0.070   
 -0.105   
 -0.085   
 -0.115   
 -0.090   
 -0.115   
 -0.090   
 -0.105   
 -0.025   
 -0.020   
  0.040   
  0.780   
  0.090   
 -0.300   
 -0.500   
 -0.405   
 -0.125   
 -0.125   
 -0.100   
 -0.120   
 -0.085   
 -0.105   
 -0.085   
 -0.105   
 -0.080   
 -0.095   
 -0.070   
 -0.085   
 -0.060   
 -0.055   
 -0.030   
 -0.020   
  0.005   
  0.030   
  0.080   
  0.125   
  0.185   
  0.230   
  0.275   
  0.295   
  0.335   
  0.315   
  0.265   
  0.200   
  0.130   
  0.070   
  0.035   
  0.005   
  0.000   
 -0.020   
 -0.030   
 -0.040   
 -0.035   
 -0.040   
 -0.035   
 -0.040   
 -0.035   
 -0.035   
 -0.025   
 -0.015   
 -0.005   
 -0.020   
 -0.010   
 -0.005   
 -0.010   
  0.000   
  0.000   
 -0.005   
  0.000   
 -0.010   
 -0.015   
 -0.015   
 -0.010   
 -0.020   
 -0.020   
 -0.025   
 -0.020   
 -0.025   
 -0.010   
 -0.020   
 -0.010   
 -0.025   
 -0.015   
 -0.040   
 -0.020   
 -0.025   
 -0.005   
 -0.035   
  0.005   
  0.020   
  0.085   
  0.070   
  0.105   
  0.110   
  0.140   
  0.065   
  0.050   
 -0.015   
 -0.005   
 -0.070   
 -0.080   
 -0.105   
 -0.075   
 -0.120   
 -0.070   
 -0.120   
 -0.070   
 -0.110   
 -0.035   
 -0.065   
  0.180   
  0.945   
 -0.225   
 -0.355   
 -0.495   
 -0.335   
 -0.095   
 -0.145   
 -0.095   
 -0.115   
 -0.085   
 -0.100   
 -0.060   
 -0.105   
 -0.065   
 -0.095   
 -0.065   
 -0.055   
 -0.015   
 -0.050   
 -0.005   
 -0.015   
  0.030   
  0.055   
  0.125   
  0.155   
  0.230   
  0.245   
  0.305   
  0.315   
  0.340   
  0.310   
  0.255   
  0.195   
  0.130   
  0.070   
  0.030   
  0.000   
 -0.015   
 -0.015   
 -0.030   
 -0.040   
 -0.030   
 -0.030   
 -0.040   
 -0.020   
 -0.015   
 -0.020   
 -0.020   
  0.000   
  0.000   
 -0.015   
 -0.005   
  0.000   
  0.000   
  0.000   
  0.000   
 -0.010   
 -0.010   
 -0.005   
  0.000   
 -0.025   
 -0.005   
 -0.020   
 -0.015   
 -0.015   
 -0.015   
 -0.010   
 -0.010   
 -0.020   
  0.000   
 -0.025   
 -0.005   
 -0.020   
 -0.010   
 -0.020   
  0.030   
  0.045   
  0.075   
  0.070   
  0.070   
  0.120   
  0.120   
  0.060   
  0.025   
 -0.015   
 -0.010   
 -0.100   
 -0.085   
 -0.105   
 -0.085   
 -0.110   
 -0.090   
 -0.115   
 -0.085   
 -0.085   
 -0.075   
 -0.075   
  0.410   
  0.885   
 -0.145   
 -0.345   
 -0.440   
 -0.280   
 -0.100   
 -0.115   
 -0.080   
 -0.115   
 -0.075   
 -0.100   
 -0.090   
 -0.095   
 -0.070   
 -0.080   
 -0.055   
 -0.070   
 -0.055   
 -0.045   
 -0.015   
 -0.015   
  0.030   
  0.065   
  0.110   
  0.155   
  0.220   
  0.250   
  0.310   
  0.320   
  0.330   
  0.280   
  0.240   
  0.170   
  0.110   
  0.060   
  0.010   
 -0.005   
 -0.010   
 -0.025   
 -0.045   
 -0.035   
 -0.035   
 -0.035   
 -0.045   
 -0.035   
 -0.030   
 -0.030   
 -0.030   
 -0.025   
 -0.005   
 -0.020   
 -0.015   
 -0.010   
 -0.030   
 -0.025   
 -0.025   
 -0.030   
 -0.020   
 -0.030   
 -0.030   
 -0.035   
 -0.030   
 -0.020   
 -0.015   
 -0.020   
 -0.015   
 -0.030   
 -0.030   
 -0.035   
 -0.020   
 -0.020   
 -0.030   
 -0.020   
  0.015   
  0.040   
  0.075   
  0.070   
  0.065   
  0.130   
  0.105   
  0.050   
  0.015   
 -0.025   
 -0.020   
 -0.085   
 -0.085   
 -0.120   
 -0.090   
 -0.115   
 -0.145   
 -0.110   
 -0.115   
 -0.120   
 -0.085   
  0.000   
  0.540   
  0.645   
 -0.195   
 -0.440   
 -0.470   
 -0.235   
 -0.125   
 -0.135   
 -0.135   
 -0.125   
 -0.085   
 -0.100   
 -0.095   
 -0.120   
 -0.095   
 -0.100   
 -0.085   
 -0.070   
 -0.070   
 -0.070   
 -0.035   
 -0.025   
  0.015   
  0.045   
  0.095   
  0.140   
  0.195   
  0.235   
  0.275   
  0.300   
  0.295   
  0.255   
  0.200   
  0.130   
  0.080   
  0.025   
  0.000   
 -0.015   
 -0.025   
 -0.040   
 -0.040   
 -0.050   
 -0.040   
 -0.045   
 -0.035   
 -0.030   
 -0.035   
 -0.020   
 -0.020   
 -0.005   
 -0.020   
 -0.015   
 -0.015   
 -0.010   
 -0.010   
 -0.020   
 -0.010   
 -0.015   
 -0.030   
 -0.020   
 -0.030   
 -0.035   
 -0.025   
 -0.010   
 -0.030   
 -0.015   
 -0.030   
 -0.025   
 -0.050   
 -0.025   
 -0.045   
 -0.025   
 -0.050   
  0.020   
  0.035   
  0.080   
  0.050   
  0.075   
  0.120   
  0.125   
  0.030   
  0.040   
 -0.035   
 -0.010   
 -0.105   
 -0.090   
 -0.110   
 -0.095   
 -0.130   
 -0.110   
 -0.135   
 -0.090   
 -0.115   
 -0.050   
 -0.075   
  0.230   
  1.005   
 -0.185   
 -0.390   
 -0.505   
 -0.335   
 -0.095   
 -0.135   
 -0.090   
 -0.125   
 -0.075   
 -0.120   
 -0.085   
 -0.100   
 -0.070   
 -0.100   
 -0.065   
 -0.075   
 -0.040   
 -0.050   
 -0.020   
  0.000   
  0.035   
  0.065   
  0.115   
  0.150   
  0.220   
  0.260   
  0.315   
  0.330   
  0.355   
  0.315   
  0.245   
  0.180   
  0.125   
  0.065   
  0.025   
  0.000   
 -0.015   
 -0.040   
 -0.035   
 -0.040   
 -0.050   
 -0.040   
 -0.045   
 -0.035   
 -0.020   
 -0.030   
 -0.015   
 -0.025   
 -0.020   
 -0.020   
 -0.020   
 -0.015   
 -0.025   
 -0.020   
 -0.030   
 -0.010   
 -0.025   
 -0.025   
 -0.030   
 -0.030   
 -0.040   
 -0.030   
 -0.045   
 -0.045   
 -0.040   
 -0.040   
 -0.055   
 -0.040   
  0.015   
  0.030   
  0.055   
  0.035   
  0.065   
  0.125   
  0.070   
  0.020   
  0.010   
 -0.025   
 -0.040   
 -0.085   
 -0.115   
 -0.105   
 -0.120   
 -0.105   
 -0.125   
 -0.120   
 -0.110   
 -0.070   
 -0.050   
 -0.010   
  0.620   
  0.445   
 -0.225   
 -0.465   
 -0.455   
 -0.205   
 -0.115   
 -0.120   
 -0.115   
 -0.110   
 -0.110   
 -0.100   
 -0.100   
 -0.090   
 -0.100   
 -0.080   
 -0.085   
 -0.070   
 -0.065   
 -0.040   
 -0.025   
  0.005   
  0.030   
  0.070   
  0.120   
  0.170   
  0.225   
  0.265   
  0.310   
  0.335   
  0.330   
  0.285   
  0.215   
  0.140   
  0.100   
  0.045   
  0.005   
 -0.005   
 -0.010   
 -0.030   
 -0.035   
 -0.030   
 -0.035   
 -0.040   
 -0.040   
 -0.030   
 -0.030   
 -0.025   
 -0.025   
 -0.020   
 -0.005   
 -0.005   
 -0.010   
 -0.005   
 -0.015   
  0.000   
 -0.020   
 -0.015   
 -0.015   
 -0.005   
 -0.020   
 -0.020   
 -0.035   
 -0.030   
 -0.030   
 -0.010   
 -0.025   
 -0.010   
 -0.020   
  0.020   
  0.020   
  0.080   
  0.075   
  0.095   
  0.065   
  0.155   
  0.085   
  0.060   
  0.010   
 -0.010   
 -0.040   
 -0.070   
 -0.105   
 -0.080   
 -0.115   
 -0.095   
 -0.125   
 -0.090   
 -0.125   
 -0.035   
 -0.015   
  0.085   
  0.880   
 -0.035   
 -0.385   
 -0.525   
 -0.385   
 -0.110   
 -0.130   
 -0.095   
 -0.125   
 -0.080   
 -0.100   
 -0.075   
 -0.095   
 -0.060   
 -0.085   
 -0.060   
 -0.070   
 -0.045   
 -0.060   
 -0.020   
 -0.015   
  0.020   
  0.035   
  0.095   
  0.135   
  0.200   
  0.245   
  0.290   
  0.330   
  0.345   
  0.315   
  0.265   
  0.190   
  0.120   
  0.070   
  0.025   
  0.005   
 -0.005   
 -0.020   
 -0.025   
 -0.030   
 -0.035   
 -0.040   
 -0.030   
 -0.020   
 -0.015   
 -0.025   
 -0.010   
 -0.005   
 -0.020   
 -0.020   
 -0.015   
 -0.015   
 -0.015   
 -0.010   
 -0.020   
 -0.015   
 -0.020   
 -0.035   
 -0.020   
 -0.020   
 -0.020   
 -0.010   
 -0.020   
 -0.025   
 -0.020   
 -0.025   
 -0.015   
 -0.030   
 -0.020   
 -0.015   
  0.025   
  0.035   
  0.090   
  0.090   
  0.070   
  0.115   
  0.125   
  0.060   
  0.035   
  0.000   
 -0.010   
 -0.060   
 -0.065   
 -0.090   
 -0.080   
 -0.115   
 -0.105   
 -0.110   
 -0.100   
 -0.060   
 -0.015   
 -0.025   
  0.445   
  0.545   
 -0.320   
 -0.540   
 -0.510   
 -0.215   
 -0.110   
 -0.120   
 -0.095   
 -0.095   
 -0.105   
 -0.095   
 -0.085   
 -0.080   
 -0.070   
 -0.080   
 -0.055   
 -0.055   
 -0.035   
 -0.035   
  0.000   
  0.010   
  0.050   
  0.090   
  0.140   
  0.185   
  0.240   
  0.285   
  0.330   
  0.350   
  0.345   
  0.310   
  0.250   
  0.185   
  0.120   
  0.060   
  0.030   
  0.015   
  0.000   
 -0.015   
 -0.010   
 -0.015   
 -0.020   
 -0.025   
 -0.025   
 -0.020   
 -0.020   
 -0.015   
 -0.020   
 -0.020   
 -0.020   
 -0.015   
 -0.005   
 -0.010   
 -0.005   
 -0.010   
 -0.010   
 -0.015   
 -0.010   
 -0.010   
 -0.020   
 -0.025   
 -0.020   
 -0.040   
 -0.025   
 -0.040   
 -0.020   
 -0.040   
 -0.025   
 -0.030   
 -0.010   
 -0.020   
  0.010   
  0.015   
  0.070   
  0.060   
  0.095   
  0.065   
  0.160   
  0.080   
  0.050   
 -0.005   
 -0.015   
 -0.050   
 -0.060   
 -0.105   
 -0.075   
 -0.115   
 -0.080   
 -0.120   
 -0.070   
 -0.115   
 -0.045   
 -0.060   
  0.030   
  0.835   
  0.020   
 -0.240   
 -0.465   
 -0.375   
 -0.130   
 -0.130   
 -0.085   
 -0.110   
 -0.075   
 -0.110   
 -0.070   
 -0.095   
 -0.070   
 -0.090   
 -0.055   
 -0.070   
 -0.040   
 -0.050   
 -0.020   
 -0.025   
  0.015   
  0.035   
  0.100   
  0.130   
  0.185   
  0.240   
  0.280   
  0.300   
  0.325   
  0.300   
  0.265   
  0.200   
  0.135   
  0.085   
  0.045   
  0.010   
  0.000   
 -0.015   
 -0.015   
 -0.025   
 -0.030   
 -0.020   
 -0.025   
 -0.020   
 -0.020   
 -0.010   
 -0.005   
  0.005   
  0.005   
  0.000   
  0.005   
  0.000   
 -0.005   
  0.000   
 -0.010   
 -0.010   
  0.000   
 -0.010   
  0.000   
 -0.020   
 -0.015   
 -0.005   
 -0.020   
 -0.005   
 -0.015   
 -0.010   
 -0.015   
 -0.015   
 -0.030   
 -0.010   
 -0.030   
 -0.010   
 -0.025   
 -0.005   
 -0.030   
  0.020   
  0.010   
  0.085   
  0.060   
  0.085   
  0.060   
  0.160   
  0.065   
  0.050   
  0.000   
 -0.005   
 -0.045   
 -0.070   
 -0.110   
 -0.060   
 -0.110   
 -0.085   
 -0.115   
 -0.065   
 -0.125   
 -0.045   
 -0.070   
  0.095   
  1.000   
 -0.055   
 -0.240   
 -0.440   
 -0.340   
 -0.105   
 -0.130   
 -0.085   
 -0.120   
 -0.080   
 -0.105   
 -0.070   
 -0.105   
 -0.060   
 -0.090   
 -0.045   
 -0.070   
 -0.035   
 -0.055   
 -0.020   
 -0.015   
  0.035   
  0.050   
  0.100   
  0.135   
  0.190   
  0.230   
  0.270   
  0.280   
  0.310   
  0.285   
  0.245   
  0.170   
  0.120   
  0.060   
  0.030   
 -0.005   
 -0.025   
 -0.025   
 -0.040   
 -0.040   
 -0.035   
 -0.035   
 -0.030   
 -0.020   
 -0.015   
  0.000   
 -0.005   
  0.000   
  0.005   
  0.000   
  0.000   
  0.000   
 -0.005   
  0.000   
 -0.005   
 -0.005   
 -0.005   
  0.000   
 -0.010   
 -0.010   
 -0.010   
 -0.015   
 -0.030   
 -0.015   
 -0.015   
 -0.015   
 -0.020   
 -0.025   
 -0.015   
 -0.025   
 -0.030   
 -0.020   
 -0.010   
  0.020   
  0.035   
  0.075   
  0.065   
  0.070   
  0.080   
  0.135   
  0.055   
  0.040   
 -0.010   
 -0.030   
 -0.055   
 -0.075   
 -0.100   
 -0.080   
 -0.115   
 -0.095   
 -0.115   
 -0.075   
 -0.100   
 -0.045   
 -0.040   
  0.375   
  0.835   
 -0.195   
 -0.410   
 -0.465   
 -0.265   
 -0.085   
 -0.115   
 -0.080   
 -0.120   
 -0.080   
 -0.110   
 -0.075   
 -0.085   
 -0.065   
 -0.075   
 -0.060   
 -0.075   
 -0.045   
 -0.050   
 -0.020   
 -0.005   
  0.035   
  0.055   
  0.105   
  0.145   
  0.200   
  0.235   
  0.270   
  0.300   
  0.320   
  0.275   
  0.220   
