6000.0
100.0
  0.020  
  0.010  
  0.005  
  0.015  
  0.000  
  0.000  
  0.005  
  0.000  
  0.010  
 -0.015  
 -0.020  
 -0.060  
 -0.025  
 -0.010  
 -0.045  
  0.000  
 -0.005  
  0.000  
  0.000  
  0.005  
  0.000  
  0.000  
  0.000  
  0.005  
  0.020  
  0.180  
  0.060  
 -0.370  
 -0.450  
 -0.370  
 -0.120  
 -0.050  
 -0.055  
 -0.035  
 -0.035  
 -0.025  
 -0.025  
 -0.015  
 -0.030  
  0.000  
 -0.010  
  0.000  
  0.005  
  0.000  
  0.000  
  0.020  
  0.035  
  0.030  
  0.045  
  0.045  
  0.060  
  0.075  
  0.070  
  0.060  
  0.055  
  0.035  
  0.015  
  0.000  
 -0.005  
 -0.005  
 -0.010  
 -0.005  
 -0.010  
  0.000  
 -0.005  
  0.000  
  0.000  
 -0.005  
  0.000  
  0.000  
  0.005  
  0.000  
  0.000  
  0.010  
  0.000  
  0.005  
  0.000  
  0.000  
  0.010  
  0.000  
  0.005  
  0.005  
  0.000  
  0.000  
  0.000  
 -0.015  
 -0.050  
 -0.055  
 -0.060  
 -0.055  
 -0.020  
  0.010  
  0.000  
  0.025  
  0.000  
  0.010  
  0.010  
  0.005  
  0.010  
  0.065  
  0.090  
  0.285  
 -0.045  
 -0.635  
 -0.490  
 -0.245  
 -0.015  
 -0.025  
 -0.020  
  0.000  
  0.000  
  0.010  
  0.010  
  0.015  
  0.005  
  0.015  
  0.020  
  0.020  
  0.020  
  0.030  
  0.035  
  0.040  
  0.045  
  0.055  
  0.070  
  0.090  
  0.100  
  0.105  
  0.095  
  0.090  
  0.075  
  0.045  
  0.025  
  0.020  
  0.005  
  0.000  
  0.000  
  0.000  
  0.000  
  0.000  
  0.000  
  0.000  
  0.005  
  0.010  
  0.005  
  0.005  
  0.000  
  0.000  
  0.010  
  0.005  
  0.015  
  0.005  
  0.015  
  0.005  
  0.010  
  0.005  
  0.000  
  0.000  
  0.005  
  0.005  
 -0.025  
 -0.025  
 -0.080  
 -0.070  
 -0.025  
 -0.035  
  0.000  
  0.005  
  0.005  
  0.010  
  0.005  
  0.000  
  0.015  
  0.000  
  0.010  
  0.040  
  0.115  
  0.110  
 -0.265  
 -0.450  
 -0.370  
 -0.135  
  0.005  
 -0.020  
  0.010  
  0.000  
  0.015  
  0.020  
  0.010  
  0.030  
  0.020  
  0.035  
  0.020  
  0.030  
  0.055  
  0.050  
  0.060  
  0.070  
  0.065  
  0.080  
  0.105  
  0.115  
  0.110  
  0.130  
  0.105  
  0.105  
  0.075  
  0.065  
  0.055  
  0.030  
  0.025  
  0.030  
  0.030  
  0.000  
  0.035  
  0.020  
  0.025  
  0.020  
  0.030  
  0.020  
  0.040  
  0.020  
  0.000  
 -0.055  
 -0.005  
  0.085  
  0.080  
  0.090  
  0.070  
  0.065  
  0.045  
  0.050  
  0.030  
  0.020  
 -0.075  
 -0.075  
 -0.070  
 -0.150  
  0.000  
  0.130  
  0.080  
  0.085  
  0.095  
  0.060  
  0.020  
 -0.005  
  0.055  
  0.055  
  0.030  
  0.000  
  0.045  
  0.030  
  0.270  
 -0.005  
 -0.530  
 -0.415  
 -0.245  
 -0.020  
 -0.045  
 -0.055  
 -0.050  
 -0.045  
  0.000  
  0.000  
  0.020  
 -0.045  
 -0.055  
  0.000  
 -0.010  
  0.050  
  0.065  
  0.010  
  0.035  
  0.015  
  0.035  
  0.030  
  0.020  
  0.030  
  0.060  
  0.085  
  0.100  
  0.075  
  0.040  
  0.015  
 -0.065  
 -0.080  
  0.025  
  0.015  
 -0.010  
  0.000  
 -0.045  
 -0.050  
 -0.055  
  0.000  
 -0.040  
 -0.040  
 -0.085  
 -0.085  
 -0.050  
 -0.020  
  0.000  
 -0.010  
 -0.035  
 -0.015  
  0.025  
 -0.020  
 -0.020  
  0.000  
  0.010  
 -0.020  
 -0.010  
 -0.010  
 -0.040  
 -0.020  
 -0.015  
 -0.040  
 -0.025  
 -0.055  
 -0.085  
 -0.065  
 -0.060  
 -0.070  
 -0.025  
  0.000  
 -0.025  
  0.000  
 -0.010  
 -0.025  
 -0.050  
 -0.050  
 -0.020  
  0.025  
  0.065  
  0.305  
  0.040  
 -0.555  
 -0.505  
 -0.250  
 -0.040  
 -0.055  
 -0.025  
 -0.020  
 -0.025  
 -0.020  
 -0.015  
 -0.005  
 -0.005  
  0.010  
  0.010  
  0.035  
  0.040  
  0.025  
  0.010  
  0.030  
  0.045  
  0.050  
  0.070  
  0.085  
  0.085  
  0.115  
  0.075  
  0.065  
  0.065  
  0.070  
  0.020  
  0.025  
  0.015  
  0.000  
  0.000  
 -0.005  
  0.015  
 -0.010  
  0.035  
  0.005  
  0.010  
  0.025  
  0.000  
  0.020  
  0.045  
  0.025  
  0.010  
  0.050  
  0.010  
  0.030  
  0.025  
  0.015  
 -0.005  
  0.025  
  0.015  
  0.040  
 -0.005  
 -0.040  
 -0.055  
 -0.045  
 -0.040  
 -0.050  
  0.000  
  0.020  
  0.010  
  0.015  
  0.005  
  0.020  
  0.030  
  0.010  
  0.005  
  0.090  
  0.100  
  0.245  
  0.150  
 -0.525  
 -0.515  
 -0.400  
 -0.145  
  0.000  
 -0.030  
 -0.005  
 -0.050  
 -0.020  
 -0.035  
 -0.020  
 -0.025  
 -0.030  
 -0.050  
 -0.050  
 -0.075  
 -0.065  
 -0.030  
 -0.070  
 -0.035  
  0.010  
  0.000  
  0.060  
  0.085  
  0.085  
  0.125  
  0.125  
  0.140  
  0.110  
  0.050  
  0.035  
  0.020  
  0.000  
  0.025  
  0.000  
  0.000  
  0.000  
  0.025  
  0.005  
  0.025  
  0.040  
  0.005  
  0.020  
  0.045  
  0.040  
  0.035  
  0.045  
  0.045  
  0.025  
  0.010  
  0.025  
 -0.040  
 -0.045  
 -0.095  
 -0.075  
 -0.030  
 -0.035  
 -0.025  
 -0.010  
  0.070  
  0.010  
  0.005  
 -0.015  
  0.005  
  0.010  
  0.010  
  0.060  
  0.120  
  0.175  
 -0.235  
 -0.615  
 -0.535  
 -0.210  
 -0.005  
 -0.005  
  0.000  
  0.025  
  0.020  
  0.025  
  0.015  
  0.035  
  0.055  
  0.010  
  0.025  
  0.055  
  0.030  
  0.035  
  0.050  
  0.060  
  0.045  
  0.075  
  0.095  
  0.130  
  0.110  
  0.140  
  0.115  
  0.100  
  0.130  
  0.070  
  0.085  
  0.050  
  0.030  
  0.050  
  0.060  
  0.015  
 -0.010  
  0.060  
  0.045  
  0.065  
  0.075  
  0.080  
  0.070  
  0.065  
  0.075  
  0.065  
  0.080  
  0.090  
  0.090  
  0.010  
  0.050  
  0.000  
 -0.040  
 -0.060  
 -0.035  
  0.020  
  0.070  
  0.065  
  0.065  
  0.060  
  0.105  
  0.090  
  0.070  
  0.040  
  0.095  
  0.100  
  0.225  
 -0.045  
 -0.655  
 -0.500  
 -0.310  
 -0.030  
  0.020  
  0.020  
  0.035  
  0.040  
  0.050  
  0.050  
  0.045  
  0.025  
  0.035  
  0.030  
  0.050  
  0.060  
  0.070  
  0.065  
  0.075  
  0.090  
  0.085  
  0.085  
  0.095  
  0.105  
  0.100  
  0.115  
  0.090  
  0.075  
  0.060  
  0.040  
  0.025  
 -0.015  
  0.000  
  0.020  
  0.020  
  0.025  
  0.035  
  0.020  
  0.025  
  0.010  
  0.015  
  0.030  
  0.020  
  0.005  
  0.040  
  0.040  
  0.045  
  0.035  
  0.050  
  0.045  
  0.055  
  0.040  
  0.035  
  0.050  
  0.055  
  0.045  
  0.035  
 -0.020  
 -0.015  
 -0.020  
 -0.075  
 -0.035  
  0.025  
 -0.030  
 -0.050  
  0.030  
  0.100  
  0.205  
  0.140  
  0.160  
  0.075  
  0.045  
  0.175  
  0.215  
 -0.010  
 -0.445  
 -0.385  
 -0.290  
 -0.070  
  0.135  
  0.105  
  0.125  
  0.020  
 -0.015  
  0.035  
  0.120  
  0.035  
  0.040  
  0.110  
  0.015  
  0.020  
  0.040  
  0.070  
  0.075  
  0.070  
  0.045  
  0.070  
  0.145  
  0.125  
  0.205  
  0.150  
  0.005  
 -0.040  
 -0.440  
 -0.605  
 -0.100  
  0.120  
  0.295  
 -0.215  
 -1.090  
 -0.065  
  0.585  
  0.395  
  0.020  
 -0.615  
 -0.160  
  0.380  
  0.200  
  0.005  
 -0.145  
 -0.090  
 -0.155  
  0.155  
  0.115  
 -0.170  
 -0.265  
 -0.200  
  0.230  
  0.125  
  0.455  
  0.405  
 -0.160  
 -0.305  
 -0.555  
 -0.675  
 -0.205  
 -0.315  
 -0.120  
 -0.095  
 -0.190  
 -0.185  
 -0.060  
 -0.140  
 -0.155  
 -0.175  
 -0.115  
 -0.100  
 -0.140  
 -0.165  
  0.115  
 -0.220  
 -0.710  
 -0.545  
 -0.735  
 -0.160  
  0.115  
  0.015  
  0.045  
  0.075  
 -0.070  
 -0.020  
  0.000  
 -0.030  
  0.115  
  0.015  
 -0.715  
 -0.525  
  0.370  
  0.460  
  0.300  
  0.130  
  0.130  
  0.100  
  0.070  
 -0.310  
 -0.575  
  0.565  
  0.410  
  0.185  
  0.085  
  0.010  
  0.020  
  0.025  
  0.020  
  0.025  
  0.030  
  0.015  
  0.000  
 -0.060  
  0.030  
 -0.075  
 -0.050  
  0.015  
  0.090  
  0.150  
  0.080  
 -0.405  
 -0.420  
  0.215  
  0.505  
  0.405  
  0.250  
  0.215  
  0.290  
  0.220  
  0.285  
  0.055  
 -0.065  
 -0.060  
 -0.075  
 -0.090  
 -0.165  
 -0.570  
 -0.065  
  0.360  
  0.100  
  0.120  
  0.035  
  0.000  
 -0.065  
  0.005  
  0.140  
  0.260  
 -0.090  
 -0.490  
 -0.435  
 -0.290  
 -0.025  
  0.000  
  0.045  
 -0.015  
  0.060  
  0.080  
  0.010  
 -0.085  
  0.065  
  0.145  
  0.005  
  0.015  
  0.000  
 -0.065  
 -0.005  
  0.175  
  0.170  
  0.145  
  0.140  
  0.090  
 -0.085  
  0.035  
  0.290  
  0.215  
  0.135  
  0.000  
 -0.340  
 -0.065  
  0.125  
  0.000  
  0.000  
 -0.030  
 -0.060  
 -0.250  
 -0.135  
  0.140  
  0.110  
  0.085  
  0.060  
  0.005  
  0.000  
 -0.025  
  0.000  
 -0.050  
 -0.045  
 -0.015  
 -0.050  
  0.000  
 -0.090  
 -0.130  
 -0.125  
 -0.125  
 -0.130  
 -0.045  
 -0.010  
 -0.050  
 -0.060  
  0.020  
  0.015  
 -0.085  
 -0.040  
 -0.085  
 -0.100  
  0.040  
  0.065  
  0.385  
  0.080  
 -0.400  
 -0.405  
 -0.200  
  0.015  
  0.005  
  0.040  
 -0.030  
  0.120  
  0.040  
  0.030  
  0.010  
  0.000  
  0.045  
  0.025  
  0.040  
  0.090  
  0.070  
  0.060  
  0.065  
  0.070  
  0.145  
  0.100  
  0.070  
  0.130  
  0.115  
  0.110  
  0.175  
  0.160  
  0.110  
  0.045  
  0.125  
  0.145  
  0.145  
  0.065  
  0.125  
  0.140  
  0.070  
  0.165  
  0.035  
  0.010  
  0.050  
  0.090  
  0.145  
  0.070  
  0.025  
  0.000  
  0.085  
  0.125  
  0.195  
  0.135  
  0.225  
  0.355  
  0.215  
  0.175  
 -0.015  
  0.060  
  0.050  
  0.160  
  0.150  
  0.100  
  0.005  
 -0.055  
 -0.050  
 -0.105  
 -0.115  
 -0.195  
 -0.240  
  0.050  
  0.095  
 -0.575  
 -0.765  
 -0.620  
 -0.240  
 -0.005  
 -0.015  
 -0.010  
  0.020  
  0.065  
  0.080  
  0.005  
  0.020  
 -0.030  
 -0.045  
  0.020  
  0.025  
  0.035  
  0.075  
  0.095  
  0.120  
  0.180  
  0.165  
  0.210  
  0.190  
  0.150  
  0.240  
  0.215  
  0.220  
  0.180  
  0.125  
  0.180  
  0.110  
  0.100  
  0.085  
 -0.035  
 -0.005  
  0.025  
  0.045  
  0.025  
  0.055  
  0.225  
  0.150  
  0.145  
  0.175  
  0.270  
  0.235  
  0.150  
  0.135  
  0.195  
  0.220  
  0.075  
  0.135  
  0.080  
  0.120  
  0.070  
  0.170  
  0.150  
  0.200  
  0.150  
  0.085  
  0.140  
  0.200  
  0.060  
  0.115  
  0.160  
  0.295  
  0.145  
 -0.515  
 -0.480  
 -0.330  
  0.000  
  0.100  
  0.050  
  0.045  
  0.060  
  0.090  
 -0.020  
 -0.055  
  0.050  
  0.040  
  0.020  
  0.020  
  0.035  
  0.050  
  0.060  
  0.095  
  0.075  
  0.105  
  0.115  
  0.125  
  0.195  
  0.185  
  0.180  
  0.190  
  0.165  
  0.145  
  0.100  
  0.055  
  0.050  
  0.000  
 -0.015  
 -0.010  
 -0.035  
 -0.085  
 -0.220  
 -0.240  
 -0.285  
 -0.235  
 -0.155  
 -0.150  
 -0.110  
 -0.050  
 -0.040  
 -0.045  
 -0.040  
  0.000  
  0.020  
 -0.030  
 -0.015  
 -0.035  
 -0.050  
 -0.055  
 -0.010  
  0.025  
 -0.005  
  0.070  
  0.110  
  0.060  
  0.090  
  0.050  
  0.010  
  0.015  
  0.015  
 -0.065  
  0.050  
 -0.295  
 -0.650  
 -0.385  
 -0.245  
 -0.025  
 -0.010  
  0.020  
  0.050  
  0.060  
  0.050  
  0.075  
  0.090  
  0.065  
  0.060  
  0.075  
  0.065  
  0.100  
  0.055  
 -0.115  
 -0.040  
  0.075  
  0.100  
  0.125  
  0.100  
  0.160  
  0.155  
  0.190  
  0.150  
  0.110  
  0.055  
  0.000  
  0.000  
 -0.065  
 -0.135  
 -0.160  
  0.020  
  0.055  
 -0.095  
 -0.130  
 -0.115  
 -0.190  
 -0.165  
 -0.045  
  0.015  
  0.065  
  0.055  
  0.080  
  0.080  
  0.060  
  0.050  
  0.000  
  0.000  
 -0.065  
 -0.005  
 -0.025  
  0.000  
  0.025  
  0.050  
  0.085  
  0.110  
  0.075  
  0.075  
  0.100  
  0.075  
  0.110  
  0.100  
  0.070  
  0.235  
 -0.085  
 -0.515  
 -0.370  
 -0.255  
  0.035  
  0.020  
  0.025  
  0.025  
  0.040  
  0.050  
  0.040  
  0.050  
  0.025  
  0.035  
 -0.010  
  0.030  
  0.015  
  0.030  
  0.015  
  0.030  
  0.095  
  0.090  
  0.060  
  0.080  
  0.075  
  0.125  
  0.100  
  0.095  
  0.035  
 -0.010  
  0.005  
  0.015  
  0.020  
 -0.020  
 -0.035  
 -0.080  
 -0.035  
 -0.030  
  0.000  
  0.015  
  0.015  
  0.000  
  0.015  
  0.000  
  0.040  
  0.040  
  0.035  
  0.015  
  0.035  
  0.035  
 -0.030  
 -0.015  
 -0.070  
 -0.100  
 -0.080  
 -0.055  
  0.005  
  0.025  
  0.045  
  0.060  
  0.030  
  0.070  
  0.050  
  0.085  
  0.050  
  0.065  
  0.055  
  0.280  
  0.000  
 -0.515  
 -0.455  
 -0.275  
 -0.015  
 -0.005  
  0.015  
  0.020  
  0.030  
  0.030  
  0.045  
  0.035  
  0.030  
  0.040  
  0.045  
  0.045  
  0.050  
  0.060  
  0.060  
  0.065  
  0.075  
  0.085  
  0.095  
  0.100  
  0.100  
  0.125  
  0.120  
  0.115  
  0.110  
  0.085  
  0.060  
  0.035  
  0.025  
  0.005  
  0.000  
  0.015  
  0.005  
  0.005  
  0.000  
  0.000  
 -0.010  
 -0.015  
 -0.015  
 -0.010  
 -0.010  
  0.000  
  0.010  
  0.000  
 -0.035  
 -0.040  
 -0.075  
 -0.075  
 -0.065  
 -0.060  
  0.010  
  0.010  
  0.030  
  0.025  
  0.030  
  0.015  
  0.030  
  0.005  
  0.020  
  0.020  
  0.035  
  0.180  
  0.170  
 -0.290  
 -0.470  
 -0.425  
 -0.180  
 -0.040  
 -0.015  
 -0.005  
 -0.010  
 -0.010  
  0.020  
  0.000  
  0.010  
  0.000  
  0.015  
  0.030  
  0.005  
  0.045  
  0.045  
  0.055  
  0.020  
  0.050  
  0.050  
  0.090  
  0.055  
  0.110  
  0.080  
  0.105  
  0.045  
  0.075  
  0.035  
 -0.015  
 -0.010  
  0.010  
 -0.020  
  0.015  
  0.025  
 -0.020  
 -0.025  
 -0.055  
 -0.030  
 -0.015  
 -0.020  
 -0.055  
 -0.020  
 -0.065  
 -0.075  
 -0.065  
 -0.090  
 -0.110  
 -0.110  
 -0.065  
 -0.045  
 -0.045  
 -0.060  
 -0.040  
 -0.075  
 -0.090  
 -0.055  
 -0.085  
 -0.100  
 -0.065  
  0.000  
  0.190  
  0.165  
 -0.380  
 -0.510  
 -0.455  
 -0.165  
 -0.015  
 -0.025  
 -0.035  
 -0.065  
  0.000  
 -0.030  
 -0.020  
 -0.035  
 -0.020  
 -0.015  
  0.015  
  0.015  
  0.000  
  0.045  
  0.075  
  0.100  
  0.085  
  0.075  
  0.130  
  0.100  
  0.090  
  0.105  
  0.110  
  0.120  
  0.090  
  0.065  
  0.060  
  0.040  
  0.015  
  0.020  
  0.015  
  0.000  
  0.035  
  0.065  
  0.010  
  0.065  
  0.060  
  0.035  
  0.005  
 -0.030  
 -0.050  
 -0.070  
 -0.075  
 -0.055  
  0.015  
  0.025  
  0.020  
  0.040  
  0.000  
  0.040  
 -0.015  
  0.010  
  0.020  
  0.050  
  0.055  
  0.265  
  0.250  
 -0.405  
 -0.440  
 -0.400  
 -0.185  
  0.000  
 -0.030  
  0.000  
  0.000  
  0.000  
  0.000  
  0.015  
  0.005  
  0.055  
  0.025  
  0.030  
  0.055  
  0.065  
  0.055  
  0.075  
  0.075  
  0.085  
  0.115  
  0.130  
  0.135  
  0.130  
  0.135  
  0.140  
  0.120  
  0.105  
  0.035  
  0.020  
  0.010  
 -0.005  
  0.000  
 -0.005  
  0.000  
  0.000  
  0.000  
  0.015  
  0.000  
  0.010  
  0.000  
 -0.020  
 -0.005  
 -0.075  
 -0.100  
 -0.095  
 -0.110  
 -0.070  
  0.000  
  0.000  
  0.005  
  0.000  
  0.000  
  0.000  
  0.000  
  0.000  
  0.000  
  0.015  
  0.015  
  0.230  
 -0.045  
 -0.475  
 -0.435  
 -0.245  
 -0.015  
 -0.030  
 -0.020  
 -0.005  
  0.000  
  0.000  
  0.000  
  0.000  
 -0.010  
  0.000  
  0.000  
  0.015  
  0.005  
  0.015  
  0.030  
  0.030  
  0.025  
  0.050  
  0.060  
  0.060  
  0.055  
  0.075  
  0.045  
  0.040  
  0.035  
  0.040  
  0.010  
  0.000  
  0.000  
 -0.010  
  0.005  
 -0.010  
  0.000  
 -0.010  
  0.010  
 -0.005  
 -0.015  
  0.000  
 -0.040  
 -0.060  
 -0.035  
 -0.080  
 -0.105  
 -0.100  
 -0.045  
 -0.030  
  0.000  
  0.015  
  0.025  
  0.025  
  0.030  
  0.025  
  0.040  
  0.030  
  0.045  
  0.070  
  0.220  
  0.060  
 -0.380  
 -0.325  
 -0.275  
 -0.050  
  0.020  
 -0.010  
  0.015  
  0.020  
  0.030  
  0.030  
  0.050  
  0.050  
  0.015  
  0.050  
  0.040  
  0.060  
  0.080  
  0.035  
  0.040  
  0.055  
  0.075  
  0.070  
  0.000  
  0.055  
  0.025  
 -0.060  
 -0.080  
 -0.090  
 -0.030  
 -0.065  
 -0.005  
  0.000  
  0.010  
  0.005  
 -0.025  
 -0.035  
 -0.055  
 -0.025  
 -0.010  
 -0.045  
 -0.005  
 -0.015  
 -0.015  
  0.015  
 -0.055  
 -0.060  
 -0.060  
 -0.085  
 -0.020  
  0.030  
  0.010  
  0.040  
  0.045  
  0.035  
  0.025  
  0.015  
  0.010  
  0.030  
  0.045  
  0.125  
  0.210  
 -0.130  
 -0.480  
 -0.420  
 -0.175  
  0.000  
 -0.035  
  0.000  
  0.020  
  0.015  
  0.005  
  0.010  
  0.020  
  0.025  
  0.035  
  0.030  
  0.030  
  0.035  
  0.050  
  0.055  
  0.075  
  0.075  
  0.085  
  0.085  
  0.120  
  0.120  
  0.115  
  0.105  
  0.100  
  0.100  
  0.065  
  0.045  
  0.020  
  0.015  
  0.015  
  0.005  
  0.005  
  0.010  
  0.015  
  0.015  
  0.010  
  0.020  
  0.015  
  0.020  
  0.010  
 -0.005  
 -0.010  
 -0.040  
 -0.065  
 -0.060  
 -0.065  
 -0.025  
  0.015  
  0.000  
  0.030  
  0.020  
  0.020  
  0.015  
  0.010  
  0.015  
  0.005  
  0.035  
  0.035  
  0.295  
  0.085  
 -0.460  
 -0.455  
 -0.245  
 -0.035  
 -0.060  
 -0.030  
 -0.005  
 -0.030  
 -0.005  
 -0.015  
 -0.020  
  0.005  
  0.000  
 -0.020  
  0.000  
 -0.005  
  0.020  
  0.005  
  0.015  
  0.035  
  0.045  
  0.045  
  0.070  
  0.070  
  0.060  
  0.060  
  0.045  
  0.055  
  0.045  
  0.010  
  0.000  
 -0.005  
 -0.010  
 -0.025  
 -0.010  
 -0.020  
 -0.010  
 -0.030  
 -0.035  
 -0.035  
 -0.025  
 -0.005  
 -0.005  
 -0.030  
 -0.075  
 -0.040  
 -0.080  
 -0.095  
 -0.130  
 -0.090  
 -0.050  
 -0.020  
 -0.035  
 -0.015  
 -0.005  
 -0.005  
  0.005  
  0.000  
  0.025  
  0.025  
  0.065  
  0.195  
  0.285  
 -0.175  
 -0.515  
 -0.445  
 -0.175  
  0.010  
  0.000  
  0.010  
  0.015  
  0.040  
  0.050  
  0.055  
  0.045  
  0.055  
  0.060  
  0.065  
  0.055  
  0.070  
  0.075  
  0.090  
  0.095  
  0.110  
  0.110  
  0.130  
  0.140  
  0.145  
  0.140  
  0.125  
  0.120  
  0.095  
  0.070  
  0.045  
  0.030  
  0.010  
  0.010  
  0.010  
  0.005  
  0.015  
  0.000  
  0.000  
  0.005  
  0.000  
  0.005  
 -0.015  
 -0.020  
 -0.060  
 -0.100  
 -0.090  
 -0.100  
 -0.065  
 -0.005  
  0.000  
 -0.005  
  0.000  
 -0.005  
  0.000  
 -0.005  
  0.000  
  0.000  
  0.025  
  0.035  
  0.255  
  0.010  
 -0.510  
 -0.440  
 -0.240  
 -0.010  
 -0.025  
 -0.015  
  0.000  
  0.010  
  0.000  
  0.005  
  0.005  
  0.010  
  0.005  
  0.010  
  0.015  
  0.015  
  0.030  
  0.025  
  0.040  
  0.045  
  0.065  
  0.075  
  0.075  
  0.080  
  0.090  
  0.085  
  0.080  
  0.065  
  0.045  
  0.025  
  0.010  
  0.000  
  0.000  
 -0.005  
  0.000  
  0.000  
 -0.005  
  0.000  
 -0.005  
  0.000  
 -0.010  
 -0.030  
 -0.025  
 -0.085  
 -0.080  
 -0.080  
 -0.070  
 -0.030  
  0.000  
  0.005  
  0.005  
  0.000  
  0.000  
  0.000  
  0.000  
  0.000  
  0.005  
  0.000  
  0.200  
  0.100  
 -0.310  
 -0.395  
 -0.330  
 -0.080  
 -0.035  
 -0.035  
 -0.010  
 -0.005  
  0.000  
  0.000  
  0.000  
  0.000  
  0.005  
  0.005  
  0.010  
  0.010  
  0.025  
  0.025  
  0.040  
  0.040  
  0.060  
  0.065  
  0.075  
  0.080  
  0.075  
  0.085  
  0.080  
  0.075  
  0.055  
  0.030  
  0.015  
  0.000  
  0.000  
  0.000  
  0.000  
  0.000  
 -0.010  
 -0.005  
  0.000  
  0.000  
  0.000  
 -0.005  
 -0.030  
 -0.035  
 -0.080  
 -0.075  
 -0.065  
 -0.060  
 -0.015  
  0.005  
  0.010  
  0.015  
  0.005  
  0.010  
  0.010  
  0.005  
  0.005  
  0.020  
  0.010  
  0.225  
  0.090  
 -0.320  
 -0.360  
 -0.300  
 -0.050  
 -0.020  
 -0.025  
  0.000  
  0.000  
  0.005  
  0.000  
  0.015  
  0.015  
  0.020  
  0.020  
  0.025  
  0.030  
  0.035  
  0.030  
  0.050  
  0.055  
  0.065  
  0.075  
  0.085  
  0.090  
  0.090  
  0.095  
  0.095  
  0.080  
  0.065  
  0.050  
  0.020  
  0.010  
  0.005  
  0.000  
  0.000  
 -0.010  
  0.000  
 -0.005  
 -0.005  
 -0.005  
 -0.005  
  0.000  
 -0.030  
 -0.050  
 -0.050  
 -0.080  
 -0.075  
 -0.090  
 -0.040  
 -0.010  
  0.000  
  0.000  
  0.000  
  0.000  
 -0.015  
 -0.040  
 -0.350  
 -0.290  
  0.135  
  0.200  
  0.410  
  0.135  
 -0.430  
 -0.420  
 -0.255  
 -0.030  
 -0.035  
 -0.020  
  0.000  
  0.000  
  0.000  
 -0.015  
  0.000  
  0.005  
  0.010  
  0.015  
  0.020  
  0.015  
  0.030  
  0.030  
  0.040  
  0.050  
  0.065  
  0.080  
  0.095  
  0.095  
  0.095  
  0.085  
  0.090  
  0.080  
  0.060  
  0.035  
  0.015  
  0.005  
  0.000  
  0.000  
  0.000  
  0.000  
  0.000  
  0.000  
  0.000  
  0.000  
  0.000  
  0.000  
  0.000  
 -0.005  
 -0.040  
 -0.035  
 -0.085  
 -0.075  
 -0.070  
 -0.060  
 -0.010  
 -0.010  
 -0.005  
 -0.005  
 -0.020  
 -0.015  
 -0.010  
 -0.010  
 -0.015  
  0.010  
  0.000  
  0.290  
  0.095  
 -0.480  
 -0.465  
 -0.305  
 -0.060  
 -0.060  
 -0.050  
 -0.020  
 -0.025  
 -0.020  
 -0.010  
  0.000  
 -0.015  
 -0.005  
  0.000  
  0.000  
  0.000  
  0.010  
  0.015  
  0.020  
  0.035  
  0.050  
  0.050  
  0.060  
  0.060  
  0.070  
  0.065  
  0.060  
  0.050  
  0.045  
  0.015  
  0.005  
 -0.005  
 -0.005  
  0.000  
 -0.005  
  0.005  
  0.000  
  0.000  
  0.000  
  0.000  
  0.000  
 -0.005  
  0.005  
  0.000  
  0.005  
 -0.030  
 -0.025  
 -0.085  
 -0.080  
 -0.080  
 -0.080  
 -0.005  
  0.000  
  0.000  
  0.005  
  0.005  
  0.010  
  0.000  
  0.010  
  0.000  
  0.050  
  0.060  
  0.310  
  0.080  
 -0.600  
 -0.525  
 -0.300  
 -0.045  
 -0.030  
 -0.030  
  0.000  
  0.000  
  0.010  
  0.005  
  0.015  
  0.015  
  0.010  
  0.020  
  0.025  
  0.015  
  0.030  
  0.040  
  0.055  
  0.060  
  0.075  
  0.090  
  0.095  
  0.100  
  0.125  
  0.110  
  0.115  
  0.110  
  0.070  
  0.045  
  0.035  
  0.015  
  0.010  
  0.010  
  0.015  
  0.015  
  0.020  
  0.025  
  0.025  
  0.035  
  0.025  
  0.035  
  0.035  
  0.025  
  0.025  
  0.030  
 -0.005  
  0.000  
 -0.065  
 -0.065  
 -0.070  
 -0.050  
  0.005  
  0.020  
  0.025  
  0.030  
  0.025  
  0.030  
  0.030  
  0.035  
  0.025  
  0.075  
  0.070  
  0.305  
  0.035  
 -0.605  
 -0.470  
 -0.270  
 -0.020  
 -0.010  
 -0.005  
  0.010  
  0.010  
  0.020  
  0.015  
  0.020  
  0.015  
  0.015  
  0.020  
  0.030  
  0.030  
  0.050  
  0.050  
  0.050  
  0.060  
  0.085  
  0.085  
  0.095  
  0.095  
  0.105  
  0.090  
  0.095  
  0.080  
  0.050  
  0.030  
  0.015  
  0.005  
  0.000  
  0.000  
  0.000  
  0.000  
  0.000  
  0.000  
  0.005  
  0.005  
  0.015  
  0.005  
  0.010  
  0.010  
  0.010  
  0.005  
  0.020  
  0.005  
  0.010  
 -0.010  
 -0.040  
 -0.055  
 -0.095  
 -0.105  
 -0.065  
 -0.040  
  0.000  
  0.000  
  0.015  
  0.010  
  0.010  
  0.010  
  0.015  
  0.015  
  0.035  
  0.030  
  0.210  
  0.050  
 -0.420  
 -0.390  
 -0.310  
 -0.050  
 -0.010  
 -0.015  
  0.010  
  0.010  
  0.025  
  0.015  
  0.020  
  0.020  
  0.025  
  0.020  
  0.030  
  0.025  
  0.035  
  0.040  
  0.055  
  0.055  
  0.070  
  0.075  
  0.090  
  0.095  
  0.100  
  0.090  
  0.095  
  0.080  
  0.065  
  0.045  
  0.030  
  0.010  
  0.005  
  0.005  
  0.010  
  0.000  
  0.005  
  0.010  
  0.005  
  0.005  
  0.010  
  0.015  
  0.005  
  0.010  
  0.005  
  0.010  
  0.000  
  0.010  
 -0.015  
 -0.040  
 -0.055  
 -0.085  
 -0.085  
 -0.060  
 -0.030  
  0.010  
  0.000  
  0.010  
  0.010  
  0.010  
  0.010  
  0.015  
  0.015  
  0.020  
  0.025  
  0.195  
  0.145  
 -0.260  
 -0.385  
 -0.340  
 -0.075  
 -0.010  
 -0.010  
  0.000  
  0.000  
  0.015  
  0.015  
  0.015  
  0.005  
  0.015  
  0.015  
  0.015  
  0.015  
  0.025  
  0.025  
  0.040  
  0.045  
  0.070  
  0.075  
  0.085  
  0.095  
  0.100  
  0.090  
  0.095  
  0.090  
  0.075  
  0.050  
  0.030  
  0.015  
  0.010  
  0.015  
  0.010  
  0.010  
  0.015  
  0.015  
  0.015  
  0.015  
  0.015  
  0.015  
  0.020  
  0.015  
  0.015  
  0.010  
  0.015  
  0.010  
  0.010  
 -0.005  
 -0.030  
 -0.055  
 -0.075  
 -0.070  
 -0.050  
 -0.015  
  0.015  
  0.010  
  0.020  
  0.010  
  0.010  
  0.005  
  0.010  
  0.005  
  0.015  
  0.025  
  0.200  
  0.170  
 -0.255  
 -0.420  
 -0.355  
 -0.100  
 -0.030  
 -0.030  
 -0.015  
 -0.010  
  0.000  
  0.000  
  0.000  
  0.000  
  0.000  
  0.000  
  0.005  
  0.005  
  0.020  
  0.020  
  0.035  
  0.035  
  0.050  
  0.060  
  0.070  
  0.070  
  0.080  
  0.080  
  0.075  
  0.070  
  0.055  
  0.035  
  0.015  
  0.000  
  0.000  
 -0.005  
  0.000  
 -0.005  
  0.000  
  0.000  
  0.000  
  0.000  
  0.000  
  0.000  
  0.000  
  0.000  
  0.000  
  0.000  
  0.000  
  0.005  
  0.000  
  0.000  
  0.000  
 -0.005  
 -0.045  
 -0.045  
 -0.100  
 -0.075  
 -0.065  
 -0.050  
 -0.005  
  0.000  
  0.000  
  0.000  
 -0.005  
  0.000  
  0.000  
 -0.005  
 -0.005  
  0.030  
  0.070  
  0.290  
  0.000  
 -0.500  
 -0.450  
 -0.220  
 -0.025  
 -0.040  
 -0.020  
 -0.005  
  0.000  
 -0.005  
  0.000  
  0.000  
  0.005  
  0.000  
  0.000  
  0.010  
  0.015  
  0.020  
  0.020  
  0.030  
  0.040  
  0.050  
  0.060  
  0.065  
  0.065  
  0.065  
  0.065  
  0.055  
  0.050  
  0.035  
  0.020  
  0.000  
 -0.005  
 -0.010  
 -0.010  
 -0.005  
 -0.005  
 -0.005  
 -0.005  
 -0.005  
 -0.010  
  0.000  
 -0.005  
 -0.005  
 -0.005  
  0.000  
 -0.005  
  0.000  
  0.000  
  0.000  
 -0.030  
 -0.050  
 -0.080  
 -0.100  
 -0.090  
 -0.075  
 -0.030  
  0.000  
 -0.005  
  0.000  
 -0.005  
 -0.005  
  0.000  
  0.005  
 -0.005  
  0.015  
  0.025  
  0.265  
  0.155  
 -0.460  
 -0.500  
 -0.345  
 -0.090  
 -0.035  
 -0.035  
 -0.015  
 -0.010  
  0.000  
  0.000  
  0.000  
  0.000  
  0.005  
  0.005  
  0.010  
  0.015  
  0.020  
  0.015  
  0.035  
  0.035  
  0.045  
  0.050  
  0.065  
  0.065  
  0.065  
  0.065  
  0.065  
  0.055  
  0.040  
  0.020  
  0.000  
 -0.010  
 -0.015  
 -0.015  
 -0.010  
 -0.005  
  0.000  
  0.000  
  0.000  
  0.005  
  0.000  
  0.010  
  0.000  
  0.005  
  0.005  
  0.005  
  0.000  
  0.000  
 -0.030  
 -0.040  
 -0.080  
 -0.095  
 -0.105  
 -0.085  
 -0.040  
 -0.020  
 -0.005  
  0.000  
  0.000  
  0.005  
  0.000  
  0.000  
  0.000  
  0.025  
  0.035  
  0.250  
  0.135  
 -0.495  
 -0.500  
 -0.355  
 -0.095  
 -0.015  
 -0.030  
  0.000  
  0.000  
  0.010  
  0.005  
  0.020  
  0.015  
  0.025  
  0.025  
  0.035  
  0.035  
  0.050  
  0.045  
  0.055  
  0.065  
  0.075  
  0.090  
  0.110  
  0.110  
  0.120  
  0.110  
  0.110  
  0.100  
  0.080  
  0.050  
  0.030  
  0.020  
  0.015  
  0.010  
  0.015  
  0.015  
  0.015  
  0.020  
  0.030  
  0.020  
  0.030  
  0.030  
  0.030  
  0.030  
  0.020  
  0.020  
  0.025  
  0.015  
 -0.015  
 -0.025  
 -0.075  
 -0.080  
 -0.060  
 -0.045  
  0.005  
  0.015  
  0.025  
  0.020  
  0.025  
  0.030  
  0.030  
  0.015  
  0.020  
  0.060  
  0.115  
  0.250  
 -0.145  
 -0.525  
 -0.435  
 -0.180  
  0.000  
 -0.015  
  0.000  
  0.010  
  0.025  
  0.020  
  0.020  
  0.020  
  0.025  
  0.025  
  0.030  
  0.025  
  0.035  
  0.050  
  0.045  
  0.055  
  0.065  
  0.080  
  0.090  
  0.095  
  0.095  
  0.095  
  0.090  
  0.085  
  0.070  
  0.050  
  0.030  
  0.010  
  0.000  
  0.005  
  0.010  
  0.010  
  0.010  
  0.015  
  0.015  
  0.025  
  0.025  
  0.030  
  0.035  
  0.025  
  0.030  
  0.025  
  0.030  
  0.025  
  0.025  
  0.025  
  0.020  
 -0.010  
 -0.035  
 -0.055  
 -0.080  
 -0.080  
 -0.050  
 -0.020  
  0.020  
  0.015  
  0.025  
  0.020  
  0.025  
  0.020  
  0.025  
  0.015  
  0.035  
  0.030  
  0.225  
  0.100  
 -0.345  
 -0.365  
 -0.295  
 -0.050  
 -0.010  
 -0.010  
  0.005  
  0.010  
  0.015  
  0.020  
  0.025  
  0.020  
  0.025  
  0.020  
  0.030  
  0.025  
  0.035  
  0.035  
  0.050  
  0.060  
  0.075  
  0.075  
  0.095  
  0.095  
  0.100  
  0.095  
  0.095  
  0.080  
  0.070  
  0.045  
  0.035  
  0.020  
  0.020  
  0.010  
  0.010  
  0.015  
  0.015  
  0.015  
  0.015  
  0.015  
  0.020  
  0.025  
  0.030  
  0.025  
  0.025  
  0.025  
  0.020  
  0.020  
  0.020  
  0.020  
  0.015  
  0.020  
  0.020  
  0.020  
 -0.020  
 -0.020  
 -0.050  
 -0.030  
 -0.015  
 -0.020  
  0.010  
  0.030  
  0.005  
  0.015  
  0.010  
  0.010  
  0.005  
  0.010  
  0.005  
  0.030  
  0.025  
  0.300  
  0.075  
 -0.455  
 -0.390  
 -0.230  
 -0.010  
 -0.030  
 -0.015  
  0.000  
  0.005  
  0.010  
  0.005  
  0.010  
  0.010  
  0.015  
  0.015  
  0.020  
  0.030  
  0.030  
  0.030  
  0.045  
  0.060  
  0.075  
  0.075  
  0.090  
  0.100  
  0.100  
  0.095  
  0.090  
  0.085  
  0.065  
  0.040  
  0.030  
  0.020  
  0.010  
  0.005  
  0.005  
  0.005  
  0.010  
  0.010  
  0.005  
  0.010  
  0.010  
  0.015  
  0.010  
  0.005  
  0.010  
  0.015  
  0.010  
  0.015  
  0.010  
  0.010  
  0.010  
  0.010  
  0.005  
 -0.030  
 -0.025  
 -0.055  
 -0.030  
 -0.010  
 -0.020  
  0.025  
  0.025  
 -0.005  
  0.005  
  0.000  
  0.000  
 -0.005  
  0.000  
 -0.005  
  0.015  
  0.030  
  0.315  
  0.080  
 -0.470  
 -0.425  
 -0.230  
 -0.020  
 -0.040  
 -0.025  
 -0.015  
 -0.005  
  0.000  
  0.000  
  0.000  
  0.000  
  0.000  
  0.000  
  0.000  
  0.010  
  0.020  
  0.025  
  0.035  
  0.050  
  0.055  
  0.070  
  0.080  
  0.085  
  0.085  
  0.075  
  0.065  
  0.065  
  0.050  
  0.015  
  0.005  
  0.000  
  0.000  
 -0.005  
 -0.005  
 -0.005  
 -0.005  
 -0.005  
  0.000  
  0.000  
  0.000  
  0.000  
  0.000  
  0.000  
  0.000  
  0.000  
  0.000  
 -0.005  
  0.000  
  0.000  
  0.000  
  0.000  
  0.000  
 -0.005  
 -0.005  
 -0.040  
 -0.045  
 -0.060  
 -0.045  
 -0.020  
 -0.035  
  0.010  
  0.000  
 -0.005  
  0.000  
  0.000  
 -0.010  
 -0.005  
 -0.010  
 -0.015  
  0.010  
  0.070  
  0.275  
 -0.020  
 -0.500  
 -0.445  
 -0.210  
 -0.040  
 -0.055  
 -0.035  
 -0.030  
 -0.025  
 -0.015  
 -0.010  
 -0.005  
 -0.005  
 -0.010  
  0.000  
  0.000  
  0.000  
  0.010  
  0.015  
  0.015  
  0.020  
  0.045  
  0.050  
  0.060  
  0.060  
  0.060  
  0.055  
  0.050  
  0.045  
  0.030  
  0.000  
 -0.005  
 -0.010  
 -0.020  
 -0.020  
 -0.020  
 -0.020  
 -0.015  
 -0.005  
 -0.010  
 -0.010  
 -0.005  
 -0.010  
 -0.010  
 -0.010  
 -0.005  
 -0.005  
 -0.010  
 -0.010  
 -0.015  
 -0.010  
 -0.040  
 -0.055  
 -0.075  
 -0.080  
 -0.075  
 -0.065  
 -0.025  
 -0.020  
 -0.020  
 -0.005  
 -0.020  
 -0.010  
 -0.025  
 -0.015  
 -0.025  
  0.000  
  0.015  
  0.195  
  0.160  
 -0.420  
 -0.530  
 -0.410  
 -0.155  
 -0.055  
 -0.065  
 -0.045  
 -0.040  
 -0.020  
 -0.025  
 -0.015  
 -0.025  
 -0.005  
 -0.005  
 -0.010  
 -0.005  
  0.005  
  0.000  
  0.005  
  0.020  
  0.035  
  0.040  
  0.050  
  0.050  
  0.060  
  0.050  
  0.050  
  0.040  
  0.035  
  0.015  
 -0.005  
 -0.015  
 -0.025  
 -0.025  
 -0.020  
 -0.010  
 -0.015  
 -0.005  
  0.000  
  0.000  
  0.000  
  0.000  
  0.000  
  0.010  
  0.000  
  0.010  
  0.005  
  0.015  
  0.005  
  0.005  
 -0.015  
 -0.025  
 -0.050  
 -0.060  
 -0.060  
 -0.035  
 -0.005  
  0.015  
  0.025  
  0.025  
  0.010  
  0.015  
  0.015  
  0.020  
  0.015  
  0.055  
  0.070  
  0.300  
  0.085  
 -0.610  
 -0.495  
 -0.275  
 -0.035  
 -0.005  
 -0.010  
  0.020  
  0.010  
  0.025  
  0.020  
  0.030  
  0.025  
  0.035  
  0.030  
  0.045  
  0.045  
  0.055  
  0.050  
  0.070  
  0.075  
  0.095  
  0.105  
  0.125  
  0.125  
  0.135  
  0.130  
  0.130  
  0.105  
  0.075  
  0.045  
  0.030  
  0.015  
  0.000  
  0.005  
  0.010  
  0.015  
  0.015  
  0.015  
  0.025  
  0.025  
  0.025  
  0.025  
  0.025  
  0.025  
  0.030  
  0.020  
  0.025  
  0.020  
  0.015  
 -0.020  
 -0.015  
 -0.060  
 -0.075  
 -0.040  
 -0.005  
  0.015  
  0.025  
  0.035  
  0.030  
  0.035  
  0.035  
  0.030  
  0.035  
  0.030  
  0.060  
  0.075  
  0.260  
 -0.050  
 -0.515  
 -0.400  
 -0.175  
  0.010  
 -0.010  
  0.000  
  0.015  
  0.020  
  0.020  
  0.025  
  0.025  
  0.025  
  0.030  
  0.030  
  0.035  
  0.035  
  0.045  
  0.050  
  0.060  
  0.065  
  0.080  
  0.095  
  0.105  
  0.115  
  0.115  
  0.105  
  0.100  
  0.075  
  0.055  
  0.040  
  0.025  
  0.020  
  0.015  
  0.010  
  0.015  
  0.015  
  0.015  
  0.015  
  0.015  
  0.020  
  0.020  
  0.020  
  0.020  
  0.020  
  0.015  
  0.020  
  0.020  
  0.015  
 -0.005  
 -0.030  
 -0.040  
 -0.065  
 -0.065  
 -0.045  
 -0.005  
  0.010  
  0.005  
  0.010  
  0.005  
  0.005  
  0.005  
  0.000  
  0.000  
  0.000  
  0.010  
  0.090  
  0.160  
 -0.125  
 -0.400  
 -0.360  
 -0.130  
 -0.025  
 -0.040  
 -0.025  
 -0.020  
 -0.010  
 -0.010  
 -0.005  
 -0.010  
 -0.010  
 -0.010  
 -0.005  
 -0.005  
  0.000  
  0.000  
  0.000  
  0.010  
  0.015  
  0.025  
  0.040  
  0.050  
  0.060  
  0.055  
  0.040  
  0.040  
  0.030  
  0.000  
 -0.010  
 -0.025  
 -0.020  
 -0.030  
 -0.035  
 -0.030  
 -0.025  
 -0.030  
 -0.025  
 -0.020  
 -0.015  
 -0.015  
 -0.020  
 -0.015  
 -0.015  
 -0.020  
 -0.025  
 -0.010  
 -0.010  
 -0.020  
 -0.015  
 -0.045  
 -0.065  
 -0.065  
 -0.075  
 -0.075  
 -0.050  
 -0.030  
 -0.010  
 -0.015  
  0.000  
  0.000  
  0.000  
 -0.005  
  0.000  
  0.000  
  0.010  
  0.020  
  0.200  
  0.200  
 -0.335  
 -0.480  
 -0.390  
 -0.150  
 -0.030  
 -0.030  
 -0.010  
 -0.015  
  0.000  
 -0.015  
  0.000  
  0.000  
  0.025  
  0.010  
  0.000  
  0.025  
  0.025  
  0.035  
  0.045  
  0.075  
  0.070  
  0.075  
  0.105  
  0.110  
  0.110  
  0.125  
  0.105  
  0.085  
  0.065  
  0.045  
  0.050  
  0.010  
  0.000  
 -0.005  
  0.020  
  0.005  
 -0.005  
  0.010  
  0.000  
  0.000  
  0.015  
  0.015  
  0.010  
 -0.005  
 -0.030  
  0.000  
  0.000  
 -0.025  
 -0.035  
 -0.040  
 -0.105  
 -0.110  
 -0.095  
 -0.070  
 -0.055  
 -0.045  
  0.010  
  0.040  
  0.040  
  0.015  
  0.015  
  0.020  
  0.015  
  0.045  
  0.070  
  0.280  
 -0.065  
 -0.675  
 -0.560  
 -0.250  
 -0.060  
 -0.015  
 -0.010  
 -0.015  
 -0.005  
  0.000  
  0.015  
  0.000  
 -0.010  
  0.025  
  0.020  
  0.005  
  0.070  
  0.005  
  0.035  
  0.060  
  0.050  
  0.085  
  0.090  
  0.150  
  0.105  
  0.110  
  0.140  
  0.100  
  0.060  
  0.045  
  0.015  
  0.000  
  0.000  
  0.030  
  0.025  
 -0.010  
 -0.005  
  0.030  
 -0.005  
 -0.005  
  0.000  
  0.000  
 -0.015  
  0.020  
 -0.010  
  0.025  
  0.005  
 -0.060  
 -0.055  
 -0.080  
 -0.120  
 -0.125  
 -0.110  
 -0.105  
 -0.045  
 -0.005  
  0.005  
 -0.005  
 -0.025  
 -0.015  
  0.025  
  0.010  
  0.000  
  0.015  
  0.135  
 -0.060  
 -0.565  
 -0.685  
 -0.415  
 -0.110  
 -0.050  
 -0.040  
  0.010  
 -0.010  
  0.020  
 -0.015  
 -0.015  
  0.000  
 -0.005  
  0.005  
  0.010  
  0.015  
  0.035  
 -0.010  
  0.035  
  0.065  
  0.100  
  0.105  
  0.050  
  0.120  
  0.105  
  0.140  
  0.085  
  0.065  
  0.085  
 -0.005  
  0.065  
  0.060  
  0.005  
  0.050  
  0.045  
  0.045  
  0.000  
  0.065  
  0.020  
  0.070  
  0.115  
  0.065  
  0.110  
  0.085  
  0.100  
  0.110  
  0.140  
  0.125  
  0.075  
  0.080  
  0.025  
  0.005  
  0.020  
  0.055  
  0.070  
  0.125  
  0.135  
  0.110  
  0.115  
  0.110  
  0.085  
  0.090  
  0.085  
  0.105  
  0.090  
  0.185  
 -0.185  
 -0.780  
 -0.555  
 -0.210  
 -0.005  
 -0.005  
  0.000  
  0.010  
  0.010  
  0.025  
  0.035  
  0.035  
  0.035  
  0.045  
  0.030  
  0.040  
  0.025  
  0.040  
  0.060  
  0.060  
  0.060  
  0.080  
  0.085  
  0.100  
  0.100  
  0.095  
  0.095  
  0.075  
  0.070  
  0.025  
  0.005  
 -0.015  
  0.000  
 -0.005  
 -0.010  
  0.000  
 -0.005  
 -0.015  
 -0.005  
 -0.015  
  0.000  
 -0.005  
  0.000  
  0.000  
  0.005  
  0.000  
 -0.005  
  0.000  
 -0.010  
  0.000  
 -0.005  
  0.010  
  0.005  
  0.000  
  0.010  
  0.010  
  0.000  
  0.010  
  0.005  
  0.005  
  0.010  
  0.015  
  0.015  
  0.010  
  0.015  
  0.025  
  0.025  
  0.025  
  0.015  
  0.020  
  0.025  
  0.015  
  0.020  
  0.030  
  0.020  
  0.020  
  0.020  
  0.030  
  0.015  
  0.020  
  0.030  
  0.020  
  0.000  
 -0.035  
 -0.035  
 -0.035  
 -0.030  
 -0.005  
  0.030  
  0.015  
  0.025  
  0.005  
  0.020  
  0.020  
  0.020  
  0.020  
  0.035  
  0.125  
 -0.115  
 -0.555  
 -0.430  
 -0.250  
 -0.020  
 -0.040  
 -0.020  
 -0.010  
 -0.005  
 -0.005  
  0.000  
  0.000  
  0.000  
  0.005  
 -0.005  
  0.015  
  0.010  
  0.010  
  0.015  
  0.025  
  0.035  
  0.045  
  0.055  
  0.045  
  0.070  
  0.065  
  0.070  
  0.050  
  0.050  
  0.030  
  0.015  
  0.010  
 -0.005  
 -0.005  
 -0.015  
 -0.005  
 -0.025  
  0.000  
 -0.030  
  0.000  
 -0.020  
  0.005  
 -0.010  
  0.000  
 -0.015  
  0.010  
 -0.005  
  0.015  
 -0.005  
  0.015  
  0.000  
  0.015  
  0.000  
  0.015  
  0.005  
  0.025  
  0.010  
  0.015  
  0.005  
  0.015  
  0.015  
  0.020  
  0.015  
  0.020  
  0.015  
  0.025  
  0.010  
  0.015  
  0.010  
  0.010  
  0.010  
  0.020  
  0.005  
  0.005  
 -0.025  
 -0.040  
 -0.055  
 -0.025  
 -0.035  
  0.005  
  0.015  
  0.025  
  0.010  
  0.020  
  0.015  
  0.015  
  0.005  
  0.025  
  0.015  
  0.105  
 -0.005  
 -0.340  
 -0.425  
 -0.305  
 -0.070  
 -0.030  
 -0.040  
 -0.010  
 -0.015  
  0.000  
 -0.005  
  0.000  
 -0.010  
  0.000  
  0.000  
  0.005  
  0.010  
  0.015  
  0.020  
  0.030  
  0.035  
  0.045  
  0.050  
  0.060  
  0.070  
  0.075  
  0.075  
  0.065  
  0.060  
  0.040  
  0.025  
  0.010  
  0.005  
  0.000  
  0.000  
 -0.005  
 -0.010  
 -0.015  
 -0.010  
 -0.010  
 -0.005  
  0.000  
  0.005  
  0.000  
  0.005  
  0.010  
  0.005  
  0.005  
  0.010  
  0.005  
  0.005  
  0.010  
  0.010  
  0.010  
  0.010  
  0.010  
  0.010  
  0.010  
  0.010  
  0.015  
  0.010  
  0.015  
  0.015  
  0.010  
  0.015  
  0.015  
  0.015  
  0.020  
 -0.015  
  0.000  
 -0.010  
 -0.020  
  0.025  
  0.030  
  0.010  
  0.015  
  0.015  
  0.010  
  0.005  
  0.005  
  0.000  
  0.025  
  0.040  
  0.160  
 -0.100  
 -0.480  
 -0.375  
 -0.160  
 -0.020  
 -0.045  
 -0.030  
 -0.020  
 -0.015  
 -0.010  
 -0.005  
  0.000  
  0.000  
  0.000  
  0.000  
  0.005  
  0.005  
  0.005  
  0.005  
  0.025  
  0.045  
  0.065  
  0.075  
  0.085  
  0.085  
  0.095  
  0.085  
  0.070  
  0.055  
  0.045  
  0.025  
  0.015  
  0.010  
  0.010  
  0.010  
  0.005  
  0.010  
  0.010  
  0.015  
  0.010  
  0.010  
  0.015  
  0.015  
  0.020  
  0.020  
  0.020  
  0.015  
  0.015  
  0.015  
  0.015  
  0.015  
  0.015  
  0.010  
  0.010  
  0.015  
  0.010  
  0.005  
  0.010  
  0.010  
  0.005  
  0.005  
  0.005  
  0.000  
  0.005  
  0.000  
  0.005  
  0.005  
 -0.035  
 -0.005  
 -0.005  
 -0.030  
  0.020  
  0.030  
  0.005  
  0.000  
  0.000  
 -0.005  
  0.000  
 -0.015  
 -0.015  
  0.000  
  0.075  
  0.115  
 -0.175  
 -0.455  
 -0.400  
 -0.160  
 -0.060  
 -0.075  
 -0.055  
 -0.050  
 -0.035  
 -0.045  
 -0.030  
 -0.035  
 -0.025  
 -0.015  
 -0.010  
 -0.010  
  0.000  
  0.010  
  0.020  
  0.030  
  0.040  
  0.050  
  0.060  
  0.075  
  0.080  
  0.070  
  0.065  
  0.060  
  0.050  
  0.020  
  0.000  
 -0.005  
 -0.010  
 -0.005  
  0.000  
 -0.015  
  0.000  
 -0.005  
 -0.005  
  0.000  
  0.000  
  0.000  
  0.000  
  0.000  
  0.010  
  0.005  
  0.000  
  0.000  
  0.000  
  0.000  
  0.000  
  0.000  
  0.005  
  0.000  
  0.000  
  0.000  
 -0.005  
  0.010  
  0.000  
  0.000  
  0.015  
 -0.015  
  0.005  
 -0.030  
 -0.025  
  0.005  
  0.025  
  0.020  
  0.010  
 -0.010  
  0.000  
 -0.010  
  0.000  
 -0.025  
  0.015  
  0.080  
  0.265  
 -0.020  
 -0.650  
 -0.550  
 -0.310  
 -0.090  
 -0.070  
 -0.080  
 -0.030  
 -0.045  
 -0.030  
 -0.035  
 -0.020  
 -0.020  
 -0.010  
 -0.010  
 -0.005  
  0.005  
  0.030  
  0.015  
  0.030  
  0.030  
  0.035  
  0.065  
  0.075  
  0.085  
  0.090  
  0.090  
  0.100  
  0.080  
  0.035  
  0.015  
  0.000  
 -0.005  
 -0.010  
 -0.005  
  0.000  
 -0.015  
  0.000  
  0.000  
  0.000  
  0.010  
  0.015  
  0.005  
  0.010  
  0.000  
 -0.010  
  0.010  
 -0.020  
  0.005  
  0.000  
 -0.020  
  0.005  
 -0.010  
 -0.010  
  0.000  
  0.015  
 -0.010  
  0.015  
 -0.020  
 -0.015  
 -0.030  
 -0.050  
  0.020  
  0.030  
  0.015  
  0.010  
  0.025  
  0.000  
  0.010  
  0.010  
 -0.005  
  0.040  
  0.095  
  0.235  
 -0.120  
 -0.695  
 -0.580  
 -0.275  
 -0.060  
 -0.030  
 -0.050  
  0.010  
  0.015  
  0.000  
  0.000  
 -0.010  
 -0.015  
  0.010  
  0.015  
  0.010  
  0.035  
  0.025  
  0.040  
  0.050  
  0.075  
  0.075  
  0.085  
  0.110  
  0.095  
  0.115  
  0.105  
  0.100  
  0.050  
  0.065  
  0.045  
  0.000  
 -0.010  
  0.030  
 -0.015  
 -0.010  
  0.020  
  0.015  
  0.000  
  0.010  
  0.005  
 -0.010  
  0.005  
 -0.005  
  0.015  
  0.035  
 -0.010  
 -0.010  
  0.000  
 -0.015  
 -0.015  
  0.000  
 -0.015  
 -0.060  
 -0.035  
 -0.110  
 -0.120  
 -0.085  
 -0.075  
 -0.030  
  0.000  
  0.035  
  0.015  
  0.025  
  0.030  
  0.050  
  0.025  
  0.055  
  0.080  
  0.155  
 -0.045  
 -0.585  
 -0.520  
 -0.370  
 -0.095  
  0.000  
 -0.020  
  0.015  
  0.020  
  0.035  
  0.010  
  0.025  
  0.020  
  0.040  
  0.040  
  0.030  
  0.030  
  0.055  
  0.065  
  0.035  
  0.065  
  0.095  
  0.085  
  0.120  
  0.115  
  0.120  
  0.125  
  0.095  
  0.075  
  0.060  
  0.040  
  0.020  
  0.020  
  0.010  
  0.015  
  0.020  
  0.030  
  0.005  
  0.015  
  0.030  
  0.025  
  0.020  
  0.035  
  0.020  
  0.020  
  0.045  
  0.040  
  0.025  
 -0.010  
 -0.005  
 -0.050  
 -0.075  
 -0.070  
 -0.055  
 -0.005  
  0.025  
  0.040  
  0.045  
  0.045  
  0.040  
  0.045  
  0.045  
  0.035  
  0.060  
  0.080  
  0.220  
 -0.160  
 -0.685  
 -0.450  
 -0.215  
  0.005  
  0.000  
  0.015  
  0.015  
  0.030  
  0.035  
  0.025  
  0.025  
  0.040  
  0.025  
  0.020  
  0.035  
  0.045  
  0.035  
  0.040  
  0.055  
  0.065  
  0.075  
  0.080  
  0.095  
  0.085  
  0.085  
  0.090  
  0.065  
  0.055  
  0.030  
  0.020  
  0.010  
  0.000  
  0.005  
  0.000  
  0.000  
  0.005  
  0.005  
  0.005  
  0.005  
  0.025  
  0.005  
  0.020  
  0.005  
  0.015  
  0.015  
  0.020  
  0.010  
  0.020  
 -0.015  
 -0.020  
 -0.065  
 -0.070  
 -0.090  
 -0.070  
 -0.030  
  0.030  
  0.020  
  0.040  
  0.030  
  0.030  
  0.020  
  0.035  
  0.040  
  0.035  
  0.060  
  0.145  
 -0.005  
 -0.480  
 -0.415  
 -0.305  
 -0.050  
  0.000  
  0.010  
  0.005  
  0.030  
  0.010  
  0.040  
  0.010  
  0.025  
  0.015  
  0.040  
  0.015  
  0.045  
  0.025  
  0.060  
  0.040  
  0.070  
  0.060  
  0.085  
  0.075  
  0.100  
  0.095  
  0.080  
  0.075  
  0.055  
  0.035  
  0.015  
  0.015  
  0.005  
  0.010  
  0.000  
  0.015  
  0.005  
  0.010  
  0.000  
  0.005  
  0.000  
  0.000  
  0.000  
  0.010  
  0.015  
  0.010  
  0.010  
  0.015  
  0.015  
  0.020  
  0.015  
  0.020  
  0.010  
  0.010  
 -0.020  
 -0.020  
 -0.055  
 -0.055  
 -0.020  
 -0.020  
  0.005  
  0.030  
  0.030  
  0.040  
  0.025  
  0.040  
  0.025  
  0.020  
  0.020  
  0.055  
  0.035  
  0.220  
 -0.150  
 -0.545  
 -0.385  
 -0.175  
  0.005  
 -0.005  
 -0.010  
  0.010  
  0.000  
  0.015  
  0.005  
  0.020  
  0.005  
  0.025  
  0.020  
  0.030  
  0.025  
  0.035  
  0.040  
  0.065  
  0.050  
  0.070  
  0.075  
  0.090  
  0.075  
  0.095  
  0.075  
  0.075  
  0.040  
  0.045  
  0.015  
  0.015  
  0.000  
  0.015  
  0.005  
  0.015  
  0.000  
  0.010  
  0.005  
  0.020  
  0.010  
  0.020  
  0.005  
  0.025  
  0.005  
  0.025  
  0.010  
  0.030  
  0.015  
  0.025  
  0.020  
  0.020  
  0.010  
  0.035  
  0.010  
  0.025  
  0.010  
  0.035  
  0.020  
  0.000  
 -0.035  
 -0.015  
 -0.050  
 -0.005  
 -0.005  
  0.045  
  0.010  
  0.045  
  0.020  
  0.035  
  0.025  
  0.030  
  0.020  
  0.040  
  0.030  
  0.165  
  0.015  
 -0.420  
 -0.370  
 -0.310  
 -0.055  
 -0.025  
 -0.005  
 -0.020  
  0.020  
 -0.010  
  0.015  
 -0.005  
  0.030  
 -0.005  
  0.030  
  0.005  
  0.035  
  0.010  
  0.045  
  0.025  
  0.065  
  0.045  
  0.075  
  0.055  
  0.095  
  0.070  
  0.075  
  0.050  
  0.065  
  0.030  
  0.030  
  0.000  
  0.010  
  0.000  
  0.010  
 -0.005  
  0.005  
  0.000  
  0.005  
  0.000  
  0.005  
  0.000  
  0.005  
  0.000  
  0.005  
  0.020  
  0.010  
  0.015  
  0.010  
  0.030  
  0.020  
  0.020  
  0.015  
  0.025  
  0.010  
  0.030  
  0.010  
  0.020  
  0.010  
  0.020  
  0.015  
  0.025  
  0.020  
  0.010  
 -0.010  
 -0.030  
 -0.025  
 -0.005  
 -0.005  
  0.015  
  0.015  
  0.025  
  0.025  
  0.030  
  0.025  
  0.025  
  0.020  
  0.015  
  0.040  
  0.100  
  0.145  
 -0.230  
 -0.415  
 -0.345  
 -0.110  
  0.000  
 -0.020  
  0.000  
  0.000  
  0.010  
  0.005  
  0.015  
  0.005  
  0.015  
  0.010  
  0.010  
  0.020  
  0.025  
  0.030  
  0.040  
  0.045  
  0.065  
  0.065  
  0.085  
  0.075  
  0.090  
  0.075  
  0.070  
  0.060  
  0.045  
  0.030  
  0.015  
  0.010  
  0.010  
  0.000  
  0.010  
  0.005  
  0.010  
  0.005  
  0.005  
  0.000  
  0.005  
  0.005  
  0.015  
  0.005  
  0.010  
  0.010  
  0.015  
  0.005  
  0.010  
  0.015  
  0.005  
  0.015  
  0.010  
  0.015  
  0.010  
  0.010  
  0.000  
  0.010  
  0.005  
  0.010  
  0.005  
  0.005  
  0.015  
  0.010  
  0.000  
 -0.010  
 -0.040  
 -0.035  
 -0.030  
 -0.020  
  0.015  
  0.020  
  0.015  
  0.015  
  0.005  
  0.015  
  0.010  
  0.010  
  0.005  
  0.030  
  0.115  
  0.140  
 -0.210  
 -0.420  
 -0.365  
 -0.125  
 -0.015  
 -0.035  
 -0.015  
 -0.005  
  0.005  
  0.005  
  0.000  
  0.000  
  0.000  
  0.000  
  0.005  
  0.005  
  0.015  
  0.015  
  0.035  
  0.035  
  0.055  
  0.060  
  0.075  
  0.080  
  0.075  
  0.080  
  0.070  
  0.065  
  0.045  
  0.030  
  0.020  
  0.000  
  0.000  
 -0.005  
  0.000  
  0.000  
 -0.005  
  0.000  
  0.000  
  0.000  
  0.005  
  0.015  
  0.010  
  0.015  
  0.015  
  0.010  
  0.015  
  0.010  
  0.010  
  0.010  
  0.015  
  0.010  
  0.010  
  0.005  
  0.005  
  0.000  
  0.000  
  0.000  
  0.000  
  0.000  
  0.000  
  0.000  
  0.000  
  0.000  
 -0.005  
 -0.005  
 -0.025  
 -0.035  
 -0.045  
 -0.040  
 -0.030  
 -0.025  
  0.005  
  0.000  
  0.000  
  0.000  
  0.000  
 -0.010  
 -0.020  
 -0.010  
  0.000  
  0.000  
  0.190  
  0.080  
 -0.350  
 -0.415  
 -0.355  
 -0.095  
 -0.065  
 -0.050  
 -0.045  
 -0.025  
 -0.025  
 -0.020  
 -0.025  
 -0.010  
 -0.020  
 -0.010  
 -0.015  
  0.000  
  0.000  
  0.000  
  0.000  
  0.010  
  0.030  
  0.040  
  0.040  
  0.050  
  0.055  
  0.045  
  0.040  
  0.030  
  0.015  
  0.000  
 -0.015  
 -0.030  
 -0.025  
 -0.040  
 -0.040  
 -0.040  
 -0.035  
 -0.040  
 -0.025  
 -0.040  
 -0.030  
 -0.025  
 -0.025  
 -0.030  
 -0.025  
 -0.025  
 -0.020  
 -0.030  
 -0.010  
 -0.025  
 -0.015  
 -0.020  
 -0.020  
 -0.025  
 -0.015  
 -0.025  
 -0.025  
 -0.015  
 -0.015  
 -0.025  
 -0.025  
 -0.020  
 -0.030  
 -0.040  
 -0.045  
 -0.065  
 -0.045  
 -0.020  
  0.010  
 -0.010  
  0.000  
 -0.010  
 -0.010  
 -0.020  
 -0.010  
 -0.020  
  0.030  
  0.070  
  0.295  
  0.095  
 -0.620  
 -0.545  
 -0.315  
 -0.070  
 -0.040  
 -0.055  
 -0.025  
 -0.015  
 -0.010  
 -0.020  
  0.000  
 -0.005  
  0.000  
  0.015  
  0.020  
  0.005  
  0.025  
  0.035  
  0.035  
  0.035  
  0.065  
  0.060  
  0.095  
  0.090  
  0.095  
  0.085  
  0.085  
  0.070  
  0.050  
  0.020  
  0.000  
  0.000  
 -0.025  
 -0.020  
  0.005  
 -0.005  
 -0.020  
 -0.015  
  0.000  
  0.000  
 -0.010  
  0.000  
  0.000  
  0.010  
  0.005  
  0.000  
  0.010  
  0.000  
 -0.010  
  0.000  
  0.005  
  0.000  
  0.010  
  0.005  
  0.005  
  0.005  
 -0.015  
 -0.025  
 -0.045  
 -0.050  
 -0.015  
  0.000  
  0.015  
  0.005  
  0.020  
  0.025  
  0.015  
  0.015  
  0.025  
 -0.005  
  0.060  
  0.085  
  0.260  
 -0.055  
 -0.660  
 -0.525  
 -0.290  
 -0.040  
 -0.040  
 -0.010  
 -0.005  
 -0.005  
  0.005  
 -0.005  
  0.025  
  0.020  
  0.015  
  0.000  
  0.020  
  0.025  
  0.060  
  0.025  
  0.040  
  0.050  
  0.050  
  0.095  
  0.085  
  0.110  
  0.100  
  0.105  
  0.095  
  0.065  
  0.055  
  0.045  
  0.000  
 -0.005  
  0.000  
 -0.010  
  0.020  
 -0.030  
  0.005  
  0.000  
  0.000  
  0.010  
  0.015  
  0.030  
  0.010  
  0.015  
  0.015  
  0.000  
  0.005  
  0.030  
  0.015  
  0.030  
 -0.015  
  0.000  
 -0.030  
 -0.020  
 -0.045  
 -0.085  
 -0.035  
 -0.020  
  0.005  
  0.020  
  0.050  
  0.025  
  0.040  
  0.040  
  0.030  
  0.030  
  0.040  
  0.075  
  0.115  
  0.175  
 -0.265  
 -0.620  
 -0.510  
 -0.195  
 -0.005  
 -0.030  
 -0.005  
  0.015  
  0.030  
  0.000  
  0.030  
  0.020  
  0.025  
  0.020  
  0.045  
  0.030  
  0.030  
  0.065  
  0.060  
  0.065  
  0.065  
  0.080  
  0.085  
  0.115  
  0.110  
  0.100  
  0.110  
  0.090  
  0.070  
  0.055  
  0.030  
  0.020  
  0.015  
  0.030  
  0.020  
  0.005  
  0.025  
  0.020  
  0.035  
  0.030  
  0.030  
  0.040  
  0.030  
  0.040  
  0.030  
  0.025  
  0.040  
  0.040  
  0.030  
 -0.010  
 -0.005  
 -0.070  
 -0.075  
 -0.095  
 -0.050  
 -0.020  
  0.020  
  0.020  
  0.035  
  0.030  
  0.045  
  0.025  
  0.025  
  0.020  
  0.065  
  0.050  
  0.230  
 -0.150  
 -0.695  
 -0.450  
 -0.245  
 -0.005  
  0.000  
  0.000  
  0.015  
  0.010  
  0.015  
  0.015  
  0.040  
  0.010  
  0.025  
  0.020  
  0.040  
  0.020  
  0.040  
  0.040  
  0.045  
  0.060  
  0.075  
  0.065  
  0.080  
  0.095  
  0.085  
  0.075  
  0.070  
  0.045  
  0.015  
  0.000  
  0.005  
 -0.005  
 -0.005  
  0.005  
 -0.005  
  0.000  
  0.000  
  0.000  
  0.000  
  0.000  
  0.010  
  0.000  
  0.015  
  0.000  
  0.000  
  0.005  
  0.005  
  0.010  
  0.005  
  0.000  
 -0.045  
 -0.040  
 -0.090  
 -0.105  
 -0.085  
 -0.055  
 -0.010  
  0.015  
  0.015  
  0.025  
  0.020  
  0.015  
  0.025  
  0.020  
  0.020  
  0.035  
  0.035  
  0.230  
 -0.140  
 -0.585  
 -0.400  
 -0.210  
  0.000  
 -0.025  
 -0.005  
  0.000  
  0.005  
  0.005  
  0.010  
  0.010  
  0.010  
  0.015  
  0.010  
  0.020  
  0.010  
  0.020  
  0.030  
  0.045  
  0.050  
  0.065  
  0.070  
  0.075  
  0.080  
  0.075  
  0.075  
  0.055  
  0.030  
  0.025  
  0.010  
  0.000  
  0.005  
  0.000  
  0.010  
  0.010  
  0.005  
  0.005  
  0.010  
  0.010  
  0.015  
  0.010  
  0.015  
  0.015  
  0.015  
  0.015  
  0.015  
  0.015  
  0.020  
  0.015  
  0.020  
  0.015  
  0.015  
  0.015  
  0.010  
  0.020  
 -0.025  
 -0.020  
 -0.070  
 -0.055  
 -0.030  
 -0.045  
 -0.010  
  0.010  
  0.015  
  0.015  
  0.010  
  0.015  
  0.005  
  0.020  
  0.020  
  0.030  
  0.025  
  0.220  
 -0.025  
 -0.510  
 -0.380  
 -0.260  
 -0.025  
 -0.020  
 -0.025  
 -0.005  
 -0.005  
  0.015  
  0.005  
  0.015  
  0.005  
  0.020  
  0.000  
  0.030  
  0.015  
  0.040  
  0.030  
  0.050  
  0.040  
  0.075  
  0.065  
  0.095  
  0.080  
  0.095  
  0.070  
  0.080  
  0.045  
  0.050  
  0.020  
  0.020  
  0.000  
  0.015  
  0.010  
  0.015  
  0.005  
  0.015  
  0.005  
  0.010  
  0.010  
  0.020  
  0.015  
  0.020  
  0.015  
  0.025  
  0.025  
  0.020  
  0.020  
  0.030  
  0.025  
  0.030  
  0.030  
  0.030  
  0.030  
  0.020  
  0.030  
  0.030  
  0.030  
  0.030  
  0.025  
  0.030  
  0.000  
 -0.025  
 -0.010  
 -0.020  
 -0.015  
  0.010  
  0.035  
  0.025  
  0.030  
  0.025  
  0.025  
  0.020  
  0.015  
  0.015  
  0.025  
  0.015  
  0.175  
  0.055  
 -0.325  
 -0.355  
 -0.300  
 -0.070  
 -0.025  
 -0.030  
 -0.010  
 -0.010  
  0.000  
  0.000  
  0.005  
  0.000  
  0.000  
  0.005  
  0.010  
  0.000  
  0.015  
  0.015  
  0.025  
  0.030  
  0.050  
  0.050  
  0.060  
  0.075  
  0.075  
  0.065  
  0.065  
  0.045  
  0.035  
  0.020  
  0.000  
  0.000  
 -0.005  
 -0.005  
  0.000  
 -0.005  
 -0.010  
 -0.005  
  0.000  
 -0.005  
  0.000  
  0.000  
  0.000  
  0.005  
  0.005  
  0.005  
  0.010  
  0.010  
  0.015  
  0.015  
  0.015  
  0.020  
  0.010  
  0.020  
  0.020  
  0.015  
  0.010  
  0.020  
  0.015  
  0.020  
  0.020  
  0.025  
  0.025  
  0.030  
  0.030  
  0.025  
  0.020  
  0.000  
  0.005  
 -0.010  
  0.000  
  0.000  
  0.005  
  0.045  
  0.030  
  0.035  
  0.030  
  0.035  
  0.025  
  0.020  
  0.015  
  0.010  
  0.030  
  0.095  
  0.195  
 -0.090  
 -0.400  
 -0.365  
 -0.125  
 -0.010  
 -0.025  
 -0.010  
 -0.005  
  0.000  
  0.000  
  0.005  
  0.005  
  0.010  
  0.005  
  0.010  
  0.010  
  0.020  
  0.025  
  0.030  
  0.040  
  0.055  
  0.065  
  0.075  
  0.075  
  0.080  
  0.080  
  0.075  
  0.060  
  0.045  
  0.030  
  0.010  
  0.000  
  0.000  
 -0.005  
 -0.010  
 -0.005  
 -0.005  
  0.000  
  0.000  
 -0.005  
  0.000  
  0.000  
  0.005  
  0.005  
  0.010  
  0.005  
  0.005  
  0.005  
  0.000  
  0.005  
  0.000  
  0.010  
  0.005  
  0.000  
  0.005  
  0.000  
  0.000  
  0.000  
  0.000  
  0.000  
  0.000  
  0.000  
  0.000  
  0.005  
  0.005  
  0.010  
  0.005  
  0.010  
 -0.010  
 -0.025  
 -0.010  
 -0.020  
 -0.010  
  0.010  
  0.040  
  0.020  
  0.030  
  0.020  
  0.020  
  0.005  
  0.015  
  0.005  
  0.025  
  0.015  
  0.235  
  0.100  
 -0.360  
 -0.395  
 -0.315  
 -0.070  
 -0.050  
 -0.045  
 -0.020  
 -0.020  
 -0.015  
 -0.015  
 -0.005  
 -0.010  
 -0.005  
 -0.005  
  0.005  
  0.000  
  0.010  
  0.010  
  0.025  
  0.030  
  0.050  
  0.055  
  0.075  
  0.080  
  0.080  
  0.080  
  0.075  
  0.060  
  0.045  
  0.035  
  0.015  
  0.005  
  0.000  
  0.000  
  0.000  
 -0.005  
  0.000  
 -0.005  
 -0.005  
  0.000  
  0.000  
  0.000  
  0.005  
  0.005  
  0.000  
  0.010  
  0.005  
  0.005  
  0.005  
  0.010  
  0.015  
  0.005  
  0.005  
  0.010  
  0.015  
  0.010  
  0.015  
  0.015  
  0.020  
  0.025  
  0.025  
  0.020  
  0.040  
  0.025  
  0.035  
  0.030  
  0.040  
  0.035  
  0.035  
  0.035  
  0.030  
  0.030  
  0.020  
  0.000  
  0.010  
  0.000  
  0.000  
  0.030  
  0.065  
  0.035  
  0.040  
  0.030  
  0.035  
  0.020  
  0.025  
  0.015  
  0.060  
  0.060  
  0.335  
  0.085  
 -0.470  
 -0.415  
 -0.255  
 -0.010  
 -0.020  
 -0.020  
  0.005  
 -0.015  
 -0.005  
  0.010  
 -0.100  
 -0.080  
 -0.050  
 -0.075  
 -0.035  
 -0.025  
  0.020  
  0.000  
 -0.020  
  0.015  
 -0.015  
  0.015  
 -0.025  
  0.045  
 -0.015  
 -0.030  
 -0.005  
 -0.035  
  0.080  
  0.165  
  0.065  
 -0.070  
 -0.250  
 -0.405  
 -0.265  
 -0.215  
 -0.115  
 -0.080  
 -0.090  
 -0.015  
 -0.010  
 -0.040  
 -0.005  
  0.005  
  0.020  
  0.000  
  0.000  
  0.030  
  0.025  
  0.015  
  0.020  
  0.005  
 -0.010  
 -0.010  
 -0.005  
  0.005  
  0.025  
  0.025  
  0.035  
  0.040  
  0.035  
  0.055  
  0.045  
  0.030  
  0.030  
  0.030  
  0.030  
  0.045  
  0.050  
  0.075  
  0.030  
  0.025  
  0.020  
  0.010  
  0.005  
  0.005  
  0.000  
  0.025  
  0.015  
  0.320  
  0.220  
 -0.340  
 -0.425  
 -0.290  
 -0.045  
 -0.045  
 -0.035  
 -0.020  
 -0.010  
 -0.005  
  0.000  
  0.005  
  0.000  
  0.015  
  0.010  
  0.025  
  0.030  
  0.040  
  0.040  
  0.065  
  0.080  
  0.090  
  0.090  
  0.105  
  0.120  
  0.135  
  0.125  
  0.120  
  0.105  
  0.085  
  0.065  
  0.045  
  0.025  
  0.035  
  0.025  
  0.020  
  0.015  
  0.015  
  0.040  
  0.030  
  0.035  
  0.030  
  0.035  
  0.030  
  0.035  
  0.040  
  0.040  
  0.035  
  0.035  
  0.025  
  0.020  
  0.030  
  0.030  
  0.040  
  0.030  
  0.035  
  0.035  
  0.045  
  0.020  
  0.020  
  0.015  
  0.010  
  0.020  
  0.040  
  0.075  
  0.045  
  0.050  
  0.050  
  0.030  
  0.050  
  0.030  
  0.045  
  0.065  
  0.065  
  0.320  
  0.280  
 -0.305  
 -0.405  
 -0.300  
 -0.015  
 -0.030  
  0.020  
  0.015  
 -0.055  
 -0.135  
 -0.225  
 -0.255  
 -0.155  
  0.200  
  0.180  
 -0.485  
 -1.040  
 -0.355  
  0.335  
  0.555  
  0.330  
  0.230  
  0.130  
  0.090  
  0.105  
  0.115  
  0.000  
  0.080  
  0.230  
  0.140  
 -0.065  
  0.230  
  0.080  
 -0.105  
 -0.285  
  0.215  
  0.130  
 -0.130  
 -0.050  
 -0.010  
  0.200  
 -0.060  
  0.035  
  0.040  
  0.115  
 -0.110  
 -0.070  
  0.130  
 -0.040  
 -0.100  
  0.025  
 -0.190  
 -0.145  
  0.080  
 -0.020  
 -0.020  
  0.010  
 -0.170  
 -0.045  
 -0.240  
  0.020  
  0.035  
  0.000  
 -0.160  
  0.030  
  0.115  
 -0.115  
 -0.105  
 -0.025  
  0.010  
  0.005  
  0.070  
  0.310  
  0.070  
 -0.510  
 -0.425  
 -0.255  
 -0.030  
  0.015  
 -0.040  
 -0.025  
  0.020  
  0.100  
  0.060  
  0.020  
  0.020  
  0.010  
 -0.190  
  0.025  
  0.185  
  0.080  
  0.130  
  0.145  
  0.080  
 -0.135  
  0.010  
 -0.080  
  0.075  
  0.235  
  0.320  
  0.235  
  0.155  
  0.035  
 -0.025  
  0.035  
  0.000  
 -0.110  
  0.070  
  0.080  
 -0.005  
 -0.130  
  0.010  
  0.005  
 -0.080  
 -0.035  
 -0.060  
  0.135  
  0.075  
  0.020  
  0.000  
  0.010  
 -0.005  
 -0.030  
 -0.065  
 -0.050  
 -0.055  
 -0.070  
 -0.080  
 -0.030  
  0.010  
  0.000  
  0.000  
  0.000  
  0.000  
  0.000  
  0.000  
 -0.010  
 -0.005  
  0.035  
  0.145  
  0.345  
  0.010  
 -0.415  
 -0.420  
 -0.180  
 -0.025  
 -0.035  
 -0.020  
 -0.015  
 -0.005  
 -0.005  
 -0.005  
  0.000  
  0.000  
  0.005  
  0.005  
  0.010  
  0.020  
  0.025  
  0.035  
  0.040  
  0.055  
  0.075  
  0.090  
  0.100  
  0.105  
  0.105  
  0.105  
  0.095  
  0.070  
  0.050  
  0.030  
  0.015  
  0.000  
  0.000  
  0.000  
  0.000  
  0.000  
  0.005  
  0.005  
  0.000  
  0.010  
  0.005  
  0.005  
  0.005  
  0.005  
  0.005  
  0.005  
 -0.020  
 -0.020  
 -0.075  
 -0.060  
 -0.065  
 -0.065  
 -0.005  
  0.005  
  0.000  
  0.000  
 -0.005  
 -0.005  
 -0.010  
 -0.010  
 -0.010  
  0.000  
  0.010  
  0.230  
  0.250  
 -0.230  
 -0.430  
 -0.355  
 -0.130  
 -0.050  
 -0.055  
 -0.035  
 -0.035  
 -0.025  
 -0.025  
 -0.020  
 -0.020  
 -0.015  
 -0.020  
 -0.015  
 -0.005  
  0.000  
 -0.005  
  0.010  
  0.015  
  0.025  
  0.040  
  0.060  
  0.065  
  0.070  
  0.065  
  0.060  
  0.045  
  0.030  
  0.000  
 -0.020  
 -0.035  
 -0.045  
 -0.050  
 -0.055  
 -0.045  
 -0.035  
 -0.040  
 -0.040  
 -0.035  
 -0.040  
 -0.025  
 -0.045  
 -0.045  
 -0.065  
 -0.060  
 -0.120  
 -0.100  
 -0.115  
 -0.095  
 -0.055  
 -0.035  
 -0.045  
 -0.040  
 -0.045  
 -0.035  
 -0.045  
 -0.045  
 -0.035  
 -0.020  
  0.000  
  0.220  
  0.250  
 -0.265  
 -0.470  
 -0.415  
 -0.155  
 -0.045  
 -0.040  
 -0.020  
 -0.015  
  0.010  
  0.010  
  0.020  
  0.025  
  0.015  
  0.050  
  0.060  
  0.045  
  0.055  
  0.080  
  0.070  
  0.090  
  0.125  
  0.125  
  0.150  
  0.150  
  0.150  
  0.160  
  0.165  
  0.140  
  0.105  
  0.065  
  0.055  
  0.045  
  0.025  
  0.000  
  0.035  
  0.015  
  0.025  
  0.010  
  0.030  
  0.020  
  0.015  
  0.030  
 -0.020  
 -0.005  
 -0.060  
 -0.080  
 -0.080  
 -0.100  
 -0.055  
 -0.010  
 -0.010  
 -0.015  
  0.005  
  0.020  
 -0.025  
  0.010  
  0.000  
  0.000  
  0.040  
  0.085  
  0.280  
 -0.005  
 -0.515  
 -0.495  
 -0.235  
 -0.025  
 -0.020  
  0.005  
  0.015  
 -0.005  
  0.015  
  0.020  
  0.025  
  0.030  
  0.040  
  0.030  
  0.025  
  0.055  
  0.050  
  0.060  
  0.055  
  0.065  
  0.085  
  0.095  
  0.120  
  0.120  
  0.100  
  0.095  
  0.090  
  0.055  
  0.035  
  0.015  
 -0.010  
 -0.030  
 -0.010  
 -0.020  
 -0.040  
 -0.035  
 -0.015  
 -0.020  
  0.000  
 -0.035  
 -0.005  
 -0.020  
 -0.045  
 -0.020  
 -0.115  
 -0.120  
 -0.105  
 -0.085  
 -0.065  
  0.005  
  0.005  
  0.000  
  0.000  
  0.020  
  0.025  
  0.030  
 -0.010  
  0.050  
  0.045  
  0.185  
  0.095  
 -0.440  
 -0.470  
 -0.350  
 -0.140  
 -0.010  
 -0.020  
 -0.005  
 -0.005  
  0.050  
  0.040  
  0.065  
  0.025  
  0.005  
  0.020  
  0.050  
  0.040  
  0.020  
  0.075  
  0.050  
  0.105  
  0.075  
  0.120  
  0.095  
  0.090  
  0.120  
  0.080  
  0.080  
  0.075  
  0.075  
  0.035  
  0.010  
 -0.010  
  0.035  
  0.015  
  0.035  
  0.005  
 -0.020  
  0.020  
  0.015  
  0.005  
  0.025  
  0.020  
  0.005  
  0.015  
  0.000  
 -0.005  
 -0.020  
 -0.075  
 -0.080  
 -0.090  
 -0.105  
 -0.060  
  0.005  
  0.040  
  0.010  
  0.005  
  0.030  
  0.015  
  0.055  
  0.030  
  0.060  
  0.050  
  0.140  
 -0.060  
 -0.555  
 -0.475  
 -0.310  
 -0.065  
 -0.020  
 -0.025  
  0.035  
  0.015  
  0.030  
  0.000  
  0.005  
 -0.005  
  0.000  
  0.040  
  0.025  
  0.015  
  0.010  
  0.050  
  0.065  
  0.050  
  0.065  
  0.070  
  0.095  
  0.095  
  0.120  
  0.095  
  0.100  
  0.040  
  0.055  
  0.030  
  0.010  
  0.010  
  0.010  
  0.025  
 -0.010  
  0.010  
  0.000  
  0.020  
  0.005  
  0.005  
  0.005  
 -0.005  
  0.015  
  0.010  
  0.015  
  0.020  
  0.015  
  0.020  
  0.035  
  0.000  
  0.015  
  0.040  
  0.020  
  0.015  
  0.030  
  0.045  
  0.030  
  0.020  
  0.020  
  0.015  
  0.025  
  0.040  
  0.010  
  0.000  
 -0.025  
 -0.045  
 -0.035  
 -0.035  
  0.000  
  0.025  
  0.020  
  0.035  
  0.005  
  0.025  
  0.035  
  0.050  
  0.035  
  0.045  
  0.035  
  0.195  
 -0.135  
 -0.650  
 -0.460  
 -0.255  
