6000.0
100.0
 -0.120  
 -0.120  
 -0.115  
 -0.105  
 -0.120  
 -0.125  
 -0.140  
 -0.135  
 -0.120  
 -0.095  
 -0.055  
 -0.045  
 -0.045  
 -0.035  
 -0.035  
 -0.045  
 -0.045  
 -0.045  
 -0.030  
 -0.185  
 -0.590  
 -1.105  
 -0.600  
  0.365  
  0.505  
  0.345  
  0.155  
  0.020  
 -0.030  
 -0.055  
 -0.065  
 -0.070  
 -0.080  
 -0.090  
 -0.080  
 -0.095  
 -0.110  
 -0.120  
 -0.125  
 -0.125  
 -0.140  
 -0.165  
 -0.180  
 -0.210  
 -0.240  
 -0.270  
 -0.295  
 -0.325  
 -0.345  
 -0.365  
 -0.370  
 -0.355  
 -0.315  
 -0.265  
 -0.200  
 -0.150  
 -0.100  
 -0.065  
 -0.045  
 -0.030  
 -0.020  
 -0.015  
 -0.010  
 -0.010  
 -0.005  
 -0.010  
 -0.010  
  0.000  
  0.000  
 -0.005  
  0.005  
  0.005  
 -0.005  
 -0.005  
  0.005  
  0.010  
  0.010  
  0.015  
  0.020  
  0.020  
  0.025  
  0.020  
  0.030  
  0.035  
  0.040  
  0.035  
  0.035  
  0.035  
  0.045  
  0.040  
  0.030  
  0.030  
  0.035  
  0.030  
  0.030  
  0.035  
  0.050  
  0.040  
  0.035  
  0.010  
 -0.015  
 -0.005  
  0.010  
  0.010  
 -0.015  
 -0.035  
 -0.020  
 -0.010  
 -0.015  
  0.020  
  0.045  
  0.060  
  0.065  
  0.050  
  0.060  
  0.050  
  0.030  
  0.085  
  0.045  
 -0.330  
 -0.945  
 -0.905  
 -0.035  
  0.470  
  0.465  
  0.345  
  0.150  
  0.055  
  0.010  
 -0.005  
 -0.025  
 -0.030  
 -0.030  
 -0.040  
 -0.040  
 -0.035  
 -0.045  
 -0.055  
 -0.070  
 -0.095  
 -0.105  
 -0.120  
 -0.145  
 -0.165  
 -0.185  
 -0.210  
 -0.240  
 -0.260  
 -0.275  
 -0.280  
 -0.285  
 -0.265  
 -0.225  
 -0.175  
 -0.135  
 -0.090  
 -0.060  
 -0.045  
 -0.025  
 -0.025  
 -0.025  
 -0.030  
 -0.025  
 -0.030  
 -0.025  
 -0.025  
 -0.025  
 -0.020  
 -0.030  
 -0.030  
 -0.025  
 -0.030  
 -0.030  
 -0.025  
 -0.010  
 -0.015  
 -0.025  
 -0.025  
 -0.015  
 -0.025  
 -0.025  
 -0.020  
 -0.020  
 -0.025  
 -0.010  
 -0.020  
 -0.010  
 -0.015  
 -0.020  
 -0.020  
 -0.020  
 -0.015  
 -0.015  
 -0.025  
 -0.025  
 -0.025  
 -0.025  
 -0.055  
 -0.075  
 -0.065  
 -0.060  
 -0.065  
 -0.065  
 -0.080  
 -0.080  
 -0.080  
 -0.055  
 -0.030  
 -0.010  
  0.005  
  0.005  
  0.005  
 -0.005  
 -0.010  
 -0.015  
 -0.025  
 -0.235  
 -0.740  
 -1.285  
 -0.655  
  0.395  
  0.550  
  0.365  
  0.140  
  0.015  
 -0.025  
 -0.050  
 -0.065  
 -0.065  
 -0.070  
 -0.070  
 -0.075  
 -0.080  
 -0.095  
 -0.115  
 -0.125  
 -0.140  
 -0.145  
 -0.165  
 -0.185  
 -0.220  
 -0.265  
 -0.305  
 -0.345  
 -0.380  
 -0.400  
 -0.425  
 -0.420  
 -0.405  
 -0.355  
 -0.290  
 -0.225  
 -0.165  
 -0.115  
 -0.085  
 -0.070  
 -0.055  
 -0.050  
 -0.040  
 -0.045  
 -0.045  
 -0.035  
 -0.045  
 -0.050  
 -0.055  
 -0.045  
 -0.040  
 -0.045  
 -0.040  
 -0.045  
 -0.040  
 -0.050  
 -0.040  
 -0.035  
 -0.035  
 -0.030  
 -0.025  
 -0.030  
 -0.030  
 -0.025  
 -0.025  
 -0.025  
 -0.020  
 -0.015  
 -0.015  
 -0.015  
 -0.025  
 -0.015  
 -0.010  
 -0.015  
 -0.005  
  0.000  
  0.005  
 -0.005  
  0.000  
 -0.005  
 -0.030  
 -0.045  
 -0.040  
 -0.040  
 -0.035  
 -0.035  
 -0.050  
 -0.045  
 -0.030  
 -0.020  
  0.025  
  0.040  
  0.055  
  0.045  
  0.045  
  0.035  
  0.035  
  0.035  
  0.025  
 -0.170  
 -0.645  
 -1.175  
 -0.570  
  0.475  
  0.635  
  0.420  
  0.195  
  0.065  
  0.020  
  0.005  
  0.000  
 -0.010  
 -0.020  
 -0.025  
 -0.035  
 -0.045  
 -0.050  
 -0.060  
 -0.070  
 -0.080  
 -0.105  
 -0.115  
 -0.140  
 -0.165  
 -0.195  
 -0.235  
 -0.270  
 -0.310  
 -0.340  
 -0.355  
 -0.360  
 -0.340  
 -0.295  
 -0.230  
 -0.170  
 -0.110  
 -0.060  
 -0.030  
 -0.015  
 -0.005  
  0.005  
  0.005  
  0.005  
  0.015  
  0.015  
  0.015  
  0.025  
  0.025  
  0.020  
  0.025  
  0.015  
  0.015  
  0.010  
 -0.010  
 -0.015  
 -0.025  
 -0.020  
 -0.025  
 -0.025  
 -0.035  
 -0.040  
 -0.040  
 -0.045  
 -0.045  
 -0.045  
 -0.045  
 -0.045  
 -0.045  
 -0.035  
 -0.040  
 -0.045  
 -0.040  
 -0.040  
 -0.040  
 -0.045  
 -0.045  
 -0.045  
 -0.035  
 -0.040  
 -0.045  
 -0.070  
 -0.080  
 -0.065  
 -0.075  
 -0.075  
 -0.080  
 -0.075  
 -0.080  
 -0.080  
 -0.055  
 -0.020  
 -0.005  
  0.005  
  0.005  
  0.010  
  0.010  
 -0.005  
  0.005  
 -0.005  
 -0.210  
 -0.685  
 -1.170  
 -0.450  
  0.530  
  0.580  
  0.375  
  0.150  
  0.050  
  0.010  
 -0.010  
 -0.025  
 -0.035  
 -0.035  
 -0.040  
 -0.045  
 -0.055  
 -0.060  
 -0.065  
 -0.065  
 -0.075  
 -0.090  
 -0.110  
 -0.125  
 -0.155  
 -0.190  
 -0.230  
 -0.265  
 -0.290  
 -0.310  
 -0.315  
 -0.325  
 -0.295  
 -0.260  
 -0.205  
 -0.140  
 -0.090  
 -0.050  
 -0.020  
  0.010  
  0.015  
  0.015  
  0.015  
  0.025  
  0.030  
  0.035  
  0.035  
  0.030  
  0.030  
  0.030  
  0.035  
  0.030  
  0.035  
  0.035  
  0.035  
  0.035  
  0.035  
  0.035  
  0.040  
  0.050  
  0.050  
  0.045  
  0.045  
  0.045  
  0.050  
  0.055  
  0.055  
  0.055  
  0.060  
  0.055  
  0.065  
  0.065  
  0.060  
  0.060  
  0.065  
  0.080  
  0.065  
  0.065  
  0.065  
  0.070  
  0.065  
  0.045  
  0.025  
  0.020  
  0.035  
  0.035  
  0.025  
  0.020  
  0.025  
  0.010  
  0.030  
  0.055  
  0.085  
  0.085  
  0.090  
  0.095  
  0.095  
  0.095  
  0.085  
  0.105  
  0.060  
 -0.190  
 -0.690  
 -0.980  
 -0.145  
  0.680  
  0.600  
  0.410  
  0.195  
  0.105  
  0.065  
  0.050  
  0.035  
  0.025  
  0.020  
  0.015  
  0.010  
 -0.005  
 -0.005  
 -0.015  
 -0.025  
 -0.045  
 -0.060  
 -0.080  
 -0.095  
 -0.125  
 -0.160  
 -0.185  
 -0.215  
 -0.240  
 -0.260  
 -0.270  
 -0.265  
 -0.240  
 -0.205  
 -0.150  
 -0.090  
 -0.050  
 -0.015  
  0.015  
  0.035  
  0.055  
  0.065  
  0.065  
  0.055  
  0.065  
  0.080  
  0.085  
  0.080  
  0.065  
  0.070  
  0.070  
  0.080  
  0.075  
  0.090  
  0.090  
  0.105  
  0.100  
  0.095  
  0.090  
  0.105  
  0.100  
  0.110  
  0.105  
  0.105  
  0.115  
  0.120  
  0.115  
  0.120  
  0.130  
  0.125  
  0.130  
  0.125  
  0.115  
  0.115  
  0.125  
  0.130  
  0.130  
  0.125  
  0.110  
  0.095  
  0.080  
  0.090  
  0.105  
  0.095  
  0.075  
  0.065  
  0.085  
  0.085  
  0.095  
  0.125  
  0.140  
  0.145  
  0.150  
  0.145  
  0.135  
  0.140  
  0.140  
  0.180  
  0.140  
 -0.175  
 -0.755  
 -0.820  
 -0.025  
  0.560  
  0.570  
  0.460  
  0.265  
  0.190  
  0.135  
  0.105  
  0.100  
  0.095  
  0.085  
  0.085  
  0.080  
  0.080  
  0.080  
  0.080  
  0.060  
  0.040  
  0.020  
  0.005  
 -0.010  
 -0.040  
 -0.060  
 -0.085  
 -0.120  
 -0.135  
 -0.145  
 -0.145  
 -0.155  
 -0.135  
 -0.100  
 -0.060  
 -0.015  
  0.025  
  0.070  
  0.085  
  0.105  
  0.115  
  0.130  
  0.130  
  0.125  
  0.120  
  0.115  
  0.115  
  0.115  
  0.115  
  0.105  
  0.115  
  0.115  
  0.125  
  0.125  
  0.120  
  0.125  
  0.115  
  0.130  
  0.130  
  0.125  
  0.130  
  0.130  
  0.130  
  0.135  
  0.135  
  0.125  
  0.125  
  0.125  
  0.125  
  0.095  
  0.070  
  0.065  
  0.070  
  0.050  
  0.025  
  0.025  
  0.030  
  0.045  
  0.080  
  0.100  
  0.135  
  0.145  
  0.145  
  0.140  
  0.135  
  0.130  
  0.115  
  0.140  
  0.025  
 -0.400  
 -1.005  
 -0.815  
  0.150  
  0.610  
  0.560  
  0.385  
  0.195  
  0.125  
  0.095  
  0.070  
  0.055  
  0.055  
  0.045  
  0.035  
  0.025  
  0.010  
  0.000  
 -0.015  
 -0.025  
 -0.040  
 -0.060  
 -0.080  
 -0.110  
 -0.150  
 -0.185  
 -0.215  
 -0.250  
 -0.275  
 -0.300  
 -0.310  
 -0.285  
 -0.255  
 -0.200  
 -0.135  
 -0.075  
 -0.030  
  0.005  
  0.030  
  0.045  
  0.065  
  0.065  
  0.055  
  0.060  
  0.055  
  0.055  
  0.050  
  0.050  
  0.050  
  0.045  
  0.040  
  0.035  
  0.030  
  0.035  
  0.040  
  0.045  
  0.045  
  0.045  
  0.040  
  0.050  
  0.035  
  0.045  
  0.045  
  0.045  
  0.040  
  0.035  
  0.040  
  0.035  
  0.035  
  0.045  
  0.040  
  0.045  
  0.040  
  0.035  
  0.035  
  0.000  
 -0.015  
  0.005  
  0.005  
 -0.010  
  0.000  
 -0.020  
 -0.030  
 -0.015  
  0.005  
  0.040  
  0.050  
  0.055  
  0.050  
  0.055  
  0.045  
  0.040  
  0.050  
  0.005  
 -0.255  
 -0.785  
 -1.215  
 -0.370  
  0.590  
  0.565  
  0.365  
  0.155  
  0.055  
  0.025  
  0.005  
 -0.005  
 -0.020  
 -0.020  
 -0.040  
 -0.045  
 -0.045  
 -0.045  
 -0.070  
 -0.075  
 -0.085  
 -0.100  
 -0.120  
 -0.145  
 -0.185  
 -0.220  
 -0.260  
 -0.295  
 -0.330  
 -0.350  
 -0.375  
 -0.365  
 -0.340  
 -0.285  
 -0.225  
 -0.160  
 -0.100  
 -0.060  
 -0.025  
 -0.010  
 -0.005  
  0.010  
  0.015  
  0.015  
  0.015  
  0.025  
  0.020  
  0.020  
  0.025  
  0.020  
  0.020  
  0.025  
  0.030  
  0.020  
  0.030  
  0.025  
  0.030  
  0.030  
  0.040  
  0.045  
  0.050  
  0.045  
  0.035  
  0.045  
  0.050  
  0.050  
  0.050  
  0.050  
  0.055  
  0.065  
  0.065  
  0.060  
  0.070  
  0.065  
  0.060  
  0.035  
  0.010  
  0.015  
  0.035  
  0.030  
  0.020  
  0.015  
  0.005  
  0.005  
  0.025  
  0.065  
  0.080  
  0.085  
  0.090  
  0.090  
  0.080  
  0.070  
  0.065  
  0.085  
 -0.025  
 -0.400  
 -0.950  
 -0.790  
  0.195  
  0.695  
  0.520  
  0.320  
  0.135  
  0.080  
  0.045  
  0.035  
  0.025  
  0.005  
 -0.005  
 -0.005  
 -0.005  
 -0.015  
 -0.020  
 -0.030  
 -0.035  
 -0.050  
 -0.070  
 -0.080  
 -0.105  
 -0.140  
 -0.180  
 -0.220  
 -0.260  
 -0.280  
 -0.285  
 -0.305  
 -0.285  
 -0.245  
 -0.210  
 -0.140  
 -0.080  
 -0.025  
  0.015  
  0.045  
  0.065  
  0.080  
  0.080  
  0.080  
  0.080  
  0.075  
  0.080  
  0.090  
  0.095  
  0.085  
  0.065  
  0.070  
  0.075  
  0.090  
  0.085  
  0.095  
  0.085  
  0.090  
  0.095  
  0.095  
  0.090  
  0.085  
  0.095  
  0.110  
  0.110  
  0.105  
  0.105  
  0.100  
  0.105  
  0.110  
  0.110  
  0.105  
  0.110  
  0.110  
  0.105  
  0.090  
  0.080  
  0.080  
  0.100  
  0.080  
  0.045  
  0.040  
  0.060  
  0.070  
  0.065  
  0.090  
  0.105  
  0.115  
  0.125  
  0.135  
  0.135  
  0.120  
  0.115  
  0.140  
  0.155  
 -0.010  
 -0.515  
 -1.090  
 -0.515  
  0.405  
  0.560  
  0.510  
  0.330  
  0.190  
  0.135  
  0.095  
  0.085  
  0.080  
  0.080  
  0.070  
  0.060  
  0.055  
  0.050  
  0.045  
  0.030  
  0.015  
  0.005  
 -0.005  
 -0.010  
 -0.050  
 -0.080  
 -0.110  
 -0.120  
 -0.155  
 -0.165  
 -0.185  
 -0.190  
 -0.170  
 -0.150  
 -0.110  
 -0.075  
 -0.015  
  0.035  
  0.065  
  0.085  
  0.095  
  0.085  
  0.095  
  0.105  
  0.110  
  0.105  
  0.100  
  0.100  
  0.105  
  0.085  
  0.085  
  0.095  
  0.095  
  0.105  
  0.100  
  0.105  
  0.095  
  0.105  
  0.095  
  0.100  
  0.095  
  0.095  
  0.105  
  0.110  
  0.115  
  0.105  
  0.110  
  0.120  
  0.115  
  0.095  
  0.095  
  0.080  
  0.055  
  0.075  
  0.080  
  0.050  
  0.035  
  0.025  
  0.030  
  0.035  
  0.050  
  0.085  
  0.100  
  0.100  
  0.100  
  0.105  
  0.105  
  0.100  
  0.090  
  0.130  
  0.035  
 -0.355  
 -0.945  
 -1.005  
 -0.105  
  0.575  
  0.545  
  0.410  
  0.195  
  0.110  
  0.060  
  0.055  
  0.035  
  0.040  
  0.030  
  0.015  
  0.000  
 -0.005  
 -0.010  
 -0.025  
 -0.035  
 -0.055  
 -0.070  
 -0.090  
 -0.125  
 -0.165  
 -0.195  
 -0.240  
 -0.275  
 -0.300  
 -0.315  
 -0.330  
 -0.315  
 -0.275  
 -0.225  
 -0.155  
 -0.095  
 -0.050  
 -0.020  
  0.010  
  0.020  
  0.040  
  0.035  
  0.045  
  0.045  
  0.050  
  0.050  
  0.055  
  0.050  
  0.050  
  0.055  
  0.050  
  0.050  
  0.040  
  0.040  
  0.050  
  0.050  
  0.050  
  0.045  
  0.045  
  0.055  
  0.050  
  0.050  
  0.050  
  0.055  
  0.055  
  0.050  
  0.050  
  0.055  
  0.050  
  0.050  
  0.060  
  0.065  
  0.065  
  0.060  
  0.040  
  0.015  
  0.015  
  0.030  
  0.015  
  0.015  
  0.010  
  0.005  
 -0.010  
 -0.005  
  0.035  
  0.045  
  0.060  
  0.060  
  0.065  
  0.065  
  0.055  
  0.045  
  0.065  
 -0.005  
 -0.315  
 -0.875  
 -1.135  
 -0.200  
  0.655  
  0.535  
  0.335  
  0.135  
  0.075  
  0.045  
  0.030  
  0.015  
  0.010  
  0.005  
 -0.005  
 -0.015  
 -0.025  
 -0.035  
 -0.045  
 -0.050  
 -0.065  
 -0.080  
 -0.105  
 -0.135  
 -0.170  
 -0.210  
 -0.240  
 -0.295  
 -0.325  
 -0.350  
 -0.365  
 -0.360  
 -0.330  
 -0.275  
 -0.205  
 -0.135  
 -0.070  
 -0.025  
 -0.005  
  0.005  
  0.015  
  0.025  
  0.025  
  0.025  
  0.030  
  0.030  
  0.035  
  0.040  
  0.040  
  0.035  
  0.040  
  0.035  
  0.035  
  0.035  
  0.040  
  0.035  
  0.040  
  0.040  
  0.045  
  0.045  
  0.050  
  0.055  
  0.055  
  0.050  
  0.055  
  0.055  
  0.050  
  0.050  
  0.055  
  0.060  
  0.055  
  0.055  
  0.055  
  0.055  
  0.055  
  0.065  
  0.055  
  0.035  
  0.010  
  0.005  
  0.025  
  0.015  
  0.015  
  0.005  
  0.005  
 -0.005  
  0.005  
  0.045  
  0.070  
  0.080  
  0.080  
  0.080  
  0.075  
  0.060  
  0.055  
  0.070  
  0.015  
 -0.295  
 -0.835  
 -1.065  
 -0.135  
  0.675  
  0.535  
  0.325  
  0.140  
  0.070  
  0.040  
  0.025  
  0.015  
  0.000  
 -0.005  
 -0.015  
 -0.020  
 -0.030  
 -0.035  
 -0.050  
 -0.045  
 -0.060  
 -0.080  
 -0.105  
 -0.130  
 -0.165  
 -0.205  
 -0.240  
 -0.275  
 -0.310  
 -0.325  
 -0.345  
 -0.335  
 -0.310  
 -0.255  
 -0.195  
 -0.125  
 -0.075  
 -0.025  
 -0.005  
  0.015  
  0.025  
  0.030  
  0.035  
  0.035  
  0.035  
  0.040  
  0.045  
  0.050  
  0.040  
  0.050  
  0.050  
  0.040  
  0.040  
  0.040  
  0.040  
  0.055  
  0.055  
  0.060  
  0.055  
  0.060  
  0.055  
  0.060  
  0.055  
  0.055  
  0.050  
  0.060  
  0.065  
  0.065  
  0.065  
  0.070  
  0.070  
  0.070  
  0.065  
  0.065  
  0.060  
  0.065  
  0.060  
  0.065  
  0.060  
  0.035  
  0.020  
  0.035  
  0.040  
  0.035  
  0.025  
  0.025  
  0.015  
  0.025  
  0.025  
  0.075  
  0.085  
  0.095  
  0.095  
  0.095  
  0.095  
  0.095  
  0.095  
  0.110  
  0.005  
 -0.345  
 -0.880  
 -0.735  
  0.190  
  0.660  
  0.525  
  0.350  
  0.165  
  0.110  
  0.080  
  0.065  
  0.050  
  0.045  
  0.040  
  0.045  
  0.040  
  0.040  
  0.020  
  0.030  
  0.020  
  0.000  
 -0.025  
 -0.030  
 -0.065  
 -0.095  
 -0.135  
 -0.165  
 -0.190  
 -0.210  
 -0.230  
 -0.235  
 -0.235  
 -0.190  
 -0.145  
 -0.080  
 -0.025  
  0.030  
  0.065  
  0.090  
  0.100  
  0.120  
  0.115  
  0.135  
  0.130  
  0.130  
  0.120  
  0.125  
  0.110  
  0.110  
  0.110  
  0.125  
  0.125  
  0.120  
  0.115  
  0.125  
  0.130  
  0.145  
  0.145  
  0.150  
  0.145  
  0.155  
  0.155  
  0.155  
  0.145  
  0.150  
  0.145  
  0.170  
  0.175  
  0.175  
  0.165  
  0.170  
  0.155  
  0.165  
  0.145  
  0.140  
  0.135  
  0.155  
  0.130  
  0.110  
  0.090  
  0.110  
  0.115  
  0.130  
  0.155  
  0.190  
  0.190  
  0.200  
  0.210  
  0.205  
  0.190  
  0.190  
  0.225  
  0.235  
 -0.030  
 -0.585  
 -0.945  
 -0.255  
  0.535  
  0.630  
  0.560  
  0.350  
  0.240  
  0.205  
  0.165  
  0.165  
  0.140  
  0.135  
  0.145  
  0.150  
  0.120  
  0.130  
  0.130  
  0.120  
  0.095  
  0.085  
  0.070  
  0.060  
  0.035  
  0.015  
 -0.015  
 -0.040  
 -0.075  
 -0.075  
 -0.105  
 -0.090  
 -0.080  
 -0.050  
 -0.010  
  0.045  
  0.085  
  0.135  
  0.160  
  0.170  
  0.175  
  0.190  
  0.185  
  0.195  
  0.180  
  0.185  
  0.185  
  0.185  
  0.175  
  0.185  
  0.185  
  0.195  
  0.195  
  0.195  
  0.185  
  0.200  
  0.200  
  0.210  
  0.200  
  0.205  
  0.205  
  0.210  
  0.200  
  0.205  
  0.195  
  0.195  
  0.195  
  0.170  
  0.140  
  0.130  
  0.135  
  0.135  
  0.105  
  0.110  
  0.110  
  0.120  
  0.130  
  0.185  
  0.195  
  0.205  
  0.210  
  0.220  
  0.205  
  0.205  
  0.190  
  0.220  
  0.140  
 -0.210  
 -0.795  
 -0.995  
 -0.110  
  0.675  
  0.645  
  0.500  
  0.300  
  0.210  
  0.165  
  0.145  
  0.140  
  0.130  
  0.115  
  0.110  
  0.095  
  0.095  
  0.080  
  0.065  
  0.045  
  0.040  
  0.025  
  0.005  
 -0.035  
 -0.075  
 -0.120  
 -0.145  
 -0.200  
 -0.230  
 -0.255  
 -0.250  
 -0.240  
 -0.205  
 -0.150  
 -0.075  
 -0.015  
  0.050  
  0.085  
  0.105  
  0.115  
  0.130  
  0.130  
  0.125  
  0.125  
  0.140  
  0.130  
  0.135  
  0.125  
  0.125  
  0.125  
  0.125  
  0.120  
  0.125  
  0.115  
  0.130  
  0.125  
  0.135  
  0.130  
  0.140  
  0.125  
  0.130  
  0.125  
  0.135  
  0.130  
  0.135  
  0.130  
  0.130  
  0.130  
  0.130  
  0.125  
  0.135  
  0.135  
  0.120  
  0.085  
  0.080  
  0.080  
  0.095  
  0.080  
  0.085  
  0.070  
  0.065  
  0.055  
  0.075  
  0.115  
  0.130  
  0.135  
  0.145  
  0.125  
  0.130  
  0.115  
  0.115  
  0.115  
 -0.010  
 -0.430  
 -0.990  
 -0.785  
  0.255  
  0.755  
  0.540  
  0.310  
  0.180  
  0.120  
  0.105  
  0.080  
  0.070  
  0.060  
  0.060  
  0.045  
  0.050  
  0.040  
  0.040  
  0.020  
  0.015  
 -0.005  
 -0.020  
 -0.050  
 -0.075  
 -0.115  
 -0.165  
 -0.215  
 -0.240  
 -0.285  
 -0.300  
 -0.315  
 -0.300  
 -0.265  
 -0.195  
 -0.130  
 -0.065  
 -0.010  
  0.035  
  0.055  
  0.065  
  0.070  
  0.080  
  0.080  
  0.085  
  0.085  
  0.095  
  0.090  
  0.085  
  0.080  
  0.085  
  0.080  
  0.080  
  0.075  
  0.070  
  0.065  
  0.075  
  0.075  
  0.080  
  0.070  
  0.080  
  0.075  
  0.065  
  0.065  
  0.055  
  0.065  
  0.075  
  0.080  
  0.075  
  0.065  
  0.080  
  0.080  
  0.080  
  0.075  
  0.075  
  0.035  
  0.020  
  0.030  
  0.045  
  0.035  
  0.030  
  0.025  
  0.010  
 -0.005  
  0.020  
  0.055  
  0.080  
  0.085  
  0.090  
  0.080  
  0.085  
  0.070  
  0.065  
  0.090  
 -0.015  
 -0.400  
 -0.960  
 -0.845  
  0.165  
  0.715  
  0.485  
  0.260  
  0.115  
  0.055  
  0.040  
  0.025  
  0.015  
  0.005  
  0.005  
 -0.005  
 -0.005  
 -0.015  
 -0.025  
 -0.040  
 -0.045  
 -0.060  
 -0.065  
 -0.095  
 -0.125  
 -0.170  
 -0.205  
 -0.250  
 -0.285  
 -0.320  
 -0.335  
 -0.340  
 -0.330  
 -0.295  
 -0.235  
 -0.170  
 -0.110  
 -0.060  
 -0.015  
  0.005  
  0.010  
  0.015  
  0.015  
  0.010  
  0.015  
  0.020  
  0.030  
  0.020  
  0.020  
  0.020  
  0.030  
  0.025  
  0.040  
  0.030  
  0.035  
  0.030  
  0.025  
  0.025  
  0.045  
  0.035  
  0.040  
  0.035  
  0.045  
  0.055  
  0.040  
  0.045  
  0.055  
  0.050  
  0.055  
  0.045  
  0.050  
  0.045  
  0.055  
  0.055  
  0.055  
  0.060  
  0.060  
  0.055  
  0.025  
  0.000  
  0.020  
  0.030  
  0.030  
  0.025  
  0.020  
  0.010  
  0.015  
  0.025  
  0.060  
  0.080  
  0.095  
  0.105  
  0.100  
  0.095  
  0.080  
  0.080  
  0.105  
  0.025  
 -0.310  
 -0.830  
 -0.745  
  0.145  
  0.635  
  0.515  
  0.350  
  0.180  
  0.110  
  0.060  
  0.050  
  0.035  
  0.045  
  0.025  
  0.025  
  0.010  
  0.005  
  0.010  
  0.005  
 -0.010  
 -0.020  
 -0.030  
 -0.045  
 -0.080  
 -0.115  
 -0.155  
 -0.185  
 -0.230  
 -0.245  
 -0.260  
 -0.260  
 -0.265  
 -0.225  
 -0.180  
 -0.125  
 -0.065  
 -0.015  
  0.015  
  0.060  
  0.085  
  0.090  
  0.095  
  0.095  
  0.080  
  0.090  
  0.090  
  0.110  
  0.095  
  0.095  
  0.085  
  0.090  
  0.090  
  0.095  
  0.095  
  0.095  
  0.100  
  0.105  
  0.105  
  0.115  
  0.115  
  0.110  
  0.105  
  0.125  
  0.130  
  0.130  
  0.130  
  0.125  
  0.135  
  0.135  
  0.145  
  0.155  
  0.135  
  0.115  
  0.095  
  0.115  
  0.115  
  0.095  
  0.080  
  0.065  
  0.070  
  0.070  
  0.070  
  0.105  
  0.145  
  0.155  
  0.150  
  0.145  
  0.150  
  0.155  
  0.140  
  0.165  
  0.190  
  0.015  
 -0.525  
 -1.090  
 -0.490  
  0.420  
  0.575  
  0.530  
  0.350  
  0.205  
  0.140  
  0.115  
  0.100  
  0.095  
  0.085  
  0.090  
  0.085  
  0.075  
  0.070  
  0.060  
  0.055  
  0.035  
  0.030  
  0.015  
 -0.015  
 -0.030  
 -0.065  
 -0.080  
 -0.110  
 -0.130  
 -0.155  
 -0.160  
 -0.165  
 -0.155  
 -0.130  
 -0.085  
 -0.040  
  0.010  
  0.045  
  0.065  
  0.070  
  0.090  
  0.085  
  0.095  
  0.100  
  0.105  
  0.110  
  0.105  
  0.100  
  0.105  
  0.105  
  0.110  
  0.115  
  0.115  
  0.115  
  0.120  
  0.115  
  0.115  
  0.110  
  0.115  
  0.110  
  0.110  
  0.120  
  0.125  
  0.115  
  0.110  
  0.110  
  0.115  
  0.105  
  0.100  
  0.095  
  0.080  
  0.055  
  0.060  
  0.075  
  0.080  
  0.055  
  0.045  
  0.050  
  0.045  
  0.045  
  0.070  
  0.095  
  0.110  
  0.110  
  0.110  
  0.095  
  0.095  
  0.085  
  0.100  
  0.070  
 -0.185  
 -0.720  
 -1.225  
 -0.470  
  0.525  
  0.610  
  0.455  
  0.240  
  0.130  
  0.085  
  0.070  
  0.045  
  0.035  
  0.025  
  0.020  
  0.010  
 -0.005  
 -0.015  
 -0.015  
 -0.035  
 -0.050  
 -0.065  
 -0.080  
 -0.115  
 -0.145  
 -0.190  
 -0.240  
 -0.290  
 -0.315  
 -0.335  
 -0.350  
 -0.340  
 -0.310  
 -0.260  
 -0.200  
 -0.130  
 -0.075  
 -0.030  
  0.005  
  0.015  
  0.025  
  0.020  
  0.035  
  0.035  
  0.035  
  0.040  
  0.050  
  0.040  
  0.035  
  0.045  
  0.040  
  0.045  
  0.045  
  0.045  
  0.040  
  0.035  
  0.035  
  0.040  
  0.045  
  0.040  
  0.050  
  0.050  
  0.055  
  0.045  
  0.040  
  0.050  
  0.065  
  0.060  
  0.080  
  0.065  
  0.065  
  0.055  
  0.055  
  0.015  
  0.020  
  0.045  
  0.040  
  0.025  
  0.015  
  0.010  
 -0.005  
  0.010  
  0.050  
  0.075  
  0.090  
  0.085  
  0.095  
  0.095  
  0.095  
  0.075  
  0.085  
  0.045  
 -0.200  
 -0.725  
 -1.175  
 -0.355  
  0.635  
  0.600  
  0.390  
  0.180  
  0.100  
  0.065  
  0.045  
  0.035  
  0.020  
 -0.005  
 -0.005  
 -0.010  
 -0.010  
 -0.020  
 -0.035  
 -0.040  
 -0.050  
 -0.065  
 -0.080  
 -0.110  
 -0.140  
 -0.175  
 -0.220  
 -0.270  
 -0.310  
 -0.335  
 -0.355  
 -0.350  
 -0.325  
 -0.270  
 -0.210  
 -0.145  
 -0.080  
 -0.040  
  0.005  
  0.010  
  0.025  
  0.035  
  0.035  
  0.040  
  0.040  
  0.045  
  0.050  
  0.060  
  0.055  
  0.055  
  0.065  
  0.065  
  0.070  
  0.070  
  0.060  
  0.055  
  0.055  
  0.055  
  0.055  
  0.060  
  0.055  
  0.055  
  0.065  
  0.060  
  0.065  
  0.065  
  0.065  
  0.060  
  0.080  
  0.070  
  0.070  
  0.070  
  0.070  
  0.055  
  0.025  
  0.020  
  0.030  
  0.025  
  0.025  
  0.025  
  0.015  
  0.000  
  0.020  
  0.045  
  0.080  
  0.090  
  0.090  
  0.080  
  0.080  
  0.080  
  0.070  
  0.080  
  0.065  
 -0.145  
 -0.615  
 -1.115  
 -0.385  
  0.625  
  0.665  
  0.420  
  0.200  
  0.095  
  0.060  
  0.050  
  0.045  
  0.035  
  0.025  
  0.015  
  0.015  
  0.010  
 -0.005  
 -0.015  
 -0.020  
 -0.025  
 -0.035  
 -0.065  
 -0.075  
 -0.115  
 -0.155  
 -0.195  
 -0.235  
 -0.265  
 -0.295  
 -0.315  
 -0.310  
 -0.285  
 -0.240  
 -0.185  
 -0.105  
 -0.055  
 -0.010  
  0.015  
  0.040  
  0.065  
  0.065  
  0.080  
  0.060  
  0.065  
  0.080  
  0.090  
  0.085  
  0.085  
  0.085  
  0.080  
  0.095  
  0.095  
  0.090  
  0.095  
  0.095  
  0.090  
  0.095  
  0.110  
  0.100  
  0.110  
  0.100  
  0.110  
  0.115  
  0.105  
  0.105  
  0.120  
  0.120  
  0.100  
  0.095  
  0.120  
  0.100  
  0.100  
  0.085  
  0.085  
  0.105  
  0.085  
  0.055  
  0.055  
  0.075  
  0.080  
  0.075  
  0.090  
  0.120  
  0.145  
  0.145  
  0.135  
  0.130  
  0.130  
  0.125  
  0.140  
  0.175  
  0.015  
 -0.455  
 -1.040  
 -0.505  
  0.410  
  0.580  
  0.530  
  0.365  
  0.215  
  0.150  
  0.125  
  0.110  
  0.095  
  0.075  
  0.080  
  0.085  
  0.065  
  0.060  
  0.050  
  0.030  
  0.020  
  0.010  
 -0.010  
 -0.030  
 -0.040  
 -0.075  
 -0.105  
 -0.120  
 -0.155  
 -0.160  
 -0.175  
 -0.190  
 -0.175  
 -0.130  
 -0.090  
 -0.045  
  0.020  
  0.070  
  0.100  
  0.115  
  0.110  
  0.120  
  0.125  
  0.120  
  0.125  
  0.140  
  0.135  
  0.135  
  0.130  
  0.125  
  0.125  
  0.130  
  0.140  
  0.145  
  0.145  
  0.155  
  0.150  
  0.150  
  0.145  
  0.140  
  0.150  
  0.150  
  0.145  
  0.150  
  0.150  
  0.145  
  0.125  
  0.095  
  0.095  
  0.090  
  0.090  
  0.070  
  0.045  
  0.065  
  0.080  
  0.095  
  0.135  
  0.165  
  0.165  
  0.175  
  0.165  
  0.170  
  0.160  
  0.145  
  0.175  
  0.170  
 -0.090  
 -0.645  
 -1.105  
 -0.405  
  0.505  
  0.615  
  0.530  
  0.330  
  0.190  
  0.135  
  0.110  
  0.105  
  0.100  
  0.080  
  0.070  
  0.065  
  0.065  
  0.050  
  0.030  
  0.025  
  0.010  
 -0.005  
 -0.035  
 -0.060  
 -0.095  
 -0.130  
 -0.155  
 -0.195  
 -0.225  
 -0.255  
 -0.270  
 -0.265  
 -0.230  
 -0.185  
 -0.135  
 -0.065  
 -0.015  
  0.030  
  0.055  
  0.070  
  0.080  
  0.085  
  0.090  
  0.085  
  0.095  
  0.085  
  0.070  
  0.075  
  0.070  
  0.080  
  0.080  
  0.080  
  0.080  
  0.075  
  0.080  
  0.085  
  0.085  
  0.090  
  0.080  
  0.090  
  0.090  
  0.085  
  0.095  
  0.090  
  0.090  
  0.095  
  0.095  
  0.095  
  0.090  
  0.100  
  0.105  
  0.100  
  0.085  
  0.050  
  0.050  
  0.065  
  0.060  
  0.060  
  0.055  
  0.055  
  0.050  
  0.065  
  0.105  
  0.125  
  0.130  
  0.130  
  0.135  
  0.130  
  0.115  
  0.125  
  0.135  
  0.030  
 -0.355  
 -0.935  
 -0.940  
  0.080  
  0.760  
  0.565  
  0.340  
  0.180  
  0.125  
  0.105  
  0.095  
  0.085  
  0.080  
  0.070  
  0.060  
  0.055  
  0.050  
  0.045  
  0.030  
  0.025  
  0.010  
 -0.015  
 -0.045  
 -0.075  
 -0.110  
 -0.160  
 -0.205  
 -0.250  
 -0.285  
 -0.305  
 -0.320  
 -0.305  
 -0.260  
 -0.190  
 -0.110  
 -0.040  
  0.020  
  0.055  
  0.075  
  0.095  
  0.100  
  0.105  
  0.110  
  0.120  
  0.125  
  0.125  
  0.120  
  0.125  
  0.125  
  0.130  
  0.130  
  0.125  
  0.130  
  0.120  
  0.125  
  0.125  
  0.130  
  0.125  
  0.130  
  0.120  
  0.130  
  0.130  
  0.135  
  0.135  
  0.135  
  0.135  
  0.135  
  0.135  
  0.135  
  0.135  
  0.145  
  0.135  
  0.125  
  0.095  
  0.095  
  0.120  
  0.105  
  0.105  
  0.100  
  0.090  
  0.075  
  0.100  
  0.135  
  0.155  
  0.175  
  0.180  
  0.170  
  0.165  
  0.155  
  0.150  
  0.165  
  0.120  
 -0.150  
 -0.690  
 -1.080  
 -0.190  
  0.755  
  0.650  
  0.425  
  0.240  
  0.170  
  0.140  
  0.125  
  0.100  
  0.095  
  0.085  
  0.075  
  0.075  
  0.065  
  0.050  
  0.040  
  0.030  
  0.020  
  0.010  
 -0.015  
 -0.035  
 -0.070  
 -0.110  
 -0.150  
 -0.190  
 -0.230  
 -0.250  
 -0.275  
 -0.265  
 -0.235  
 -0.185  
 -0.115  
 -0.045  
  0.015  
  0.055  
  0.080  
  0.100  
  0.105  
  0.115  
  0.115  
  0.125  
  0.120  
  0.125  
  0.130  
  0.130  
  0.135  
  0.135  
  0.140  
  0.130  
  0.135  
  0.120  
  0.115  
  0.130  
  0.135  
  0.135  
  0.130  
  0.135  
  0.130  
  0.135  
  0.130  
  0.130  
  0.125  
  0.125  
  0.130  
  0.125  
  0.125  
  0.135  
  0.130  
  0.125  
  0.125  
  0.135  
  0.135  
  0.130  
  0.105  
  0.080  
  0.095  
  0.095  
  0.085  
  0.080  
  0.080  
  0.075  
  0.080  
  0.085  
  0.125  
  0.150  
  0.150  
  0.155  
  0.155  
  0.145  
  0.145  
  0.130  
  0.155  
  0.075  
 -0.230  
 -0.745  
 -0.780  
  0.100  
  0.700  
  0.575  
  0.415  
  0.230  
  0.155  
  0.130  
  0.105  
  0.095  
  0.105  
  0.105  
  0.090  
  0.090  
  0.080  
  0.080  
  0.075  
  0.055  
  0.040  
  0.035  
  0.015  
 -0.015  
 -0.050  
 -0.090  
 -0.130  
 -0.150  
 -0.190  
 -0.210  
 -0.215  
 -0.215  
 -0.185  
 -0.140  
 -0.065  
  0.000  
  0.030  
  0.060  
  0.105  
  0.135  
  0.150  
  0.155  
  0.155  
  0.165  
  0.155  
  0.150  
  0.170  
  0.160  
  0.165  
  0.155  
  0.145  
  0.165  
  0.155  
  0.175  
  0.180  
  0.175  
  0.170  
  0.185  
  0.185  
  0.175  
  0.200  
  0.195  
  0.195  
  0.185  
  0.175  
  0.175  
  0.190  
  0.200  
  0.205  
  0.185  
  0.175  
  0.170  
  0.160  
  0.160  
  0.170  
  0.155  
  0.140  
  0.125  
  0.115  
  0.115  
  0.135  
  0.155  
  0.190  
  0.210  
  0.210  
  0.215  
  0.230  
  0.210  
  0.195  
  0.210  
  0.255  
  0.140  
 -0.305  
 -0.955  
 -0.590  
  0.355  
  0.660  
  0.635  
  0.490  
  0.310  
  0.230  
  0.205  
  0.190  
  0.155  
  0.155  
  0.150  
  0.155  
  0.140  
  0.125  
  0.130  
  0.120  
  0.095  
  0.090  
  0.080  
  0.055  
  0.040  
  0.015  
 -0.025  
 -0.055  
 -0.075  
 -0.080  
 -0.100  
 -0.110  
 -0.100  
 -0.075  
 -0.040  
  0.015  
  0.060  
  0.090  
  0.125  
  0.140  
  0.150  
  0.170  
  0.175  
  0.180  
  0.160  
  0.165  
  0.175  
  0.160  
  0.165  
  0.165  
  0.165  
  0.165  
  0.170  
  0.175  
  0.180  
  0.185  
  0.180  
  0.180  
  0.180  
  0.180  
  0.190  
  0.195  
  0.205  
  0.195  
  0.185  
  0.165  
  0.135  
  0.115  
  0.125  
  0.110  
  0.090  
  0.080  
  0.080  
  0.090  
  0.105  
  0.135  
  0.180  
  0.205  
  0.210  
  0.195  
  0.200  
  0.190  
  0.175  
  0.180  
  0.190  
 -0.015  
 -0.515  
 -1.105  
 -0.615  
  0.435  
  0.705  
  0.585  
  0.380  
  0.220  
  0.165  
  0.135  
  0.125  
  0.115  
  0.105  
  0.105  
  0.100  
  0.085  
  0.070  
  0.060  
  0.040  
  0.025  
  0.015  
  0.005  
 -0.025  
 -0.065  
 -0.115  
 -0.155  
 -0.200  
 -0.225  
 -0.260  
 -0.270  
 -0.270  
 -0.230  
 -0.185  
 -0.120  
 -0.060  
  0.005  
  0.045  
  0.070  
  0.090  
  0.095  
  0.105  
  0.115  
  0.120  
  0.120  
  0.115  
  0.125  
  0.115  
  0.105  
  0.105  
  0.105  
  0.100  
  0.100  
  0.100  
  0.090  
  0.095  
  0.100  
  0.105  
  0.110  
  0.110  
  0.115  
  0.115  
  0.115  
  0.105  
  0.110  
  0.115  
  0.110  
  0.110  
  0.110  
  0.105  
  0.110  
  0.105  
  0.080  
  0.045  
  0.055  
  0.060  
  0.025  
  0.020  
  0.045  
  0.060  
  0.080  
  0.105  
  0.120  
  0.130  
  0.130  
  0.125  
  0.115  
  0.100  
  0.095  
  0.105  
  0.045  
 -0.300  
 -0.865  
 -1.070  
 -0.085  
  0.745  
  0.550  
  0.325  
  0.170  
  0.110  
  0.080  
  0.065  
  0.055  
  0.045  
  0.035  
  0.040  
  0.030  
  0.015  
  0.010  
 -0.005  
 -0.015  
 -0.035  
 -0.055  
 -0.075  
 -0.110  
 -0.145  
 -0.200  
 -0.240  
 -0.280  
 -0.315  
 -0.340  
 -0.355  
 -0.345  
 -0.310  
 -0.245  
 -0.185  
 -0.105  
 -0.050  
 -0.010  
  0.015  
  0.030  
  0.040  
  0.045  
  0.045  
  0.045  
  0.050  
  0.055  
  0.055  
  0.060  
  0.055  
  0.050  
  0.045  
  0.055  
  0.055  
  0.055  
  0.050  
  0.055  
  0.050  
  0.050  
  0.060  
  0.065  
  0.065  
  0.065  
  0.060  
  0.060  
  0.055  
  0.065  
  0.060  
  0.060  
  0.060  
  0.065  
  0.065  
  0.070  
  0.050  
  0.025  
  0.015  
  0.035  
  0.025  
  0.030  
  0.025  
  0.005  
 -0.015  
  0.005  
  0.055  
  0.070  
  0.080  
  0.080  
  0.080  
  0.070  
  0.065  
  0.055  
  0.075  
  0.010  
 -0.350  
 -0.915  
 -0.965  
  0.025  
  0.725  
  0.485  
  0.260  
  0.105  
  0.055  
  0.020  
  0.010  
  0.010  
  0.005  
 -0.005  
 -0.025  
 -0.030  
 -0.030  
 -0.025  
 -0.030  
 -0.050  
 -0.070  
 -0.085  
 -0.095  
 -0.135  
 -0.155  
 -0.195  
 -0.240  
 -0.285  
 -0.325  
 -0.335  
 -0.335  
 -0.320  
 -0.285  
 -0.235  
 -0.175  
 -0.110  
 -0.045  
 -0.020  
  0.005  
  0.020  
  0.025  
  0.045  
  0.055  
  0.055  
  0.040  
  0.055  
  0.080  
  0.080  
  0.065  
  0.065  
  0.080  
  0.080  
  0.085  
  0.085  
  0.095  
  0.090  
  0.100  
  0.105  
  0.095  
  0.095  
  0.095  
  0.095  
  0.090  
  0.095  
  0.100  
  0.080  
  0.090  
  0.090  
  0.110  
  0.115  
  0.100  
  0.105  
  0.085  
  0.080  
  0.090  
  0.100  
  0.080  
  0.070  
  0.075  
  0.070  
  0.090  
  0.085  
  0.100  
  0.150  
  0.160  
  0.155  
  0.145  
  0.155  
  0.155  
  0.155  
  0.200  
  0.150  
 -0.205  
 -0.795  
 -0.750  
  0.080  
  0.590  
  0.605  
  0.455  
  0.280  
  0.195  
  0.150  
  0.150  
  0.140  
  0.115  
  0.115  
  0.120  
  0.105  
  0.100  
  0.085  
  0.070  
  0.065  
  0.065  
  0.045  
  0.025  
  0.005  
 -0.020  
 -0.050  
 -0.075  
 -0.105  
 -0.125  
 -0.135  
 -0.150  
 -0.145  
 -0.125  
 -0.080  
 -0.015  
  0.030  
  0.075  
  0.115  
  0.120  
  0.150  
  0.170  
  0.170  
  0.165  
  0.155  
  0.155  
  0.160  
  0.165  
  0.165  
  0.180  
  0.175  
  0.150  
  0.160  
  0.185  
  0.200  
  0.190  
  0.185  
  0.190  
  0.195  
  0.190  
  0.205  
  0.205  
  0.205  
  0.215  
  0.210  
  0.175  
  0.155  
  0.155  
  0.165  
  0.135  
  0.110  
  0.110  
  0.125  
  0.140  
  0.185  
  0.215  
  0.240  
  0.245  
  0.240  
  0.235  
  0.225  
  0.220  
  0.230  
  0.270  
  0.155  
 -0.295  
 -0.905  
 -0.685  
  0.265  
  0.690  
  0.655  
  0.495  
  0.300  
  0.230  
  0.195  
  0.185  
  0.175  
  0.170  
  0.160  
  0.150  
  0.145  
  0.130  
  0.130  
  0.115  
  0.105  
  0.095  
  0.080  
  0.040  
  0.005  
 -0.025  
 -0.045  
 -0.075  
 -0.125  
 -0.145  
 -0.155  
 -0.170  
 -0.155  
 -0.110  
 -0.065  
 -0.015  
  0.045  
  0.095  
  0.130  
  0.145  
  0.145  
  0.155  
  0.160  
  0.165  
  0.160  
  0.150  
  0.155  
  0.150  
  0.140  
  0.135  
  0.130  
  0.125  
  0.130  
  0.140  
  0.135  
  0.135  
  0.140  
  0.140  
  0.150  
  0.145  
  0.140  
  0.135  
  0.135  
  0.135  
  0.135  
  0.145  
  0.145  
  0.125  
  0.095  
  0.085  
  0.120  
  0.085  
  0.055  
  0.045  
  0.070  
  0.085  
  0.095  
  0.130  
  0.165  
  0.175  
  0.170  
  0.155  
  0.150  
  0.145  
  0.140  
  0.155  
  0.015  
 -0.400  
 -0.990  
 -0.840  
  0.190  
  0.740  
  0.595  
  0.390  
  0.215  
  0.155  
  0.110  
  0.095  
  0.085  
  0.075  
  0.070  
  0.060  
  0.050  
  0.045  
  0.040  
  0.025  
  0.020  
  0.000  
 -0.025  
 -0.055  
 -0.105  
 -0.135  
 -0.180  
 -0.225  
 -0.260  
 -0.300  
 -0.320  
 -0.325  
 -0.305  
 -0.260  
 -0.195  
 -0.125  
 -0.055  
 -0.005  
  0.030  
  0.055  
  0.060  
  0.070  
  0.070  
  0.080  
  0.085  
  0.090  
  0.090  
  0.095  
  0.090  
  0.090  
  0.090  
  0.090  
  0.090  
  0.090  
  0.095  
  0.100  
  0.095  
  0.085  
  0.090  
  0.095  
  0.095  
  0.095  
  0.100  
  0.100  
  0.100  
  0.100  
  0.100  
  0.095  
  0.100  
  0.105  
  0.105  
  0.090  
  0.055  
  0.045  
  0.050  
  0.025  
 -0.005  
  0.005  
  0.035  
  0.050  
  0.075  
  0.105  
  0.115  
  0.125  
  0.115  
  0.115  
  0.110  
  0.100  
  0.085  
  0.090  
 -0.075  
 -0.535  
 -1.080  
 -0.670  
  0.400  
  0.730  
  0.485  
  0.255  
  0.135  
  0.095  
  0.070  
  0.055  
  0.040  
  0.030  
  0.035  
  0.025  
  0.015  
  0.010  
 -0.010  
 -0.015  
 -0.025  
 -0.035  
 -0.050  
 -0.070  
 -0.105  
 -0.150  
 -0.200  
 -0.240  
 -0.275  
 -0.305  
 -0.325  
 -0.330  
 -0.305  
 -0.265  
 -0.195  
 -0.125  
 -0.050  
  0.005  
  0.040  
  0.055  
  0.080  
  0.090  
  0.090  
  0.090  
  0.105  
  0.115  
  0.115  
  0.110  
  0.120  
  0.130  
  0.135  
  0.125  
  0.115  
  0.105  
  0.110  
  0.115  
  0.120  
  0.115  
  0.110  
  0.120  
  0.130  
  0.130  
  0.130  
  0.130  
  0.115  
  0.115  
  0.135  
  0.135  
  0.120  
  0.105  
  0.115  
  0.125  
  0.095  
  0.095  
  0.095  
  0.085  
  0.055  
  0.050  
  0.085  
  0.090  
  0.095  
  0.105  
  0.135  
  0.155  
  0.155  
  0.140  
  0.145  
  0.155  
  0.145  
  0.155  
  0.185  
  0.040  
 -0.390  
 -1.015  
 -0.705  
  0.260  
  0.610  
  0.560  
  0.405  
  0.230  
  0.155  
  0.120  
  0.100  
  0.095  
  0.090  
  0.090  
  0.090  
  0.090  
  0.080  
  0.065  
  0.065  
  0.050  
  0.045  
  0.030  
 -0.010  
 -0.045  
 -0.065  
 -0.080  
 -0.115  
 -0.140  
 -0.160  
 -0.185  
 -0.185  
 -0.170  
 -0.145  
 -0.095  
 -0.030  
  0.020  
  0.070  
  0.100  
  0.125  
  0.135  
  0.155  
  0.150  
  0.150  
  0.145  
  0.145  
  0.145  
  0.155  
  0.155  
  0.160  
  0.155  
  0.155  
  0.150  
  0.160  
  0.165  
  0.155  
  0.150  
  0.145  
  0.160  
  0.165  
  0.170  
  0.175  
  0.160  
  0.155  
  0.145  
  0.120  
  0.100  
  0.100  
  0.080  
  0.065  
  0.070  
  0.080  
  0.080  
  0.095  
  0.140  
  0.165  
  0.180  
  0.175  
  0.175  
  0.175  
  0.160  
  0.160  
  0.195  
  0.130  
 -0.215  
 -0.795  
 -1.030  
 -0.160  
  0.660  
  0.645  
  0.490  
  0.280  
  0.175  
  0.120  
  0.110  
  0.100  
  0.085  
  0.080  
  0.080  
  0.055  
  0.035  
  0.015  
  0.010  
  0.010  
 -0.010  
 -0.025  
 -0.060  
 -0.070  
 -0.075  
 -0.100  
 -0.150  
 -0.205  
 -0.265  
 -0.310  
 -0.305  
 -0.260  
 -0.195  
 -0.110  
 -0.045  
  0.010  
  0.050  
  0.085  
  0.115  
  0.130  
  0.140  
  0.150  
  0.155  
  0.155  
  0.155  
  0.145  
  0.135  
  0.135  
  0.135  
  0.135  
  0.130  
  0.135  
  0.120  
  0.115  
  0.110  
  0.115  
  0.120  
  0.130  
  0.125  
  0.120  
  0.125  
  0.125  
  0.120  
  0.105  
  0.110  
  0.150  
  0.160  
  0.140  
  0.105  
  0.095  
  0.070  
  0.045  
  0.045  
  0.010  
 -0.015  
  0.005  
  0.050  
  0.065  
  0.070  
  0.125  
  0.160  
  0.165  
  0.140  
  0.145  
  0.140  
  0.145  
  0.140  
  0.135  
  0.040  
 -0.325  
 -0.910  
 -0.985  
  0.020  
  0.750  
  0.585  
  0.400  
  0.250  
  0.195  
  0.150  
  0.085  
  0.045  
  0.080  
  0.105  
  0.115  
  0.135  
  0.125  
  0.095  
  0.075  
  0.060  
  0.035  
  0.005  
 -0.015  
 -0.050  
 -0.115  
 -0.175  
 -0.210  
 -0.250  
 -0.290  
 -0.315  
 -0.325  
 -0.305  
 -0.275  
 -0.210  
 -0.140  
 -0.075  
 -0.020  
  0.025  
  0.050  
  0.070  
  0.085  
  0.085  
  0.085  
  0.090  
  0.095  
  0.095  
  0.100  
  0.105  
  0.105  
  0.100  
  0.095  
  0.090  
  0.085  
  0.085  
  0.090  
  0.090  
  0.095  
  0.100  
  0.100  
  0.105  
  0.105  
  0.100  
  0.105  
  0.110  
  0.115  
  0.110  
  0.100  
  0.100  
  0.105  
  0.090  
  0.055  
  0.035  
  0.045  
  0.025  
  0.005  
  0.010  
  0.040  
  0.070  
  0.100  
  0.125  
  0.140  
  0.135  
  0.140  
  0.135  
  0.125  
  0.120  
  0.110  
  0.115  
 -0.065  
 -0.530  
 -1.075  
 -0.585  
  0.470  
  0.725  
  0.465  
  0.250  
  0.140  
  0.105  
  0.080  
  0.070  
  0.055  
  0.045  
  0.040  
  0.035  
  0.030  
  0.020  
  0.005  
 -0.010  
 -0.020  
 -0.030  
 -0.050  
 -0.070  
 -0.110  
 -0.150  
 -0.195  
 -0.240  
 -0.265  
 -0.295  
 -0.310  
 -0.315  
 -0.290  
 -0.240  
 -0.175  
 -0.110  
 -0.045  
  0.000  
  0.020  
  0.040  
  0.070  
  0.085  
  0.080  
  0.080  
  0.090  
  0.095  
  0.105  
  0.120  
  0.115  
  0.125  
  0.125  
  0.130  
  0.125  
  0.120  
  0.125  
  0.135  
  0.135  
  0.125  
  0.130  
  0.145  
  0.150  
  0.140  
  0.135  
  0.135  
  0.145  
  0.150  
  0.165  
  0.175  
  0.175  
  0.155  
  0.145  
  0.155  
  0.165  
  0.145  
  0.130  
  0.105  
  0.100  
  0.105  
  0.085  
  0.080  
  0.085  
  0.105  
  0.125  
  0.135  
  0.150  
  0.165  
  0.170  
  0.175  
  0.170  
  0.155  
  0.165  
  0.170  
  0.215  
  0.130  
 -0.265  
 -0.875  
 -0.785  
  0.115  
  0.610  
  0.585  
  0.435  
  0.255  
  0.190  
  0.150  
  0.130  
  0.120  
  0.110  
  0.095  
  0.095  
  0.095  
  0.095  
  0.090  
  0.080  
  0.060  
  0.055  
  0.035  
  0.005  
 -0.015  
 -0.040  
 -0.065  
 -0.065  
 -0.090  
 -0.125  
 -0.155  
 -0.165  
 -0.155  
 -0.115  
 -0.090  
 -0.035  
  0.025  
  0.070  
  0.100  
  0.130  
  0.130  
  0.160  
  0.170  
  0.145  
  0.155  
  0.155  
  0.165  
  0.165  
  0.155  
  0.155  
  0.145  
  0.145  
  0.145  
  0.155  
  0.155  
  0.155  
  0.165  
  0.190  
  0.185  
  0.175  
  0.185  
  0.190  
  0.190  
  0.175  
  0.155  
  0.140  
  0.135  
  0.115  
  0.080  
  0.070  
  0.095  
  0.115  
  0.125  
  0.170  
  0.215  
  0.230  
  0.240  
  0.230  
  0.235  
  0.220  
  0.210  
  0.215  
  0.215  
  0.005  
 -0.515  
 -1.060  
 -0.430  
  0.560  
  0.705  
  0.610  
  0.410  
  0.255  
  0.205  
  0.170  
  0.165  
  0.175  
  0.155  
  0.145  
  0.135  
  0.135  
  0.110  
  0.095  
  0.090  
  0.075  
  0.060  
  0.045  
  0.020  
 -0.005  
 -0.045  
 -0.085  
 -0.130  
 -0.155  
 -0.175  
 -0.185  
 -0.185  
 -0.155  
 -0.115  
 -0.045  
  0.005  
  0.060  
  0.095  
  0.125  
  0.140  
  0.150  
  0.150  
  0.160  
  0.155  
  0.155  
  0.150  
  0.155  
  0.155  
  0.155  
  0.155  
  0.150  
  0.145  
  0.150  
  0.145  
  0.155  
  0.155  
  0.165  
  0.175  
  0.175  
  0.160  
  0.155  
  0.155  
  0.145  
  0.140  
  0.155  
  0.165  
  0.165  
  0.165  
  0.175  
  0.175  
  0.155  
  0.120  
  0.095  
  0.080  
  0.050  
  0.040  
  0.090  
  0.125  
  0.145  
  0.165  
  0.190  
  0.185  
  0.180  
  0.170  
  0.180  
  0.175  
  0.170  
  0.180  
  0.165  
 -0.065  
 -0.595  
 -1.160  
 -0.490  
  0.575  
  0.725  
  0.545  
  0.335  
  0.215  
  0.175  
  0.140  
  0.115  
  0.090  
  0.080  
  0.070  
  0.065  
  0.065  
  0.060  
  0.045  
  0.040  
  0.030  
  0.000  
 -0.045  
 -0.070  
 -0.105  
 -0.150  
 -0.185  
 -0.205  
 -0.240  
 -0.255  
 -0.280  
 -0.280  
 -0.245  
 -0.205  
 -0.140  
 -0.070  
  0.010  
  0.060  
  0.085  
  0.095  
  0.095  
  0.105  
  0.115  
  0.100  
  0.090  
  0.095  
  0.095  
  0.090  
  0.090  
  0.105  
  0.105  
  0.110  
  0.100  
  0.100  
  0.095  
  0.095  
  0.095  
  0.100  
  0.095  
  0.080  
  0.080  
  0.080  
  0.095  
  0.105  
  0.110  
  0.120  
  0.105  
  0.110  
  0.115  
  0.125  
  0.115  
  0.105  
  0.080  
  0.040  
  0.050  
  0.070  
  0.045  
  0.040  
  0.065  
  0.080  
  0.090  
  0.115  
  0.145  
  0.165  
  0.160  
  0.150  
  0.145  
  0.150  
  0.145  
  0.150  
  0.095  
 -0.195  
 -0.715  
 -1.055  
 -0.130  
  0.825  
  0.705  
  0.465  
  0.270  
  0.190  
  0.145  
  0.130  
  0.130  
  0.110  
  0.095  
  0.095  
  0.095  
  0.095  
  0.085  
  0.080  
  0.085  
  0.055  
  0.025  
  0.020  
 -0.005  
 -0.060  
 -0.105  
 -0.130  
 -0.150  
 -0.190  
 -0.220  
 -0.225  
 -0.225  
 -0.195  
 -0.145  
 -0.070  
  0.010  
  0.080  
  0.125  
  0.135  
  0.155  
  0.190  
  0.190  
  0.175  
  0.180  
  0.195  
  0.190  
  0.200  
  0.205  
  0.215  
  0.210  
  0.205  
  0.205  
  0.185  
  0.190  
  0.200  
  0.195  
  0.215  
  0.235  
  0.220  
  0.200  
  0.205  
  0.215  
  0.220  
  0.215  
  0.215  
  0.210  
  0.210  
  0.230  
  0.195  
  0.180  
  0.195  
  0.150  
  0.115  
  0.125  
  0.165  
  0.180  
  0.175  
  0.200  
  0.235  
  0.250  
  0.245  
  0.235  
  0.240  
  0.230  
  0.240  
  0.275  
  0.240  
 -0.055  
 -0.615  
 -0.850  
 -0.075  
  0.690  
  0.730  
  0.605  
  0.395  
  0.300  
  0.245  
  0.215  
  0.210  
  0.200  
  0.195  
  0.195  
  0.190  
  0.165  
  0.155  
  0.155  
  0.155  
  0.160  
  0.115  
  0.095  
  0.080  
  0.055  
  0.050  
  0.015  
 -0.030  
 -0.070  
 -0.080  
 -0.090  
 -0.080  
 -0.045  
 -0.010  
  0.055  
  0.105  
  0.150  
  0.205  
  0.225  
  0.240  
  0.240  
  0.245  
  0.250  
  0.240  
  0.235  
  0.250  
  0.245  
  0.245  
  0.250  
  0.255  
  0.250  
  0.245  
  0.255  
  0.260  
  0.260  
  0.250  
  0.265  
  0.275  
  0.280  
  0.285  
  0.275  
  0.255  
  0.230  
  0.215  
  0.210  
  0.200  
  0.165  
  0.160  
  0.195  
  0.215  
  0.230  
  0.270  
  0.290  
  0.310  
  0.300  
  0.295  
  0.290  
  0.290  
  0.290  
  0.315  
  0.235  
 -0.140  
 -0.705  
 -0.835  
  0.075  
  0.825  
  0.775  
  0.610  
  0.380  
  0.290  
  0.240  
  0.220  
  0.200  
  0.200  
  0.195  
  0.180  
  0.165  
  0.160  
  0.155  
  0.150  
  0.125  
  0.100  
  0.080  
  0.055  
  0.030  
  0.000  
 -0.035  
 -0.080  
 -0.120  
 -0.145  
 -0.165  
 -0.175  
 -0.155  
 -0.105  
 -0.045  
  0.010  
  0.070  
  0.120  
  0.140  
  0.155  
  0.170  
  0.175  
  0.190  
  0.200  
  0.185  
  0.180  
  0.190  
  0.180  
  0.175  
  0.170  
  0.165  
  0.170  
  0.170  
  0.185  
  0.180  
  0.175  
  0.180  
  0.190  
  0.190  
  0.195  
  0.195  
  0.205  
  0.205  
  0.205  
  0.195  
  0.210  
  0.200  
  0.200  
  0.180  
  0.145  
  0.135  
  0.140  
  0.105  
  0.080  
  0.095  
  0.135  
  0.160  
  0.180  
  0.205  
  0.215  
  0.220  
  0.220  
  0.215  
  0.215  
  0.200  
  0.195  
  0.180  
 -0.020  
 -0.505  
 -1.065  
 -0.575  
  0.510  
  0.805  
  0.635  
  0.420  
  0.255  
  0.190  
  0.160  
  0.155  
  0.155  
  0.145  
  0.150  
  0.130  
  0.115  
  0.095  
  0.090  
  0.080  
  0.060  
  0.045  
  0.025  
 -0.005  
 -0.045  
 -0.070  
 -0.115  
 -0.155  
 -0.190  
 -0.215  
 -0.235  
 -0.240  
 -0.215  
 -0.175  
 -0.115  
 -0.050  
  0.015  
  0.065  
  0.095  
  0.115  
  0.115  
  0.125  
  0.130  
  0.120  
  0.130  
  0.135  
  0.145  
  0.135  
  0.130  
  0.130  
  0.135  
  0.135  
  0.130  
  0.130  
  0.120  
  0.105  
  0.115  
  0.125  
  0.125  
  0.125  
  0.135  
  0.135  
  0.135  
  0.130  
  0.130  
  0.135  
  0.150  
  0.135  
  0.110  
  0.090  
  0.105  
  0.065  
  0.035  
  0.050  
  0.080  
  0.100  
  0.110  
  0.135  
  0.165  
  0.175  
  0.170  
  0.165  
  0.155  
  0.155  
  0.155  
  0.160  
 -0.005  
 -0.440  
 -1.005  
 -0.715  
  0.345  
  0.775  
  0.605  
  0.390  
  0.215  
  0.150  
  0.125  
  0.110  
  0.105  
  0.100  
  0.090  
  0.080  
  0.065  
  0.055  
  0.040  
  0.035  
  0.035  
  0.020  
 -0.005  
 -0.035  
 -0.070  
 -0.105  
 -0.145  
 -0.185  
 -0.215  
 -0.240  
 -0.265  
 -0.275  
 -0.255  
 -0.205  
 -0.120  
 -0.055  
  0.015  
  0.055  
  0.090  
  0.095  
  0.100  
  0.095  
  0.095  
  0.100  
  0.105  
  0.110  
  0.105  
  0.100  
  0.100  
  0.105  
  0.100  
  0.100  
  0.105  
  0.120  
  0.120  
  0.115  
  0.105  
  0.105  
  0.095  
  0.100  
  0.105  
  0.120  
  0.125  
  0.125  
  0.130  
  0.110  
  0.095  
  0.105  
  0.135  
  0.130  
  0.085  
  0.065  
  0.075  
  0.065  
  0.040  
  0.025  
  0.055  
  0.090  
  0.100  
  0.125  
  0.145  
  0.160  
  0.165  
  0.155  
  0.150  
  0.130  
  0.145  
  0.150  
  0.055  
 -0.290  
 -0.820  
 -0.885  
  0.070  
  0.790  
  0.660  
  0.465  
  0.265  
  0.195  
  0.150  
  0.130  
  0.110  
  0.125  
  0.130  
  0.115  
  0.095  
  0.085  
  0.075  
  0.085  
  0.080  
  0.075  
  0.060  
  0.025  
 -0.005  
 -0.040  
 -0.080  
 -0.120  
 -0.165  
 -0.180  
 -0.195  
 -0.215  
 -0.195  
 -0.160  
 -0.105  
 -0.035  
  0.035  
  0.090  
  0.130  
  0.165  
  0.175  
  0.190  
  0.205  
  0.210  
  0.210  
  0.215  
  0.205  
  0.205  
  0.210  
  0.215  
  0.230  
  0.210  
  0.195  
  0.200  
  0.205  
  0.205  
  0.190  
  0.185  
  0.180  
  0.160  
  0.140  
  0.110  
  0.085  
  0.045  
 -0.110  
 -0.460  
 -0.975  
 -1.510  
 -1.975  
 -2.335  
 -2.575  
 -2.765  
 -2.910  
 -2.905  
 -2.330  
 -1.285  
 -0.295  
  0.315  
  0.535  
  0.605  
  0.665  
  0.720  
  0.755  
  0.795  
  0.855  
  0.905  
  0.985  
  1.085  
  1.190  
  1.305  
  1.430  
  1.530  
  1.620  
  1.710  
  1.775  
  1.820  
  1.805  
  1.735  
  1.645  
  1.470  
  1.275  
  1.070  
  0.865  
  0.690  
  0.560  
  0.455  
  0.385  
  0.335  
  0.305  
  0.275  
  0.265  
  0.250  
  0.250  
  0.235  
  0.240  
  0.230  
  0.230  
  0.215  
  0.205  
  0.200  
  0.185  
  0.175  
  0.185  
  0.185  
  0.175  
  0.170  
  0.165  
  0.165  
  0.170  
  0.160  
  0.155  
  0.150  
  0.155  
  0.155  
  0.160  
  0.155  
  0.160  
  0.150  
  0.150  
  0.155  
  0.155  
  0.165  
  0.155  
  0.155  
  0.150  
  0.150  
  0.155  
  0.140  
  0.150  
  0.145  
  0.135  
  0.115  
  0.090  
  0.080  
  0.060  
  0.035  
  0.010  
  0.045  
  0.080  
  0.105  
  0.125  
  0.145  
  0.165  
  0.155  
  0.150  
  0.150  
  0.145  
  0.125  
  0.165  
  0.080  
 -0.315  
 -0.900  
 -0.935  
  0.075  
  0.770  
  0.640  
  0.455  
  0.245  
  0.175  
  0.145  
  0.120  
  0.100  
  0.095  
  0.095  
  0.090  
  0.080  
  0.055  
  0.065  
  0.080  
  0.055  
  0.055  
  0.050  
  0.015  
 -0.005  
 -0.045  
 -0.075  
 -0.120  
 -0.150  
 -0.180  
 -0.205  
 -0.210  
 -0.215  
 -0.190  
 -0.150  
 -0.100  
 -0.020  
  0.045  
  0.075  
  0.110  
  0.125  
  0.145  
  0.145  
  0.165  
  0.175  
  0.190  
  0.180  
  0.180  
  0.185  
  0.195  
  0.195  
  0.185  
  0.195  
  0.205  
  0.205  
  0.215  
  0.220  
  0.225  
  0.230  
  0.230  
  0.240  
  0.235  
  0.215  
  0.200  
  0.205  
  0.190  
  0.155  
  0.135  
  0.170  
  0.210  
  0.230  
  0.255  
  0.280  
  0.290  
  0.295  
  0.300  
  0.300  
  0.285  
  0.290  
  0.295  
  0.200  
 -0.160  
 -0.700  
 -0.795  
  0.145  
  0.895  
  0.785  
  0.585  
  0.375  
  0.300  
  0.255  
  0.240  
  0.235  
  0.235  
  0.240  
  0.245  
  0.245  
  0.240  
  0.215  
  0.210  
  0.185  
  0.180  
  0.155  
  0.135  
  0.120  
  0.085  
  0.050  
  0.010  
 -0.030  
 -0.065  
 -0.080  
 -0.080  
 -0.060  
 -0.020  
  0.045  
  0.115  
  0.175  
  0.215  
  0.260  
  0.290  
  0.310  
  0.315  
  0.320  
  0.325  
  0.345  
  0.340  
  0.330  
  0.330  
  0.315  
  0.310  
  0.310  
  0.310  
  0.305  
  0.310  
  0.315  
  0.320  
  0.320  
  0.340  
  0.335  
  0.320  
  0.325  
  0.335  
  0.340  
  0.340  
  0.315  
  0.275  
  0.270  
  0.260  
  0.235  
  0.220  
  0.245  
  0.265  
  0.310  
  0.335  
  0.350  
  0.385  
  0.360  
  0.355  
  0.355  
  0.355  
  0.350  
  0.375  
  0.270  
 -0.080  
 -0.630  
 -0.630  
  0.325  
  0.970  
  0.825  
  0.650  
  0.470  
  0.405  
  0.375  
  0.375  
  0.350  
  0.330  
  0.335  
  0.325  
  0.305  
  0.300  
  0.295  
  0.305  
  0.295  
  0.265  
  0.250  
  0.235  
  0.200  
  0.170  
  0.135  
  0.095  
  0.050  
  0.015  
 -0.010  
 -0.020  
  0.000  
  0.050  
  0.100  
  0.165  
  0.230  
  0.290  
  0.320  
  0.370  
  0.380  
  0.390  
  0.410  
  0.410  
  0.415  
  0.405  
  0.415  
  0.425  
  0.405  
  0.400  
  0.400  
  0.400  
  0.400  
  0.410  
  0.400  
  0.415  
  0.405  
  0.385  
  0.405  
  0.420  
  0.400  
  0.370  
  0.380  
  0.365  
  0.305  
  0.310  
  0.355  
  0.370  
  0.375  
  0.400  
  0.445  
  0.450  
  0.430  
  0.450  
  0.450  
  0.425  
  0.420  
  0.475  
  0.475  
  0.185  
 -0.365  
 -0.675  
  0.060  
  0.870  
  0.925  
  0.825  
  0.625  
  0.475  
  0.420  
  0.410  
  0.400  
  0.395  
  0.375  
  0.375  
  0.365  
  0.355  
  0.345  
  0.345  
  0.335  
  0.320  
  0.305  
  0.295  
  0.255  
  0.225  
  0.200  
  0.185  
  0.150  
  0.125  
  0.115  
  0.105  
  0.115  
  0.140  
  0.195  
  0.240  
  0.285  
  0.350  
  0.380  
  0.380  
  0.400  
  0.410  
  0.415  
  0.420  
  0.400  
  0.395  
  0.395  
  0.385  
  0.375  
  0.370  
  0.360  
  0.360  
  0.360  
  0.370  
  0.375  
  0.385  
  0.385  
  0.380  
  0.400  
  0.385  
  0.360  
  0.335  
  0.325  
  0.290  
  0.260  
  0.270  
  0.300  
  0.315  
  0.330  
  0.360  
  0.375  
  0.380  
  0.390  
  0.370  
  0.360  
  0.375  
  0.395  
  0.375  
  0.125  
 -0.395  
 -0.940  
 -0.235  
  0.815  
  0.910  
  0.745  
  0.535  
  0.390  
  0.330  
  0.290  
  0.275  
  0.285  
  0.265  
  0.240  
  0.255  
  0.255  
  0.240  
  0.230  
  0.215  
  0.205  
  0.195  
  0.155  
  0.120  
  0.080  
  0.050  
  0.005  
 -0.060  
 -0.110  
 -0.130  
 -0.135  
 -0.120  
 -0.100  
 -0.035  
  0.035  
  0.110  
  0.170  
  0.205  
  0.240  
  0.255  
  0.255  
  0.275  
  0.290  
  0.265  
  0.265  
  0.260  
  0.255  
  0.255  
  0.240  
  0.240  
  0.235  
  0.215  
  0.220  
  0.225  
  0.215  
  0.220  
  0.200  
  0.210  
  0.225  
  0.215  
  0.195  
  0.200  
  0.215  
  0.180  
  0.150  
  0.135  
  0.105  
  0.080  
  0.045  
  0.080  
  0.120  
  0.085  
  0.055  
  0.055  
  0.070  
  0.060  
  0.025  
  0.080  
  0.085  
  0.025  
  0.045  
 -0.205  
 -0.760  
 -1.150  
 -0.260  
  0.720  
  0.685  
  0.530  
  0.365  
  0.245  
  0.170  
  0.120  
  0.070  
  0.030  
  0.015  
  0.020  
 -0.055  
 -0.095  
 -0.115  
 -0.130  
 -0.145  
 -0.130  
 -0.140  
 -0.190  
 -0.270  
 -0.370  
 -0.505  
 -0.585  
 -0.560  
 -0.525  
 -0.540  
 -0.565  
 -0.520  
 -0.455  
 -0.370  
 -0.285  
 -0.210  
 -0.135  
 -0.100  
 -0.080  
 -0.060  
 -0.065  
 -0.085  
 -0.105  
 -0.125  
 -0.120  
 -0.120  
 -0.140  
 -0.140  
 -0.135  
 -0.150  
 -0.150  
 -0.155  
 -0.150  
 -0.185  
 -0.190  
 -0.180  
 -0.185  
 -0.180  
 -0.195  
 -0.175  
 -0.165  
 -0.165  
 -0.185  
 -0.230  
 -0.205  
 -0.190  
 -0.235  
 -0.280  
 -0.220  
 -0.180  
 -0.155  
 -0.125  
 -0.080  
 -0.090  
 -0.105  
 -0.080  
 -0.080  
 -0.115  
 -0.130  
 -0.100  
 -0.265  
 -0.660  
 -1.225  
 -1.180  
 -0.165  
  0.455  
  0.305  
  0.105  
 -0.065  
 -0.120  
 -0.165  
 -0.185  
 -0.175  
 -0.175  
 -0.205  
 -0.220  
 -0.230  
 -0.235  
 -0.255  
 -0.305  
 -0.365  
 -0.415  
 -0.465  
 -0.490  
 -0.495  
 -0.520  
 -0.550  
 -0.560  
 -0.585  
 -0.615  
 -0.645  
 -0.640  
 -0.635  
 -0.570  
 -0.485  
 -0.425  
 -0.330  
 -0.230  
 -0.210  
 -0.195  
 -0.190  
 -0.175  
 -0.175  
 -0.170  
 -0.155  
 -0.170  
 -0.185  
 -0.165  
 -0.155  
 -0.175  
 -0.190  
 -0.210  
 -0.255  
 -0.220  
 -0.155  
 -0.115  
 -0.075  
 -0.050  
 -0.040  
 -0.015  
  0.005  
 -0.025  
 -0.025  
 -0.040  
 -0.070  
 -0.060  
 -0.115  
 -0.155  
 -0.175  
 -0.280  
 -0.290  
 -0.255  
 -0.220  
 -0.205  
 -0.205  
 -0.195  
 -0.185  
 -0.195  
 -0.200  
 -0.200  
 -0.225  
 -0.205  
 -0.235  
 -0.485  
 -1.005  
 -1.520  
 -0.805  
  0.255  
  0.365  
  0.175  
 -0.065  
 -0.190  
 -0.230  
 -0.275  
 -0.315  
 -0.330  
 -0.340  
 -0.370  
 -0.375  
 -0.370  
 -0.375  
 -0.410  
 -0.415  
 -0.425  
 -0.445  
 -0.465  
 -0.495  
 -0.515  
 -0.530  
 -0.570  
 -0.635  
 -0.685  
 -0.725  
 -0.740  
 -0.705  
 -0.660  
 -0.590  
 -0.525  
 -0.465  
 -0.385  
 -0.370  
 -0.390  
 -0.375  
 -0.365  
 -0.430  
 -0.525  
 -0.420  
 -0.330  
 -0.355  
 -0.285  
 -0.205  
 -0.155  
 -0.120  
 -0.115  
 -0.100  
 -0.105  
 -0.130  
 -0.145  
 -0.145  
 -0.140  
 -0.155  
 -0.165  
 -0.180  
 -0.180  
 -0.165  
 -0.165  
 -0.165  
 -0.170  
 -0.185  
 -0.190  
 -0.195  
 -0.190  
 -0.235  
 -0.270  
 -0.275  
 -0.280  
 -0.300  
 -0.365  
 -0.355  
 -0.325  
 -0.310  
 -0.305  
 -0.295  
 -0.270  
 -0.265  
 -0.250  
 -0.230  
 -0.220  
 -0.230  
 -0.230  
 -0.385  
 -0.835  
 -1.410  
 -0.975  
  0.090  
  0.385  
  0.145  
 -0.085  
 -0.220  
 -0.270  
 -0.305  
 -0.310  
 -0.315  
 -0.330  
 -0.335  
 -0.340  
 -0.350  
 -0.365  
 -0.380  
 -0.390  
 -0.415  
 -0.435  
 -0.455  
 -0.470  
 -0.495  
 -0.525  
 -0.555  
 -0.590  
 -0.620  
 -0.645  
 -0.655  
 -0.670  
 -0.660  
 -0.615  
 -0.550  
 -0.490  
 -0.425  
 -0.385  
 -0.350  
 -0.340  
 -0.330  
 -0.320  
 -0.315  
 -0.315  
 -0.325  
 -0.315  
 -0.305  
 -0.280  
 -0.280  
 -0.290  
 -0.285  
 -0.285  
 -0.280  
 -0.285  
 -0.285  
 -0.280  
 -0.280  
 -0.275  
 -0.270  
 -0.260  
 -0.250  
 -0.245  
 -0.255  
 -0.255  
 -0.240  
 -0.250  
 -0.250  
 -0.255  
 -0.295  
 -0.310  
 -0.305  
 -0.325  
 -0.355  
 -0.345  
 -0.325  
 -0.290  
 -0.260  
 -0.230  
 -0.210  
 -0.205  
 -0.210  
 -0.210  
 -0.210  
 -0.220  
 -0.205  
 -0.270  
 -0.630  
 -1.215  
 -1.190  
 -0.205  
  0.435  
  0.210  
  0.005  
 -0.145  
 -0.205  
 -0.230  
 -0.235  
 -0.235  
 -0.255  
 -0.260  
 -0.265  
 -0.265  
 -0.270  
 -0.285  
 -0.305  
 -0.325  
 -0.325  
 -0.335  
 -0.345  
 -0.365  
 -0.375  
 -0.400  
 -0.425  
 -0.465  
 -0.475  
 -0.485  
 -0.500  
 -0.490  
 -0.455  
 -0.400  
 -0.345  
 -0.285  
 -0.230  
 -0.205  
 -0.180  
 -0.155  
 -0.135  
 -0.145  
 -0.150  
 -0.150  
 -0.125  
 -0.125  
 -0.130  
 -0.105  
 -0.110  
 -0.120  
 -0.115  
 -0.100  
 -0.090  
 -0.090  
 -0.075  
 -0.075  
 -0.080  
 -0.095  
 -0.080  
 -0.065  
 -0.075  
 -0.065  
 -0.070  
 -0.065  
 -0.060  
 -0.050  
 -0.070  
 -0.100  
 -0.090  
 -0.110  
 -0.155  
 -0.170  
 -0.125  
 -0.080  
 -0.070  
 -0.020  
  0.000  
 -0.010  
  0.005  
  0.005  
  0.000  
 -0.015  
 -0.025  
  0.040  
 -0.010  
 -0.395  
 -0.990  
 -0.895  
 -0.010  
  0.465  
  0.450  
  0.305  
  0.105  
  0.030  
 -0.015  
 -0.020  
 -0.030  
 -0.035  
 -0.045  
 -0.045  
 -0.050  
 -0.060  
 -0.070  
 -0.070  
 -0.105  
 -0.115  
 -0.115  
 -0.130  
 -0.145  
 -0.170  
 -0.190  
 -0.205  
 -0.210  
 -0.225  
 -0.225  
 -0.255  
 -0.240  
 -0.230  
 -0.215  
 -0.165  
 -0.115  
 -0.075  
 -0.055  
 -0.035  
 -0.015  
 -0.005  
 -0.005  
 -0.015  
 -0.005  
 -0.005  
 -0.010  
 -0.005  
 -0.015  
 -0.010  
  0.005  
  0.005  
 -0.015  
 -0.015  
  0.015  
  0.010  
  0.005  
  0.035  
  0.035  
  0.015  
 -0.025  
 -0.030  
 -0.045  
 -0.080  
 -0.100  
 -0.070  
 -0.050  
 -0.030  
  0.015  
  0.035  
  0.035  
  0.045  
  0.040  
  0.030  
  0.025  
  0.025  
  0.065  
  0.065  
 -0.225  
 -0.815  
 -1.160  
 -0.390  
  0.450  
  0.510  
  0.400  
  0.185  
  0.050  
 -0.005  
 -0.020  
 -0.035  
 -0.050  
 -0.055  
 -0.055  
 -0.065  
 -0.080  
 -0.080  
 -0.090  
 -0.110  
 -0.135  
 -0.140  
 -0.155  
 -0.170  
 -0.200  
 -0.225  
 -0.240  
 -0.265  
 -0.295  
 -0.305  
 -0.305  
 -0.300  
 -0.275  
 -0.240  
 -0.190  
 -0.150  
 -0.110  
 -0.075  
 -0.055  
 -0.045  
 -0.030  
 -0.030  
 -0.045  
 -0.045  
 -0.045  
 -0.050  
 -0.045  
 -0.060  
 -0.060  
 -0.060  
 -0.055  
 -0.045  
 -0.045  
 -0.050  
 -0.045  
 -0.050  
 -0.050  
 -0.040  
 -0.045  
 -0.040  
 -0.040  
 -0.070  
 -0.100  
 -0.100  
 -0.125  
 -0.165  
 -0.165  
 -0.120  
 -0.100  
 -0.090  
 -0.050  
 -0.025  
 -0.030  
 -0.015  
 -0.010  
 -0.020  
 -0.025  
 -0.025  
 -0.030  
 -0.235  
 -0.720  
 -1.280  
 -0.755  
  0.315  
  0.575  
  0.390  
  0.170  
  0.015  
 -0.030  
 -0.065  
 -0.080  
 -0.090  
 -0.100  
 -0.100  
 -0.110  
 -0.115  
 -0.125  
 -0.135  
 -0.135  
 -0.155  
 -0.170  
 -0.195  
 -0.220  
 -0.250  
 -0.285  
 -0.315  
 -0.350  
 -0.375  
 -0.390  
 -0.405  
 -0.410  
 -0.380  
 -0.335  
 -0.265  
 -0.195  
 -0.140  
 -0.110  
 -0.080  
 -0.075  
 -0.060  
 -0.050  
 -0.050  
 -0.045  
 -0.040  
 -0.050  
 -0.060  
 -0.055  
 -0.065  
 -0.060  
 -0.065  
 -0.065  
 -0.065  
 -0.070  
 -0.060  
 -0.055  
 -0.060  
 -0.055  
 -0.050  
 -0.045  
 -0.050  
 -0.055  
 -0.050  
 -0.045  
 -0.040  
 -0.080  
 -0.110  
 -0.105  
 -0.125  
 -0.150  
 -0.145  
 -0.110  
 -0.080  
 -0.065  
 -0.030  
 -0.015  
  0.005  
 -0.010  
 -0.010  
 -0.010  
 -0.020  
 -0.025  
 -0.060  
 -0.310  
 -0.815  
 -1.280  
 -0.475  
  0.525  
  0.530  
  0.310  
  0.095  
 -0.005  
 -0.045  
 -0.065  
 -0.085  
 -0.080  
 -0.095  
 -0.105  
 -0.110  
 -0.105  
 -0.120  
 -0.130  
 -0.145  
 -0.155  
 -0.170  
 -0.190  
 -0.215  
 -0.245  
 -0.280  
 -0.320  
 -0.345  
 -0.370  
 -0.395  
 -0.395  
 -0.400  
 -0.365  
 -0.295  
 -0.235  
 -0.170  
 -0.120  
 -0.080  
 -0.050  
 -0.035  
 -0.040  
 -0.035  
 -0.025  
 -0.020  
 -0.010  
 -0.015  
 -0.005  
 -0.005  
 -0.005  
 -0.005  
 -0.010  
 -0.010  
 -0.005  
 -0.005  
 -0.005  
 -0.005  
 -0.005  
  0.005  
  0.005  
  0.000  
  0.000  
  0.000  
 -0.005  
 -0.005  
 -0.005  
 -0.005  
  0.005  
  0.010  
  0.010  
  0.015  
 -0.005  
 -0.045  
 -0.035  
 -0.045  
 -0.070  
 -0.100  
 -0.080  
 -0.055  
 -0.030  
  0.010  
  0.035  
  0.045  
  0.035  
  0.035  
  0.030  
  0.030  
  0.025  
  0.035  
 -0.115  
 -0.560  
 -1.115  
 -0.785  
  0.235  
  0.620  
  0.405  
  0.190  
  0.055  
  0.015  
 -0.015  
 -0.025  
 -0.030  
 -0.045  
 -0.050  
 -0.065  
 -0.070  
 -0.080  
 -0.080  
 -0.100  
 -0.115  
 -0.125  
 -0.150  
 -0.165  
 -0.190  
 -0.225  
 -0.260  
 -0.290  
 -0.310  
 -0.335  
 -0.355  
 -0.360  
 -0.330  
 -0.305  
 -0.240  
 -0.185  
 -0.135  
 -0.095  
 -0.060  
 -0.045  
 -0.035  
 -0.025  
 -0.010  
 -0.010  
 -0.015  
 -0.005  
 -0.005  
  0.000  
 -0.005  
  0.000  
 -0.005  
  0.000  
 -0.005  
 -0.005  
  0.005  
  0.015  
  0.020  
  0.025  
  0.030  
  0.015  
  0.035  
  0.035  
  0.030  
  0.030  
  0.035  
  0.025  
  0.035  
  0.035  
  0.045  
  0.040  
  0.035  
  0.040  
  0.045  
  0.035  
  0.015  
 -0.010  
  0.005  
 -0.010  
 -0.035  
 -0.035  
  0.010  
  0.025  
  0.045  
  0.075  
  0.095  
  0.095  
  0.095  
  0.100  
  0.085  
  0.070  
  0.080  
  0.085  
 -0.115  
 -0.580  
 -1.080  
 -0.470  
  0.495  
  0.605  
  0.460  
  0.275  
  0.135  
  0.080  
  0.050  
  0.040  
  0.045  
  0.050  
  0.035  
  0.035  
  0.025  
  0.010  
  0.005  
 -0.005  
 -0.005  
 -0.020  
 -0.020  
 -0.045  
 -0.080  
 -0.105  
 -0.130  
 -0.150  
 -0.155  
 -0.175  
 -0.195  
 -0.180  
 -0.155  
 -0.135  
 -0.085  
 -0.025  
  0.035  
  0.075  
  0.095  
  0.105  
  0.115  
  0.135  
  0.150  
  0.145  
  0.145  
  0.140  
  0.130  
  0.140  
  0.150  
  0.155  
  0.140  
  0.135  
  0.145  
  0.150  
  0.165  
  0.170  
  0.170  
  0.165  
  0.170  
  0.180  
  0.185  
  0.170  
  0.170  
  0.165  
  0.190  
  0.195  
  0.195  
  0.165  
  0.150  
  0.145  
  0.120  
  0.080  
  0.085  
  0.145  
  0.160  
  0.155  
  0.195  
  0.220  
  0.225  
  0.215  
  0.220  
  0.215  
  0.205  
  0.200  
  0.265  
  0.200  
 -0.185  
 -0.795  
 -0.760  
