6000.0
100.0
 -0.095 
 -0.080 
 -0.055 
 -0.050 
 -0.030 
 -0.010 
  0.010 
  0.030 
  0.050 
  0.060 
  0.085 
  0.095 
  0.105 
  0.095 
  0.085 
  0.070 
  0.065 
  0.050 
  0.040 
  0.030 
  0.035 
  0.025 
  0.025 
  0.025 
  0.030 
  0.040 
  0.045 
  0.040 
  0.035 
  0.025 
 -0.030 
 -0.070 
 -0.085 
 -0.125 
 -0.140 
 -0.095 
 -0.050 
  0.050 
  0.080 
  0.070 
  0.095 
  0.105 
  0.105 
  0.095 
  0.085 
  0.075 
 -0.290 
 -0.940 
 -1.515 
  0.090 
  2.870 
  3.350 
  2.350 
  1.355 
  0.570 
  0.240 
  0.130 
  0.090 
  0.080 
  0.055 
  0.055 
  0.045 
  0.045 
  0.035 
  0.040 
  0.035 
  0.030 
  0.015 
  0.015 
 -0.005 
 -0.030 
 -0.065 
 -0.075 
 -0.090 
 -0.095 
 -0.095 
 -0.085 
 -0.075 
 -0.065 
 -0.060 
 -0.050 
 -0.025 
 -0.010 
 -0.005 
  0.030 
  0.055 
  0.055 
  0.060 
  0.065 
  0.060 
  0.040 
  0.025 
  0.015 
  0.010 
 -0.005 
 -0.015 
 -0.015 
 -0.005 
 -0.020 
 -0.015 
 -0.010 
 -0.005 
 -0.010 
 -0.010 
 -0.005 
 -0.015 
 -0.060 
 -0.105 
 -0.105 
 -0.145 
 -0.190 
 -0.185 
 -0.130 
 -0.070 
  0.015 
  0.025 
  0.015 
  0.055 
  0.075 
  0.065 
  0.065 
  0.045 
 -0.030 
 -0.510 
 -1.085 
 -1.135 
  1.095 
  3.090 
  2.470 
  1.655 
  0.900 
  0.315 
  0.135 
  0.070 
  0.050 
  0.035 
  0.025 
  0.025 
  0.025 
  0.010 
  0.020 
  0.025 
  0.015 
  0.010 
  0.000 
 -0.005 
 -0.015 
 -0.045 
 -0.080 
 -0.110 
 -0.090 
 -0.090 
 -0.075 
 -0.080 
 -0.080 
 -0.080 
 -0.075 
 -0.055 
 -0.050 
 -0.025 
 -0.030 
 -0.015 
 -0.015 
 -0.020 
 -0.020 
 -0.035 
 -0.040 
 -0.040 
 -0.060 
 -0.080 
 -0.090 
 -0.065 
 -0.050 
 -0.070 
 -0.090 
 -0.075 
 -0.060 
 -0.055 
 -0.080 
 -0.080 
 -0.060 
 -0.060 
 -0.090 
 -0.165 
 -0.190 
 -0.220 
 -0.280 
 -0.270 
 -0.215 
 -0.155 
 -0.070 
 -0.050 
 -0.055 
 -0.025 
 -0.015 
 -0.030 
 -0.045 
 -0.050 
 -0.150 
 -0.660 
 -1.295 
 -1.225 
  1.055 
  2.915 
  2.305 
  1.535 
  0.750 
  0.185 
  0.025 
 -0.060 
 -0.095 
 -0.115 
 -0.120 
 -0.120 
 -0.115 
 -0.125 
 -0.130 
 -0.130 
 -0.130 
 -0.145 
 -0.160 
 -0.170 
 -0.175 
 -0.195 
 -0.240 
 -0.265 
 -0.285 
 -0.290 
 -0.295 
 -0.315 
 -0.295 
 -0.275 
 -0.285 
 -0.280 
 -0.270 
 -0.255 
 -0.230 
 -0.230 
 -0.235 
 -0.220 
 -0.210 
 -0.220 
 -0.230 
 -0.240 
 -0.255 
 -0.285 
 -0.295 
 -0.290 
 -0.295 
 -0.285 
 -0.300 
 -0.320 
 -0.310 
 -0.305 
 -0.310 
 -0.295 
 -0.295 
 -0.305 
 -0.340 
 -0.415 
 -0.430 
 -0.480 
 -0.540 
 -0.515 
 -0.460 
 -0.380 
 -0.315 
 -0.305 
 -0.285 
 -0.270 
 -0.255 
 -0.265 
 -0.260 
 -0.275 
 -0.455 
 -1.010 
 -1.830 
 -1.360 
  1.165 
  2.765 
  2.145 
  1.325 
  0.455 
 -0.070 
 -0.200 
 -0.270 
 -0.290 
 -0.300 
 -0.305 
 -0.315 
 -0.310 
 -0.310 
 -0.325 
 -0.335 
 -0.340 
 -0.350 
 -0.365 
 -0.390 
 -0.410 
 -0.435 
 -0.465 
 -0.490 
 -0.505 
 -0.515 
 -0.505 
 -0.500 
 -0.490 
 -0.490 
 -0.470 
 -0.445 
 -0.420 
 -0.415 
 -0.385 
 -0.355 
 -0.335 
 -0.325 
 -0.320 
 -0.305 
 -0.315 
 -0.340 
 -0.355 
 -0.375 
 -0.370 
 -0.375 
 -0.375 
 -0.380 
 -0.380 
 -0.365 
 -0.370 
 -0.355 
 -0.345 
 -0.345 
 -0.335 
 -0.335 
 -0.330 
 -0.370 
 -0.425 
 -0.455 
 -0.485 
 -0.525 
 -0.535 
 -0.505 
 -0.450 
 -0.355 
 -0.330 
 -0.320 
 -0.295 
 -0.290 
 -0.280 
 -0.290 
 -0.300 
 -0.360 
 -0.845 
 -1.615 
 -2.190 
 -0.015 
  2.835 
  2.810 
  1.830 
  0.780 
  0.055 
 -0.175 
 -0.270 
 -0.300 
 -0.320 
 -0.325 
 -0.325 
 -0.335 
 -0.345 
 -0.350 
 -0.345 
 -0.355 
 -0.355 
 -0.365 
 -0.385 
 -0.405 
 -0.430 
 -0.460 
 -0.485 
 -0.500 
 -0.505 
 -0.505 
 -0.500 
 -0.490 
 -0.470 
 -0.450 
 -0.435 
 -0.405 
 -0.370 
 -0.355 
 -0.340 
 -0.310 
 -0.300 
 -0.280 
 -0.275 
 -0.275 
 -0.285 
 -0.285 
 -0.285 
 -0.295 
 -0.310 
 -0.330 
 -0.325 
 -0.325 
 -0.315 
 -0.315 
 -0.305 
 -0.295 
 -0.295 
 -0.290 
 -0.285 
 -0.290 
 -0.300 
 -0.305 
 -0.345 
 -0.410 
 -0.435 
 -0.470 
 -0.500 
 -0.485 
 -0.450 
 -0.380 
 -0.310 
 -0.295 
 -0.295 
 -0.265 
 -0.250 
 -0.235 
 -0.250 
 -0.265 
 -0.380 
 -0.935 
 -1.670 
 -1.750 
  0.775 
  3.135 
  2.685 
  1.635 
  0.650 
  0.035 
 -0.145 
 -0.240 
 -0.270 
 -0.285 
 -0.280 
 -0.290 
 -0.290 
 -0.295 
 -0.295 
 -0.295 
 -0.295 
 -0.305 
 -0.310 
 -0.325 
 -0.345 
 -0.375 
 -0.385 
 -0.405 
 -0.415 
 -0.425 
 -0.415 
 -0.400 
 -0.380 
 -0.355 
 -0.345 
 -0.325 
 -0.310 
 -0.295 
 -0.275 
 -0.250 
 -0.230 
 -0.215 
 -0.205 
 -0.205 
 -0.205 
 -0.210 
 -0.215 
 -0.235 
 -0.255 
 -0.240 
 -0.250 
 -0.260 
 -0.255 
 -0.260 
 -0.255 
 -0.250 
 -0.250 
 -0.250 
 -0.230 
 -0.230 
 -0.225 
 -0.225 
 -0.220 
 -0.225 
 -0.270 
 -0.335 
 -0.355 
 -0.385 
 -0.425 
 -0.420 
 -0.380 
 -0.300 
 -0.220 
 -0.215 
 -0.210 
 -0.170 
 -0.165 
 -0.160 
 -0.165 
 -0.185 
 -0.280 
 -0.815 
 -1.490 
 -1.605 
  0.850 
  3.220 
  2.755 
  1.735 
  0.770 
  0.125 
 -0.060 
 -0.140 
 -0.170 
 -0.185 
 -0.185 
 -0.185 
 -0.185 
 -0.185 
 -0.180 
 -0.185 
 -0.190 
 -0.190 
 -0.195 
 -0.205 
 -0.220 
 -0.245 
 -0.265 
 -0.285 
 -0.300 
 -0.290 
 -0.285 
 -0.285 
 -0.270 
 -0.255 
 -0.235 
 -0.235 
 -0.225 
 -0.210 
 -0.195 
 -0.170 
 -0.155 
 -0.145 
 -0.140 
 -0.135 
 -0.150 
 -0.165 
 -0.185 
 -0.205 
 -0.210 
 -0.215 
 -0.215 
 -0.225 
 -0.225 
 -0.225 
 -0.215 
 -0.210 
 -0.210 
 -0.190 
 -0.180 
 -0.180 
 -0.180 
 -0.170 
 -0.165 
 -0.170 
 -0.180 
 -0.190 
 -0.240 
 -0.290 
 -0.295 
 -0.345 
 -0.375 
 -0.325 
 -0.285 
 -0.190 
 -0.150 
 -0.155 
 -0.145 
 -0.115 
 -0.105 
 -0.110 
 -0.120 
 -0.150 
 -0.460 
 -1.065 
 -1.630 
 -0.215 
  2.430 
  3.050 
  2.085 
  1.195 
  0.425 
  0.055 
 -0.055 
 -0.100 
 -0.110 
 -0.125 
 -0.145 
 -0.145 
 -0.140 
 -0.130 
 -0.140 
 -0.145 
 -0.145 
 -0.145 
 -0.155 
 -0.165 
 -0.190 
 -0.210 
 -0.225 
 -0.215 
 -0.235 
 -0.235 
 -0.225 
 -0.205 
 -0.195 
 -0.170 
 -0.170 
 -0.165 
 -0.145 
 -0.130 
 -0.130 
 -0.125 
 -0.115 
 -0.105 
 -0.100 
 -0.100 
 -0.125 
 -0.150 
 -0.155 
 -0.165 
 -0.175 
 -0.175 
 -0.185 
 -0.180 
 -0.185 
 -0.175 
 -0.160 
 -0.145 
 -0.150 
 -0.150 
 -0.150 
 -0.150 
 -0.145 
 -0.120 
 -0.120 
 -0.135 
 -0.175 
 -0.235 
 -0.240 
 -0.290 
 -0.355 
 -0.325 
 -0.275 
 -0.195 
 -0.130 
 -0.120 
 -0.120 
 -0.090 
 -0.080 
 -0.080 
 -0.105 
 -0.110 
 -0.290 
 -0.825 
 -1.400 
 -0.555 
  1.855 
  2.930 
  2.045 
  1.285 
  0.545 
  0.105 
  0.005 
 -0.045 
 -0.065 
 -0.080 
 -0.080 
 -0.090 
 -0.095 
 -0.085 
 -0.090 
 -0.080 
 -0.080 
 -0.070 
 -0.080 
 -0.115 
 -0.120 
 -0.130 
 -0.155 
 -0.170 
 -0.185 
 -0.175 
 -0.170 
 -0.155 
 -0.155 
 -0.125 
 -0.110 
 -0.120 
 -0.110 
 -0.095 
 -0.110 
 -0.100 
 -0.080 
 -0.060 
 -0.080 
 -0.090 
 -0.105 
 -0.115 
 -0.125 
 -0.120 
 -0.125 
 -0.125 
 -0.125 
 -0.125 
 -0.125 
 -0.100 
 -0.100 
 -0.095 
 -0.095 
 -0.085 
 -0.085 
 -0.070 
 -0.070 
 -0.065 
 -0.080 
 -0.135 
 -0.175 
 -0.195 
 -0.265 
 -0.275 
 -0.225 
 -0.165 
 -0.080 
 -0.040 
 -0.040 
 -0.005 
  0.015 
  0.005 
 -0.005 
 -0.010 
 -0.065 
 -0.525 
 -1.170 
 -1.555 
  0.575 
  3.030 
  2.750 
  1.875 
  1.005 
  0.355 
  0.135 
  0.055 
  0.025 
  0.015 
 -0.005 
 -0.005 
 -0.010 
  0.000 
 -0.010 
  0.005 
  0.010 
  0.005 
 -0.015 
 -0.025 
 -0.050 
 -0.060 
 -0.090 
 -0.105 
 -0.120 
 -0.115 
 -0.115 
 -0.105 
 -0.080 
 -0.055 
 -0.045 
 -0.035 
 -0.025 
 -0.010 
 -0.005 
  0.015 
  0.030 
  0.050 
  0.060 
  0.065 
  0.050 
  0.040 
  0.020 
 -0.005 
 -0.010 
 -0.015 
 -0.020 
 -0.030 
 -0.030 
 -0.020 
 -0.025 
 -0.015 
 -0.010 
  0.000 
 -0.005 
  0.010 
  0.005 
  0.010 
 -0.005 
 -0.040 
 -0.105 
 -0.125 
 -0.170 
 -0.195 
 -0.180 
 -0.140 
 -0.070 
  0.005 
  0.020 
  0.030 
  0.055 
  0.060 
  0.050 
  0.040 
  0.025 
 -0.130 
 -0.715 
 -1.475 
 -1.150 
  1.535 
  3.505 
  2.820 
  1.780 
  0.835 
  0.295 
  0.130 
  0.060 
  0.045 
  0.025 
  0.025 
  0.010 
  0.015 
  0.005 
  0.005 
 -0.010 
 -0.015 
 -0.030 
 -0.045 
 -0.060 
 -0.090 
 -0.125 
 -0.140 
 -0.165 
 -0.165 
 -0.180 
 -0.165 
 -0.170 
 -0.150 
 -0.145 
 -0.120 
 -0.115 
 -0.105 
 -0.095 
 -0.075 
 -0.070 
 -0.055 
 -0.050 
 -0.045 
 -0.045 
 -0.045 
 -0.065 
 -0.070 
 -0.095 
 -0.110 
 -0.130 
 -0.130 
 -0.135 
 -0.135 
 -0.135 
 -0.125 
 -0.135 
 -0.125 
 -0.130 
 -0.125 
 -0.135 
 -0.130 
 -0.140 
 -0.135 
 -0.140 
 -0.145 
 -0.185 
 -0.240 
 -0.275 
 -0.300 
 -0.345 
 -0.335 
 -0.305 
 -0.235 
 -0.165 
 -0.160 
 -0.165 
 -0.130 
 -0.120 
 -0.115 
 -0.135 
 -0.140 
 -0.265 
 -0.810 
 -1.500 
 -1.490 
  1.010 
  3.255 
  2.700 
  1.695 
  0.745 
  0.135 
 -0.050 
 -0.130 
 -0.170 
 -0.185 
 -0.195 
 -0.190 
 -0.205 
 -0.195 
 -0.205 
 -0.205 
 -0.220 
 -0.220 
 -0.240 
 -0.240 
 -0.270 
 -0.290 
 -0.320 
 -0.325 
 -0.340 
 -0.330 
 -0.335 
 -0.320 
 -0.320 
 -0.295 
 -0.280 
 -0.255 
 -0.260 
 -0.240 
 -0.240 
 -0.225 
 -0.220 
 -0.195 
 -0.195 
 -0.195 
 -0.220 
 -0.235 
 -0.250 
 -0.265 
 -0.280 
 -0.290 
 -0.310 
 -0.315 
 -0.320 
 -0.305 
 -0.305 
 -0.300 
 -0.300 
 -0.290 
 -0.285 
 -0.285 
 -0.300 
 -0.290 
 -0.295 
 -0.285 
 -0.295 
 -0.290 
 -0.300 
 -0.285 
 -0.290 
 -0.315 
 -0.385 
 -0.400 
 -0.430 
 -0.470 
 -0.495 
 -0.440 
 -0.385 
 -0.290 
 -0.280 
 -0.270 
 -0.250 
 -0.225 
 -0.235 
 -0.230 
 -0.255 
 -0.285 
 -0.730 
 -1.360 
 -1.815 
  0.210 
  2.890 
  2.835 
  1.820 
  0.865 
  0.150 
 -0.105 
 -0.215 
 -0.240 
 -0.265 
 -0.260 
 -0.265 
 -0.265 
 -0.285 
 -0.270 
 -0.270 
 -0.260 
 -0.265 
 -0.260 
 -0.290 
 -0.290 
 -0.320 
 -0.335 
 -0.360 
 -0.350 
 -0.355 
 -0.335 
 -0.330 
 -0.305 
 -0.290 
 -0.250 
 -0.240 
 -0.225 
 -0.225 
 -0.215 
 -0.225 
 -0.215 
 -0.220 
 -0.210 
 -0.220 
 -0.220 
 -0.240 
 -0.250 
 -0.280 
 -0.280 
 -0.300 
 -0.295 
 -0.310 
 -0.295 
 -0.290 
 -0.275 
 -0.280 
 -0.265 
 -0.270 
 -0.245 
 -0.255 
 -0.245 
 -0.240 
 -0.235 
 -0.255 
 -0.250 
 -0.255 
 -0.225 
 -0.250 
 -0.315 
 -0.370 
 -0.355 
 -0.420 
 -0.450 
 -0.400 
 -0.335 
 -0.250 
 -0.205 
 -0.220 
 -0.195 
 -0.175 
 -0.165 
 -0.185 
 -0.180 
 -0.210 
 -0.485 
 -1.100 
 -1.655 
 -0.370 
  2.310 
  3.085 
  2.105 
  1.160 
  0.385 
 -0.005 
 -0.105 
 -0.165 
 -0.180 
 -0.200 
 -0.180 
 -0.190 
 -0.180 
 -0.195 
 -0.185 
 -0.190 
 -0.175 
 -0.190 
 -0.205 
 -0.235 
 -0.230 
 -0.240 
 -0.250 
 -0.280 
 -0.280 
 -0.290 
 -0.265 
 -0.250 
 -0.225 
 -0.225 
 -0.195 
 -0.190 
 -0.175 
 -0.190 
 -0.170 
 -0.175 
 -0.140 
 -0.155 
 -0.170 
 -0.175 
 -0.175 
 -0.210 
 -0.215 
 -0.225 
 -0.215 
 -0.240 
 -0.240 
 -0.240 
 -0.230 
 -0.235 
 -0.215 
 -0.215 
 -0.195 
 -0.205 
 -0.200 
 -0.200 
 -0.185 
 -0.200 
 -0.195 
 -0.205 
 -0.205 
 -0.250 
 -0.295 
 -0.315 
 -0.365 
 -0.425 
 -0.370 
 -0.340 
 -0.240 
 -0.190 
 -0.165 
 -0.165 
 -0.125 
 -0.125 
 -0.110 
 -0.150 
 -0.155 
 -0.400 
 -0.930 
 -1.510 
 -0.395 
  2.060 
  2.830 
  1.945 
  1.175 
  0.415 
  0.030 
 -0.055 
 -0.105 
 -0.125 
 -0.130 
 -0.160 
 -0.145 
 -0.145 
 -0.125 
 -0.140 
 -0.130 
 -0.155 
 -0.145 
 -0.175 
 -0.165 
 -0.175 
 -0.175 
 -0.215 
 -0.230 
 -0.260 
 -0.230 
 -0.225 
 -0.200 
 -0.200 
 -0.185 
 -0.190 
 -0.155 
 -0.160 
 -0.140 
 -0.145 
 -0.150 
 -0.165 
 -0.145 
 -0.160 
 -0.145 
 -0.170 
 -0.170 
 -0.185 
 -0.170 
 -0.190 
 -0.185 
 -0.205 
 -0.185 
 -0.200 
 -0.190 
 -0.195 
 -0.180 
 -0.180 
 -0.145 
 -0.150 
 -0.160 
 -0.180 
 -0.150 
 -0.155 
 -0.165 
 -0.235 
 -0.270 
 -0.310 
 -0.345 
 -0.375 
 -0.315 
 -0.270 
 -0.165 
 -0.150 
 -0.130 
 -0.105 
 -0.065 
 -0.070 
 -0.065 
 -0.080 
 -0.140 
 -0.585 
 -1.235 
 -1.670 
  0.465 
  2.810 
  2.575 
  1.785 
  0.925 
  0.265 
  0.080 
 -0.025 
 -0.055 
 -0.070 
 -0.070 
 -0.080 
 -0.070 
 -0.080 
 -0.070 
 -0.080 
 -0.055 
 -0.065 
 -0.065 
 -0.090 
 -0.080 
 -0.110 
 -0.130 
 -0.165 
 -0.155 
 -0.170 
 -0.155 
 -0.165 
 -0.130 
 -0.115 
 -0.085 
 -0.095 
 -0.060 
 -0.065 
 -0.045 
 -0.050 
 -0.015 
 -0.015 
  0.005 
 -0.010 
 -0.005 
 -0.025 
 -0.025 
 -0.040 
 -0.035 
 -0.055 
 -0.050 
 -0.055 
 -0.055 
 -0.065 
 -0.045 
 -0.035 
 -0.025 
 -0.030 
 -0.015 
 -0.015 
 -0.005 
 -0.025 
 -0.010 
 -0.025 
 -0.040 
 -0.105 
 -0.135 
 -0.170 
 -0.200 
 -0.210 
 -0.175 
 -0.105 
  0.005 
  0.010 
  0.030 
  0.045 
  0.065 
  0.055 
  0.070 
  0.050 
 -0.055 
 -0.610 
 -1.360 
 -1.520 
  0.975 
  3.355 
  2.945 
  1.935 
  0.985 
  0.345 
  0.170 
  0.085 
  0.070 
  0.040 
  0.050 
  0.035 
  0.040 
  0.040 
  0.055 
  0.045 
  0.050 
  0.030 
  0.035 
  0.005 
 -0.005 
 -0.040 
 -0.060 
 -0.090 
 -0.095 
 -0.105 
 -0.080 
 -0.080 
 -0.055 
 -0.040 
 -0.010 
 -0.015 
  0.020 
  0.025 
  0.045 
  0.045 
  0.080 
  0.080 
  0.095 
  0.095 
  0.110 
  0.080 
  0.080 
  0.045 
  0.050 
  0.030 
  0.030 
  0.015 
  0.035 
  0.020 
  0.040 
  0.030 
  0.050 
  0.040 
  0.050 
  0.045 
  0.060 
  0.055 
  0.060 
  0.045 
 -0.005 
 -0.065 
 -0.070 
 -0.120 
 -0.135 
 -0.120 
 -0.070 
  0.015 
  0.085 
  0.075 
  0.100 
  0.110 
  0.135 
  0.115 
  0.120 
  0.090 
 -0.125 
 -0.740 
 -1.430 
 -0.675 
  2.075 
  3.570 
  2.715 
  1.690 
  0.795 
  0.315 
  0.190 
  0.115 
  0.110 
  0.090 
  0.095 
  0.075 
  0.080 
  0.065 
  0.080 
  0.065 
  0.075 
  0.060 
  0.065 
  0.035 
  0.020 
 -0.010 
 -0.010 
 -0.040 
 -0.045 
 -0.055 
 -0.035 
 -0.025 
  0.000 
  0.015 
  0.045 
  0.045 
  0.070 
  0.060 
  0.085 
  0.085 
  0.110 
  0.115 
  0.130 
  0.105 
  0.105 
  0.080 
  0.070 
  0.045 
  0.045 
  0.025 
  0.030 
  0.015 
  0.030 
  0.015 
  0.035 
  0.020 
  0.035 
  0.030 
  0.045 
  0.035 
  0.050 
  0.035 
  0.040 
  0.025 
 -0.005 
 -0.085 
 -0.090 
 -0.135 
 -0.165 
 -0.150 
 -0.095 
 -0.025 
  0.065 
  0.050 
  0.065 
  0.085 
  0.105 
  0.095 
  0.090 
  0.065 
 -0.080 
 -0.675 
 -1.305 
 -0.905 
  1.725 
  3.570 
  2.815 
  1.785 
  0.880 
  0.315 
  0.180 
  0.105 
  0.095 
  0.070 
  0.075 
  0.080 
  0.080 
  0.065 
  0.080 
  0.065 
  0.075 
  0.055 
  0.055 
  0.025 
  0.020 
 -0.015 
 -0.030 
 -0.065 
 -0.060 
 -0.075 
 -0.050 
 -0.050 
 -0.010 
 -0.005 
  0.010 
  0.005 
  0.025 
  0.030 
  0.065 
  0.055 
  0.080 
  0.070 
  0.090 
  0.075 
  0.065 
  0.045 
  0.040 
  0.015 
  0.010 
 -0.015 
 -0.010 
 -0.015 
  0.005 
 -0.010 
  0.005 
  0.000 
  0.015 
  0.010 
  0.025 
 -0.005 
  0.015 
  0.015 
  0.025 
 -0.040 
 -0.090 
 -0.110 
 -0.145 
 -0.195 
 -0.155 
 -0.115 
 -0.015 
  0.035 
  0.050 
  0.040 
  0.080 
  0.070 
  0.080 
  0.055 
  0.060 
 -0.180 
 -0.725 
 -1.305 
 -0.370 
  2.110 
  3.175 
  2.275 
  1.470 
  0.685 
  0.255 
  0.130 
  0.080 
  0.055 
  0.040 
  0.025 
  0.045 
  0.035 
  0.050 
  0.025 
  0.030 
  0.030 
  0.050 
  0.020 
  0.015 
 -0.025 
 -0.020 
 -0.055 
 -0.065 
 -0.090 
 -0.065 
 -0.065 
 -0.045 
 -0.035 
 -0.015 
 -0.030 
  0.015 
  0.010 
  0.020 
  0.045 
  0.060 
  0.030 
  0.045 
  0.035 
  0.060 
  0.025 
  0.005 
 -0.025 
 -0.015 
 -0.035 
 -0.035 
 -0.050 
 -0.030 
 -0.050 
 -0.030 
 -0.030 
 -0.025 
 -0.040 
 -0.005 
 -0.020 
 -0.015 
 -0.020 
 -0.015 
 -0.070 
 -0.095 
 -0.135 
 -0.195 
 -0.250 
 -0.205 
 -0.185 
 -0.090 
 -0.010 
  0.015 
 -0.010 
  0.045 
  0.045 
  0.050 
  0.030 
  0.040 
 -0.130 
 -0.620 
 -1.295 
 -0.790 
  1.560 
  3.035 
  2.315 
  1.575 
  0.760 
  0.275 
  0.145 
  0.090 
  0.055 
  0.055 
  0.050 
  0.045 
  0.010 
  0.040 
  0.035 
  0.065 
  0.035 
  0.030 
  0.030 
  0.035 
 -0.010 
 -0.005 
 -0.050 
 -0.060 
 -0.075 
 -0.070 
 -0.065 
 -0.055 
 -0.065 
 -0.025 
 -0.025 
 -0.010 
 -0.015 
  0.030 
  0.030 
  0.040 
  0.025 
  0.050 
  0.040 
  0.055 
  0.040 
  0.035 
  0.025 
  0.040 
  0.030 
  0.035 
  0.015 
  0.030 
  0.015 
  0.040 
  0.035 
  0.055 
  0.055 
  0.055 
  0.050 
  0.065 
  0.055 
  0.050 
 -0.015 
 -0.045 
 -0.105 
 -0.150 
 -0.155 
 -0.090 
 -0.035 
  0.045 
  0.055 
  0.090 
  0.115 
  0.145 
  0.130 
  0.125 
  0.110 
 -0.005 
 -0.530 
 -1.310 
 -1.170 
  1.280 
  3.175 
  2.640 
  1.810 
  0.945 
  0.380 
  0.240 
  0.140 
  0.135 
  0.115 
  0.115 
  0.100 
  0.115 
  0.095 
  0.110 
  0.105 
  0.120 
  0.090 
  0.085 
  0.055 
  0.050 
  0.015 
  0.005 
 -0.025 
 -0.025 
 -0.040 
 -0.035 
 -0.025 
  0.000 
  0.020 
  0.035 
  0.035 
  0.080 
  0.080 
  0.105 
  0.115 
  0.145 
  0.150 
  0.175 
  0.160 
  0.155 
  0.135 
  0.135 
  0.120 
  0.120 
  0.095 
  0.105 
  0.095 
  0.110 
  0.100 
  0.110 
  0.110 
  0.120 
  0.115 
  0.145 
  0.140 
  0.155 
  0.140 
  0.105 
  0.030 
  0.025 
 -0.030 
 -0.050 
 -0.035 
  0.015 
  0.090 
  0.165 
  0.170 
  0.205 
  0.215 
  0.240 
  0.220 
  0.215 
  0.195 
 -0.060 
 -0.720 
 -1.540 
 -0.590 
  2.325 
  3.605 
  2.760 
  1.695 
  0.815 
  0.385 
  0.260 
  0.185 
  0.175 
  0.150 
  0.155 
  0.135 
  0.140 
  0.125 
  0.130 
  0.105 
  0.105 
  0.080 
  0.080 
  0.035 
  0.020 
 -0.010 
 -0.025 
 -0.065 
 -0.065 
 -0.085 
 -0.080 
 -0.080 
 -0.045 
 -0.045 
 -0.025 
 -0.020 
  0.015 
  0.025 
  0.045 
  0.060 
  0.095 
  0.085 
  0.085 
  0.080 
  0.065 
  0.040 
  0.025 
 -0.005 
 -0.015 
 -0.035 
 -0.040 
 -0.050 
 -0.035 
 -0.050 
 -0.035 
 -0.035 
 -0.030 
 -0.040 
 -0.025 
 -0.035 
 -0.030 
 -0.050 
 -0.090 
 -0.165 
 -0.170 
 -0.230 
 -0.250 
 -0.240 
 -0.185 
 -0.105 
 -0.045 
 -0.060 
 -0.035 
 -0.025 
 -0.005 
 -0.025 
 -0.035 
 -0.060 
 -0.240 
 -0.855 
 -1.570 
 -1.035 
  1.680 
  3.415 
  2.630 
  1.585 
  0.675 
  0.150 
  0.010 
 -0.075 
 -0.085 
 -0.110 
 -0.095 
 -0.110 
 -0.105 
 -0.125 
 -0.125 
 -0.140 
 -0.130 
 -0.160 
 -0.165 
 -0.195 
 -0.215 
 -0.255 
 -0.265 
 -0.295 
 -0.305 
 -0.320 
 -0.315 
 -0.315 
 -0.290 
 -0.280 
 -0.255 
 -0.260 
 -0.235 
 -0.225 
 -0.205 
 -0.205 
 -0.180 
 -0.190 
 -0.165 
 -0.175 
 -0.185 
 -0.205 
 -0.215 
 -0.230 
 -0.240 
 -0.275 
 -0.270 
 -0.275 
 -0.280 
 -0.295 
 -0.275 
 -0.270 
 -0.265 
 -0.270 
 -0.260 
 -0.265 
 -0.270 
 -0.315 
 -0.365 
 -0.410 
 -0.425 
 -0.495 
 -0.485 
 -0.445 
 -0.355 
 -0.285 
 -0.265 
 -0.280 
 -0.235 
 -0.230 
 -0.220 
 -0.240 
 -0.240 
 -0.310 
 -0.775 
 -1.410 
 -1.765 
  0.335 
  2.825 
  2.575 
  1.680 
  0.765 
  0.100 
 -0.145 
 -0.225 
 -0.270 
 -0.265 
 -0.280 
 -0.275 
 -0.295 
 -0.275 
 -0.305 
 -0.300 
 -0.305 
 -0.295 
 -0.310 
 -0.330 
 -0.355 
 -0.370 
 -0.400 
 -0.410 
 -0.435 
 -0.425 
 -0.445 
 -0.430 
 -0.430 
 -0.405 
 -0.400 
 -0.375 
 -0.380 
 -0.350 
 -0.345 
 -0.315 
 -0.305 
 -0.290 
 -0.305 
 -0.280 
 -0.280 
 -0.285 
 -0.325 
 -0.335 
 -0.345 
 -0.340 
 -0.350 
 -0.330 
 -0.345 
 -0.345 
 -0.340 
 -0.320 
 -0.335 
 -0.325 
 -0.330 
 -0.315 
 -0.325 
 -0.365 
 -0.425 
 -0.430 
 -0.510 
 -0.515 
 -0.485 
 -0.445 
 -0.385 
 -0.325 
 -0.310 
 -0.265 
 -0.265 
 -0.250 
 -0.270 
 -0.270 
 -0.295 
 -0.525 
 -1.085 
 -1.770 
 -0.750 
  1.775 
  2.635 
  1.845 
  1.050 
  0.295 
 -0.115 
 -0.200 
 -0.270 
 -0.280 
 -0.315 
 -0.300 
 -0.295 
 -0.270 
 -0.295 
 -0.295 
 -0.305 
 -0.305 
 -0.310 
 -0.305 
 -0.355 
 -0.360 
 -0.385 
 -0.400 
 -0.415 
 -0.415 
 -0.435 
 -0.425 
 -0.440 
 -0.420 
 -0.425 
 -0.385 
 -0.380 
 -0.355 
 -0.335 
 -0.305 
 -0.305 
 -0.285 
 -0.280 
 -0.255 
 -0.270 
 -0.295 
 -0.295 
 -0.275 
 -0.290 
 -0.280 
 -0.305 
 -0.305 
 -0.305 
 -0.285 
 -0.295 
 -0.285 
 -0.295 
 -0.280 
 -0.290 
 -0.285 
 -0.315 
 -0.350 
 -0.390 
 -0.410 
 -0.470 
 -0.480 
 -0.440 
 -0.375 
 -0.295 
 -0.255 
 -0.240 
 -0.205 
 -0.200 
 -0.205 
 -0.220 
 -0.200 
 -0.250 
 -0.650 
 -1.350 
 -2.025 
 -0.115 
  2.585 
  2.650 
  1.890 
  0.935 
  0.195 
 -0.045 
 -0.120 
 -0.170 
 -0.175 
 -0.185 
 -0.185 
 -0.205 
 -0.205 
 -0.215 
 -0.210 
 -0.205 
 -0.210 
 -0.215 
 -0.205 
 -0.235 
 -0.260 
 -0.295 
 -0.290 
 -0.305 
 -0.315 
 -0.315 
 -0.310 
 -0.310 
 -0.280 
 -0.275 
 -0.240 
 -0.225 
 -0.215 
 -0.190 
 -0.155 
 -0.140 
 -0.105 
 -0.105 
 -0.095 
 -0.110 
 -0.105 
 -0.110 
 -0.125 
 -0.145 
 -0.135 
 -0.140 
 -0.130 
 -0.150 
 -0.130 
 -0.125 
 -0.110 
 -0.115 
 -0.110 
 -0.105 
 -0.095 
 -0.130 
 -0.170 
 -0.215 
 -0.240 
 -0.290 
 -0.290 
 -0.255 
 -0.190 
 -0.105 
 -0.060 
 -0.055 
 -0.025 
 -0.015 
 -0.005 
 -0.005 
 -0.020 
 -0.085 
 -0.535 
 -1.310 
 -1.935 
  0.185 
  3.005 
  2.985 
  2.065 
  1.050 
  0.320 
  0.080 
 -0.010 
 -0.035 
 -0.045 
 -0.060 
 -0.045 
 -0.060 
 -0.070 
 -0.090 
 -0.080 
 -0.080 
 -0.090 
 -0.105 
 -0.105 
 -0.145 
 -0.170 
 -0.200 
 -0.220 
 -0.240 
 -0.235 
 -0.240 
 -0.240 
 -0.230 
 -0.205 
 -0.205 
 -0.185 
 -0.165 
 -0.150 
 -0.130 
 -0.100 
 -0.075 
 -0.045 
 -0.040 
 -0.035 
 -0.050 
 -0.070 
 -0.080 
 -0.080 
 -0.100 
 -0.090 
 -0.105 
 -0.120 
 -0.120 
 -0.115 
 -0.120 
 -0.105 
 -0.090 
 -0.075 
 -0.080 
 -0.070 
 -0.080 
 -0.135 
 -0.190 
 -0.195 
 -0.260 
 -0.260 
 -0.230 
 -0.175 
 -0.090 
 -0.055 
 -0.055 
 -0.030 
 -0.015 
  0.005 
 -0.005 
 -0.005 
 -0.030 
 -0.325 
 -0.985 
 -1.750 
 -0.485 
  2.475 
  3.415 
  2.455 
  1.390 
  0.530 
  0.165 
  0.065 
  0.020 
 -0.015 
 -0.030 
 -0.025 
 -0.030 
 -0.035 
 -0.045 
 -0.035 
 -0.045 
 -0.055 
 -0.075 
 -0.060 
 -0.095 
 -0.115 
 -0.135 
 -0.160 
 -0.185 
 -0.165 
 -0.165 
 -0.170 
 -0.180 
 -0.140 
 -0.115 
 -0.105 
 -0.090 
 -0.055 
 -0.040 
 -0.025 
 -0.015 
  0.005 
  0.025 
  0.045 
  0.020 
  0.010 
 -0.005 
 -0.020 
 -0.035 
 -0.045 
 -0.045 
 -0.045 
 -0.060 
 -0.050 
 -0.050 
 -0.035 
 -0.040 
 -0.025 
 -0.015 
 -0.010 
 -0.025 
 -0.070 
 -0.120 
 -0.120 
 -0.200 
 -0.220 
 -0.170 
 -0.115 
 -0.035 
  0.015 
  0.005 
  0.040 
  0.060 
  0.075 
  0.065 
  0.050 
  0.015 
 -0.260 
 -0.845 
 -1.505 
 -0.280 
  2.325 
  3.020 
  2.170 
  1.330 
  0.590 
  0.200 
  0.095 
  0.035 
  0.025 
  0.025 
  0.020 
  0.020 
  0.015 
  0.010 
  0.015 
 -0.005 
 -0.005 
  0.010 
  0.005 
 -0.045 
 -0.050 
 -0.055 
 -0.080 
 -0.090 
 -0.105 
 -0.125 
 -0.105 
 -0.095 
 -0.095 
 -0.095 
 -0.080 
 -0.050 
 -0.010 
 -0.010 
 -0.005 
  0.000 
  0.015 
  0.010 
  0.010 
  0.025 
  0.025 
  0.000 
 -0.010 
 -0.020 
 -0.025 
 -0.035 
 -0.030 
 -0.045 
 -0.030 
 -0.025 
 -0.015 
 -0.010 
 -0.020 
 -0.015 
 -0.015 
 -0.025 
 -0.075 
 -0.135 
 -0.175 
 -0.240 
 -0.235 
 -0.185 
 -0.115 
 -0.035 
  0.010 
  0.020 
  0.050 
  0.060 
  0.085 
  0.080 
  0.050 
 -0.010 
 -0.430 
 -1.110 
 -1.595 
  0.510 
  2.935 
  2.720 
  1.945 
  1.050 
  0.390 
  0.170 
  0.085 
  0.055 
  0.045 
  0.010 
  0.025 
  0.025 
  0.020 
  0.020 
  0.025 
  0.005 
 -0.010 
 -0.025 
 -0.015 
 -0.035 
 -0.070 
 -0.095 
 -0.110 
 -0.125 
 -0.140 
 -0.140 
 -0.120 
 -0.115 
 -0.105 
 -0.080 
 -0.070 
 -0.060 
 -0.020 
 -0.005 
  0.020 
  0.025 
  0.035 
  0.050 
  0.045 
  0.045 
  0.040 
  0.025 
  0.035 
  0.020 
  0.005 
 -0.010 
 -0.010 
  0.005 
  0.020 
  0.025 
  0.025 
  0.030 
  0.040 
  0.040 
  0.005 
 -0.045 
 -0.075 
 -0.120 
 -0.155 
 -0.135 
 -0.100 
 -0.025 
  0.055 
  0.070 
  0.090 
  0.130 
  0.145 
  0.135 
  0.140 
  0.135 
  0.005 
 -0.515 
 -1.345 
 -1.420 
  1.055 
  3.310 
  2.880 
  1.955 
  1.005 
  0.405 
  0.250 
  0.160 
  0.135 
  0.130 
  0.120 
  0.115 
  0.105 
  0.105 
  0.110 
  0.115 
  0.110 
  0.095 
  0.090 
  0.085 
  0.070 
  0.035 
 -0.005 
 -0.015 
 -0.025 
 -0.040 
 -0.040 
 -0.030 
 -0.010 
  0.020 
  0.035 
  0.055 
  0.080 
  0.105 
  0.130 
  0.145 
  0.175 
  0.190 
  0.195 
  0.195 
  0.185 
  0.175 
  0.155 
  0.145 
  0.140 
  0.130 
  0.130 
  0.125 
  0.130 
  0.145 
  0.160 
  0.155 
  0.155 
  0.165 
  0.170 
  0.150 
  0.110 
  0.055 
  0.035 
 -0.025 
 -0.040 
 -0.010 
  0.035 
  0.115 
  0.175 
  0.180 
  0.200 
  0.225 
  0.245 
  0.240 
  0.215 
  0.200 
 -0.040 
 -0.660 
 -1.480 
 -0.665 
  2.170 
  3.585 
  2.765 
  1.745 
  0.850 
  0.405 
  0.270 
  0.210 
  0.200 
  0.195 
  0.185 
  0.175 
  0.165 
  0.155 
  0.155 
  0.165 
  0.165 
  0.155 
  0.145 
  0.115 
  0.100 
  0.075 
  0.055 
  0.035 
  0.030 
  0.035 
  0.035 
  0.055 
  0.070 
  0.090 
  0.110 
  0.125 
  0.145 
  0.155 
  0.180 
  0.210 
  0.220 
  0.225 
  0.230 
  0.220 
  0.205 
  0.190 
  0.170 
  0.160 
  0.155 
  0.150 
  0.145 
  0.140 
  0.150 
  0.150 
  0.150 
  0.155 
  0.155 
  0.175 
  0.180 
  0.160 
  0.110 
  0.055 
  0.050 
  0.000 
 -0.020 
  0.020 
  0.055 
  0.145 
  0.200 
  0.210 
  0.245 
  0.260 
  0.275 
  0.270 
  0.270 
  0.240 
  0.015 
 -0.585 
 -1.310 
 -0.475 
  2.250 
  3.625 
  2.755 
  1.770 
  0.915 
  0.465 
  0.335 
  0.270 
  0.250 
  0.230 
  0.240 
  0.230 
  0.225 
  0.220 
  0.220 
  0.220 
  0.225 
  0.200 
  0.185 
  0.175 
  0.160 
  0.130 
  0.105 
  0.105 
  0.110 
  0.105 
  0.090 
  0.110 
  0.135 
  0.140 
  0.150 
  0.165 
  0.190 
  0.195 
  0.220 
  0.225 
  0.235 
  0.240 
  0.240 
  0.215 
  0.205 
  0.195 
  0.175 
  0.160 
  0.160 
  0.155 
  0.145 
  0.130 
  0.145 
  0.155 
  0.160 
  0.155 
  0.155 
  0.155 
  0.175 
  0.155 
  0.115 
  0.065 
  0.045 
 -0.020 
 -0.045 
 -0.015 
  0.035 
  0.125 
  0.175 
  0.175 
  0.195 
  0.225 
  0.235 
  0.225 
  0.210 
  0.190 
  0.005 
 -0.535 
 -1.160 
 -0.475 
  1.975 
  3.235 
  2.435 
  1.640 
  0.850 
  0.385 
  0.265 
  0.190 
  0.200 
  0.180 
  0.155 
  0.165 
  0.165 
  0.165 
  0.160 
  0.150 
  0.150 
  0.135 
  0.130 
  0.125 
  0.110 
  0.085 
  0.060 
  0.045 
  0.045 
  0.035 
  0.030 
  0.040 
  0.060 
  0.080 
  0.065 
  0.080 
  0.105 
  0.105 
  0.095 
  0.105 
  0.120 
  0.105 
  0.095 
  0.080 
  0.080 
  0.080 
  0.080 
  0.065 
  0.055 
  0.020 
  0.015 
  0.005 
  0.020 
  0.030 
  0.050 
  0.035 
  0.030 
  0.040 
  0.025 
 -0.015 
 -0.055 
 -0.100 
 -0.150 
 -0.195 
 -0.160 
 -0.125 
 -0.075 
  0.005 
  0.035 
  0.035 
  0.080 
  0.085 
  0.075 
  0.070 
  0.055 
 -0.015 
 -0.450 
 -1.125 
 -1.480 
  0.690 
  2.975 
  2.640 
  1.840 
  0.955 
  0.330 
  0.145 
  0.060 
  0.020 
 -0.005 
 -0.020 
 -0.025 
 -0.045 
 -0.055 
 -0.045 
 -0.045 
 -0.050 
 -0.055 
 -0.075 
 -0.080 
 -0.105 
 -0.125 
 -0.155 
 -0.175 
 -0.180 
 -0.185 
 -0.185 
 -0.185 
 -0.185 
 -0.155 
 -0.145 
 -0.145 
 -0.140 
 -0.125 
 -0.105 
 -0.105 
 -0.110 
 -0.105 
 -0.105 
 -0.115 
 -0.135 
 -0.155 
 -0.175 
 -0.180 
 -0.185 
 -0.190 
 -0.185 
 -0.200 
 -0.210 
 -0.205 
 -0.210 
 -0.205 
 -0.215 
 -0.215 
 -0.210 
 -0.220 
 -0.240 
 -0.290 
 -0.340 
 -0.375 
 -0.435 
 -0.460 
 -0.430 
 -0.385 
 -0.290 
 -0.260 
 -0.255 
 -0.230 
 -0.215 
 -0.210 
 -0.225 
 -0.240 
 -0.275 
 -0.635 
 -1.315 
 -2.115 
 -0.630 
  2.315 
  2.930 
  2.015 
  1.005 
  0.210 
 -0.140 
 -0.250 
 -0.300 
 -0.325 
 -0.340 
 -0.340 
 -0.350 
 -0.365 
 -0.360 
 -0.355 
 -0.365 
 -0.375 
 -0.375 
 -0.390 
 -0.430 
 -0.440 
 -0.465 
 -0.485 
 -0.505 
 -0.490 
 -0.475 
 -0.485 
 -0.470 
 -0.450 
 -0.440 
 -0.430 
 -0.420 
 -0.395 
 -0.385 
 -0.370 
 -0.355 
 -0.330 
 -0.325 
 -0.325 
 -0.350 
 -0.360 
 -0.380 
 -0.390 
 -0.400 
 -0.410 
 -0.400 
 -0.415 
 -0.415 
 -0.405 
 -0.400 
 -0.400 
 -0.415 
 -0.405 
 -0.400 
 -0.390 
 -0.400 
 -0.435 
 -0.490 
 -0.515 
 -0.575 
 -0.595 
 -0.580 
 -0.535 
 -0.455 
 -0.385 
 -0.375 
 -0.365 
 -0.345 
 -0.330 
 -0.325 
 -0.335 
 -0.360 
 -0.470 
 -1.025 
 -1.740 
 -1.745 
  0.745 
  2.945 
  2.415 
  1.435 
  0.505 
 -0.095 
 -0.265 
 -0.355 
 -0.385 
 -0.390 
 -0.385 
 -0.385 
 -0.390 
 -0.395 
 -0.395 
 -0.400 
 -0.395 
 -0.405 
 -0.410 
 -0.430 
 -0.450 
 -0.475 
 -0.490 
 -0.510 
 -0.515 
 -0.510 
 -0.495 
 -0.495 
 -0.460 
 -0.445 
 -0.445 
 -0.435 
 -0.400 
 -0.375 
 -0.360 
 -0.345 
 -0.315 
 -0.305 
 -0.320 
 -0.320 
 -0.340 
 -0.365 
 -0.370 
 -0.390 
 -0.395 
 -0.400 
 -0.395 
 -0.395 
 -0.395 
 -0.395 
 -0.385 
 -0.385 
 -0.380 
 -0.365 
 -0.350 
 -0.345 
 -0.340 
 -0.365 
 -0.415 
 -0.460 
 -0.485 
 -0.530 
 -0.540 
 -0.490 
 -0.430 
 -0.335 
 -0.310 
 -0.315 
 -0.285 
 -0.270 
 -0.260 
 -0.265 
 -0.275 
 -0.310 
 -0.690 
 -1.325 
 -1.895 
 -0.255 
  2.480 
  2.835 
  1.875 
  0.925 
  0.185 
 -0.135 
 -0.230 
 -0.270 
 -0.300 
 -0.310 
 -0.295 
 -0.290 
 -0.290 
 -0.300 
 -0.305 
 -0.305 
 -0.305 
 -0.320 
 -0.325 
 -0.340 
 -0.360 
 -0.385 
 -0.385 
 -0.400 
 -0.400 
 -0.400 
 -0.390 
 -0.380 
 -0.350 
 -0.325 
 -0.310 
 -0.300 
 -0.280 
 -0.265 
 -0.270 
 -0.270 
 -0.265 
 -0.260 
 -0.255 
 -0.275 
 -0.280 
 -0.305 
 -0.325 
 -0.315 
 -0.310 
 -0.330 
 -0.335 
 -0.325 
 -0.295 
 -0.315 
 -0.325 
 -0.310 
 -0.290 
 -0.275 
 -0.270 
 -0.285 
 -0.325 
 -0.375 
 -0.385 
 -0.445 
 -0.490 
 -0.460 
 -0.420 
 -0.345 
 -0.255 
 -0.240 
 -0.240 
 -0.215 
 -0.200 
 -0.195 
 -0.205 
 -0.240 
 -0.360 
 -0.835 
 -1.425 
 -1.160 
  1.170 
  2.830 
  2.110 
  1.315 
  0.535 
  0.030 
 -0.095 
 -0.190 
 -0.205 
 -0.205 
 -0.210 
 -0.210 
 -0.215 
 -0.215 
 -0.205 
 -0.200 
 -0.205 
 -0.215 
 -0.215 
 -0.225 
 -0.240 
 -0.275 
 -0.275 
 -0.285 
 -0.295 
 -0.310 
 -0.300 
 -0.280 
 -0.260 
 -0.250 
 -0.230 
 -0.220 
 -0.210 
 -0.215 
 -0.225 
 -0.220 
 -0.210 
 -0.215 
 -0.210 
 -0.220 
 -0.230 
 -0.230 
 -0.220 
 -0.230 
 -0.245 
 -0.255 
 -0.240 
 -0.230 
 -0.235 
 -0.230 
 -0.215 
 -0.205 
 -0.195 
 -0.195 
 -0.170 
 -0.175 
 -0.240 
 -0.285 
 -0.295 
 -0.355 
 -0.390 
 -0.350 
 -0.310 
 -0.215 
 -0.165 
 -0.155 
 -0.130 
 -0.105 
 -0.100 
 -0.110 
 -0.100 
 -0.120 
 -0.395 
 -0.995 
 -1.705 
 -0.470 
  2.175 
  2.875 
  2.050 
  1.190 
  0.415 
  0.055 
 -0.035 
 -0.085 
 -0.095 
 -0.105 
 -0.105 
 -0.100 
 -0.110 
 -0.115 
 -0.105 
 -0.105 
 -0.115 
 -0.115 
 -0.125 
 -0.130 
 -0.145 
 -0.165 
 -0.180 
 -0.180 
 -0.180 
 -0.170 
 -0.155 
 -0.145 
 -0.125 
 -0.115 
 -0.105 
 -0.090 
 -0.065 
 -0.060 
 -0.050 
 -0.040 
 -0.035 
 -0.040 
 -0.055 
 -0.050 
 -0.065 
 -0.075 
 -0.080 
 -0.100 
 -0.105 
 -0.110 
 -0.105 
 -0.090 
 -0.080 
 -0.080 
 -0.070 
 -0.070 
 -0.070 
 -0.055 
 -0.045 
 -0.045 
 -0.080 
 -0.125 
 -0.160 
 -0.215 
 -0.240 
 -0.210 
 -0.175 
 -0.095 
 -0.015 
 -0.005 
  0.005 
  0.040 
  0.065 
  0.055 
  0.050 
  0.045 
 -0.105 
 -0.670 
 -1.410 
 -1.145 
  1.400 
  3.325 
  2.695 
  1.735 
  0.825 
  0.290 
  0.130 
  0.050 
  0.035 
  0.025 
  0.030 
  0.020 
  0.015 
  0.010 
  0.010 
  0.005 
  0.010 
  0.015 
  0.005 
 -0.015 
 -0.035 
 -0.060 
 -0.075 
 -0.090 
 -0.095 
 -0.095 
 -0.080 
 -0.075 
 -0.055 
 -0.030 
 -0.010 
  0.005 
  0.025 
  0.040 
  0.050 
  0.060 
  0.070 
  0.060 
  0.070 
  0.065 
  0.035 
  0.015 
  0.005 
  0.000 
 -0.010 
 -0.015 
 -0.015 
 -0.010 
 -0.010 
  0.000 
  0.005 
  0.010 
  0.015 
  0.010 
  0.020 
  0.015 
  0.010 
 -0.035 
 -0.080 
 -0.105 
 -0.140 
 -0.170 
 -0.145 
 -0.110 
 -0.035 
  0.055 
  0.065 
  0.070 
  0.095 
  0.110 
  0.115 
  0.105 
  0.085 
 -0.020 
 -0.555 
 -1.230 
 -1.205 
  1.250 
  3.390 
  2.825 
  1.855 
  0.945 
  0.370 
  0.195 
  0.120 
  0.100 
  0.085 
  0.075 
  0.070 
  0.070 
  0.065 
  0.060 
  0.055 
  0.055 
  0.065 
  0.065 
  0.045 
  0.025 
  0.005 
 -0.010 
 -0.025 
 -0.035 
 -0.025 
 -0.015 
  0.005 
  0.020 
  0.045 
  0.055 
  0.070 
  0.090 
  0.105 
  0.105 
  0.120 
  0.120 
  0.120 
  0.110 
  0.100 
  0.090 
  0.075 
  0.060 
  0.055 
  0.035 
  0.030 
  0.035 
  0.035 
  0.040 
  0.055 
  0.050 
  0.060 
  0.070 
  0.080 
  0.080 
  0.085 
  0.085 
  0.065 
  0.015 
 -0.025 
 -0.050 
 -0.090 
 -0.090 
 -0.040 
  0.020 
  0.110 
  0.125 
  0.120 
  0.145 
  0.155 
  0.140 
  0.130 
  0.125 
  0.095 
 -0.310 
 -0.945 
 -1.405 
  0.495 
  3.130 
  3.170 
  2.190 
  1.245 
  0.540 
  0.285 
  0.205 
  0.165 
  0.140 
  0.135 
  0.145 
  0.135 
  0.135 
  0.135 
  0.140 
  0.140 
  0.135 
  0.130 
  0.115 
  0.105 
  0.090 
  0.080 
  0.055 
  0.045 
  0.050 
  0.070 
  0.080 
  0.105 
  0.125 
  0.140 
  0.155 
  0.165 
  0.175 
  0.175 
  0.170 
  0.180 
  0.175 
  0.165 
  0.155 
  0.145 
  0.130 
  0.100 
  0.085 
  0.080 
  0.080 
  0.090 
  0.085 
  0.075 
  0.075 
  0.090 
  0.090 
  0.095 
  0.095 
  0.110 
  0.110 
  0.105 
  0.080 
  0.025 
 -0.020 
 -0.035 
 -0.080 
 -0.110 
 -0.050 
 -0.005 
  0.090 
  0.120 
  0.115 
  0.145 
  0.175 
  0.165 
  0.160 
  0.170 
  0.125 
 -0.225 
 -0.810 
 -1.325 
  0.275 
  2.830 
  3.115 
  2.165 
  1.305 
  0.590 
  0.270 
  0.190 
  0.145 
  0.120 
  0.110 
  0.105 
  0.105 
  0.105 
  0.080 
  0.085 
  0.095 
  0.095 
  0.080 
  0.065 
  0.050 
  0.025 
  0.020 
  0.005 
 -0.020 
 -0.015 
 -0.015 
 -0.010 
 -0.005 
  0.025 
  0.050 
  0.065 
  0.080 
  0.085 
  0.095 
  0.105 
  0.090 
  0.080 
  0.085 
  0.070 
  0.045 
  0.030 
  0.015 
  0.010 
 -0.005 
 -0.005 
  0.015 
  0.005 
  0.005 
  0.025 
  0.025 
  0.050 
  0.050 
  0.045 
  0.055 
  0.080 
  0.045 
 -0.010 
 -0.045 
 -0.065 
 -0.125 
 -0.150 
 -0.105 
 -0.060 
  0.035 
  0.080 
  0.085 
  0.125 
  0.135 
  0.125 
  0.120 
  0.110 
  0.085 
 -0.180 
 -0.745 
 -1.340 
  0.090 
  2.570 
  2.930 
  2.080 
  1.300 
  0.600 
  0.280 
  0.175 
  0.120 
  0.110 
  0.115 
  0.125 
  0.110 
  0.100 
  0.095 
  0.110 
  0.115 
  0.115 
  0.105 
  0.085 
  0.080 
  0.050 
  0.035 
  0.025 
  0.010 
  0.015 
  0.020 
  0.035 
  0.055 
  0.080 
  0.065 
  0.085 
  0.100 
  0.115 
  0.120 
  0.115 
  0.115 
  0.115 
  0.115 
  0.110 
  0.085 
  0.070 
  0.080 
  0.075 
  0.065 
  0.055 
  0.050 
  0.050 
  0.065 
  0.070 
  0.080 
  0.085 
  0.090 
  0.100 
  0.105 
  0.110 
  0.095 
  0.035 
 -0.010 
 -0.025 
 -0.085 
 -0.115 
 -0.080 
 -0.040 
  0.060 
  0.105 
  0.105 
  0.125 
  0.150 
  0.150 
  0.135 
  0.130 
  0.110 
 -0.165 
 -0.775 
 -1.505 
 -0.380 
  2.325 
  3.215 
  2.355 
  1.445 
  0.635 
  0.250 
  0.145 
  0.080 
  0.045 
  0.020 
  0.015 
  0.005 
 -0.005 
 -0.010 
 -0.015 
 -0.030 
 -0.030 
 -0.040 
 -0.065 
 -0.090 
 -0.115 
 -0.145 
 -0.165 
 -0.185 
 -0.195 
 -0.205 
 -0.210 
 -0.195 
 -0.175 
 -0.160 
 -0.145 
 -0.130 
 -0.115 
 -0.110 
 -0.110 
 -0.100 
 -0.105 
 -0.115 
 -0.130 
 -0.145 
 -0.160 
 -0.190 
 -0.210 
 -0.225 
 -0.225 
 -0.235 
 -0.240 
 -0.240 
 -0.245 
 -0.240 
 -0.235 
 -0.230 
 -0.230 
 -0.230 
 -0.225 
 -0.220 
 -0.235 
 -0.290 
 -0.330 
 -0.370 
 -0.420 
 -0.450 
 -0.415 
 -0.370 
 -0.285 
 -0.255 
 -0.255 
 -0.235 
 -0.230 
 -0.235 
 -0.240 
 -0.260 
 -0.285 
 -0.595 
 -1.230 
 -1.905 
 -0.595 
  2.170 
  2.925 
  1.975 
  0.995 
  0.205 
 -0.155 
 -0.265 
 -0.315 
 -0.330 
 -0.350 
 -0.360 
 -0.365 
 -0.370 
 -0.385 
 -0.395 
 -0.410 
 -0.420 
 -0.430 
 -0.455 
 -0.470 
 -0.485 
 -0.505 
 -0.525 
 -0.540 
 -0.540 
 -0.550 
 -0.530 
 -0.515 
 -0.495 
 -0.495 
 -0.480 
 -0.465 
 -0.450 
 -0.445 
 -0.445 
 -0.445 
 -0.445 
 -0.450 
 -0.470 
 -0.495 
 -0.500 
 -0.520 
 -0.550 
 -0.560 
 -0.580 
 -0.590 
 -0.595 
 -0.580 
 -0.570 
 -0.580 
 -0.560 
 -0.575 
 -0.560 
 -0.560 
 -0.565 
 -0.570 
 -0.580 
 -0.605 
 -0.655 
 -0.685 
 -0.710 
 -0.755 
 -0.750 
 -0.705 
 -0.640 
 -0.555 
 -0.540 
 -0.540 
 -0.505 
 -0.495 
 -0.495 
 -0.500 
 -0.515 
 -0.550 
 -0.945 
 -1.585 
 -2.075 
 -0.265 
  2.375 
  2.500 
  1.525 
  0.590 
 -0.135 
 -0.410 
 -0.505 
 -0.535 
 -0.550 
 -0.560 
 -0.560 
 -0.565 
 -0.565 
 -0.560 
 -0.575 
 -0.575 
 -0.575 
 -0.575 
 -0.575 
 -0.585 
 -0.605 
 -0.615 
 -0.640 
 -0.655 
 -0.665 
 -0.650 
 -0.630 
 -0.615 
 -0.595 
 -0.575 
 -0.565 
 -0.540 
 -0.525 
 -0.520 
 -0.535 
 -0.535 
 -0.540 
 -0.550 
 -0.565 
 -0.585 
 -0.605 
 -0.620 
 -0.630 
 -0.640 
 -0.640 
 -0.635 
 -0.635 
 -0.620 
 -0.615 
 -0.615 
 -0.610 
 -0.610 
 -0.610 
 -0.600 
 -0.600 
 -0.590 
 -0.585 
 -0.595 
 -0.645 
 -0.710 
 -0.720 
 -0.755 
 -0.790 
 -0.765 
 -0.710 
 -0.625 
 -0.565 
 -0.555 
 -0.535 
 -0.505 
 -0.490 
 -0.485 
 -0.505 
 -0.515 
 -0.610 
 -1.125 
 -1.715 
 -1.650 
  0.715 
  2.765 
  2.150 
  1.205 
  0.340 
 -0.215 
 -0.370 
 -0.445 
 -0.470 
 -0.490 
 -0.495 
 -0.500 
 -0.505 
 -0.510 
 -0.510 
 -0.505 
 -0.500 
 -0.510 
 -0.520 
 -0.540 
 -0.555 
 -0.580 
 -0.595 
 -0.615 
 -0.620 
 -0.620 
 -0.605 
 -0.600 
 -0.560 
 -0.535 
 -0.520 
 -0.510 
 -0.495 
 -0.475 
 -0.475 
 -0.475 
 -0.490 
 -0.500 
 -0.510 
 -0.525 
 -0.545 
 -0.560 
 -0.570 
 -0.580 
 -0.580 
 -0.575 
 -0.580 
 -0.575 
 -0.560 
 -0.560 
 -0.545 
 -0.545 
 -0.525 
 -0.515 
 -0.505 
 -0.505 
 -0.500 
 -0.485 
 -0.510 
 -0.575 
 -0.605 
 -0.615 
 -0.665 
 -0.685 
 -0.615 
 -0.555 
 -0.460 
 -0.435 
 -0.445 
 -0.405 
 -0.395 
 -0.395 
 -0.395 
 -0.400 
 -0.430 
 -0.740 
 -1.325 
 -1.825 
 -0.370 
  2.185 
  2.665 
  1.695 
  0.795 
  0.065 
 -0.255 
 -0.345 
 -0.395 
 -0.400 
 -0.410 
 -0.410 
 -0.400 
 -0.410 
 -0.410 
 -0.410 
 -0.410 
 -0.405 
 -0.410 
 -0.430 
 -0.450 
 -0.470 
 -0.490 
 -0.510 
 -0.525 
 -0.515 
 -0.500 
 -0.485 
 -0.470 
 -0.435 
 -0.400 
 -0.385 
 -0.365 
 -0.350 
 -0.355 
 -0.350 
 -0.370 
 -0.380 
 -0.395 
 -0.405 
 -0.405 
 -0.425 
 -0.425 
 -0.440 
 -0.455 
 -0.465 
 -0.455 
 -0.425 
 -0.425 
 -0.415 
 -0.400 
 -0.405 
 -0.400 
 -0.400 
 -0.385 
 -0.375 
 -0.375 
 -0.390 
 -0.420 
 -0.470 
 -0.485 
 -0.540 
 -0.575 
 -0.535 
 -0.490 
 -0.390 
 -0.330 
 -0.325 
 -0.295 
 -0.265 
 -0.265 
 -0.270 
 -0.260 
 -0.275 
 -0.415 
 -0.920 
 -1.470 
 -0.865 
  1.495 
  2.815 
  1.975 
  1.190 
  0.445 
 -0.015 
 -0.130 
 -0.180 
 -0.195 
 -0.205 
 -0.215 
 -0.215 
 -0.210 
 -0.205 
 -0.205 
 -0.205 
 -0.215 
 -0.225 
 -0.230 
 -0.230 
 -0.255 
 -0.280 
 -0.280 
 -0.295 
 -0.320 
 -0.315 
 -0.285 
 -0.265 
 -0.245 
 -0.215 
 -0.195 
 -0.195 
 -0.170 
 -0.170 
 -0.190 
 -0.180 
 -0.195 
 -0.210 
 -0.200 
 -0.210 
 -0.230 
 -0.245 
 -0.250 
 -0.255 
 -0.250 
 -0.250 
 -0.240 
 -0.230 
 -0.240 
 -0.235 
 -0.220 
 -0.210 
 -0.195 
 -0.200 
 -0.205 
 -0.210 
 -0.205 
 -0.235 
 -0.285 
 -0.295 
 -0.350 
 -0.400 
 -0.370 
 -0.315 
 -0.225 
 -0.145 
 -0.140 
 -0.125 
 -0.105 
 -0.100 
 -0.105 
 -0.105 
 -0.115 
 -0.210 
 -0.700 
 -1.295 
 -1.200 
  1.075 
  2.960 
  2.295 
  1.460 
  0.675 
  0.145 
  0.000 
 -0.065 
 -0.080 
 -0.100 
 -0.105 
 -0.110 
 -0.115 
 -0.110 
 -0.095 
 -0.090 
 -0.090 
 -0.095 
 -0.110 
 -0.115 
 -0.130 
 -0.130 
 -0.140 
 -0.165 
 -0.160 
 -0.145 
 -0.145 
 -0.120 
 -0.090 
 -0.055 
 -0.040 
 -0.025 
  0.005 
 -0.005 
 -0.010 
 -0.025 
 -0.015 
 -0.020 
 -0.035 
 -0.045 
 -0.060 
 -0.070 
 -0.090 
 -0.105 
 -0.095 
 -0.090 
 -0.080 
 -0.075 
 -0.065 
 -0.055 
 -0.050 
 -0.045 
 -0.035 
 -0.035 
 -0.025 
 -0.015 
 -0.015 
 -0.035 
 -0.080 
 -0.150 
 -0.150 
 -0.200 
 -0.220 
 -0.175 
 -0.120 
 -0.020 
  0.025 
  0.020 
  0.045 
  0.065 
  0.080 
  0.070 
  0.080 
  0.060 
 -0.195 
 -0.780 
 -1.435 
 -0.435 
  2.230 
  3.335 
  2.430 
  1.485 
  0.670 
  0.270 
  0.160 
  0.105 
  0.085 
  0.080 
  0.070 
  0.080 
  0.080 
  0.075 
  0.065 
  0.065 
  0.055 
  0.050 
  0.050 
  0.030 
  0.010 
 -0.020 
 -0.030 
 -0.045 
 -0.045 
 -0.040 
 -0.030 
 -0.010 
  0.015 
  0.040 
  0.065 
  0.080 
  0.095 
  0.115 
  0.115 
  0.115 
  0.115 
  0.115 
  0.105 
  0.085 
  0.075 
  0.060 
  0.045 
  0.030 
  0.030 
  0.025 
  0.030 
  0.030 
  0.040 
  0.050 
  0.060 
  0.060 
  0.075 
  0.080 
  0.080 
  0.090 
  0.090 
  0.070 
  0.015 
 -0.030 
 -0.040 
 -0.090 
 -0.085 
 -0.040 
  0.015 
  0.090 
  0.125 
  0.125 
  0.150 
  0.165 
  0.170 
  0.160 
  0.155 
  0.125 
 -0.165 
 -0.760 
 -1.350 
 -0.045 
  2.635 
  3.390 
  2.410 
  1.435 
  0.665 
  0.315 
  0.210 
  0.150 
  0.140 
  0.120 
  0.130 
  0.120 
  0.115 
  0.115 
  0.115 
  0.110 
  0.115 
  0.105 
  0.095 
  0.085 
  0.065 
  0.040 
  0.030 
  0.020 
  0.020 
  0.035 
  0.050 
  0.070 
  0.110 
  0.140 
  0.145 
  0.160 
  0.185 
  0.195 
  0.190 
  0.190 
  0.185 
  0.180 
  0.175 
  0.155 
  0.145 
  0.130 
  0.110 
  0.095 
  0.095 
  0.100 
  0.100 
  0.105 
  0.110 
  0.115 
  0.130 
  0.135 
  0.145 
  0.140 
  0.140 
  0.150 
  0.145 
  0.100 
  0.050 
  0.035 
 -0.010 
 -0.035 
  0.005 
  0.055 
  0.145 
  0.185 
  0.195 
  0.195 
  0.225 
  0.220 
  0.220 
  0.215 
  0.200 
  0.050 
 -0.495 
 -1.090 
 -0.525 
  1.985 
  3.570 
  2.745 
  1.775 
  0.915 
  0.425 
  0.295 
  0.225 
  0.205 
  0.200 
  0.190 
  0.195 
  0.190 
  0.195 
  0.195 
  0.190 
  0.175 
  0.170 
  0.155 
  0.155 
  0.125 
  0.105 
  0.080 
  0.065 
  0.055 
  0.055 
  0.070 
  0.085 
  0.105 
  0.135 
  0.155 
  0.165 
  0.175 
  0.195 
  0.190 
  0.175 
  0.170 
  0.165 
  0.155 
  0.135 
  0.125 
  0.120 
  0.110 
  0.110 
  0.085 
  0.090 
  0.085 
  0.100 
  0.110 
  0.105 
  0.110 
  0.120 
  0.115 
  0.130 
  0.135 
  0.130 
  0.080 
  0.035 
  0.015 
 -0.035 
 -0.070 
 -0.025 
  0.035 
  0.120 
  0.170 
  0.175 
  0.180 
  0.205 
  0.190 
  0.210 
  0.205 
  0.190 
  0.015 
 -0.525 
 -1.060 
 -0.350 
  2.075 
  3.390 
  2.505 
  1.660 
  0.865 
  0.415 
  0.290 
  0.225 
  0.215 
  0.210 
  0.185 
  0.185 
  0.175 
  0.185 
  0.190 
  0.200 
  0.190 
  0.175 
  0.165 
  0.160 
  0.140 
  0.130 
  0.110 
  0.090 
  0.080 
  0.085 
  0.095 
  0.115 
  0.135 
  0.160 
  0.160 
  0.190 
  0.205 
  0.215 
  0.185 
  0.190 
  0.185 
  0.185 
  0.160 
  0.155 
  0.135 
  0.135 
  0.105 
  0.115 
  0.110 
  0.105 
  0.095 
  0.095 
  0.095 
  0.115 
  0.110 
  0.120 
  0.130 
  0.145 
  0.120 
  0.115 
  0.080 
  0.055 
  0.030 
 -0.015 
 -0.070 
 -0.030 
  0.015 
  0.095 
  0.165 
  0.175 
  0.155 
  0.195 
  0.205 
  0.200 
  0.180 
  0.180 
  0.065 
 -0.430 
 -0.975 
 -0.700 
  1.600 
  3.265 
  2.450 
  1.645 
  0.895 
  0.395 
  0.250 
  0.195 
  0.190 
  0.180 
  0.155 
  0.165 
  0.165 
  0.155 
  0.150 
  0.170 
  0.165 
  0.160 
  0.145 
  0.135 
  0.115 
  0.105 
  0.080 
  0.090 
  0.080 
  0.080 
  0.070 
  0.105 
  0.110 
  0.135 
  0.150 
  0.165 
  0.150 
  0.160 
  0.160 
  0.170 
  0.145 
  0.155 
  0.125 
  0.125 
  0.100 
  0.105 
  0.085 
  0.080 
  0.065 
  0.080 
  0.065 
  0.075 
  0.080 
  0.095 
  0.095 
  0.110 
  0.095 
  0.125 
  0.095 
  0.055 
  0.020 
 -0.005 
 -0.070 
 -0.065 
 -0.035 
  0.020 
  0.105 
  0.145 
  0.120 
  0.175 
  0.195 
  0.205 
  0.165 
  0.170 
  0.140 
 -0.210 
 -0.785 
 -1.240 
  0.370 
  2.795 
  2.880 
  2.010 
  1.235 
  0.570 
  0.265 
  0.185 
  0.145 
  0.150 
  0.130 
  0.140 
  0.115 
  0.125 
  0.110 
  0.140 
  0.140 
  0.125 
  0.120 
  0.125 
  0.080 
  0.050 
  0.035 
  0.035 
  0.015 
  0.015 
 -0.010 
  0.015 
  0.000 
  0.020 
  0.030 
  0.055 
  0.060 
  0.080 
  0.075 
  0.080 
  0.070 
  0.085 
  0.055 
  0.060 
  0.045 
  0.055 
  0.035 
  0.035 
  0.015 
  0.045 
  0.040 
  0.035 
  0.025 
  0.045 
  0.055 
  0.080 
  0.075 
  0.060 
 -0.005 
 -0.025 
 -0.060 
 -0.115 
 -0.145 
 -0.095 
 -0.040 
  0.085 
  0.095 
  0.100 
  0.135 
  0.175 
  0.160 
  0.165 
  0.140 
  0.125 
 -0.215 
 -0.785 
 -1.455 
  0.120 
  2.685 
  2.975 
  2.180 
  1.345 
  0.600 
  0.320 
  0.215 
  0.175 
  0.155 
  0.170 
  0.150 
  0.145 
  0.130 
  0.140 
  0.130 
  0.145 
  0.125 
  0.140 
  0.115 
  0.110 
  0.075 
  0.065 
  0.035 
  0.040 
  0.015 
  0.040 
  0.045 
  0.055 
  0.060 
  0.085 
  0.100 
  0.115 
  0.110 
  0.135 
  0.145 
  0.160 
  0.150 
  0.175 
  0.155 
  0.160 
  0.145 
  0.155 
  0.125 
  0.125 
  0.105 
  0.115 
  0.105 
  0.125 
  0.115 
  0.135 
  0.130 
  0.145 
  0.110 
  0.085 
  0.035 
  0.020 
 -0.045 
 -0.050 
 -0.025 
  0.040 
  0.120 
  0.155 
  0.150 
  0.200 
  0.215 
  0.240 
  0.210 
  0.210 
  0.170 
 -0.140 
 -0.785 
 -1.565 
 -0.240 
  2.675 
  3.455 
  2.550 
  1.520 
  0.700 
  0.345 
  0.250 
  0.195 
  0.185 
  0.160 
  0.170 
  0.150 
  0.155 
  0.150 
  0.170 
  0.155 
  0.165 
  0.140 
  0.135 
  0.100 
  0.085 
  0.055 
  0.045 
  0.020 
  0.035 
  0.010 
  0.025 
  0.025 
  0.055 
  0.055 
  0.090 
  0.105 
  0.130 
  0.135 
  0.165 
  0.180 
  0.205 
  0.205 
  0.220 
  0.200 
  0.190 
  0.175 
  0.175 
  0.155 
  0.150 
  0.135 
  0.145 
  0.145 
  0.165 
  0.150 
  0.170 
  0.170 
  0.155 
  0.095 
  0.080 
  0.035 
  0.005 
 -0.005 
  0.050 
  0.095 
  0.200 
  0.200 
  0.210 
  0.230 
  0.255 
  0.245 
  0.245 
  0.230 
  0.200 
 -0.235 
 -0.920 
 -1.455 
  0.495 
  3.325 
  3.455 
  2.425 
  1.400 
  0.635 
  0.385 
  0.275 
  0.245 
  0.225 
  0.225 
  0.210 
  0.195 
  0.185 
  0.185 
  0.175 
  0.180 
  0.150 
  0.145 
  0.125 
  0.105 
  0.080 
  0.070 
  0.030 
  0.020 
  0.010 
  0.015 
  0.005 
  0.015 
  0.030 
  0.050 
  0.055 
  0.080 
  0.080 
  0.110 
  0.115 
  0.145 
  0.145 
  0.155 
  0.140 
  0.135 
  0.120 
  0.120 
  0.105 
  0.095 
  0.080 
  0.085 
  0.070 
  0.080 
  0.070 
  0.070 
  0.080 
  0.080 
  0.075 
  0.040 
 -0.030 
 -0.050 
 -0.095 
 -0.135 
 -0.135 
 -0.080 
 -0.035 
  0.050 
  0.055 
  0.055 
  0.065 
  0.075 
  0.055 
  0.045 
  0.020 
 -0.035 
 -0.530 
 -1.180 
 -1.490 
  0.765 
  3.320 
  3.050 
  2.010 
  1.015 
  0.310 
  0.085 
 -0.015 
 -0.060 
 -0.080 
 -0.095 
 -0.110 
 -0.105 
 -0.125 
 -0.130 
 -0.135 
 -0.150 
 -0.165 
 -0.180 
 -0.200 
 -0.205 
 -0.245 
 -0.270 
 -0.295 
 -0.315 
 -0.325 
 -0.325 
 -0.325 
 -0.310 
 -0.320 
 -0.305 
 -0.300 
 -0.275 
 -0.270 
 -0.255 
 -0.240 
 -0.240 
 -0.240 
 -0.235 
 -0.245 
 -0.255 
 -0.280 
 -0.305 
 -0.325 
 -0.345 
 -0.365 
 -0.375 
 -0.390 
 -0.375 
 -0.370 
 -0.375 
 -0.385 
 -0.375 
 -0.375 
 -0.425 
 -0.485 
 -0.490 
 -0.535 
 -0.580 
 -0.585 
 -0.550 
 -0.490 
 -0.400 
 -0.400 
 -0.420 
 -0.395 
 -0.360 
 -0.360 
 -0.355 
 -0.385 
 -0.465 
 -0.965 
 -1.570 
 -1.705 
  0.545 
  2.690 
  2.195 
  1.330 
  0.490 
 -0.140 
 -0.325 
 -0.420 
 -0.455 
 -0.460 
 -0.465 
 -0.480 
 -0.490 
 -0.485 
 -0.495 
 -0.510 
 -0.500 
 -0.505 
 -0.525 
 -0.545 
 -0.545 
 -0.575 
 -0.615 
 -0.610 
 -0.635 
 -0.655 
 -0.675 
 -0.675 
 -0.675 
 -0.680 
 -0.675 
 -0.665 
 -0.645 
 -0.620 
 -0.605 
 -0.580 
 -0.575 
 -0.565 
 -0.545 
 -0.570 
 -0.595 
 -0.595 
 -0.560 
 -0.585 
 -0.620 
 -0.625 
 -0.620 
 -0.615 
 -0.600 
 -0.595 
 -0.620 
 -0.595 
 -0.580 
 -0.615 
 -0.685 
 -0.715 
 -0.745 
 -0.810 
 -0.780 
 -0.735 
 -0.695 
 -0.605 
 -0.565 
 -0.550 
 -0.535 
 -0.530 
 -0.550 
 -0.565 
 -0.575 
 -0.675 
 -1.135 
 -1.815 
 -1.705 
  0.580 
  2.395 
  1.850 
  1.115 
  0.265 
 -0.325 
 -0.475 
 -0.550 
 -0.550 
 -0.570 
 -0.595 
 -0.600 
 -0.570 
 -0.585 
 -0.605 
 -0.605 
 -0.615 
 -0.645 
 -0.650 
 -0.650 
 -0.690 
 -0.735 
 -0.730 
 -0.750 
 -0.785 
 -0.795 
 -0.830 
 -0.835 
 -0.810 
 -0.820 
 -0.810 
 -0.785 
 -0.745 
 -0.730 
 -0.725 
 -0.655 
 -0.630 
 -0.635 
 -0.615 
 -0.625 
 -0.625 
 -0.600 
 -0.610 
 -0.625 
 -0.615 
 -0.610 
 -0.615 
 -0.625 
 -0.605 
 -0.615 
 -0.610 
 -0.600 
 -0.625 
 -0.670 
 -0.685 
 -0.740 
 -0.785 
 -0.775 
 -0.760 
 -0.690 
 -0.580 
 -0.550 
 -0.535 
 -0.490 
 -0.465 
 -0.475 
 -0.475 
 -0.475 
 -0.545 
 -0.995 
 -1.785 
 -2.280 
 -0.080 
  2.450 
  2.335 
  1.525 
  0.550 
 -0.145 
 -0.335 
 -0.425 
 -0.450 
 -0.470 
 -0.470 
 -0.475 
 -0.475 
 -0.480 
 -0.470 
 -0.470 
 -0.465 
 -0.475 
 -0.495 
 -0.515 
 -0.525 
 -0.555 
 -0.595 
 -0.610 
 -0.625 
 -0.645 
 -0.655 
 -0.660 
 -0.655 
 -0.650 
 -0.625 
 -0.590 
 -0.550 
 -0.520 
 -0.470 
 -0.440 
 -0.395 
 -0.375 
 -0.365 
 -0.365 
 -0.355 
 -0.365 
 -0.370 
 -0.380 
 -0.375 
 -0.385 
 -0.375 
 -0.370 
 -0.370 
 -0.380 
 -0.375 
 -0.365 
 -0.365 
 -0.400 
 -0.440 
 -0.470 
 -0.515 
 -0.550 
 -0.525 
 -0.490 
 -0.395 
 -0.325 
 -0.325 
 -0.310 
 -0.280 
 -0.255 
 -0.250 
 -0.260 
 -0.265 
 -0.425 
 -0.985 
 -1.885 
 -1.710 
  0.935 
  3.055 
  2.525 
  1.535 
  0.560 
  0.010 
 -0.150 
 -0.220 
 -0.250 
 -0.255 
 -0.265 
 -0.265 
 -0.270 
 -0.265 
 -0.275 
 -0.275 
 -0.285 
 -0.285 
 -0.310 
 -0.315 
 -0.350 
 -0.360 
 -0.385 
 -0.400 
 -0.425 
 -0.435 
 -0.445 
 -0.430 
 -0.425 
 -0.415 
 -0.395 
 -0.355 
 -0.330 
 -0.290 
 -0.265 
 -0.225 
 -0.205 
 -0.180 
 -0.170 
 -0.165 
 -0.165 
 -0.170 
 -0.180 
 -0.175 
 -0.190 
 -0.180 
 -0.180 
 -0.180 
 -0.195 
 -0.185 
 -0.175 
 -0.165 
 -0.180 
 -0.220 
 -0.280 
 -0.300 
 -0.340 
 -0.335 
 -0.310 
 -0.270 
 -0.185 
 -0.140 
 -0.135 
 -0.105 
 -0.085 
 -0.065 
 -0.070 
 -0.070 
 -0.095 
 -0.380 
 -1.055 
 -1.870 
 -0.720 
  2.320 
  3.455 
  2.530 
  1.425 
  0.525 
  0.130 
  0.015 
 -0.035 
 -0.060 
 -0.070 
 -0.070 
 -0.085 
 -0.080 
 -0.090 
 -0.090 
 -0.105 
 -0.100 
 -0.110 
 -0.115 
 -0.140 
 -0.155 
 -0.185 
 -0.195 
 -0.215 
 -0.215 
 -0.230 
 -0.235 
 -0.235 
 -0.215 
 -0.210 
 -0.165 
 -0.145 
 -0.110 
 -0.090 
 -0.055 
 -0.030 
 -0.010 
  0.000 
  0.015 
  0.015 
  0.020 
  0.010 
  0.010 
 -0.010 
 -0.010 
 -0.025 
 -0.010 
 -0.015 
 -0.025 
 -0.030 
 -0.010 
 -0.010 
 -0.035 
 -0.115 
 -0.150 
 -0.185 
 -0.200 
 -0.195 
 -0.145 
 -0.080 
  0.010 
  0.025 
  0.025 
  0.050 
  0.080 
  0.070 
  0.065 
  0.050 
 -0.010 
 -0.525 
 -1.205 
 -1.575 
  0.660 
  3.205 
  2.990 
  2.080 
  1.100 
  0.380 
  0.170 
  0.080 
  0.050 
  0.030 
  0.030 
  0.020 
  0.035 
  0.030 
  0.035 
  0.015 
  0.010 
  0.015 
  0.005 
 -0.025 
 -0.035 
 -0.075 
 -0.095 
 -0.125 
 -0.135 
 -0.160 
 -0.150 
 -0.165 
 -0.160 
 -0.185 
 -0.165 
 -0.145 
 -0.085 
 -0.055 
 -0.030 
 -0.035 
  0.020 
  0.050 
  0.075 
  0.060 
  0.060 
  0.025 
  0.050 
  0.040 
  0.030 
  0.000 
  0.005 
  0.005 
  0.030 
  0.015 
 -0.005 
 -0.005 
  0.005 
 -0.045 
 -0.100 
 -0.075 
 -0.120 
 -0.210 
 -0.150 
 -0.105 
 -0.025 
  0.050 
  0.090 
  0.070 
  0.100 
  0.135 
  0.145 
  0.095 
  0.080 
 -0.085 
 -0.590 
 -1.360 
 -0.835 
  1.620 
  3.105 
  2.465 
  1.705 
  0.840 
  0.330 
  0.185 
  0.120 
  0.090 
  0.105 
  0.100 
  0.110 
  0.100 
  0.115 
  0.105 
  0.095 
  0.065 
  0.085 
  0.070 
  0.080 
  0.040 
  0.000 
 -0.035 
 -0.040 
 -0.070 
 -0.080 
 -0.105 
 -0.120 
 -0.140 
 -0.120 
 -0.105 
 -0.070 
 -0.055 
  0.015 
  0.055 
  0.095 
  0.115 
  0.135 
  0.135 
  0.140 
  0.160 
  0.160 
  0.140 
  0.155 
  0.135 
  0.145 
  0.150 
  0.160 
  0.135 
  0.140 
  0.150 
  0.175 
  0.135 
  0.085 
  0.070 
  0.025 
 -0.050 
 -0.050 
 -0.025 
  0.030 
  0.115 
  0.185 
  0.205 
  0.240 
  0.225 
  0.250 
  0.235 
  0.230 
  0.205 
 -0.155 
 -0.905 
 -1.865 
 -0.185 
  2.825 
  3.265 
  2.490 
  1.485 
  0.675 
  0.380 
  0.295 
  0.240 
  0.225 
  0.205 
  0.210 
  0.195 
  0.200 
  0.195 
  0.205 
  0.180 
  0.175 
  0.160 
  0.160 
  0.135 
  0.110 
  0.065 
  0.035 
  0.010 
 -0.005 
 -0.040 
 -0.040 
 -0.030 
 -0.005 
 -0.005 
  0.030 
  0.065 
  0.115 
  0.155 
  0.205 
  0.235 
  0.275 
  0.280 
  0.290 
  0.295 
  0.295 
  0.275 
  0.275 
  0.265 
  0.275 
  0.255 
  0.260 
  0.255 
  0.270 
  0.265 
  0.265 
  0.265 
  0.240 
  0.175 
  0.155 
  0.105 
  0.070 
  0.070 
  0.115 
  0.165 
  0.260 
  0.285 
  0.295 
  0.325 
  0.355 
  0.350 
  0.350 
  0.330 
  0.265 
 -0.230 
 -1.055 
 -1.665 
  0.615 
  3.420 
  3.385 
  2.430 
  1.400 
  0.670 
  0.455 
  0.355 
  0.340 
  0.315 
  0.320 
  0.300 
  0.305 
  0.295 
  0.295 
  0.285 
  0.280 
  0.265 
  0.260 
  0.225 
  0.215 
  0.190 
  0.160 
  0.125 
  0.105 
  0.080 
  0.080 
  0.070 
  0.085 
  0.095 
  0.120 
  0.145 
  0.195 
  0.225 
  0.265 
  0.295 
  0.320 
  0.340 
  0.355 
  0.355 
  0.365 
  0.350 
  0.345 
  0.330 
  0.335 
  0.325 
  0.330 
  0.325 
  0.325 
  0.320 
  0.340 
  0.330 
  0.335 
  0.330 
  0.310 
  0.240 
  0.205 
  0.185 
  0.150 
  0.145 
  0.185 
  0.215 
  0.315 
  0.340 
  0.355 
  0.380 
  0.405 
  0.410 
  0.410 
  0.400 
  0.365 
 -0.025 
 -0.720 
 -1.500 
  0.140 
  3.195 
  3.775 
  2.785 
  1.700 
  0.860 
  0.550 
  0.430 
  0.395 
  0.365 
  0.370 
  0.355 
  0.365 
  0.345 
  0.330 
  0.320 
  0.320 
  0.310 
  0.300 
  0.270 
  0.255 
  0.220 
  0.200 
  0.165 
  0.145 
  0.115 
  0.105 
  0.090 
  0.100 
  0.095 
  0.125 
  0.130 
  0.160 
  0.175 
  0.205 
  0.225 
  0.265 
  0.275 
  0.290 
  0.275 
  0.285 
  0.270 
  0.270 
  0.240 
  0.230 
  0.200 
  0.210 
  0.185 
  0.195 
  0.185 
  0.195 
  0.175 
  0.175 
  0.165 
  0.160 
  0.125 
  0.070 
  0.010 
 -0.005 
 -0.070 
 -0.080 
 -0.065 
 -0.010 
  0.080 
  0.100 
  0.085 
  0.120 
  0.105 
  0.105 
  0.080 
  0.080 
  0.030 
 -0.350 
 -1.040 
 -1.705 
 -0.070 
  2.845 
  3.310 
  2.325 
  1.270 
  0.470 
  0.125 
  0.015 
 -0.055 
 -0.070 
 -0.080 
 -0.105 
 -0.135 
 -0.130 
 -0.135 
 -0.135 
 -0.160 
 -0.165 
 -0.205 
 -0.210 
 -0.240 
 -0.275 
 -0.325 
 -0.345 
 -0.370 
 -0.370 
 -0.415 
 -0.425 
 -0.430 
 -0.420 
 -0.425 
 -0.415 
 -0.405 
 -0.370 
 -0.360 
 -0.335 
 -0.325 
 -0.300 
 -0.310 
 -0.290 
 -0.315 
 -0.315 
 -0.340 
 -0.360 
 -0.380 
 -0.375 
 -0.415 
 -0.395 
 -0.395 
 -0.395 
 -0.415 
 -0.395 
 -0.410 
 -0.395 
 -0.400 
 -0.435 
 -0.505 
 -0.525 
 -0.555 
 -0.605 
 -0.650 
 -0.600 
 -0.575 
 -0.485 
 -0.460 
 -0.440 
 -0.420 
 -0.385 
 -0.400 
 -0.400 
 -0.445 
 -0.470 
 -0.815 
 -1.400 
 -2.100 
 -0.585 
  2.035 
  2.410 
  1.560 
  0.720 
 -0.045 
 -0.355 
 -0.450 
 -0.495 
 -0.530 
 -0.535 
 -0.555 
 -0.555 
 -0.560 
 -0.545 
 -0.575 
 -0.570 
 -0.585 
 -0.580 
 -0.615 
 -0.630 
 -0.660 
 -0.675 
 -0.720 
 -0.735 
 -0.780 
 -0.780 
 -0.795 
 -0.785 
 -0.805 
 -0.790 
 -0.795 
 -0.745 
 -0.730 
 -0.705 
 -0.690 
 -0.635 
 -0.635 
 -0.630 
 -0.625 
 -0.605 
 -0.625 
 -0.630 
 -0.660 
 -0.660 
 -0.660 
 -0.650 
 -0.670 
 -0.670 
 -0.685 
 -0.675 
 -0.675 
 -0.660 
 -0.650 
 -0.625 
 -0.700 
 -0.725 
 -0.755 
 -0.770 
 -0.860 
 -0.875 
 -0.820 
 -0.770 
 -0.690 
 -0.630 
 -0.640 
 -0.595 
 -0.590 
 -0.575 
 -0.590 
 -0.585 
 -0.615 
 -0.900 
 -1.550 
 -2.435 
 -1.110 
  1.715 
  2.345 
  1.625 
  0.730 
 -0.085 
 -0.460 
 -0.530 
 -0.600 
 -0.605 
 -0.625 
 -0.620 
 -0.635 
 -0.630 
 -0.635 
 -0.615 
 -0.630 
 -0.615 
 -0.655 
 -0.655 
 -0.680 
 -0.705 
 -0.735 
 -0.745 
 -0.790 
 -0.795 
 -0.820 
 -0.815 
 -0.830 
 -0.810 
 -0.815 
 -0.780 
 -0.765 
 -0.730 
 -0.705 
 -0.655 
 -0.625 
 -0.600 
 -0.600 
 -0.590 
 -0.595 
 -0.585 
 -0.605 
 -0.600 
 -0.625 
 -0.615 
 -0.625 
 -0.620 
 -0.620 
 -0.620 
 -0.630 
 -0.605 
 -0.610 
 -0.595 
 -0.605 
 -0.595 
 -0.615 
 -0.650 
 -0.705 
 -0.720 
 -0.795 
 -0.790 
 -0.755 
 -0.695 
 -0.605 
 -0.550 
 -0.540 
 -0.505 
 -0.495 
 -0.485 
 -0.500 
 -0.495 
 -0.515 
 -0.815 
 -1.505 
 -2.430 
 -1.195 
  1.870 
  2.835 
  2.000 
  0.950 
  0.080 
 -0.295 
 -0.410 
 -0.465 
 -0.460 
 -0.475 
 -0.465 
 -0.470 
 -0.460 
 -0.470 
 -0.450 
 -0.470 
 -0.455 
 -0.470 
 -0.485 
 -0.515 
 -0.535 
 -0.560 
 -0.580 
 -0.620 
 -0.610 
 -0.625 
 -0.610 
 -0.615 
 -0.580 
 -0.575 
 -0.545 
 -0.530 
 -0.470 
 -0.460 
 -0.400 
 -0.375 
 -0.345 
 -0.340 
 -0.315 
 -0.325 
 -0.310 
 -0.325 
 -0.320 
 -0.345 
 -0.345 
 -0.360 
 -0.340 
 -0.365 
 -0.340 
 -0.335 
 -0.310 
 -0.310 
 -0.305 
 -0.305 
 -0.275 
 -0.290 
 -0.270 
 -0.295 
 -0.335 
 -0.390 
 -0.385 
 -0.440 
 -0.445 
 -0.420 
 -0.365 
 -0.285 
 -0.225 
 -0.225 
 -0.190 
 -0.185 
 -0.165 
 -0.180 
 -0.165 
 -0.190 
 -0.430 
 -1.065 
 -1.870 
 -0.965 
  1.935 
  3.275 
  2.415 
  1.370 
  0.490 
  0.050 
 -0.070 
 -0.135 
 -0.150 
 -0.170 
 -0.150 
 -0.175 
 -0.165 
 -0.175 
 -0.160 
 -0.180 
 -0.170 
 -0.185 
 -0.175 
 -0.200 
 -0.205 
 -0.240 
 -0.240 
 -0.285 
 -0.290 
 -0.300 
 -0.280 
 -0.285 
 -0.255 
 -0.250 
 -0.220 
 -0.225 
 -0.185 
 -0.165 
 -0.125 
 -0.115 
 -0.080 
 -0.080 
 -0.065 
 -0.085 
 -0.075 
 -0.095 
 -0.080 
 -0.095 
 -0.090 
 -0.105 
