6000.0
100.0
  0.145   
  0.090   
  0.075   
  0.080   
  0.130   
  0.065   
  0.165   
  0.065   
  0.030   
  0.015   
 -0.065   
 -0.025   
  0.045   
  0.105   
  0.090   
  0.105   
  0.180   
  0.095   
  0.120   
  0.295   
  0.290   
 -0.610   
 -1.690   
 -0.705   
  0.300   
  0.365   
  0.315   
  0.145   
  0.055   
  0.055   
  0.055   
  0.110   
  0.050   
  0.025   
  0.060   
  0.055   
  0.040   
  0.040   
  0.035   
 -0.040   
  0.040   
  0.025   
 -0.030   
 -0.030   
 -0.085   
 -0.085   
 -0.100   
 -0.150   
 -0.155   
 -0.240   
 -0.250   
 -0.265   
 -0.255   
 -0.200   
 -0.170   
 -0.025   
  0.005   
 -0.035   
  0.045   
  0.045   
  0.055   
  0.060   
  0.015   
  0.075   
  0.055   
  0.025   
  0.060   
 -0.020   
  0.030   
  0.040   
  0.005   
  0.045   
  0.040   
  0.010   
  0.000   
  0.050   
  0.050   
  0.025   
  0.060   
  0.035   
  0.040   
  0.060   
  0.050   
  0.050   
  0.055   
  0.060   
  0.070   
  0.050   
  0.075   
  0.100   
  0.055   
  0.060   
  0.085   
  0.105   
  0.080   
  0.065   
  0.075   
  0.085   
  0.080   
  0.085   
  0.075   
  0.095   
  0.100   
  0.095   
  0.100   
  0.135   
  0.090   
  0.095   
  0.000   
 -0.065   
  0.000   
  0.015   
  0.015   
  0.060   
  0.100   
  0.115   
  0.110   
  0.125   
  0.150   
  0.265   
  0.105   
 -0.835   
 -1.470   
 -0.470   
  0.395   
  0.345   
  0.275   
  0.065   
  0.075   
  0.075   
  0.075   
  0.055   
  0.070   
  0.065   
  0.050   
  0.055   
  0.040   
  0.035   
  0.025   
  0.020   
  0.010   
  0.000   
 -0.030   
 -0.040   
 -0.075   
 -0.090   
 -0.140   
 -0.175   
 -0.205   
 -0.235   
 -0.295   
 -0.295   
 -0.275   
 -0.225   
 -0.100   
 -0.050   
 -0.010   
  0.025   
  0.040   
  0.045   
  0.055   
  0.050   
  0.045   
  0.045   
  0.030   
  0.035   
  0.020   
  0.020   
  0.025   
  0.000   
  0.020   
  0.025   
  0.015   
  0.015   
  0.020   
  0.025   
  0.020   
  0.020   
  0.040   
  0.040   
  0.045   
  0.050   
  0.060   
  0.050   
  0.045   
  0.050   
  0.055   
  0.050   
  0.050   
  0.060   
  0.055   
  0.070   
  0.070   
  0.075   
  0.065   
  0.075   
  0.080   
  0.065   
  0.080   
  0.085   
  0.085   
  0.095   
  0.100   
  0.095   
  0.085   
  0.090   
  0.100   
  0.090   
  0.105   
  0.100   
  0.095   
  0.090   
  0.120   
  0.110   
  0.070   
  0.005   
 -0.045   
 -0.030   
 -0.005   
  0.010   
  0.035   
  0.080   
  0.095   
  0.095   
  0.115   
  0.100   
  0.210   
  0.140   
 -0.735   
 -1.530   
 -0.590   
  0.415   
  0.305   
  0.180   
  0.050   
  0.055   
  0.050   
  0.060   
  0.060   
  0.050   
  0.045   
  0.040   
  0.040   
  0.025   
  0.030   
  0.010   
  0.000   
 -0.020   
 -0.030   
 -0.045   
 -0.070   
 -0.090   
 -0.125   
 -0.165   
 -0.195   
 -0.225   
 -0.265   
 -0.300   
 -0.320   
 -0.310   
 -0.245   
 -0.195   
 -0.110   
 -0.040   
  0.000   
  0.030   
  0.035   
  0.025   
  0.025   
  0.030   
  0.025   
  0.020   
  0.010   
  0.005   
  0.010   
  0.000   
 -0.005   
  0.005   
  0.010   
  0.010   
  0.005   
  0.015   
  0.000   
  0.005   
  0.005   
  0.005   
  0.015   
  0.025   
  0.020   
  0.020   
  0.030   
  0.030   
  0.025   
  0.025   
  0.025   
  0.025   
  0.025   
  0.030   
  0.025   
  0.030   
  0.045   
  0.040   
  0.045   
  0.040   
  0.050   
  0.045   
  0.040   
  0.055   
  0.050   
  0.045   
  0.045   
  0.055   
  0.050   
  0.050   
  0.055   
  0.065   
  0.075   
  0.075   
  0.080   
  0.080   
  0.085   
  0.075   
  0.090   
  0.090   
  0.060   
  0.000   
 -0.065   
 -0.045   
  0.000   
  0.035   
  0.045   
  0.080   
  0.115   
  0.105   
  0.115   
  0.120   
  0.235   
  0.165   
 -0.680   
 -1.455   
 -0.590   
  0.440   
  0.345   
  0.190   
  0.085   
  0.085   
  0.080   
  0.075   
  0.070   
  0.075   
  0.070   
  0.050   
  0.045   
  0.045   
  0.050   
  0.035   
  0.020   
  0.010   
  0.000   
 -0.015   
 -0.045   
 -0.075   
 -0.090   
 -0.125   
 -0.155   
 -0.205   
 -0.245   
 -0.275   
 -0.305   
 -0.295   
 -0.240   
 -0.175   
 -0.080   
 -0.035   
  0.000   
  0.020   
  0.040   
  0.030   
  0.030   
  0.020   
  0.035   
  0.010   
  0.035   
  0.040   
  0.020   
  0.010   
  0.015   
  0.010   
  0.000   
  0.020   
  0.020   
  0.035   
  0.000   
  0.010   
  0.015   
  0.030   
  0.040   
  0.035   
  0.035   
  0.040   
  0.040   
  0.045   
  0.060   
  0.045   
  0.045   
  0.060   
  0.055   
  0.045   
  0.045   
  0.070   
  0.075   
  0.055   
  0.065   
  0.070   
  0.040   
  0.075   
  0.070   
  0.075   
  0.065   
  0.045   
  0.080   
  0.070   
  0.070   
  0.075   
  0.065   
  0.065   
  0.080   
  0.065   
  0.075   
  0.100   
  0.090   
  0.105   
  0.075   
  0.035   
 -0.035   
 -0.050   
 -0.005   
  0.030   
  0.030   
  0.090   
  0.130   
  0.125   
  0.135   
  0.140   
  0.205   
  0.310   
 -0.290   
 -1.370   
 -0.890   
  0.160   
  0.410   
  0.300   
  0.125   
  0.085   
  0.060   
  0.065   
  0.060   
  0.060   
  0.060   
  0.055   
  0.050   
  0.030   
  0.035   
  0.025   
  0.020   
  0.000   
  0.000   
 -0.025   
 -0.040   
 -0.060   
 -0.095   
 -0.115   
 -0.140   
 -0.175   
 -0.225   
 -0.245   
 -0.285   
 -0.295   
 -0.275   
 -0.200   
 -0.130   
 -0.070   
 -0.025   
  0.020   
  0.030   
  0.030   
  0.045   
  0.045   
  0.035   
  0.040   
  0.030   
  0.015   
  0.020   
  0.000   
  0.020   
  0.025   
  0.030   
  0.050   
  0.035   
  0.035   
  0.045   
  0.020   
  0.030   
  0.035   
  0.020   
  0.035   
  0.040   
  0.050   
  0.060   
  0.045   
  0.065   
  0.065   
  0.045   
  0.035   
  0.060   
  0.070   
  0.060   
  0.060   
  0.050   
  0.060   
  0.045   
  0.060   
  0.075   
  0.080   
  0.075   
  0.060   
  0.030   
  0.060   
  0.070   
  0.080   
  0.090   
  0.090   
  0.080   
  0.070   
  0.080   
  0.080   
  0.075   
  0.115   
  0.060   
  0.095   
  0.115   
  0.115   
  0.055   
  0.045   
 -0.030   
 -0.065   
 -0.030   
  0.035   
  0.060   
  0.070   
  0.105   
  0.135   
  0.140   
  0.110   
  0.205   
  0.320   
 -0.320   
 -1.435   
 -0.920   
  0.070   
  0.420   
  0.305   
  0.130   
  0.055   
  0.035   
  0.090   
  0.055   
  0.065   
  0.050   
  0.025   
  0.045   
  0.025   
  0.025   
  0.000   
 -0.010   
 -0.010   
  0.005   
 -0.025   
 -0.055   
 -0.040   
 -0.090   
 -0.095   
 -0.150   
 -0.170   
 -0.215   
 -0.245   
 -0.255   
 -0.270   
 -0.260   
 -0.215   
 -0.140   
 -0.065   
 -0.020   
  0.020   
  0.045   
  0.045   
  0.020   
  0.040   
  0.040   
  0.030   
  0.025   
  0.030   
  0.010   
  0.005   
  0.015   
  0.030   
  0.000   
  0.005   
  0.035   
  0.030   
  0.010   
  0.040   
  0.030   
  0.000   
  0.015   
  0.030   
  0.025   
  0.060   
  0.020   
  0.045   
  0.035   
  0.045   
  0.035   
  0.040   
  0.080   
  0.080   
  0.070   
  0.065   
  0.085   
  0.050   
  0.080   
  0.055   
  0.045   
  0.055   
  0.100   
  0.070   
  0.095   
  0.090   
  0.090   
  0.115   
  0.085   
  0.090   
  0.065   
  0.080   
  0.130   
  0.095   
  0.010   
 -0.015   
 -0.015   
 -0.040   
  0.055   
  0.020   
  0.140   
  0.130   
  0.120   
  0.135   
  0.155   
  0.290   
  0.270   
 -0.590   
 -1.585   
 -0.640   
  0.245   
  0.360   
  0.315   
  0.120   
  0.080   
  0.065   
  0.060   
  0.050   
  0.065   
  0.055   
  0.040   
  0.045   
  0.015   
  0.020   
  0.005   
  0.000   
 -0.020   
 -0.040   
 -0.025   
 -0.055   
 -0.075   
 -0.105   
 -0.135   
 -0.160   
 -0.195   
 -0.230   
 -0.265   
 -0.270   
 -0.275   
 -0.225   
 -0.165   
 -0.105   
 -0.090   
  0.020   
  0.025   
  0.005   
  0.025   
  0.015   
  0.025   
  0.030   
  0.030   
  0.000   
  0.015   
  0.005   
  0.005   
 -0.020   
  0.005   
  0.000   
  0.010   
  0.015   
 -0.015   
  0.005   
  0.040   
  0.030   
  0.000   
  0.025   
  0.045   
  0.015   
  0.025   
  0.025   
  0.025   
  0.045   
  0.045   
  0.040   
  0.020   
  0.025   
  0.025   
  0.020   
  0.045   
  0.060   
  0.055   
  0.030   
  0.055   
  0.055   
  0.040   
  0.050   
  0.060   
  0.060   
  0.070   
  0.090   
  0.065   
  0.045   
  0.065   
  0.090   
  0.060   
  0.090   
  0.090   
  0.080   
  0.070   
  0.110   
  0.095   
  0.045   
 -0.030   
 -0.070   
 -0.030   
  0.030   
  0.040   
  0.055   
  0.105   
  0.120   
  0.125   
  0.125   
  0.170   
  0.240   
 -0.290   
 -1.335   
 -0.995   
  0.055   
  0.385   
  0.300   
  0.125   
  0.075   
  0.075   
  0.045   
  0.050   
  0.070   
  0.045   
  0.045   
  0.040   
  0.040   
  0.045   
  0.030   
  0.015   
  0.000   
  0.000   
 -0.025   
 -0.035   
 -0.065   
 -0.080   
 -0.115   
 -0.155   
 -0.195   
 -0.225   
 -0.260   
 -0.285   
 -0.305   
 -0.275   
 -0.210   
 -0.145   
 -0.070   
 -0.005   
  0.010   
  0.005   
  0.020   
  0.045   
  0.040   
  0.025   
  0.015   
  0.020   
  0.030   
  0.010   
  0.000   
  0.005   
 -0.005   
  0.000   
  0.005   
  0.000   
  0.000   
  0.005   
  0.010   
  0.000   
  0.000   
  0.000   
  0.020   
  0.020   
  0.020   
  0.010   
  0.020   
  0.020   
  0.025   
  0.030   
  0.025   
  0.035   
  0.025   
  0.030   
  0.035   
  0.035   
  0.050   
  0.040   
  0.035   
  0.035   
  0.040   
  0.050   
  0.045   
  0.050   
  0.050   
  0.045   
  0.055   
  0.070   
  0.060   
  0.055   
  0.055   
  0.065   
  0.070   
  0.070   
  0.075   
  0.075   
  0.080   
  0.080   
  0.085   
  0.080   
  0.080   
  0.075   
  0.105   
  0.090   
  0.060   
 -0.020   
 -0.065   
 -0.025   
  0.015   
  0.035   
  0.040   
  0.095   
  0.125   
  0.115   
  0.125   
  0.140   
  0.235   
 -0.080   
 -1.035   
 -1.175   
 -0.225   
  0.405   
  0.290   
  0.135   
  0.065   
  0.055   
  0.060   
  0.055   
  0.055   
  0.055   
  0.060   
  0.040   
  0.045   
  0.045   
  0.015   
  0.020   
  0.005   
  0.000   
 -0.015   
 -0.050   
 -0.060   
 -0.090   
 -0.115   
 -0.150   
 -0.180   
 -0.205   
 -0.255   
 -0.290   
 -0.310   
 -0.285   
 -0.240   
 -0.170   
 -0.090   
 -0.035   
 -0.010   
  0.025   
  0.035   
  0.030   
  0.035   
  0.030   
  0.025   
  0.020   
  0.005   
  0.010   
  0.005   
  0.005   
  0.010   
  0.005   
  0.005   
  0.005   
  0.005   
  0.005   
  0.025   
  0.010   
  0.010   
  0.015   
  0.020   
  0.015   
  0.020   
  0.020   
  0.035   
  0.030   
  0.025   
  0.025   
  0.030   
  0.035   
  0.035   
  0.050   
  0.040   
  0.045   
  0.040   
  0.050   
  0.050   
  0.040   
  0.055   
  0.050   
  0.050   
  0.065   
  0.055   
  0.050   
  0.060   
  0.075   
  0.060   
  0.065   
  0.065   
  0.065   
  0.065   
  0.075   
  0.080   
  0.070   
  0.080   
  0.065   
  0.090   
  0.085   
  0.080   
  0.080   
  0.100   
  0.080   
  0.070   
  0.000   
 -0.070   
 -0.045   
 -0.015   
  0.035   
  0.040   
  0.075   
  0.105   
  0.110   
  0.110   
  0.115   
  0.230   
  0.195   
 -0.615   
 -1.455   
 -0.650   
  0.400   
  0.345   
  0.185   
  0.065   
  0.065   
  0.075   
  0.060   
  0.055   
  0.050   
  0.065   
  0.055   
  0.060   
  0.065   
  0.045   
  0.035   
  0.030   
  0.015   
  0.015   
 -0.010   
 -0.045   
 -0.050   
 -0.080   
 -0.110   
 -0.145   
 -0.200   
 -0.235   
 -0.265   
 -0.295   
 -0.310   
 -0.255   
 -0.205   
 -0.120   
 -0.040   
  0.000   
  0.030   
  0.045   
  0.040   
  0.050   
  0.050   
  0.025   
  0.035   
  0.020   
  0.010   
  0.020   
  0.015   
  0.005   
  0.000   
  0.005   
  0.010   
  0.015   
  0.000   
  0.005   
  0.005   
  0.000   
  0.000   
  0.015   
  0.000   
  0.010   
  0.030   
  0.030   
  0.025   
  0.020   
  0.040   
  0.030   
  0.030   
  0.035   
  0.050   
  0.045   
  0.035   
  0.055   
  0.035   
  0.040   
  0.050   
  0.045   
  0.060   
  0.050   
  0.075   
  0.065   
  0.060   
  0.035   
  0.025   
  0.070   
  0.035   
  0.040   
  0.075   
  0.075   
  0.065   
  0.065   
  0.070   
  0.065   
  0.080   
  0.065   
  0.085   
  0.085   
  0.070   
 -0.030   
 -0.105   
 -0.065   
 -0.035   
  0.020   
  0.060   
  0.085   
  0.090   
  0.110   
  0.100   
  0.115   
  0.280   
  0.215   
 -0.660   
 -1.455   
 -0.595   
  0.340   
  0.345   
  0.280   
  0.095   
  0.060   
  0.075   
  0.050   
  0.080   
  0.050   
  0.045   
  0.055   
  0.060   
  0.030   
  0.030   
  0.030   
  0.005   
  0.015   
 -0.025   
 -0.005   
 -0.020   
 -0.060   
 -0.085   
 -0.115   
 -0.140   
 -0.195   
 -0.225   
 -0.260   
 -0.280   
 -0.290   
 -0.265   
 -0.215   
 -0.130   
 -0.045   
 -0.010   
  0.005   
  0.030   
  0.040   
  0.030   
  0.005   
  0.025   
  0.025   
  0.015   
  0.000   
  0.000   
  0.000   
 -0.005   
  0.000   
 -0.015   
  0.000   
  0.010   
  0.010   
  0.010   
  0.015   
  0.015   
  0.025   
 -0.005   
  0.030   
  0.045   
  0.035   
  0.025   
  0.005   
  0.035   
  0.050   
  0.020   
  0.030   
  0.030   
  0.040   
  0.045   
  0.045   
  0.055   
  0.050   
  0.055   
  0.040   
  0.050   
  0.055   
  0.070   
  0.050   
  0.055   
  0.070   
  0.065   
  0.060   
  0.060   
  0.055   
  0.075   
  0.070   
  0.070   
  0.085   
  0.070   
  0.080   
  0.085   
  0.085   
  0.095   
  0.085   
  0.085   
  0.055   
  0.000   
 -0.075   
 -0.080   
 -0.035   
  0.020   
  0.025   
  0.055   
  0.120   
  0.115   
  0.110   
  0.115   
  0.200   
  0.245   
 -0.445   
 -1.490   
 -0.850   
  0.235   
  0.350   
  0.245   
  0.080   
  0.070   
  0.060   
  0.055   
  0.050   
  0.050   
  0.035   
  0.025   
  0.035   
  0.025   
  0.025   
  0.010   
  0.000   
 -0.010   
 -0.025   
 -0.040   
 -0.045   
 -0.070   
 -0.105   
 -0.135   
 -0.160   
 -0.215   
 -0.250   
 -0.275   
 -0.305   
 -0.315   
 -0.295   
 -0.230   
 -0.150   
 -0.080   
 -0.030   
  0.000   
  0.015   
  0.025   
  0.025   
  0.030   
  0.025   
  0.015   
  0.015   
  0.015   
  0.010   
  0.005   
  0.010   
  0.005   
  0.000   
  0.000   
  0.005   
  0.000   
  0.000   
  0.000   
  0.010   
  0.015   
  0.010   
  0.010   
  0.010   
  0.015   
  0.010   
  0.020   
  0.025   
  0.025   
  0.015   
  0.015   
  0.025   
  0.020   
  0.025   
  0.025   
  0.025   
  0.030   
  0.040   
  0.035   
  0.030   
  0.035   
  0.040   
  0.040   
  0.030   
  0.050   
  0.050   
  0.045   
  0.050   
  0.060   
  0.050   
  0.050   
  0.060   
  0.055   
  0.060   
  0.065   
  0.070   
  0.060   
  0.080   
  0.070   
  0.075   
  0.080   
  0.075   
  0.095   
  0.060   
  0.025   
 -0.050   
 -0.085   
 -0.040   
  0.015   
  0.025   
  0.055   
  0.100   
  0.120   
  0.115   
  0.125   
  0.165   
  0.260   
 -0.265   
 -1.280   
 -0.955   
  0.050   
  0.385   
  0.255   
  0.075   
  0.065   
  0.080   
  0.075   
  0.070   
  0.065   
  0.045   
  0.045   
  0.050   
  0.035   
  0.035   
  0.025   
  0.010   
  0.000   
  0.000   
 -0.025   
 -0.045   
 -0.050   
 -0.075   
 -0.115   
 -0.155   
 -0.180   
 -0.230   
 -0.275   
 -0.305   
 -0.315   
 -0.290   
 -0.260   
 -0.145   
 -0.075   
 -0.050   
 -0.015   
  0.010   
  0.030   
  0.030   
  0.035   
  0.040   
  0.015   
  0.020   
  0.030   
  0.010   
  0.020   
  0.010   
  0.010   
  0.010   
  0.015   
  0.020   
  0.015   
  0.005   
  0.015   
  0.010   
  0.015   
  0.035   
  0.020   
  0.020   
  0.020   
  0.030   
  0.050   
  0.020   
  0.040   
  0.055   
  0.030   
  0.030   
  0.050   
  0.040   
  0.040   
  0.025   
  0.050   
  0.070   
  0.055   
  0.050   
  0.055   
  0.060   
  0.055   
  0.060   
  0.045   
  0.020   
  0.070   
  0.065   
  0.050   
  0.080   
  0.095   
  0.085   
  0.060   
  0.105   
  0.065   
  0.070   
  0.065   
  0.085   
  0.065   
  0.080   
  0.090   
  0.115   
  0.095   
  0.055   
 -0.005   
 -0.080   
 -0.055   
  0.000   
  0.035   
  0.045   
  0.080   
  0.120   
  0.110   
  0.115   
  0.135   
  0.315   
  0.035   
 -1.025   
 -1.260   
 -0.305   
  0.385   
  0.320   
  0.215   
  0.085   
  0.070   
  0.060   
  0.060   
  0.075   
  0.050   
  0.025   
  0.030   
  0.050   
  0.030   
  0.030   
  0.015   
  0.005   
 -0.015   
 -0.005   
 -0.070   
 -0.065   
 -0.080   
 -0.100   
 -0.125   
 -0.170   
 -0.205   
 -0.220   
 -0.270   
 -0.305   
 -0.270   
 -0.250   
 -0.210   
 -0.115   
 -0.055   
 -0.020   
  0.000   
  0.015   
  0.015   
  0.045   
  0.030   
  0.000   
  0.015   
  0.015   
 -0.005   
 -0.010   
  0.010   
 -0.005   
  0.020   
 -0.010   
  0.000   
  0.000   
  0.000   
  0.000   
  0.005   
  0.005   
  0.005   
  0.010   
  0.035   
  0.015   
  0.010   
  0.020   
  0.040   
  0.040   
  0.010   
  0.030   
  0.035   
  0.045   
  0.040   
  0.055   
  0.055   
  0.035   
  0.035   
  0.055   
  0.075   
  0.045   
  0.035   
  0.080   
  0.075   
  0.070   
  0.060   
  0.055   
  0.075   
  0.070   
  0.055   
  0.065   
  0.065   
  0.055   
  0.075   
  0.080   
  0.080   
  0.075   
  0.105   
  0.090   
  0.025   
  0.015   
 -0.060   
 -0.055   
 -0.025   
  0.010   
  0.025   
  0.095   
  0.105   
  0.110   
  0.120   
  0.115   
  0.280   
  0.155   
 -0.775   
 -1.535   
 -0.570   
  0.350   
  0.325   
  0.225   
  0.085   
  0.075   
  0.075   
  0.065   
  0.070   
  0.050   
  0.050   
  0.045   
  0.050   
  0.025   
  0.015   
  0.020   
  0.010   
 -0.010   
 -0.020   
 -0.015   
 -0.050   
 -0.065   
 -0.105   
 -0.130   
 -0.160   
 -0.200   
 -0.235   
 -0.275   
 -0.300   
 -0.295   
 -0.260   
 -0.180   
 -0.120   
 -0.050   
 -0.005   
  0.015   
  0.035   
  0.035   
  0.045   
  0.030   
  0.030   
  0.035   
  0.010   
  0.010   
  0.015   
  0.000   
  0.000   
  0.005   
  0.005   
  0.000   
  0.000   
  0.005   
  0.000   
  0.000   
  0.005   
  0.015   
  0.020   
  0.015   
  0.025   
  0.030   
  0.020   
  0.025   
  0.030   
  0.030   
  0.025   
  0.025   
  0.035   
  0.025   
  0.030   
  0.035   
  0.025   
  0.030   
  0.040   
  0.035   
  0.040   
  0.045   
  0.045   
  0.035   
  0.055   
  0.045   
  0.045   
  0.050   
  0.050   
  0.055   
  0.055   
  0.050   
  0.050   
  0.060   
  0.065   
  0.055   
  0.070   
  0.070   
  0.075   
  0.070   
  0.075   
  0.085   
  0.070   
  0.080   
  0.095   
  0.090   
  0.055   
  0.000   
 -0.050   
 -0.040   
 -0.005   
  0.025   
  0.045   
  0.075   
  0.115   
  0.115   
  0.125   
  0.115   
  0.230   
  0.185   
 -0.680   
 -1.515   
 -0.685   
  0.405   
  0.335   
  0.190   
  0.075   
  0.080   
  0.075   
  0.060   
  0.075   
  0.060   
  0.070   
  0.060   
  0.065   
  0.040   
  0.045   
  0.035   
  0.020   
  0.000   
  0.000   
 -0.020   
 -0.050   
 -0.065   
 -0.085   
 -0.130   
 -0.165   
 -0.205   
 -0.245   
 -0.285   
 -0.315   
 -0.315   
 -0.285   
 -0.215   
 -0.130   
 -0.065   
 -0.010   
  0.020   
  0.030   
  0.045   
  0.050   
  0.035   
  0.035   
  0.035   
  0.020   
  0.030   
  0.020   
  0.025   
  0.015   
  0.005   
  0.005   
  0.005   
  0.010   
  0.015   
  0.005   
  0.010   
  0.010   
  0.005   
  0.020   
  0.015   
  0.015   
  0.010   
  0.025   
  0.020   
  0.015   
  0.030   
  0.025   
  0.025   
  0.020   
  0.030   
  0.025   
  0.025   
  0.040   
  0.030   
  0.035   
  0.040   
  0.035   
  0.030   
  0.040   
  0.040   
  0.035   
  0.040   
  0.045   
  0.040   
  0.045   
  0.055   
  0.050   
  0.050   
  0.060   
  0.055   
  0.060   
  0.070   
  0.060   
  0.060   
  0.065   
  0.060   
  0.075   
  0.075   
  0.080   
  0.070   
  0.080   
  0.070   
  0.100   
  0.070   
  0.040   
 -0.020   
 -0.090   
 -0.040   
  0.000   
  0.030   
  0.040   
  0.085   
  0.115   
  0.105   
  0.115   
  0.125   
  0.235   
  0.000   
 -0.910   
 -1.235   
 -0.360   
  0.415   
  0.300   
  0.130   
  0.070   
  0.065   
  0.070   
  0.075   
  0.070   
  0.055   
  0.060   
  0.045   
  0.050   
  0.035   
  0.040   
  0.020   
  0.015   
 -0.005   
 -0.010   
 -0.025   
 -0.050   
 -0.080   
 -0.110   
 -0.140   
 -0.185   
 -0.220   
 -0.265   
 -0.300   
 -0.330   
 -0.315   
 -0.270   
 -0.205   
 -0.120   
 -0.060   
 -0.010   
  0.020   
  0.045   
  0.020   
  0.035   
  0.040   
  0.040   
  0.030   
  0.020   
  0.025   
  0.015   
  0.010   
  0.010   
  0.015   
  0.010   
  0.010   
  0.010   
  0.000   
  0.005   
  0.010   
  0.020   
  0.005   
  0.015   
  0.010   
  0.010   
  0.010   
  0.005   
  0.015   
  0.005   
  0.015   
  0.015   
  0.025   
  0.040   
  0.025   
  0.015   
  0.025   
  0.035   
  0.025   
  0.030   
  0.025   
  0.020   
  0.045   
  0.045   
  0.035   
  0.020   
  0.045   
  0.045   
  0.045   
  0.055   
  0.045   
  0.055   
  0.055   
  0.060   
  0.050   
  0.065   
  0.060   
  0.060   
  0.080   
  0.080   
  0.070   
  0.070   
  0.080   
  0.070   
  0.080   
  0.090   
  0.085   
  0.075   
  0.110   
  0.100   
  0.035   
 -0.040   
 -0.045   
 -0.035   
  0.015   
  0.030   
  0.060   
  0.105   
  0.115   
  0.120   
  0.125   
  0.180   
  0.300   
 -0.140   
 -1.190   
 -1.095   
 -0.105   
  0.435   
  0.335   
  0.185   
  0.095   
  0.095   
  0.090   
  0.080   
  0.095   
  0.080   
  0.080   
  0.055   
  0.075   
  0.045   
  0.070   
  0.035   
  0.025   
  0.025   
  0.000   
 -0.010   
 -0.025   
 -0.050   
 -0.105   
 -0.120   
 -0.145   
 -0.195   
 -0.235   
 -0.265   
 -0.280   
 -0.285   
 -0.260   
 -0.190   
 -0.095   
 -0.035   
  0.000   
  0.015   
  0.055   
  0.060   
  0.060   
  0.070   
  0.035   
  0.045   
  0.025   
  0.015   
  0.010   
  0.010   
  0.030   
  0.015   
  0.020   
  0.030   
  0.010   
  0.035   
  0.010   
  0.010   
  0.015   
  0.020   
  0.025   
  0.030   
  0.045   
  0.025   
  0.025   
  0.035   
  0.035   
  0.035   
  0.045   
  0.035   
  0.030   
  0.000   
  0.075   
  0.050   
  0.040   
  0.045   
  0.040   
  0.035   
  0.050   
  0.065   
  0.040   
  0.080   
  0.040   
  0.050   
  0.035   
  0.075   
  0.060   
  0.060   
  0.060   
  0.055   
  0.085   
  0.055   
  0.045   
  0.060   
  0.085   
  0.065   
  0.095   
  0.100   
  0.105   
  0.050   
 -0.045   
 -0.055   
 -0.070   
 -0.025   
  0.010   
  0.025   
  0.080   
  0.115   
  0.125   
  0.125   
  0.120   
  0.300   
  0.100   
 -0.885   
 -1.430   
 -0.425   
  0.370   
  0.355   
  0.260   
  0.105   
  0.060   
  0.075   
  0.100   
  0.090   
  0.065   
  0.070   
  0.060   
  0.050   
  0.060   
  0.040   
  0.040   
  0.015   
  0.010   
 -0.015   
 -0.005   
 -0.030   
 -0.065   
 -0.095   
 -0.115   
 -0.170   
 -0.210   
 -0.225   
 -0.280   
 -0.290   
 -0.305   
 -0.295   
 -0.195   
 -0.150   
 -0.050   
 -0.015   
  0.010   
  0.025   
  0.030   
  0.045   
  0.035   
  0.025   
  0.010   
  0.025   
  0.000   
  0.015   
  0.000   
  0.015   
  0.000   
 -0.005   
  0.010   
  0.005   
 -0.020   
 -0.010   
 -0.005   
  0.000   
  0.000   
 -0.010   
  0.005   
  0.005   
  0.020   
  0.030   
  0.025   
  0.015   
  0.025   
  0.030   
  0.020   
  0.000   
  0.030   
  0.035   
  0.035   
  0.045   
  0.030   
  0.035   
  0.040   
  0.035   
  0.060   
  0.050   
  0.070   
  0.070   
  0.065   
  0.045   
  0.060   
  0.080   
  0.080   
  0.075   
  0.060   
  0.080   
  0.095   
  0.085   
  0.085   
  0.095   
  0.085   
  0.090   
  0.090   
  0.100   
  0.100   
  0.100   
  0.115   
  0.120   
  0.080   
  0.025   
 -0.040   
 -0.045   
 -0.015   
  0.035   
  0.060   
  0.100   
  0.120   
  0.125   
  0.125   
  0.120   
  0.250   
  0.215   
 -0.630   
 -1.590   
 -0.695   
  0.375   
  0.345   
  0.245   
  0.090   
  0.065   
  0.075   
  0.070   
  0.055   
  0.070   
  0.060   
  0.035   
  0.045   
  0.055   
  0.040   
  0.030   
  0.020   
  0.005   
 -0.005   
 -0.035   
 -0.045   
 -0.070   
 -0.095   
 -0.135   
 -0.170   
 -0.205   
 -0.245   
 -0.295   
 -0.315   
 -0.330   
 -0.295   
 -0.225   
 -0.150   
 -0.080   
 -0.005   
  0.020   
  0.030   
  0.050   
  0.045   
  0.050   
  0.040   
  0.040   
  0.035   
  0.040   
  0.020   
  0.015   
  0.020   
  0.015   
  0.000   
 -0.005   
  0.000   
  0.000   
  0.000   
  0.000   
 -0.005   
  0.005   
  0.000   
  0.010   
  0.025   
  0.020   
  0.010   
  0.015   
  0.020   
  0.025   
  0.025   
  0.020   
  0.030   
  0.025   
  0.030   
  0.030   
  0.030   
  0.025   
  0.035   
  0.035   
  0.040   
  0.040   
  0.040   
  0.040   
  0.050   
  0.045   
  0.045   
  0.050   
  0.050   
  0.050   
  0.050   
  0.060   
  0.055   
  0.060   
  0.075   
  0.080   
  0.070   
  0.075   
  0.075   
  0.075   
  0.085   
  0.075   
  0.085   
  0.090   
  0.090   
  0.085   
  0.095   
  0.100   
  0.100   
  0.105   
  0.115   
  0.115   
  0.085   
  0.035   
 -0.030   
 -0.035   
  0.015   
  0.055   
  0.070   
  0.105   
  0.140   
  0.155   
  0.160   
  0.150   
  0.265   
  0.240   
 -0.580   
 -1.490   
 -0.680   
  0.435   
  0.370   
  0.225   
  0.105   
  0.105   
  0.100   
  0.085   
  0.085   
  0.075   
  0.070   
  0.065   
  0.065   
  0.050   
  0.055   
  0.040   
  0.025   
  0.015   
  0.000   
 -0.010   
 -0.035   
 -0.060   
 -0.080   
 -0.115   
 -0.150   
 -0.205   
 -0.230   
 -0.270   
 -0.310   
 -0.310   
 -0.285   
 -0.230   
 -0.145   
 -0.055   
 -0.005   
  0.030   
  0.050   
  0.060   
  0.060   
  0.065   
  0.065   
  0.055   
  0.050   
  0.055   
  0.050   
  0.045   
  0.040   
  0.040   
  0.035   
  0.035   
  0.045   
  0.030   
  0.035   
  0.035   
  0.040   
  0.035   
  0.040   
  0.035   
  0.050   
  0.035   
  0.035   
  0.040   
  0.050   
  0.045   
  0.050   
  0.055   
  0.050   
  0.040   
  0.045   
  0.050   
  0.040   
  0.045   
  0.035   
  0.050   
  0.035   
  0.030   
  0.040   
  0.045   
  0.040   
  0.045   
  0.040   
  0.045   
  0.045   
  0.045   
  0.050   
  0.050   
  0.055   
  0.060   
  0.060   
  0.065   
  0.065   
  0.065   
  0.085   
  0.075   
  0.080   
  0.075   
  0.080   
  0.080   
  0.075   
  0.090   
  0.100   
  0.100   
  0.105   
  0.115   
  0.075   
  0.015   
 -0.050   
 -0.050   
 -0.015   
  0.050   
  0.070   
  0.100   
  0.140   
  0.135   
  0.150   
  0.140   
  0.240   
  0.245   
 -0.490   
 -1.475   
 -0.730   
  0.385   
  0.370   
  0.230   
  0.090   
  0.085   
  0.095   
  0.090   
  0.090   
  0.080   
  0.060   
  0.075   
  0.070   
  0.055   
  0.050   
  0.040   
  0.045   
  0.030   
  0.010   
 -0.020   
 -0.010   
 -0.040   
 -0.075   
 -0.110   
 -0.140   
 -0.210   
 -0.240   
 -0.265   
 -0.330   
 -0.335   
 -0.315   
 -0.245   
 -0.150   
 -0.075   
 -0.045   
  0.000   
  0.050   
  0.045   
  0.055   
  0.065   
  0.025   
  0.050   
  0.050   
  0.050   
  0.050   
  0.040   
  0.040   
  0.035   
  0.025   
  0.020   
  0.025   
  0.020   
  0.035   
  0.035   
  0.035   
  0.020   
  0.030   
  0.030   
  0.030   
  0.015   
  0.030   
  0.040   
  0.015   
  0.040   
  0.015   
  0.015   
  0.020   
  0.040   
  0.055   
  0.045   
  0.055   
  0.040   
  0.040   
  0.030   
  0.060   
  0.030   
  0.055   
  0.040   
  0.050   
  0.055   
  0.065   
  0.085   
  0.045   
  0.090   
  0.070   
  0.075   
  0.070   
  0.065   
  0.060   
  0.070   
  0.070   
  0.075   
  0.085   
  0.070   
  0.095   
  0.060   
  0.065   
  0.055   
  0.125   
  0.100   
  0.050   
  0.005   
 -0.060   
 -0.055   
 -0.015   
  0.025   
  0.065   
  0.110   
  0.135   
  0.080   
  0.130   
  0.155   
  0.340   
 -0.015   
 -1.130   
 -1.240   
 -0.255   
  0.405   
  0.345   
  0.225   
  0.085   
  0.090   
  0.075   
  0.060   
  0.075   
  0.060   
  0.015   
  0.075   
  0.080   
  0.030   
  0.025   
  0.035   
  0.025   
  0.000   
 -0.020   
 -0.030   
 -0.045   
 -0.090   
 -0.105   
 -0.100   
 -0.140   
 -0.215   
 -0.245   
 -0.280   
 -0.270   
 -0.310   
 -0.275   
 -0.210   
 -0.110   
 -0.045   
  0.000   
  0.050   
  0.035   
  0.065   
  0.045   
  0.035   
  0.040   
  0.020   
  0.035   
  0.040   
  0.010   
  0.010   
  0.025   
  0.020   
  0.020   
 -0.020   
  0.010   
  0.010   
  0.015   
  0.020   
  0.010   
  0.015   
  0.030   
  0.015   
  0.005   
  0.030   
  0.020   
  0.040   
  0.030   
  0.040   
  0.045   
  0.045   
  0.045   
  0.045   
  0.035   
  0.020   
  0.060   
  0.055   
  0.030   
  0.050   
  0.050   
  0.050   
  0.055   
  0.050   
  0.065   
  0.065   
  0.045   
  0.060   
  0.035   
  0.055   
  0.065   
  0.080   
  0.075   
  0.075   
  0.070   
  0.065   
  0.085   
  0.070   
  0.095   
  0.095   
  0.110   
  0.090   
  0.045   
 -0.040   
 -0.050   
 -0.040   
  0.020   
  0.040   
  0.060   
  0.095   
  0.130   
  0.125   
  0.130   
  0.185   
  0.275   
 -0.345   
 -1.455   
 -0.965   
  0.100   
  0.390   
  0.305   
  0.145   
  0.075   
  0.060   
  0.070   
  0.080   
  0.070   
  0.060   
  0.060   
  0.055   
  0.055   
  0.050   
  0.020   
  0.010   
  0.000   
 -0.005   
 -0.015   
 -0.030   
 -0.045   
 -0.080   
 -0.120   
 -0.155   
 -0.200   
 -0.245   
 -0.275   
 -0.320   
 -0.345   
 -0.325   
 -0.260   
 -0.180   
 -0.110   
 -0.045   
  0.010   
  0.015   
  0.030   
  0.035   
  0.040   
  0.045   
  0.030   
  0.025   
  0.030   
  0.020   
  0.025   
  0.015   
  0.000   
 -0.005   
 -0.005   
  0.005   
  0.000   
  0.000   
  0.000   
  0.000   
  0.005   
  0.010   
  0.015   
  0.015   
  0.015   
  0.010   
  0.015   
  0.020   
  0.020   
  0.030   
  0.025   
  0.015   
  0.020   
  0.020   
  0.025   
  0.025   
  0.035   
  0.030   
  0.020   
  0.025   
  0.035   
  0.030   
  0.030   
  0.045   
  0.035   
  0.035   
  0.035   
  0.040   
  0.035   
  0.045   
  0.045   
  0.045   
  0.050   
  0.050   
  0.055   
  0.050   
  0.060   
  0.055   
  0.070   
  0.065   
  0.065   
  0.070   
  0.065   
  0.060   
  0.075   
  0.075   
  0.075   
  0.075   
  0.075   
  0.090   
  0.065   
  0.015   
 -0.050   
 -0.075   
 -0.015   
  0.020   
  0.035   
  0.070   
  0.110   
  0.120   
  0.125   
  0.120   
  0.195   
  0.245   
 -0.450   
 -1.465   
 -0.825   
  0.275   
  0.345   
  0.225   
  0.090   
  0.095   
  0.080   
  0.080   
  0.075   
  0.075   
  0.080   
  0.070   
  0.065   
  0.060   
  0.060   
  0.045   
  0.035   
  0.025   
  0.005   
 -0.010   
 -0.020   
 -0.055   
 -0.080   
 -0.115   
 -0.150   
 -0.190   
 -0.230   
 -0.270   
 -0.320   
 -0.350   
 -0.330   
 -0.265   
 -0.175   
 -0.100   
 -0.045   
  0.000   
  0.020   
  0.035   
  0.040   
  0.040   
  0.035   
  0.025   
  0.030   
  0.035   
  0.030   
  0.020   
  0.010   
  0.010   
  0.000   
  0.000   
  0.010   
  0.010   
  0.005   
  0.005   
  0.000   
  0.010   
  0.015   
  0.010   
  0.010   
  0.015   
  0.030   
  0.025   
  0.030   
  0.030   
  0.025   
  0.025   
  0.020   
  0.030   
  0.030   
  0.040   
  0.025   
  0.025   
  0.040   
  0.055   
  0.040   
  0.050   
  0.055   
  0.040   
  0.045   
  0.045   
  0.035   
  0.040   
  0.055   
  0.045   
  0.045   
  0.055   
  0.065   
  0.060   
  0.065   
  0.070   
  0.065   
  0.075   
  0.070   
  0.070   
  0.070   
  0.070   
  0.080   
  0.065   
  0.095   
  0.085   
  0.075   
  0.105   
  0.085   
  0.095   
  0.085   
  0.050   
 -0.065   
 -0.080   
 -0.010   
  0.030   
  0.030   
  0.060   
  0.105   
  0.120   
  0.120   
  0.110   
  0.180   
  0.305   
 -0.330   
 -1.435   
 -0.950   
  0.110   
  0.405   
  0.305   
  0.130   
  0.080   
  0.095   
  0.050   
  0.060   
  0.075   
  0.065   
  0.075   
  0.070   
  0.040   
  0.035   
  0.065   
  0.020   
 -0.005   
  0.000   
 -0.005   
 -0.035   
 -0.035   
 -0.070   
 -0.110   
 -0.170   
 -0.170   
 -0.180   
 -0.270   
 -0.310   
 -0.325   
 -0.340   
 -0.270   
 -0.205   
 -0.110   
 -0.030   
  0.010   
  0.025   
  0.040   
  0.030   
  0.050   
  0.025   
  0.045   
  0.085   
  0.035   
  0.005   
  0.045   
 -0.005   
  0.015   
  0.025   
  0.005   
  0.025   
  0.025   
  0.035   
  0.000   
  0.025   
  0.010   
  0.050   
  0.030   
  0.025   
  0.025   
  0.040   
  0.045   
  0.035   
  0.020   
  0.060   
  0.060   
  0.035   
  0.040   
  0.035   
  0.065   
  0.065   
  0.040   
  0.040   
  0.060   
  0.070   
  0.040   
  0.070   
  0.055   
  0.055   
  0.060   
  0.055   
  0.045   
  0.075   
  0.095   
  0.070   
  0.080   
  0.060   
  0.070   
  0.115   
  0.090   
  0.115   
  0.090   
  0.110   
  0.095   
  0.070   
  0.005   
 -0.055   
 -0.060   
  0.020   
  0.080   
  0.070   
  0.105   
  0.105   
  0.145   
  0.160   
  0.185   
  0.305   
 -0.245   
 -1.315   
 -1.025   
 -0.115   
  0.410   
  0.375   
  0.225   
  0.070   
  0.090   
  0.115   
  0.055   
  0.070   
  0.060   
  0.080   
  0.035   
  0.075   
  0.020   
  0.040   
  0.015   
  0.020   
  0.000   
 -0.030   
 -0.025   
 -0.065   
 -0.100   
 -0.110   
 -0.140   
 -0.180   
 -0.230   
 -0.240   
 -0.290   
 -0.310   
 -0.305   
 -0.265   
 -0.205   
 -0.115   
 -0.045   
 -0.010   
  0.035   
  0.045   
  0.025   
  0.020   
  0.030   
  0.015   
  0.050   
  0.020   
  0.030   
  0.030   
  0.015   
 -0.005   
 -0.005   
  0.000   
 -0.005   
  0.020   
  0.010   
  0.015   
  0.000   
  0.010   
  0.020   
  0.020   
  0.010   
  0.025   
  0.030   
  0.020   
  0.035   
  0.050   
  0.045   
  0.045   
  0.035   
  0.050   
  0.050   
  0.040   
  0.050   
  0.050   
  0.050   
  0.055   
  0.070   
  0.065   
  0.065   
  0.070   
  0.070   
  0.070   
  0.065   
  0.075   
  0.080   
  0.080   
  0.090   
  0.070   
  0.075   
  0.085   
  0.090   
  0.095   
  0.105   
  0.075   
 -0.005   
 -0.070   
 -0.055   
 -0.020   
  0.035   
  0.035   
  0.080   
  0.115   
  0.125   
  0.105   
  0.125   
  0.230   
  0.120   
 -0.740   
 -1.535   
 -0.575   
  0.385   
  0.325   
  0.215   
  0.070   
  0.060   
  0.055   
  0.055   
  0.060   
  0.060   
  0.055   
  0.040   
  0.045   
  0.045   
  0.025   
  0.010   
  0.015   
  0.000   
 -0.010   
 -0.030   
 -0.050   
 -0.075   
 -0.105   
 -0.140   
 -0.175   
 -0.225   
 -0.265   
 -0.300   
 -0.345   
 -0.340   
 -0.300   
 -0.250   
 -0.155   
 -0.085   
 -0.020   
  0.015   
  0.020   
  0.035   
  0.030   
  0.030   
  0.035   
  0.025   
  0.020   
  0.025   
  0.010   
  0.005   
  0.005   
  0.005   
  0.000   
  0.010   
  0.000   
  0.000   
  0.000   
  0.000   
  0.000   
  0.000   
  0.010   
  0.015   
  0.020   
  0.015   
  0.010   
  0.005   
  0.025   
  0.015   
  0.010   
  0.030   
  0.025   
  0.025   
  0.020   
  0.030   
  0.020   
  0.025   
  0.025   
  0.030   
  0.030   
  0.025   
  0.030   
  0.040   
  0.030   
  0.035   
  0.045   
  0.035   
  0.035   
  0.040   
  0.050   
  0.035   
  0.030   
  0.050   
  0.040   
  0.050   
  0.045   
  0.055   
  0.050   
  0.050   
  0.060   
  0.055   
  0.060   
  0.065   
  0.065   
  0.060   
  0.060   
  0.075   
  0.065   
  0.085   
  0.060   
  0.015   
 -0.040   
 -0.075   
 -0.030   
  0.015   
  0.030   
  0.045   
  0.095   
  0.105   
  0.115   
  0.115   
  0.160   
  0.225   
 -0.365   
 -1.365   
 -0.900   
  0.165   
  0.335   
  0.220   
  0.075   
  0.070   
  0.070   
  0.065   
  0.070   
  0.065   
  0.065   
  0.060   
  0.055   
  0.055   
  0.040   
  0.030   
  0.025   
  0.010   
  0.005   
 -0.010   
 -0.025   
 -0.050   
 -0.075   
 -0.110   
 -0.150   
 -0.185   
 -0.225   
 -0.275   
 -0.310   
 -0.340   
 -0.330   
 -0.280   
 -0.200   
 -0.105   
 -0.055   
 -0.005   
  0.015   
  0.040   
  0.040   
  0.040   
  0.040   
  0.035   
  0.035   
  0.030   
  0.030   
  0.015   
  0.005   
  0.010   
  0.020   
  0.020   
  0.010   
  0.000   
  0.015   
  0.005   
  0.005   
  0.010   
  0.015   
  0.020   
  0.010   
  0.005   
  0.015   
  0.015   
  0.015   
  0.020   
  0.025   
  0.020   
  0.020   
  0.020   
  0.025   
  0.025   
  0.030   
  0.035   
  0.040   
  0.025   
  0.030   
  0.035   
  0.035   
  0.040   
  0.040   
  0.035   
  0.040   
  0.040   
  0.045   
  0.045   
  0.050   
  0.055   
  0.050   
  0.050   
  0.045   
  0.060   
  0.065   
  0.065   
  0.070   
  0.060   
  0.065   
  0.070   
  0.065   
  0.075   
  0.075   
  0.075   
  0.090   
  0.070   
  0.040   
 -0.025   
 -0.085   
 -0.045   
  0.000   
  0.025   
  0.050   
  0.080   
  0.105   
  0.115   
  0.125   
  0.130   
  0.235   
 -0.040   
 -0.950   
 -1.170   
 -0.290   
  0.415   
  0.300   
  0.145   
  0.085   
  0.070   
  0.075   
  0.070   
  0.070   
  0.065   
  0.070   
  0.055   
  0.065   
  0.050   
  0.045   
  0.035   
  0.025   
  0.010   
  0.000   
 -0.020   
 -0.045   
 -0.065   
 -0.085   
 -0.125   
 -0.165   
 -0.210   
 -0.250   
 -0.290   
 -0.330   
 -0.340   
 -0.290   
 -0.230   
 -0.150   
 -0.065   
 -0.020   
  0.010   
  0.030   
  0.035   
  0.035   
  0.030   
  0.035   
  0.030   
  0.030   
  0.030   
  0.015   
  0.015   
  0.015   
  0.005   
  0.010   
  0.005   
  0.030   
  0.015   
  0.015   
  0.020   
  0.015   
  0.020   
  0.015   
  0.020   
  0.000   
  0.030   
  0.025   
  0.025   
  0.035   
  0.015   
  0.010   
  0.020   
  0.045   
  0.030   
  0.035   
  0.030   
  0.035   
  0.035   
  0.025   
  0.040   
  0.035   
  0.040   
  0.045   
  0.045   
  0.040   
  0.040   
  0.050   
  0.055   
  0.060   
  0.050   
  0.045   
  0.050   
  0.070   
  0.060   
  0.060   
  0.050   
  0.060   
  0.075   
  0.070   
  0.075   
  0.070   
  0.085   
  0.075   
  0.080   
  0.085   
  0.070   
  0.100   
  0.090   
  0.040   
 -0.065   
 -0.085   
 -0.045   
  0.025   
  0.030   
  0.070   
  0.105   
  0.110   
  0.115   
  0.130   
  0.200   
  0.290   
 -0.320   
 -1.395   
 -0.905   
  0.085   
  0.400   
  0.310   
  0.135   
  0.075   
  0.075   
  0.065   
  0.060   
  0.080   
  0.065   
  0.080   
  0.050   
  0.035   
  0.040   
  0.035   
  0.035   
  0.000   
  0.000   
  0.010   
 -0.025   
 -0.060   
 -0.060   
 -0.105   
 -0.145   
 -0.175   
 -0.205   
 -0.250   
 -0.305   
 -0.330   
 -0.315   
 -0.250   
 -0.200   
 -0.100   
 -0.045   
 -0.005   
  0.025   
  0.045   
  0.050   
  0.045   
  0.045   
  0.025   
  0.045   
  0.025   
  0.030   
  0.005   
  0.015   
 -0.005   
  0.020   
  0.005   
  0.015   
  0.000   
  0.020   
  0.000   
  0.035   
  0.005   
  0.040   
  0.010   
  0.050   
  0.010   
  0.060   
  0.000   
  0.065   
 -0.005   
  0.070   
  0.010   
  0.085   
  0.005   
  0.095   
  0.015   
  0.105   
  0.020   
  0.000   
  0.075   
  0.005   
  0.070   
  0.005   
  0.070   
  0.005   
  0.070   
  0.020   
  0.060   
  0.030   
  0.070   
  0.025   
  0.070   
  0.040   
  0.070   
  0.050   
  0.075   
  0.055   
  0.080   
  0.060   
  0.080   
  0.070   
  0.085   
  0.080   
  0.055   
 -0.005   
 -0.075   
 -0.065   
 -0.020   
  0.015   
  0.035   
  0.070   
  0.115   
  0.110   
  0.110   
  0.115   
  0.220   
  0.170   
 -0.640   
 -1.470   
 -0.665   
  0.390   
  0.345   
  0.195   
  0.075   
  0.075   
  0.070   
  0.060   
  0.070   
  0.070   
  0.055   
  0.050   
  0.045   
  0.040   
  0.035   
  0.030   
  0.015   
  0.005   
 -0.010   
 -0.045   
 -0.050   
 -0.065   
 -0.095   
 -0.135   
 -0.175   
 -0.220   
 -0.260   
 -0.300   
 -0.330   
 -0.350   
 -0.325   
 -0.260   
 -0.170   
 -0.100   
 -0.040   
  0.000   
  0.020   
  0.030   
  0.035   
  0.035   
  0.035   
  0.035   
  0.030   
  0.020   
  0.020   
  0.020   
  0.010   
  0.010   
  0.010   
  0.010   
  0.005   
  0.015   
  0.010   
  0.015   
  0.020   
  0.015   
  0.020   
  0.020   
  0.020   
  0.025   
  0.040   
  0.035   
  0.035   
  0.035   
  0.040   
  0.040   
  0.030   
  0.040   
  0.040   
  0.035   
  0.045   
  0.050   
  0.050   
  0.055   
  0.050   
  0.050   
  0.050   
  0.055   
  0.060   
  0.050   
  0.060   
  0.055   
  0.055   
  0.065   
  0.060   
  0.055   
  0.070   
  0.060   
  0.070   
  0.075   
  0.075   
  0.080   
  0.070   
  0.075   
  0.075   
  0.095   
  0.095   
  0.090   
  0.085   
  0.105   
  0.080   
  0.060   
 -0.010   
 -0.070   
 -0.045   
  0.000   
  0.030   
  0.060   
  0.090   
  0.125   
  0.120   
  0.130   
  0.135   
  0.240   
  0.050   
 -0.815   
 -1.245   
 -0.410   
  0.430   
  0.320   
  0.165   
  0.090   
  0.090   
  0.080   
  0.085   
  0.080   
  0.060   
  0.075   
  0.060   
  0.055   
  0.040   
  0.050   
  0.035   
  0.025   
  0.015   
  0.005   
 -0.025   
 -0.025   
 -0.050   
 -0.080   
 -0.125   
 -0.150   
 -0.200   
 -0.255   
 -0.295   
 -0.305   
 -0.320   
 -0.310   
 -0.250   
 -0.160   
 -0.070   
 -0.015   
  0.015   
  0.030   
  0.030   
  0.030   
  0.055   
  0.045   
  0.030   
  0.035   
  0.040   
  0.035   
  0.025   
  0.020   
  0.020   
  0.020   
  0.010   
  0.005   
  0.005   
  0.010   
  0.010   
  0.010   
  0.010   
  0.020   
  0.015   
  0.015   
  0.010   
  0.015   
  0.015   
  0.020   
  0.025   
  0.020   
  0.025   
  0.030   
  0.035   
  0.025   
  0.030   
  0.030   
  0.035   
  0.030   
  0.040   
  0.030   
  0.050   
  0.040   
  0.040   
  0.045   
  0.045   
  0.040   
  0.055   
  0.055   
  0.065   
  0.055   
  0.055   
  0.060   
  0.065   
  0.070   
  0.075   
  0.065   
  0.095   
  0.080   
  0.050   
 -0.020   
 -0.085   
 -0.060   
 -0.005   
  0.020   
  0.035   
  0.090   
  0.110   
  0.110   
  0.115   
  0.120   
  0.235   
  0.110   
 -0.745   
 -1.295   
 -0.490   
  0.405   
  0.325   
  0.165   
  0.065   
  0.060   
  0.075   
  0.060   
  0.070   
  0.060   
  0.065   
  0.060   
  0.070   
  0.055   
  0.050   
  0.035   
  0.035   
  0.015   
  0.015   
 -0.010   
 -0.025   
 -0.050   
 -0.080   
 -0.105   
 -0.145   
 -0.195   
 -0.240   
 -0.295   
 -0.315   
 -0.330   
 -0.295   
 -0.210   
 -0.135   
 -0.065   
 -0.015   
  0.030   
  0.030   
  0.050   
  0.040   
  0.055   
  0.045   
  0.045   
  0.030   
  0.030   
  0.025   
  0.020   
  0.015   
  0.015   
  0.015   
  0.030   
  0.015   
  0.015   
  0.030   
  0.040   
  0.025   
  0.020   
  0.040   
  0.035   
  0.035   
  0.020   
  0.025   
  0.055   
  0.040   
  0.010   
  0.040   
  0.060   
  0.055   
  0.010   
  0.050   
  0.050   
  0.030   
  0.075   
  0.040   
  0.050   
  0.065   
  0.070   
  0.100   
  0.040   
  0.080   
  0.055   
  0.125   
  0.110   
  0.045   
  0.100   
  0.055   
  0.100   
  0.080   
  0.105   
  0.105   
  0.080   
  0.095   
  0.045   
 -0.020   
 -0.080   
 -0.080   
  0.005   
  0.045   
  0.060   
  0.110   
  0.150   
  0.140   
  0.135   
  0.110   
  0.260   
  0.080   
 -0.815   
 -1.165   
 -0.405   
  0.435   
  0.350   
  0.165   
  0.095   
  0.065   
  0.080   
  0.075   
  0.050   
  0.050   
  0.060   
  0.075   
  0.080   
  0.065   
  0.050   
  0.010   
  0.040   
  0.030   
  0.000   
 -0.040   
  0.020   
 -0.070   
 -0.090   
 -0.155   
 -0.165   
 -0.205   
 -0.225   
 -0.270   
 -0.325   
 -0.325   
 -0.315   
 -0.255   
 -0.140   
 -0.030   
  0.005   
 -0.015   
  0.030   
  0.060   
  0.035   
  0.140   
  0.055   
  0.110   
  0.075   
  0.065   
  0.065   
  0.065   
  0.030   
  0.055   
  0.045   
  0.030   
  0.040   
  0.070   
  0.095   
  0.030   
  0.080   
  0.035   
  0.000   
  0.040   
  0.080   
  0.070   
  0.055   
  0.090   
  0.090   
  0.090   
  0.070   
  0.060   
  0.050   
  0.070   
  0.130   
  0.075   
  0.095   
  0.065   
  0.075   
  0.055   
  0.095   
  0.090   
  0.070   
  0.135   
  0.080   
  0.045   
 -0.040   
 -0.095   
 -0.060   
  0.015   
  0.055   
  0.035   
  0.100   
  0.105   
  0.145   
  0.160   
  0.110   
  0.320   
  0.255   
 -0.620   
 -1.490   
 -0.680   
  0.255   
  0.350   
  0.305   
  0.105   
  0.060   
  0.040   
  0.060   
  0.070   
  0.070   
  0.020   
  0.005   
  0.090   
  0.040   
 -0.005   
  0.055   
  0.000   
 -0.010   
 -0.005   
 -0.015   
 -0.015   
 -0.070   
 -0.060   
 -0.085   
 -0.150   
 -0.180   
 -0.210   
 -0.290   
 -0.325   
 -0.300   
 -0.260   
 -0.185   
 -0.130   
 -0.050   
  0.030   
  0.050   
  0.030   
  0.075   
  0.080   
  0.030   
  0.070   
  0.040   
  0.040   
  0.005   
  0.000   
  0.000   
  0.000   
  0.035   
  0.045   
  0.015   
  0.025   
  0.030   
 -0.005   
  0.035   
 -0.005   
  0.045   
  0.060   
  0.030   
  0.030   
  0.050   
  0.055   
  0.085   
  0.085   
  0.070   
  0.040   
  0.100   
  0.090   
  0.095   
  0.110   
  0.070   
  0.105   
  0.095   
  0.105   
  0.085   
  0.095   
  0.030   
 -0.025   
 -0.035   
 -0.010   
  0.030   
  0.070   
  0.125   
  0.110   
  0.135   
  0.085   
  0.185   
  0.225   
  0.360   
 -0.275   
 -1.325   
 -1.045   
 -0.090   
  0.415   
  0.370   
  0.240   
  0.085   
  0.070   
  0.120   
  0.140   
  0.035   
  0.110   
  0.100   
  0.055   
  0.085   
  0.075   
  0.000   
  0.025   
  0.045   
 -0.005   
  0.010   
 -0.015   
 -0.100   
 -0.065   
 -0.095   
 -0.075   
 -0.195   
 -0.230   
 -0.260   
 -0.260   
 -0.290   
 -0.255   
 -0.205   
 -0.180   
 -0.040   
 -0.050   
  0.025   
  0.060   
  0.050   
  0.075   
  0.085   
  0.040   
  0.085   
  0.055   
  0.080   
  0.035   
  0.055   
  0.015   
  0.110   
  0.070   
  0.025   
  0.040   
  0.060   
  0.100   
  0.040   
  0.075   
  0.060   
  0.085   
  0.075   
  0.060   
  0.075   
  0.105   
  0.065   
  0.115   
  0.100   
  0.100   
  0.080   
  0.115   
  0.100   
  0.055   
 -0.040   
 -0.085   
  0.005   
  0.020   
  0.030   
  0.065   
  0.120   
  0.110   
  0.125   
  0.105   
  0.140   
  0.295   
  0.080   
 -0.855   
 -1.480   
 -0.545   
  0.315   
  0.330   
  0.290   
  0.100   
  0.060   
  0.085   
  0.085   
  0.060   
  0.040   
  0.060   
  0.055   
  0.045   
  0.060   
  0.030   
  0.030   
  0.005   
  0.005   
 -0.015   
 -0.010   
 -0.040   
 -0.070   
 -0.070   
 -0.135   
 -0.165   
 -0.220   
 -0.225   
 -0.285   
 -0.290   
 -0.330   
 -0.240   
 -0.145   
 -0.065   
  0.010   
  0.005   
  0.065   
  0.065   
  0.060   
  0.075   
  0.075   
  0.045   
  0.060   
  0.060   
  0.055   
  0.035   
  0.020   
  0.055   
  0.025   
  0.010   
  0.025   
  0.025   
  0.015   
  0.025   
  0.040   
  0.035   
  0.045   
  0.035   
  0.045   
  0.055   
  0.045   
  0.055   
  0.040   
  0.065   
  0.065   
  0.070   
  0.050   
  0.065   
  0.060   
  0.070   
  0.085   
  0.070   
  0.085   
  0.095   
  0.070   
  0.070   
  0.095   
  0.105   
  0.115   
  0.090   
  0.055   
  0.015   
 -0.040   
 -0.050   
 -0.025   
  0.020   
  0.025   
  0.085   
  0.120   
  0.120   
  0.120   
  0.105   
  0.175   
  0.230   
 -0.355   
 -1.380   
 -0.935   
  0.095   
  0.375   
  0.315   
  0.135   
  0.070   
  0.060   
  0.070   
  0.070   
  0.050   
  0.040   
  0.050   
  0.050   
  0.050   
  0.040   
  0.030   
  0.000   
  0.000   
 -0.010   
 -0.015   
 -0.030   
 -0.055   
 -0.090   
 -0.115   
 -0.165   
 -0.195   
 -0.210   
 -0.280   
 -0.305   
 -0.320   
 -0.305   
 -0.240   
 -0.165   
 -0.095   
 -0.030   
  0.000   
  0.015   
  0.020   
  0.035   
  0.040   
  0.025   
  0.025   
  0.025   
  0.030   
  0.000   
 -0.015   
 -0.020   
 -0.015   
 -0.005   
  0.000   
  0.005   
  0.015   
  0.005   
  0.000   
  0.015   
  0.000   
  0.005   
  0.020   
  0.020   
  0.035   
  0.015   
  0.020   
  0.020   
  0.010   
  0.015   
  0.035   
  0.025   
  0.035   
  0.025   
  0.020   
  0.025   
  0.065   
  0.055   
  0.040   
  0.015   
  0.015   
  0.050   
  0.040   
  0.060   
  0.065   
  0.030   
  0.060   
  0.045   
  0.055   
  0.060   
  0.005   
  0.075   
  0.070   
  0.060   
  0.075   
  0.080   
  0.065   
  0.060   
  0.045   
  0.065   
  0.085   
  0.090   
  0.080   
  0.080   
  0.100   
  0.100   
  0.080   
  0.060   
 -0.030   
 -0.070   
 -0.020   
  0.020   
  0.030   
  0.050   
  0.080   
  0.115   
  0.145   
  0.115   
  0.135   
  0.265   
 -0.090   
 -1.135   
 -1.255   
 -0.210   
  0.390   
  0.315   
  0.205   
  0.080   
  0.095   
  0.070   
  0.050   
  0.070   
  0.060   
  0.080   
  0.060   
  0.060   
  0.035   
  0.040   
  0.015   
  0.045   
  0.005   
 -0.010   
  0.000   
 -0.025   
 -0.070   
 -0.090   
 -0.100   
 -0.165   
 -0.190   
 -0.235   
 -0.280   
 -0.295   
 -0.290   
 -0.285   
 -0.220   
 -0.155   
 -0.045   
 -0.015   
  0.005   
  0.015   
  0.055   
  0.040   
  0.035   
  0.020   
  0.030   
  0.050   
  0.025   
  0.020   
  0.025   
  0.025   
  0.005   
  0.020   
  0.040   
  0.000   
  0.020   
  0.020   
  0.010   
  0.065   
  0.010   
  0.025   
  0.050   
  0.025   
  0.040   
  0.070   
  0.025   
  0.020   
  0.060   
  0.075   
  0.020   
  0.055   
  0.070   
  0.040   
  0.035   
  0.090   
  0.065   
  0.070   
  0.050   
  0.060   
  0.070   
  0.035   
  0.100   
  0.090   
  0.025   
  0.100   
  0.085   
  0.075   
  0.090   
  0.085   
  0.100   
  0.060   
  0.095   
  0.085   
  0.095   
  0.080   
  0.075   
  0.110   
  0.115   
  0.080   
  0.030   
 -0.015   
 -0.030   
 -0.030   
  0.030   
  0.025   
  0.090   
  0.110   
  0.125   
  0.110   
  0.130   
  0.250   
  0.280   
 -0.550   
 -1.605   
 -0.805   
  0.170   
  0.370   
  0.330   
  0.155   
  0.095   
  0.035   
  0.050   
  0.100   
  0.060   
  0.035   
  0.070   
  0.085   
  0.055   
  0.020   
  0.030   
  0.015   
  0.010   
  0.000   
  0.005   
 -0.045   
 -0.070   
 -0.055   
 -0.110   
 -0.130   
 -0.175   
 -0.220   
 -0.240   
 -0.290   
 -0.280   
 -0.290   
 -0.245   
 -0.160   
 -0.085   
 -0.030   
  0.010   
  0.040   
  0.020   
  0.060   
  0.030   
  0.035   
  0.015   
  0.020   
  0.040   
  0.020   
  0.020   
  0.015   
  0.000   
  0.000   
  0.005   
  0.005   
  0.000   
  0.000   
  0.025   
  0.020   
  0.015   
  0.010   
  0.020   
  0.015   
  0.030   
  0.025   
  0.045   
  0.035   
  0.050   
  0.055   
  0.035   
  0.055   
  0.030   
  0.045   
  0.045   
  0.045   
  0.060   
  0.060   
  0.050   
  0.055   
  0.065   
  0.060   
  0.060   
  0.060   
  0.070   
  0.070   
  0.070   
  0.080   
  0.080   
  0.085   
  0.090   
  0.075   
  0.030   
 -0.025   
 -0.065   
 -0.030   
 -0.005   
  0.025   
  0.035   
  0.085   
  0.110   
  0.100   
  0.105   
  0.110   
  0.225   
  0.070   
 -0.810   
 -1.465   
 -0.440   
  0.425   
  0.310   
  0.185   
  0.075   
  0.070   
  0.055   
  0.065   
  0.060   
  0.055   
  0.050   
  0.040   
  0.050   
  0.045   
  0.030   
  0.020   
  0.020   
  0.000   
 -0.010   
 -0.025   
 -0.045   
 -0.075   
 -0.110   
 -0.130   
 -0.170   
 -0.220   
 -0.265   
 -0.315   
 -0.345   
 -0.350   
 -0.305   
 -0.205   
 -0.125   
 -0.065   
 -0.005   
  0.025   
  0.035   
  0.035   
  0.045   
  0.050   
  0.045   
  0.025   
  0.055   
  0.020   
  0.005   
  0.030   
  0.020   
  0.000   
  0.025   
  0.025   
  0.005   
  0.015   
  0.015   
  0.030   
  0.020   
  0.020   
  0.020   
  0.025   
  0.020   
  0.050   
  0.035   
  0.040   
  0.060   
  0.040   
  0.035   
  0.045   
  0.055   
  0.055   
  0.045   
  0.050   
  0.035   
  0.055   
  0.065   
  0.075   
  0.055   
  0.060   
  0.060   
  0.060   
  0.075   
  0.065   
  0.105   
  0.050   
  0.075   
  0.090   
  0.070   
  0.085   
  0.090   
  0.115   
  0.050   
  0.025   
 -0.035   
 -0.080   
 -0.035   
  0.035   
  0.035   
  0.050   
  0.110   
  0.115   
  0.130   
  0.125   
  0.195   
  0.270   
 -0.390   
 -1.475   
 -0.915   
  0.170   
  0.385   
  0.310   
  0.135   
  0.085   
  0.075   
  0.085   
  0.070   
  0.085   
  0.075   
  0.025   
  0.040   
  0.060   
  0.045   
  0.055   
  0.020   
  0.020   
  0.010   
 -0.015   
 -0.025   
 -0.030   
 -0.080   
 -0.085   
 -0.125   
 -0.215   
 -0.190   
 -0.255   
 -0.310   
 -0.340   
 -0.305   
 -0.250   
 -0.165   
 -0.060   
 -0.065   
  0.010   
  0.065   
  0.040   
  0.005   
  0.055   
  0.095   
  0.035   
  0.050   
  0.055   
  0.055   
  0.035   
  0.045   
  0.025   
  0.035   
  0.045   
  0.060   
  0.040   
  0.035   
  0.050   
  0.050   
  0.060   
  0.045   
  0.060   
  0.050   
  0.065   
  0.065   
  0.045   
  0.055   
  0.060   
  0.070   
  0.060   
  0.050   
  0.080   
  0.095   
  0.075   
  0.070   
  0.090   
  0.065   
  0.070   
  0.080   
  0.090   
  0.105   
  0.080   
  0.080   
  0.100   
  0.105   
  0.110   
  0.065   
  0.010   
 -0.035   
 -0.050   
 -0.035   
  0.050   
  0.040   
  0.080   
  0.110   
  0.120   
  0.110   
  0.115   
  0.230   
  0.250   
 -0.505   
 -1.570   
 -0.790   
  0.245   
  0.375   
  0.305   
  0.105   
  0.080   
  0.060   
  0.065   
  0.055   
  0.045   
  0.040   
  0.035   
  0.040   
  0.045   
  0.010   
  0.005   
  0.010   
  0.000   
 -0.025   
 -0.030   
 -0.050   
 -0.080   
 -0.105   
 -0.125   
 -0.175   
 -0.215   
 -0.235   
 -0.295   
 -0.320   
 -0.335   
 -0.310   
 -0.245   
 -0.155   
 -0.075   
 -0.020   
  0.010   
  0.025   
  0.025   
  0.035   
  0.040   
  0.035   
  0.025   
  0.025   
  0.030   
  0.010   
  0.010   
  0.010   
  0.005   
  0.005   
  0.010   
  0.015   
  0.015   
  0.005   
  0.015   
  0.030   
  0.020   
  0.025   
  0.025   
  0.035   
  0.035   
  0.025   
  0.030   
  0.035   
  0.035   
  0.035   
  0.040   
  0.040   
  0.035   
  0.045   
  0.050   
  0.040   
  0.045   
  0.060   
  0.060   
  0.055   
  0.065   
  0.060   
  0.060   
  0.060   
  0.070   
  0.080   
  0.070   
  0.065   
  0.075   
  0.090   
  0.065   
  0.080   
  0.085   
  0.090   
  0.085   
  0.050   
 -0.015   
 -0.070   
 -0.070   
 -0.015   
  0.025   
  0.030   
  0.060   
  0.110   
  0.125   
  0.125   
  0.110   
  0.200   
  0.185   
 -0.605   
 -1.485   
 -0.655   
  0.410   
  0.345   
  0.175   
  0.080   
  0.065   
  0.070   
  0.060   
  0.065   
  0.070   
  0.060   
  0.050   
  0.055   
  0.045   
  0.035   
  0.030   
  0.015   
  0.000   
 -0.015   
 -0.020   
 -0.040   
 -0.055   
 -0.095   
 -0.125   
 -0.165   
 -0.205   
 -0.250   
 -0.290   
 -0.320   
 -0.345   
 -0.330   
 -0.235   
 -0.150   
 -0.105   
 -0.010   
  0.005   
  0.010   
  0.030   
  0.045   
  0.040   
  0.005   
  0.030   
  0.045   
  0.030   
  0.030   
  0.005   
  0.010   
  0.035   
  0.000   
  0.030   
  0.015   
  0.015   
  0.030   
  0.020   
  0.000   
  0.020   
  0.065   
  0.015   
  0.030   
  0.030   
  0.035   
  0.005   
  0.035   
  0.060   
  0.050   
  0.020   
  0.035   
  0.035   
  0.040   
  0.055   
  0.060   
  0.065   
  0.050   
  0.025   
  0.060   
  0.070   
  0.035   
  0.055   
  0.095   
  0.080   
  0.040   
  0.085   
  0.075   
  0.100   
  0.075   
  0.080   
  0.090   
  0.095   
  0.105   
  0.085   
  0.100   
  0.075   
  0.110   
  0.090   
  0.055   
 -0.030   
 -0.055   
 -0.035   
  0.000   
  0.020   
  0.040   
  0.095   
  0.120   
  0.100   
  0.125   
  0.135   
  0.260   
 -0.070   
 -1.090   
 -1.210   
 -0.260   
  0.395   
  0.315   
  0.180   
  0.070   
  0.060   
  0.065   
  0.050   
  0.050   
  0.040   
  0.050   
  0.030   
  0.045   
  0.025   
  0.015   
  0.015   
  0.010   
 -0.010   
 -0.015   
 -0.035   
 -0.050   
 -0.065   
 -0.105   
 -0.130   
 -0.165   
 -0.205   
 -0.245   
 -0.275   
 -0.305   
 -0.305   
 -0.265   
 -0.205   
 -0.115   
 -0.060   
 -0.010   
  0.020   
  0.025   
  0.015   
  0.025   
  0.035   
  0.030   
  0.015   
  0.020   
  0.005   
  0.010   
  0.010   
  0.000   
  0.000   
  0.000   
  0.005   
  0.000   
  0.000   
  0.015   
  0.005   
  0.010   
  0.015   
  0.015   
  0.025   
  0.025   
  0.015   
  0.025   
  0.035   
  0.035   
  0.040   
  0.030   
  0.045   
  0.040   
  0.040   
  0.045   
  0.050   
  0.045   
  0.050   
  0.050   
  0.060   
  0.055   
  0.045   
  0.060   
  0.060   
  0.055   
  0.065   
  0.060   
  0.065   
  0.070   
  0.065   
  0.065   
  0.065   
  0.075   
  0.080   
  0.065   
  0.070   
  0.075   
  0.075   
  0.080   
  0.085   
  0.055   
  0.010   
 -0.050   
 -0.070   
 -0.020   
  0.020   
  0.035   
  0.060   
  0.115   
  0.110   
  0.105   
  0.115   
  0.190   
  0.210   
 -0.490   
 -1.460   
 -0.735   
  0.350   
  0.355   
  0.220   
  0.085   
  0.075   
  0.085   
  0.070   
  0.060   
  0.065   
  0.070   
  0.065   
  0.055   
  0.050   
  0.050   
  0.050   
  0.030   
  0.005   
  0.010   
  0.000   
 -0.015   
 -0.060   
 -0.070   
 -0.110   
 -0.150   
 -0.175   
 -0.235   
 -0.280   
 -0.310   
 -0.335   
 -0.315   
 -0.245   
 -0.175   
 -0.100   
 -0.030   
  0.000   
  0.010   
  0.050   
  0.035   
  0.045   
  0.040   
  0.045   
  0.030   
  0.040   
  0.040   
  0.030   
  0.020   
  0.010   
  0.035   
  0.040   
  0.030   
  0.030   
  0.015   
  0.035   
  0.045   
  0.020   
  0.035   
  0.020   
  0.010   
  0.040   
  0.050   
  0.030   
  0.040   
  0.050   
  0.055   
  0.030   
  0.035   
  0.040   
  0.045   
  0.050   
  0.040   
  0.055   
  0.055   
  0.060   
  0.050   
  0.070   
  0.050   
  0.050   
  0.060   
  0.060   
  0.060   
  0.060   
  0.085   
  0.085   
  0.080   
  0.060   
  0.065   
  0.090   
  0.080   
  0.085   
  0.075   
  0.065   
  0.110   
  0.100   
  0.050   
 -0.020   
 -0.040   
 -0.045   
  0.015   
  0.030   
  0.045   
  0.085   
  0.120   
  0.115   
  0.105   
  0.110   
  0.295   
  0.120   
 -0.865   
 -1.355   
 -0.425   
  0.355   
  0.325   
  0.255   
  0.090   
  0.100   
  0.080   
  0.060   
  0.070   
  0.050   
  0.055   
  0.055   
  0.055   
  0.050   
  0.040   
  0.020   
  0.005   
  0.030   
  0.010   
 -0.020   
 -0.040   
 -0.075   
 -0.075   
 -0.095   
 -0.150   
 -0.190   
 -0.230   
 -0.280   
 -0.305   
 -0.305   
 -0.275   
 -0.205   
 -0.125   
 -0.075   
 -0.020   
  0.005   
  0.025   
  0.030   
  0.045   
  0.025   
  0.015   
  0.045   
  0.025   
  0.010   
  0.005   
  0.000   
  0.000   
  0.000   
  0.010   
  0.000   
 -0.005   
  0.010   
  0.005   
  0.015   
  0.010   
  0.000   
  0.020   
  0.030   
  0.015   
  0.015   
  0.020   
  0.025   
  0.025   
  0.030   
  0.035   
  0.035   
  0.030   
  0.030   
  0.025   
  0.040   
  0.050   
  0.050   
  0.045   
  0.045   
  0.050   
  0.050   
  0.055   
  0.050   
  0.070   
  0.060   
  0.055   
  0.055   
  0.060   
  0.050   
  0.055   
  0.070   
  0.070   
  0.075   
  0.070   
  0.075   
  0.090   
  0.060   
  0.005   
 -0.060   
 -0.075   
 -0.020   
  0.015   
  0.025   
  0.055   
  0.100   
  0.095   
  0.115   
  0.110   
  0.205   
  0.205   
 -0.565   
 -1.530   
 -0.725   
  0.355   
  0.340   
  0.220   
  0.070   
  0.070   
  0.065   
  0.060   
  0.055   
  0.050   
  0.040   
  0.045   
  0.055   
  0.055   
  0.040   
  0.035   
  0.025   
  0.000   
  0.000   
 -0.020   
 -0.040   
 -0.065   
 -0.090   
 -0.110   
 -0.140   
 -0.190   
 -0.250   
 -0.295   
 -0.325   
 -0.340   
 -0.315   
 -0.245   
 -0.160   
 -0.080   
 -0.020   
 -0.005   
  0.015   
  0.035   
  0.050   
  0.065   
  0.070   
  0.070   
  0.055   
  0.035   
  0.055   
  0.020   
  0.040   
  0.015   
  0.010   
  0.010   
  0.015   
  0.000   
  0.020   
  0.030   
  0.035   
  0.040   
  0.015   
  0.050   
  0.060   
  0.050   
  0.070   
  0.030   
  0.060   
  0.080   
  0.075   
  0.085   
  0.040   
  0.060   
  0.055   
  0.065   
  0.055   
  0.065   
  0.085   
  0.065   
  0.070   
  0.075   
  0.035   
  0.050   
  0.050   
  0.075   
  0.090   
  0.065   
  0.035   
  0.045   
  0.030   
  0.055   
  0.065   
  0.015   
  0.020   
  0.050   
  0.045   
  0.060   
  0.060   
  0.095   
  0.080   
 -0.005   
 -0.075   
 -0.070   
 -0.030   
  0.000   
  0.025   
  0.060   
  0.105   
  0.090   
  0.120   
  0.110   
  0.225   
  0.280   
 -0.540   
 -1.505   
 -0.705   
  0.335   
  0.375   
  0.280   
  0.130   
  0.080   
  0.065   
  0.095   
  0.045   
  0.040   
  0.070   
  0.060   
  0.040   
  0.035   
  0.025   
  0.020   
  0.030   
  0.010   
  0.030   
  0.000   
 -0.015   
 -0.035   
 -0.065   
 -0.095   
 -0.200   
 -0.230   
 -0.235   
 -0.285   
 -0.265   
 -0.275   
 -0.230   
 -0.200   
 -0.140   
 -0.040   
 -0.015   
  0.045   
  0.005   
  0.040   
  0.040   
  0.030   
  0.050   
  0.040   
  0.055   
  0.025   
  0.025   
  0.015   
  0.035   
  0.020   
  0.035   
  0.045   
  0.040   
  0.045   
  0.035   
  0.035   
  0.015   
  0.015   
  0.010   
  0.030   
  0.030   
  0.015   
  0.045   
  0.030   
  0.025   
  0.045   
  0.070   
  0.055   
  0.030   
  0.055   
  0.040   
  0.050   
  0.060   
  0.055   
  0.090   
  0.060   
  0.080   
  0.060   
  0.075   
  0.075   
  0.075   
  0.100   
  0.095   
  0.070   
  0.075   
  0.095   
  0.095   
  0.095   
  0.095   
  0.035   
 -0.055   
 -0.110   
 -0.085   
 -0.030   
  0.025   
  0.070   
  0.085   
  0.115   
  0.110   
  0.135   
  0.150   
  0.220   
  0.240   
 -0.545   
 -1.445   
 -0.655   
  0.425   
  0.380   
  0.225   
  0.120   
  0.085   
  0.100   
  0.060   
  0.045   
  0.070   
  0.055   
  0.050   
  0.040   
  0.045   
  0.035   
  0.055   
  0.025   
 -0.010   
 -0.010   
 -0.010   
 -0.030   
 -0.065   
 -0.090   
 -0.145   
 -0.175   
 -0.200   
 -0.230   
 -0.250   
 -0.300   
 -0.325   
 -0.255   
 -0.200   
 -0.155   
 -0.090   
 -0.040   
  0.000   
  0.045   
  0.030   
  0.040   
  0.050   
  0.045   
  0.030   
  0.020   
  0.035   
  0.035   
  0.005   
  0.040   
  0.090   
  0.050   
  0.010   
  0.030   
  0.005   
  0.035   
  0.040   
  0.035   
  0.025   
  0.015   
  0.025   
  0.055   
  0.135   
  0.025   
 -0.010   
  0.000   
  0.050   
  0.040   
  0.075   
  0.075   
  0.055   
  0.035   
  0.050   
  0.075   
  0.060   
  0.220   
  0.075   
  0.005   
  0.035   
  0.055   
  0.070   
  0.070   
  0.065   
  0.075   
  0.095   
  0.125   
  0.080   
  0.085   
  0.030   
  0.010   
 -0.085   
 -0.065   
  0.290   
  0.065   
 -0.115   
 -0.040   
  0.060   
  0.120   
  0.120   
  0.110   
  0.235   
  0.240   
 -0.500   
 -1.505   
 -0.770   
  0.230   
  0.405   
  0.465   
  0.025   
 -0.010   
  0.010   
  0.055   
  0.060   
  0.050   
  0.050   
  0.040   
  0.045   
  0.035   
  0.035   
  0.025   
  0.010   
  0.005   
  0.005   
 -0.025   
 -0.040   
 -0.065   
 -0.105   
 -0.155   
 -0.190   
 -0.245   
 -0.265   
 -0.270   
 -0.290   
 -0.285   
 -0.285   
 -0.230   
 -0.140   
 -0.080   
 -0.025   
  0.025   
  0.070   
  0.060   
  0.065   
  0.045   
  0.055   
  0.045   
  0.040   
  0.050   
  0.030   
  0.020   
  0.020   
  0.045   
  0.035   
  0.030   
  0.050   
  0.040   
  0.055   
  0.065   
  0.060   
  0.040   
  0.055   
  0.050   
  0.025   
  0.060   
  0.065   
  0.050   
  0.075   
  0.065   
  0.055   
  0.090   
  0.085   
  0.060   
  0.080   
  0.075   
  0.060   
  0.070   
  0.085   
  0.100   
  0.050   
  0.055   
  0.100   
  0.100   
  0.070   
  0.100   
  0.080   
  0.090   
  0.090   
  0.020   
 -0.065   
 -0.040   
 -0.045   
  0.040   
  0.020   
  0.045   
  0.105   
  0.130   
  0.120   
  0.090   
  0.200   
  0.305   
 -0.300   
 -1.445   
 -1.005   
  0.020   
  0.380   
  0.340   
  0.165   
  0.100   
  0.060   
  0.065   
  0.075   
  0.070   
  0.050   
  0.030   
  0.055   
  0.060   
  0.045   
  0.060   
  0.020   
  0.000   
  0.010   
 -0.005   
 -0.010   
 -0.040   
 -0.075   
 -0.090   
 -0.120   
 -0.175   
 -0.185   
 -0.220   
 -0.245   
 -0.305   
 -0.285   
 -0.225   
 -0.145   
 -0.090   
 -0.005   
  0.035   
  0.015   
  0.050   
  0.075   
  0.095   
  0.070   
  0.050   
  0.060   
  0.040   
  0.035   
  0.050   
  0.065   
  0.045   
  0.060   
  0.010   
  0.065   
  0.115   
  0.035   
  0.080   
  0.035   
  0.055   
  0.070   
  0.065   
  0.075   
  0.085   
  0.050   
  0.070   
  0.105   
  0.070   
  0.055   
  0.125   
  0.090   
  0.070   
  0.125   
  0.100   
  0.060   
  0.100   
  0.115   
  0.115   
  0.135   
  0.125   
  0.070   
  0.015   
 -0.040   
 -0.010   
 -0.035   
  0.035   
  0.065   
  0.080   
  0.135   
  0.125   
  0.115   
  0.115   
  0.275   
  0.235   
 -0.635   
 -1.605   
 -0.680   
  0.255   
  0.345   
  0.280   
  0.130   
  0.080   
  0.070   
  0.080   
  0.055   
  0.055   
  0.025   
  0.050   
  0.030   
  0.045   
  0.015   
  0.015   
  0.020   
  0.000   
  0.000   
 -0.050   
 -0.045   
 -0.050   
 -0.085   
 -0.140   
 -0.170   
 -0.185   
 -0.220   
 -0.275   
 -0.310   
 -0.300   
 -0.275   
 -0.205   
 -0.120   
 -0.060   
 -0.005   
  0.005   
  0.040   
  0.050   
  0.030   
  0.040   
  0.035   
  0.055   
  0.050   
  0.030   
  0.020   
  0.035   
  0.030   
  0.025   
  0.015   
  0.010   
  0.030   
  0.025   
  0.000   
  0.025   
  0.035   
  0.015   
  0.030   
  0.035   
  0.035   
  0.055   
  0.055   
  0.045   
  0.055   
  0.050   
  0.035   
  0.040   
  0.055   
  0.055   
  0.055   
  0.060   
  0.060   
  0.060   
  0.065   
  0.070   
  0.065   
  0.070   
  0.065   
  0.060   
  0.070   
  0.065   
  0.060   
  0.065   
  0.070   
  0.095   
  0.065   
  0.030   
 -0.025   
 -0.075   
 -0.040   
 -0.010   
  0.030   
  0.045   
  0.080   
  0.105   
  0.100   
  0.100   
  0.115   
  0.220   
  0.000   
 -0.910   
 -1.345   
 -0.355   
  0.425   
  0.320   
  0.155   
  0.065   
  0.070   
  0.065   
  0.065   
  0.065   
  0.060   
  0.055   
  0.045   
  0.045   
  0.045   
  0.035   
  0.030   
  0.020   
  0.005   
 -0.010   
 -0.020   
 -0.045   
 -0.070   
 -0.100   
 -0.130   
 -0.170   
 -0.200   
 -0.245   
 -0.290   
 -0.330   
 -0.325   
 -0.280   
 -0.210   
 -0.120   
 -0.050   
 -0.010   
  0.015   
  0.040   
  0.045   
  0.045   
  0.035   
  0.025   
  0.025   
  0.005   
  0.015   
  0.015   
  0.005   
  0.015   
  0.010   
  0.005   
  0.005   
  0.000   
  0.005   
  0.020   
  0.015   
  0.015   
  0.010   
  0.035   
  0.020   
  0.005   
  0.035   
  0.005   
  0.025   
  0.030   
  0.020   
  0.050   
  0.050   
  0.025   
  0.030   
  0.035   
  0.025   
  0.045   
  0.040   
  0.045   
  0.035   
  0.055   
  0.065   
  0.040   
  0.045   
  0.065   
  0.060   
  0.045   
  0.065   
  0.065   
  0.065   
  0.085   
  0.060   
  0.070   
  0.060   
  0.075   
  0.090   
  0.100   
  0.075   
  0.080   
